# Exported using Kenney Suite 1.2 

mtllib bridge_straight.mtl 

g bridge_straight

v -2.384825 0.3379223 2.25 
v -1.821587 0.4486302 2.25 
v -2.384825 0.3379223 -2.25 
v -1.821587 0.4486302 -2.25 
v -2.41734 0.3315311 -2.25 
v -2.41734 0.3315311 2.25 
v -4.14752 0.8 2.10792 
v -4.14752 0.8 -2.10792 
v 4.14752 0.8 2.10792 
v 4.14752 0.8 -2.10792 
v -3.577237 9.315701E-13 2.25 
v -3.003345 0.1817864 2.25 
v -3.577237 9.431324E-13 -2.25 
v -3.003345 0.1817864 -2.25 
v -1.218488 0.5326113 2.25 
v -1.218488 0.5326113 -2.25 
v 0 0.6 2.25 
v 0.6104755 0.5831358 2.25 
v 0 0.6 -2.25 
v 0.6104755 0.5831358 -2.25 
v 2.384825 0.3379223 2.25 
v 2.41734 0.3315311 2.25 
v 2.384825 0.3379223 -2.25 
v 2.41734 0.3315311 -2.25 
v 1.821587 0.4486302 -2.25 
v 1.821587 0.4486302 2.25 
v -4.431679 7.545238E-12 -2.39208 
v -4.431679 7.545238E-12 -2.10792 
v -4.14752 7.545238E-12 -2.39208 
v -4.431679 7.545238E-12 2.10792 
v -4.431679 7.545238E-12 2.39208 
v -4.14752 7.545238E-12 2.39208 
v -4.14752 0 -2.25 
v -4.14752 0 2.25 
v -4.747519 7.545238E-12 2.10792 
v -4.747519 7.545238E-12 -2.10792 
v -0.6104755 0.5831358 2.25 
v -0.6104755 0.5831358 -2.25 
v 3.003345 0.1817864 2.25 
v 3.577237 6.590521E-12 2.25 
v 3.003345 0.1817864 -2.25 
v 3.577237 6.602083E-12 -2.25 
v 4.14752 7.545238E-12 2.25 
v 4.14752 0.8 2.25 
v 1.218488 0.5326113 2.25 
v -4.14752 0.8 2.25 
v 1.218488 0.5326113 -2.25 
v 4.431679 7.545238E-12 -2.10792 
v 4.431679 7.545238E-12 2.10792 
v 4.747519 7.545238E-12 -2.10792 
v 4.747519 7.545238E-12 2.10792 
v 4.431679 7.545238E-12 2.39208 
v 4.431679 7.545238E-12 -2.39208 
v 4.14752 7.545238E-12 2.39208 
v 4.14752 7.545238E-12 -2.25 
v 4.14752 7.545238E-12 -2.39208 
v -4.14752 0.8 -2.25 
v 4.14752 0.8 -2.25 
v -4.14752 1.4763 -2.39208 
v -4.14752 1.3 -2.39208 
v -4.14752 1.4763 -2.530792 
v -4.14752 1.3 -2.530792 
v -4.14752 1.3 -2.10792 
v -4.14752 1.3 -1.969209 
v 4.14752 1.3 -2.10792 
v 4.14752 1.3 -1.969209 
v 4.14752 1.4763 -1.969209 
v -4.14752 1.4763 -1.969209 
v 4.14752 1.3 -2.530792 
v 4.14752 1.4763 -2.530792 
v 4.14752 1.4763 -2.10792 
v -4.14752 0.94208 -2.39208 
v 4.14752 0.94208 -2.39208 
v 4.14752 1.3 -2.39208 
v -4.14752 1.4763 -2.10792 
v 4.14752 1.4763 -2.39208 
v -4.14752 0.94208 2.39208 
v -4.14752 1.3 2.39208 
v 4.14752 0.94208 2.39208 
v 4.14752 1.3 2.39208 
v -4.14752 1.3 2.10792 
v 4.14752 1.3 2.10792 
v -4.14752 1.3 1.969209 
v 4.14752 1.3 1.969209 
v -4.14752 1.3 2.530792 
v 4.14752 1.3 2.530792 
v 4.14752 1.4763 2.530792 
v 4.14752 1.4763 2.39208 
v -4.14752 1.4763 1.969209 
v 4.14752 1.4763 1.969209 
v -4.14752 1.4763 2.10792 
v -4.14752 1.4763 2.530792 
v -4.431679 0.5 2.10792 
v -4.431679 0.5 -2.10792 
v -4.14752 0.5 2.10792 
v -4.14752 0.5 -2.10792 
v -4.747519 0.2645716 2.10792 
v -4.747519 0.2645716 -2.10792 
v -4.431679 0.2645716 2.10792 
v -4.431679 0.2645716 -2.10792 
v 4.14752 0.5 2.10792 
v 4.14752 0.5 -2.10792 
v 4.14752 1.4763 2.10792 
v -4.14752 1.4763 2.39208 
v 4.431679 0.2645716 -2.10792 
v 4.747519 0.2645716 -2.10792 
v 4.431679 0.5 2.10792 
v 4.431679 0.5 -2.10792 
v 4.747519 0.2645716 2.10792 
v 4.431679 0.2645716 2.10792 
v 4.431679 1.6763 -2.10792 
v 4.14752 1.6763 -2.10792 
v 4.431679 1.6763 -2.39208 
v 4.14752 1.6763 -2.39208 
v 4.431679 1.6763 2.39208 
v 4.431679 1.6763 2.10792 
v 4.14752 1.6763 2.39208 
v 4.14752 1.6763 2.10792 
v -4.431679 1.6763 2.10792 
v -4.14752 1.6763 2.10792 
v -4.431679 1.6763 2.39208 
v -4.14752 1.6763 2.39208 
v -4.431679 1.6763 -2.39208 
v -4.14752 1.6763 -2.39208 
v -4.431679 1.6763 -2.10792 
v -4.14752 1.6763 -2.10792 

vn -0.1928661 -0.9812251 0
vn -0.1654565 -0.9862171 0
vn -0.2203096 -0.97543 0
vn 0 1 0
vn -0.1527802 -0.9882601 0
vn -0.2748865 -0.9614767 0
vn -0.1104079 -0.9938864 0
vn 0 -1 0
vn 0.05523435 -0.9984733 0
vn 0.1928661 -0.9812251 0
vn 0.2203096 -0.97543 0
vn 0.1654565 -0.9862171 0
vn -0.05523435 -0.9984733 0
vn 0.2748865 -0.9614767 0
vn 0.1527802 -0.9882601 0
vn 0 0 -1
vn 0.1104079 -0.9938864 0
vn 0 0 1
vn 1 0 0
vn -1 0 0
vn 0 -0.7071068 0.7071068
vn 0 -0.7071068 -0.7071068

vt -8.858268 -8.956203
vt -8.858268 -6.696305
vt 8.858268 -8.956203
vt 8.858268 -6.696305
vt 8.858268 -9.086667
vt -8.858268 -9.086667
vt -16.32882 -8.298898
vt -16.32882 8.298898
vt 16.32882 -8.298898
vt 16.32882 8.298898
vt -8.858268 -13.42613
vt -8.858268 -11.05607
vt 8.858268 -13.42613
vt 8.858268 -11.05607
vt -8.858268 -6.859468
vt -8.858268 -4.462152
vt 8.858268 -6.859468
vt 8.858268 -4.462152
vt 8.858268 0.06523028
vt 8.858268 -2.339131
vt -8.858268 0.06523028
vt -8.858268 -2.339131
vt 17.44756 9.417638
vt 17.44756 8.298898
vt 16.32882 9.417638
vt 17.44756 -8.298898
vt 17.44756 -9.417638
vt 16.32882 -9.417638
vt 16.32882 8.858268
vt 16.32882 -8.858268
vt 14.08361 8.858268
vt 14.08361 -8.858268
vt 18.69102 -8.298898
vt 18.69102 8.298898
vt -8.858268 -4.60707
vt -8.858268 -2.205068
vt 8.858268 -4.60707
vt 8.858268 -2.205068
vt -8.858268 -11.27888
vt -8.858268 -8.897644
vt 8.858268 -11.27888
vt 8.858268 -8.897644
vt 14.08361 2.601277E-11
vt 11.82419 0.7156947
vt 16.32882 2.97715E-11
vt 16.32882 3.149606
vt 9.517086 1.305241
vt 9.389071 1.330403
vt 7.171603 1.766261
vt 4.797197 2.096895
vt 2.403445 2.29581
vt -2.218897E-12 2.362205
vt -16.32882 3.149606
vt -2.403445 2.29581
vt -4.797197 2.096895
vt -7.171603 1.766261
vt -9.389071 1.330403
vt -9.517086 1.305241
vt -11.82419 0.7156947
vt -14.08361 3.733437E-12
vt -16.32882 6.583812E-14
vt -17.44756 8.298898
vt -17.44756 -8.298898
vt -18.69102 8.298898
vt -18.69102 -8.298898
vt -17.44756 -9.417638
vt -17.44756 9.417638
vt -16.32882 -9.417638
vt -16.32882 -8.858268
vt -16.32882 8.858268
vt -16.32882 9.417638
vt -14.08361 8.858268
vt -14.08361 -8.858268
vt 16.32882 -5.310015E-14
vt 14.08361 3.66002E-12
vt 1.987516E-12 2.362205
vt -16.32882 2.965256E-11
vt -14.08361 2.593935E-11
vt -9.417638 5.812205
vt -9.417638 5.11811
vt -9.963746 5.812205
vt -9.963746 5.11811
vt 16.32882 7.75279
vt -16.32882 7.75279
vt 16.32882 5.11811
vt -16.32882 5.11811
vt 16.32882 5.812205
vt -16.32882 5.812205
vt 7.75279 5.812205
vt 8.298898 5.812205
vt 7.75279 5.11811
vt 8.298898 5.11811
vt 16.32882 9.281918
vt 16.32882 8.490849
vt -16.32882 9.281918
vt -16.32882 8.490849
vt 16.32882 9.963746
vt -16.32882 9.963746
vt -16.32882 3.708976
vt 16.32882 3.708976
vt 16.32882 -7.75279
vt -16.32882 -7.75279
vt 16.32882 -9.963746
vt -16.32882 -9.963746
vt 8.298898 1.968504
vt 8.298898 1.04162
vt -8.298898 1.968504
vt -8.298898 1.04162
vt 8.298898 2.970566E-11
vt -8.298898 2.970566E-11
vt -17.44756 2.970566E-11
vt -18.69102 2.970566E-11
vt -17.44756 1.04162
vt -18.69102 1.04162
vt -8.298898 3.149606
vt 8.298898 3.149606
vt 18.69102 2.970566E-11
vt 17.44756 2.970566E-11
vt 18.69102 1.04162
vt 17.44756 1.04162
vt -8.298898 5.812205
vt -7.75279 5.812205
vt -8.298898 5.11811
vt -7.75279 5.11811
vt 9.417638 5.812205
vt 9.963746 5.812205
vt 9.417638 5.11811
vt 9.963746 5.11811
vt -17.44756 2.947922E-11
vt -18.69102 2.947922E-11
vt 18.69102 2.993211E-11
vt 17.44756 2.993211E-11
vt 17.44756 1.968504
vt 16.32882 1.968504
vt 17.44756 6.599607
vt 16.32882 6.599607
vt -16.32882 2.961477E-11
vt -17.44756 2.961477E-11
vt -17.44756 6.599607
vt -16.32882 6.599607
vt -8.298898 6.599607
vt -9.417638 6.599607
vt -9.417638 3.209064E-11
vt -8.298898 3.209064E-11
vt -9.417638 4.290585E-11
vt -9.417638 3.708976
vt -8.858268 1.320019E-11
vt -8.858268 3.149606
vt 9.417638 2.970566E-11
vt 8.298898 6.599607
vt 9.417638 6.599607
vt 17.44756 2.931462E-11
vt 16.32882 2.931462E-11
vt 9.417638 7.34513E-12
vt 8.858268 7.34513E-12
vt 9.417638 3.708976
vt 8.858268 3.149606
vt 8.858268 3.14946E-12
vt 9.417638 3.285512E-11
vt -16.32882 2.205751E-11
vt -17.44756 2.205751E-11
vt 17.44756 3.402337E-11
vt 16.32882 3.402337E-11
vt -9.417638 2.970566E-11
vt -8.858268 1.739586E-11
vt -9.417638 1.739586E-11
vt -16.32882 1.968504
vt -17.44756 1.968504

usemtl natureKit-stone
# usermap natureKit-stone

f 2/2/2 1/1/1 3/3/1
f 3/3/1 4/4/2 2/2/2
f 5/5/3 3/3/1 1/1/1
f 1/1/1 6/6/3 5/5/3
f 8/8/4 7/7/4 9/9/4
f 9/9/4 10/10/4 8/8/4
f 12/12/6 11/11/5 13/13/5
f 13/13/5 14/14/6 12/12/6
f 15/16/7 2/15/2 4/17/2
f 4/17/2 16/18/7 15/16/7
f 18/20/9 17/19/8 19/21/8
f 19/21/8 20/22/9 18/20/9
f 22/5/11 21/3/10 23/1/10
f 23/1/10 24/6/11 22/5/11
f 25/2/12 23/1/10 21/3/10
f 21/3/10 26/4/12 25/2/12
f 28/24/8 27/23/8 29/25/8
f 29/25/8 30/26/8 28/24/8
f 29/25/8 31/27/8 30/26/8
f 29/25/8 32/28/8 31/27/8
f 29/25/8 33/29/8 32/28/8
f 33/29/8 34/30/8 32/28/8
f 33/29/8 13/31/5 34/30/8
f 13/31/5 11/32/5 34/30/8
f 28/24/8 30/26/8 35/33/8
f 35/33/8 36/34/8 28/24/8
f 17/21/8 37/22/13 38/20/13
f 38/20/13 19/19/8 17/21/8
f 40/13/15 39/14/14 41/12/14
f 41/12/14 42/11/15 40/13/15
f 37/36/13 15/35/7 16/37/7
f 16/37/7 38/38/13 37/36/13
f 6/40/3 12/39/6 14/41/6
f 14/41/6 5/42/3 6/40/3
f 39/44/16 40/43/16 43/45/16
f 43/45/16 44/46/16 39/44/16
f 44/46/16 22/47/16 39/44/16
f 44/46/16 21/48/16 22/47/16
f 44/46/16 26/49/16 21/48/16
f 44/46/16 45/50/16 26/49/16
f 44/46/16 18/51/16 45/50/16
f 44/46/16 17/52/16 18/51/16
f 44/46/16 46/53/16 17/52/16
f 37/54/16 17/52/16 46/53/16
f 15/55/16 37/54/16 46/53/16
f 2/56/16 15/55/16 46/53/16
f 1/57/16 2/56/16 46/53/16
f 6/58/16 1/57/16 46/53/16
f 12/59/16 6/58/16 46/53/16
f 11/60/16 12/59/16 46/53/16
f 46/53/16 34/61/16 11/60/16
f 26/17/12 45/18/17 47/16/17
f 47/16/17 25/15/12 26/17/12
f 49/63/8 48/62/8 50/64/8
f 50/64/8 51/65/8 49/63/8
f 48/62/8 49/63/8 52/66/8
f 53/67/8 48/62/8 52/66/8
f 53/67/8 52/66/8 54/68/8
f 53/67/8 54/68/8 43/69/8
f 53/67/8 43/69/8 55/70/8
f 55/70/8 56/71/8 53/67/8
f 42/72/15 55/70/8 43/69/8
f 43/69/8 40/73/15 42/72/15
f 13/75/18 33/74/18 57/46/18
f 57/46/18 14/44/18 13/75/18
f 57/46/18 5/47/18 14/44/18
f 57/46/18 3/48/18 5/47/18
f 57/46/18 4/49/18 3/48/18
f 57/46/18 16/50/18 4/49/18
f 57/46/18 38/51/18 16/50/18
f 57/46/18 19/76/18 38/51/18
f 19/76/18 57/46/18 58/53/18
f 20/54/18 19/76/18 58/53/18
f 47/55/18 20/54/18 58/53/18
f 25/56/18 47/55/18 58/53/18
f 23/57/18 25/56/18 58/53/18
f 24/58/18 23/57/18 58/53/18
f 41/59/18 24/58/18 58/53/18
f 41/59/18 58/53/18 55/77/18
f 55/77/18 42/78/18 41/59/18
f 45/37/17 18/38/9 20/36/9
f 20/36/9 47/35/17 45/37/17
f 39/41/14 22/42/11 24/40/11
f 24/40/11 41/39/14 39/41/14
f 60/80/19 59/79/19 61/81/19
f 61/81/19 62/82/19 60/80/19
f 64/83/8 63/10/8 65/8/8
f 65/8/8 66/84/8 64/83/8
f 8/53/16 10/46/16 65/85/16
f 65/85/16 63/86/16 8/53/16
f 64/86/16 66/85/16 67/87/16
f 67/87/16 68/88/16 64/86/16
f 70/88/18 69/86/18 62/85/18
f 62/85/18 61/87/18 70/88/18
f 71/90/20 67/89/20 66/91/20
f 66/91/20 65/92/20 71/90/20
f 57/94/21 72/93/21 73/95/21
f 73/95/21 58/96/21 57/94/21
f 60/25/8 62/97/8 69/98/8
f 69/98/8 74/71/8 60/25/8
f 70/97/4 61/98/4 59/71/4
f 59/71/4 75/8/4 70/97/4
f 75/8/4 68/84/4 70/97/4
f 68/84/4 67/83/4 70/97/4
f 67/83/4 76/25/4 70/97/4
f 67/83/4 71/10/4 76/25/4
f 74/86/18 73/99/18 72/100/18
f 72/100/18 60/85/18 74/86/18
f 78/86/16 77/99/16 79/100/16
f 79/100/16 80/85/16 78/86/16
f 9/53/18 7/46/18 81/85/18
f 81/85/18 82/86/18 9/53/18
f 81/9/8 83/101/8 84/102/8
f 84/102/8 82/7/8 81/9/8
f 86/104/8 85/103/8 78/28/8
f 78/28/8 80/68/8 86/104/8
f 87/81/20 86/82/20 80/80/20
f 80/80/20 88/79/20 87/81/20
f 84/86/18 83/85/18 89/87/18
f 89/87/18 90/88/18 84/86/18
f 77/95/22 46/96/22 44/94/22
f 44/94/22 79/93/22 77/95/22
f 81/92/19 91/90/19 89/89/19
f 89/89/19 83/91/19 81/92/19
f 92/88/16 85/86/16 86/85/16
f 86/85/16 87/87/16 92/88/16
f 94/62/4 93/63/4 95/7/4
f 95/7/4 96/8/4 94/62/4
f 94/62/8 95/7/8 93/63/8
f 95/7/8 94/62/8 96/8/8
f 98/64/4 97/65/4 99/63/4
f 99/63/4 100/62/4 98/64/4
f 98/64/8 99/63/8 97/65/8
f 99/63/8 98/64/8 100/62/8
f 99/106/19 93/105/19 94/107/19
f 94/107/19 100/108/19 99/106/19
f 99/106/20 94/107/20 93/105/20
f 94/107/20 99/106/20 100/108/20
f 35/109/19 97/106/19 98/108/19
f 98/108/19 36/110/19 35/109/19
f 35/109/20 98/108/20 97/106/20
f 98/108/20 35/109/20 36/110/20
f 35/112/16 30/111/16 99/113/16
f 99/113/16 97/114/16 35/112/16
f 35/112/18 99/113/18 30/111/18
f 99/113/18 35/112/18 97/114/18
f 10/116/20 9/115/20 101/107/20
f 101/107/20 102/105/20 10/116/20
f 28/118/18 36/117/18 98/119/18
f 98/119/18 100/120/18 28/118/18
f 28/118/16 98/119/16 36/117/16
f 98/119/16 28/118/16 100/120/16
f 95/105/19 7/116/19 8/115/19
f 8/115/19 96/107/19 95/105/19
f 90/122/20 103/121/20 82/123/20
f 82/123/20 84/124/20 90/122/20
f 64/124/19 68/122/19 75/121/19
f 75/121/19 63/123/19 64/124/19
f 70/126/20 76/125/20 74/127/20
f 74/127/20 69/128/20 70/126/20
f 78/127/19 85/128/19 92/126/19
f 92/126/19 104/125/19 78/127/19
f 50/130/18 48/129/18 105/113/18
f 105/113/18 106/114/18 50/130/18
f 50/130/16 105/113/16 48/129/16
f 105/113/16 50/130/16 106/114/16
f 102/10/4 101/9/4 107/26/4
f 107/26/4 108/24/4 102/10/4
f 102/10/8 107/26/8 101/9/8
f 107/26/8 102/10/8 108/24/8
f 109/108/20 51/110/20 50/109/20
f 50/109/20 106/106/20 109/108/20
f 109/108/19 50/109/19 51/110/19
f 50/109/19 109/108/19 106/106/19
f 105/24/4 110/26/4 109/33/4
f 109/33/4 106/34/4 105/24/4
f 105/24/8 109/33/8 110/26/8
f 109/33/8 105/24/8 106/34/8
f 107/107/20 110/108/20 105/106/20
f 105/106/20 108/105/20 107/107/20
f 107/107/19 105/106/19 110/108/19
f 105/106/19 107/107/19 108/105/19
f 49/132/16 51/131/16 109/119/16
f 109/119/16 110/120/16 49/132/16
f 49/132/18 109/119/18 51/131/18
f 109/119/18 49/132/18 110/120/18
f 104/68/4 92/104/4 87/103/4
f 87/103/4 90/101/4 104/68/4
f 87/103/4 103/9/4 90/101/4
f 87/103/4 88/28/4 103/9/4
f 91/7/4 104/68/4 90/101/4
f 90/101/4 89/102/4 91/7/4

usemtl natureKit-wood
# usermap natureKit-wood

f 102/134/16 108/133/16 111/135/16
f 111/135/16 10/46/16 102/134/16
f 111/135/16 65/85/16 10/46/16
f 111/135/16 71/87/16 65/85/16
f 111/135/16 112/136/16 71/87/16
f 53/138/18 56/137/18 73/99/18
f 73/99/18 113/139/18 53/138/18
f 73/99/18 74/86/18 113/139/18
f 74/86/18 76/88/18 113/139/18
f 76/88/18 114/140/18 113/139/18
f 114/25/4 112/10/4 111/24/4
f 111/24/4 113/23/4 114/25/4
f 71/121/19 112/141/19 114/142/19
f 114/142/19 76/79/19 71/121/19
f 115/142/20 52/143/20 49/144/20
f 49/144/20 110/108/20 115/142/20
f 115/142/20 110/108/20 107/107/20
f 107/107/20 116/141/20 115/142/20
f 118/9/4 117/28/4 115/27/4
f 115/27/4 116/26/4 118/9/4
f 77/146/20 32/145/20 34/147/20
f 34/147/20 46/148/20 77/146/20
f 105/106/20 48/109/20 53/149/20
f 53/149/20 108/105/20 105/106/20
f 53/149/20 111/150/20 108/105/20
f 53/149/20 113/151/20 111/150/20
f 95/134/18 93/133/18 119/135/18
f 119/135/18 7/46/18 95/134/18
f 119/135/18 81/85/18 7/46/18
f 119/135/18 91/87/18 81/85/18
f 119/135/18 120/136/18 91/87/18
f 54/153/16 52/152/16 115/135/16
f 115/135/16 79/100/16 54/153/16
f 115/135/16 80/85/16 79/100/16
f 115/135/16 88/87/16 80/85/16
f 115/135/16 117/136/16 88/87/16
f 43/155/19 54/154/19 79/156/19
f 79/156/19 44/157/19 43/155/19
f 57/157/20 33/158/20 29/159/20
f 29/159/20 72/156/20 57/157/20
f 31/161/16 32/160/16 77/99/16
f 77/99/16 121/139/16 31/161/16
f 77/99/16 78/86/16 121/139/16
f 78/86/16 104/88/16 121/139/16
f 104/88/16 122/140/16 121/139/16
f 29/163/18 27/162/18 123/135/18
f 123/135/18 72/100/18 29/163/18
f 123/135/18 60/85/18 72/100/18
f 123/135/18 59/87/18 60/85/18
f 123/135/18 124/136/18 59/87/18
f 119/63/4 121/66/4 122/68/4
f 122/68/4 120/7/4 119/63/4
f 31/149/19 121/151/19 119/150/19
f 119/150/19 30/109/19 31/149/19
f 119/150/19 93/105/19 30/109/19
f 93/105/19 99/106/19 30/109/19
f 123/67/4 125/62/4 126/8/4
f 126/8/4 124/71/4 123/67/4
f 94/107/19 125/141/19 123/142/19
f 123/142/19 100/108/19 94/107/19
f 123/142/19 28/110/19 100/108/19
f 123/142/19 27/164/19 28/110/19
f 55/165/19 58/148/19 73/146/19
f 73/146/19 56/166/19 55/165/19
f 126/150/20 75/90/20 59/125/20
f 59/125/20 124/151/20 126/150/20
f 122/142/20 104/79/20 91/121/20
f 91/121/20 120/141/20 122/142/20
f 94/168/16 96/167/16 8/53/16
f 8/53/16 125/139/16 94/168/16
f 8/53/16 63/86/16 125/139/16
f 63/86/16 75/88/16 125/139/16
f 75/88/16 126/140/16 125/139/16
f 107/168/18 101/167/18 9/53/18
f 9/53/18 116/139/18 107/168/18
f 9/53/18 82/86/18 116/139/18
f 82/86/18 103/88/18 116/139/18
f 103/88/18 118/140/18 116/139/18
f 88/125/19 117/151/19 118/150/19
f 118/150/19 103/90/19 88/125/19
