# Exported using Kenney Suite 1.2 

mtllib cactus_large.mtl 

g cactus_large

v 0.5801964 0 0.4903301 
v 0.08084536 0 0.7786301 
v 0.5801964 5.5738 0.4903301 
v 0.08084536 5.5738 0.7786301 
v 0.5801964 0 -0.08626989 
v 0.5801964 5.5738 -0.08626989 
v 0.08084536 0 -0.3745699 
v 0.08084536 5.5738 -0.3745699 
v -0.5801964 2.633889 -0.6143301 
v -0.4837227 2.44094 -0.4472315 
v -0.29562 2.633889 -0.7786301 
v -0.1991463 2.44094 -0.6115316 
v -0.3111172 2.44094 -0.1482699 
v -0.02654076 2.44094 -0.3125699 
v -0.4168272 2.7869 -0.331365 
v -0.1322508 2.7869 -0.495665 
v -0.3111172 2.7869 -0.1482699 
v -0.02654076 2.7869 -0.3125699 
v -0.5801964 3.7479 -0.6143301 
v -0.29562 3.7479 -0.7786301 
v -0.1322508 3.7479 -0.495665 
v -0.4168272 3.7479 -0.331365 
v -0.4185033 5.5738 0.4903301 
v -0.4185033 5.5738 -0.08626989 
v -0.4185033 0 0.4903301 
v -0.4185033 0 -0.08626989 
v -0.2986598 5.80444 0.4211381 
v -0.2986598 5.80444 -0.01707788 
v 0.08084536 5.80444 0.6402462 
v 0.08084536 5.80444 -0.2361859 
v 0.4603529 5.80444 0.4211381 
v 0.4603529 5.80444 -0.01707788 

vn -0.5 0 -0.8660254
vn -1 0 0
vn -0.5 0 0.8660254
vn 0.3535534 -0.7071068 0.6123725
vn 0 -1 0
vn 0 1 0
vn 0.5 0 0.8660254
vn 0.5 0 -0.8660254
vn 1 0 0
vn 0.4436782 0.4610839 -0.7684733
vn -0.4436782 0.4610839 0.7684733
vn 0.8873565 0.461084 0
vn 0.4436782 0.4610839 0.7684733
vn -0.8873565 0.461084 0
vn -0.4436782 0.4610839 -0.7684733
vn -0.8660254 0 0.5
vn 0.8660254 0 -0.5

vt 2.635255 0
vt -3.270257 0
vt 2.635255 57.08661
vt -3.270257 57.08661
vt -5.021939 0
vt -5.021939 57.08661
vt 0.8835723 0
vt 0.8835723 57.08661
vt 1.201073 -2.408222E-18
vt -4.704439 -2.408222E-18
vt 1.201073 57.08661
vt -4.704439 57.08661
vt 2.000254 25.02898
vt 2.000254 22.23425
vt -1.365253 25.02898
vt -1.365253 22.23425
vt 4.954262 4.580525
vt 3.186443 1.518574
vt 2.039648 6.263279
vt 0.2718289 3.201327
vt -4.26912 3.393826
vt -1.354506 5.076579
vt -3.186443 1.518574
vt -0.2718289 3.201327
vt 2.000254 26.97617
vt -1.365253 26.97617
vt 2.000254 38.38583
vt -1.365253 38.38583
vt 1.365253 28.54331
vt -2.000254 28.54331
vt 1.365253 38.38583
vt -2.000254 38.38583
vt -5.942349 6.291942
vt -3.027735 7.974695
vt -4.286298 -5.021939
vt -4.286298 0.8835723
vt 0.8280255 -7.974695
vt 0.8280255 3.836328
vt 5.942349 -5.021939
vt 5.942349 0.8835723
vt 4.704439 0
vt -1.201073 0
vt 4.704439 57.08661
vt -1.201073 57.08661
vt 5.021939 57.08661
vt 5.021939 0
vt -0.8835723 57.08661
vt -0.8835723 0
vt -3.05886 -4.313278
vt -3.05886 0.1749109
vt 0.8280255 -6.557373
vt 0.8280255 2.419005
vt 4.714911 -4.313278
vt 4.714911 0.1749109
vt 4.286298 0.8835723
vt 4.286298 -5.021939
vt -0.8280255 3.836328
vt -0.8280255 -7.974695
vt -5.942349 0.8835723
vt -5.942349 -5.021939
vt 4.704439 47.66269
vt -1.201073 47.66269
vt 3.995777 50.32476
vt -0.4924116 50.32476
vt 1.201073 48.9334
vt -4.704439 48.9334
vt 0.4924116 51.59547
vt -3.995777 51.59547
vt 5.021939 48.67984
vt -0.8835723 48.67984
vt 4.313278 51.3419
vt -0.1749109 51.3419
vt 3.270257 49.31519
vt -2.635255 49.31519
vt 2.561595 51.97726
vt -1.926594 51.97726
vt -5.021939 47.91626
vt -4.313278 50.57833
vt 0.8835723 47.91626
vt 0.1749109 50.57833
vt 2.635255 47.28091
vt -3.270257 47.28091
vt 1.926594 49.94297
vt -2.561595 49.94297
vt 2.908345 25
vt 2.908345 28.54331
vt 6.443982 25
vt 5.073699 28.54331
vt 5.073699 38.38583
vt 8.420156 38.38583
vt 8.420156 26.97617
vt -2.635255 1.710476E-17
vt 2.000254 25
vt 3.270257 1.710476E-17
vt 3.270257 57.08661
vt -1.365253 25
vt 2.000254 28.54331
vt -1.365253 28.54331
vt -2.635255 57.08661
vt -5.073699 38.38583
vt -5.073699 28.54331
vt -8.420156 38.38583
vt -6.443982 25
vt -8.420156 26.97617
vt -2.908345 25
vt -2.908345 28.54331

usemtl natureKit-leavesGreen
# usermap natureKit-leavesGreen

f 2/2/1 1/1/1 3/3/1
f 3/3/1 4/4/1 2/2/1
f 3/6/2 1/5/2 5/7/2
f 5/7/2 6/8/2 3/6/2
f 5/10/3 7/9/3 8/11/3
f 8/11/3 6/12/3 5/10/3
f 10/14/4 9/13/4 11/15/4
f 11/15/4 12/16/4 10/14/4
f 13/18/5 10/17/5 12/19/5
f 12/19/5 14/20/5 13/18/5
f 16/22/6 15/21/6 17/23/6
f 17/23/6 18/24/6 16/22/6
f 11/26/7 9/25/7 19/27/7
f 19/27/7 20/28/7 11/26/7
f 15/30/1 16/29/1 21/31/1
f 21/31/1 22/32/1 15/30/1
f 20/34/6 19/33/6 22/21/6
f 22/21/6 21/22/6 20/34/6
f 24/36/6 23/35/6 4/37/6
f 4/37/6 8/38/6 24/36/6
f 4/37/6 3/39/6 8/38/6
f 3/39/6 6/40/6 8/38/6
f 25/42/8 2/41/8 4/43/8
f 4/43/8 23/44/8 25/42/8
f 25/46/9 23/45/9 24/47/9
f 24/47/9 26/48/9 25/46/9
f 28/50/6 27/49/6 29/51/6
f 29/51/6 30/52/6 28/50/6
f 29/51/6 31/53/6 30/52/6
f 31/53/6 32/54/6 30/52/6
f 25/56/5 26/55/5 7/57/5
f 7/57/5 2/58/5 25/56/5
f 7/57/5 5/59/5 2/58/5
f 5/59/5 1/60/5 2/58/5
f 23/62/10 4/61/10 29/63/10
f 29/63/10 27/64/10 23/62/10
f 6/66/11 8/65/11 30/67/11
f 30/67/11 32/68/11 6/66/11
f 24/70/12 23/69/12 27/71/12
f 27/71/12 28/72/12 24/70/12
f 8/74/13 24/73/13 28/75/13
f 28/75/13 30/76/13 8/74/13
f 31/78/14 3/77/14 6/79/14
f 6/79/14 32/80/14 31/78/14
f 4/82/15 3/81/15 31/83/15
f 31/83/15 29/84/15 4/82/15
f 18/86/16 14/85/16 12/87/16
f 12/87/16 16/88/16 18/86/16
f 12/87/16 21/89/16 16/88/16
f 12/87/16 20/90/16 21/89/16
f 12/87/16 11/91/16 20/90/16
f 13/93/7 7/92/7 26/94/7
f 26/94/7 24/95/7 13/93/7
f 13/93/7 14/96/7 7/92/7
f 24/95/7 17/97/7 13/93/7
f 24/95/7 18/98/7 17/97/7
f 8/99/7 7/92/7 14/96/7
f 14/96/7 18/98/7 8/99/7
f 18/98/7 24/95/7 8/99/7
f 15/101/17 22/100/17 19/102/17
f 19/102/17 10/103/17 15/101/17
f 19/102/17 9/104/17 10/103/17
f 15/101/17 10/103/17 13/105/17
f 13/105/17 17/106/17 15/101/17
