# Exported using Kenney Suite 1.2 

mtllib campfire_small.mtl 

g campfire_small

v 1.459262 0 0.8144716 
v 0.8144712 0 1.459262 
v 1.459262 0.3755989 0.8144716 
v 0.8144712 0.3755989 1.459262 
v -1.459262 0 -0.8144716 
v -0.8144712 0 -1.459262 
v -1.459262 0.3755989 -0.8144716 
v -0.8144712 0.3755989 -1.459262 
v 1.459262 0 -0.8144716 
v 1.459262 0.3755989 -0.8144716 
v 0.8144712 0 -1.459262 
v 0.8144712 0.3755989 -1.459262 
v -0.8144712 0.3755989 1.459262 
v -0.8144712 0 1.459262 
v -1.459262 0.3755989 0.8144716 
v -1.459262 0 0.8144716 
v 1.398063 0 0.3964655 
v 1.398063 0.6259983 0.3964655 
v 1.398063 0 -0.3964655 
v 1.398063 0.6259983 -0.3964655 
v -1.398063 0.6259983 0.3964655 
v -1.398063 0 0.3964655 
v -1.398063 0.6259983 -0.3964655 
v -1.398063 0 -0.3964655 
v 0.3964663 0 1.398063 
v -0.3964663 0 1.398063 
v 0.3964663 0.6259983 1.398063 
v -0.3964663 0.6259983 1.398063 
v -0.3964663 0 -1.398063 
v 0.3964663 0 -1.398063 
v -0.3964663 0.6259983 -1.398063 
v 0.3964663 0.6259983 -1.398063 
v -0.3964663 0 -1.041256 
v -0.3964663 0.3120724 -1.041256 
v 0.3964663 0.3120724 1.041256 
v 0.3964663 0 1.041256 
v -0.3964663 0 1.041256 
v -0.3964663 0.3120724 1.041256 
v 0.3964663 0 -1.041256 
v 0.3964663 0.3120724 -1.041256 
v 1.041255 0 -0.3964655 
v 1.041255 0 0.3964655 
v -1.041255 0 0.3964655 
v -1.041255 0 -0.3964655 
v -1.041255 0.3120724 -0.3964655 
v -1.041255 0.3120724 0.3964655 
v 1.041255 0.3120724 0.3964655 
v 1.041255 0.3120724 -0.3964655 
v 0.3964663 0.2630764 0.3964655 
v -0.3964663 0.2630764 -0.3964655 
v 0.3964663 0.2630764 -0.3964655 
v 0.3964663 0.4466077 -0.3964655 
v -0.3964663 0.2630764 0.3964655 
v -0.3964663 0.4466077 0.3964655 
v -0.3964663 0.4466077 -0.3964655 
v 0.3964663 0.4466077 0.3964655 
v 0 0.3755989 1.205107E-14 

vn -0.7071068 0 -0.7071068
vn 0.7071068 0 0.7071068
vn -0.7071068 0 0.7071068
vn 0.7071068 0 -0.7071068
vn -1 0 0
vn 1 0 0
vn 0 0 -1
vn 0 0 1
vn 0 -1 0
vn 0.0755526 0.9942754 0.0755526
vn -0.0755526 0.9942754 -0.0755526
vn 0.0755526 0.9942754 -0.0755526
vn -0.0755526 0.9942754 0.0755526
vn 0.08884259 0.9920756 0.08884259
vn 0 1 0
vn 0.08884259 0.9920756 -0.08884258
vn -0.08884259 0.9920756 0.08884258
vn -0.08884259 0.9920756 -0.08884259
vn 0 0.9843367 -0.1762991
vn -0.1762991 0.9843367 0
vn 0 0.9843367 0.1762991
vn 0.1762991 0.9843367 0

vt 4.301181 0
vt -4.301181 0
vt 4.301181 3.543307
vt -4.301181 3.543307
vt -3.740157 0
vt -3.740157 5.905512
vt 3.740157 0
vt 3.740157 5.905512
vt 9.590563 7.99037E-15
vt 9.590563 2.944013
vt 15.16732 7.99037E-15
vt 15.16732 3.543307
vt 15.16732 1.340052E-14
vt 9.590563 1.340052E-14
vt -9.590563 -1.052898E-14
vt -15.16732 -1.052898E-14
vt -9.590563 2.944013
vt -15.16732 3.543307
vt -9.590563 -4.278177E-14
vt -15.16732 -4.278177E-14
vt -7.683523 13.76631
vt -9.822946 3.740157
vt -13.76631 7.683523
vt -9.822947 -3.740158
vt -13.18898 3.740157
vt -13.18898 -3.740158
vt -7.683523 -13.76631
vt -3.740157 -9.822947
vt -3.740157 9.822947
vt -13.76631 -7.683523
vt -3.740157 -13.18898
vt -3.740157 13.18898
vt 3.740157 -13.18898
vt 3.740157 -9.822947
vt 3.740157 9.822947
vt 3.740157 13.18898
vt 7.683523 13.76631
vt 7.683523 -13.76631
vt 9.822946 -3.740157
vt 9.822947 3.740158
vt 13.76631 7.683523
vt 13.76631 -7.683523
vt 13.18898 3.740158
vt 13.18898 -3.740157
vt -9.590563 1.339636E-13
vt -15.16732 1.339636E-13
vt 15.16732 0
vt 9.590562 0
vt 9.590562 2.944013
vt -15.16732 -9.90473E-14
vt -9.590563 -9.90473E-14
vt 15.16732 5.326913E-15
vt 9.590562 5.326913E-15
vt 4.301181 9.850221
vt 3.940169E-08 5.524276
vt 4.301181 15.45909
vt -4.301181 9.850222
vt -4.301181 15.45909
vt 3.94015E-08 5.524276
vt 3.940268E-08 5.524276
vt -4.301181 9.850221
vt -3.740157 2.481797
vt -9.822946 2.944013
vt -3.740157 4.213186
vt -13.18898 5.905512
vt -13.18898 -1.24926E-14
vt -9.822946 -1.24926E-14
vt 3.94028E-08 5.524276
vt -13.18898 9.225793E-15
vt -9.822946 9.225793E-15
vt 13.18898 -1.013694E-14
vt 9.822947 -1.013694E-14
vt 13.18898 5.905512
vt 9.822947 2.944013
vt 3.740158 4.213186
vt 3.740158 2.481797
vt 13.18898 2.995837E-15
vt 9.822947 2.995837E-15
vt 3.740157 4.424355
vt 1.136868E-13 0.6246818
vt -3.740157 4.424355
vt -1.136868E-13 0.6246818
vt 13.18898 0
vt 3.740157 4.213186
vt 3.740157 2.481797
vt 9.822947 0
vt -3.740158 4.213186
vt -3.740158 2.481797
vt -9.822947 2.944013
vt -9.822947 0
vt -13.18898 0
vt -2.273737E-13 0.6246818
vt 2.273737E-13 0.6246818
vt -3.740157 14.02353
vt 3.740157 14.02353
vt -3.740157 -3.740157
vt -3.740157 3.740158
vt 3.740157 -3.740158
vt 3.740157 3.740157

usemtl natureKit-woodLight
# usermap natureKit-woodLight

f 2/2/1 1/1/1 3/3/1
f 3/3/1 4/4/1 2/2/1
f 6/2/2 5/1/2 7/3/2
f 7/3/2 8/4/2 6/2/2
f 10/4/3 9/2/3 11/1/3
f 11/1/3 12/3/3 10/4/3
f 14/1/4 13/3/4 15/4/4
f 15/4/4 16/2/4 14/1/4
f 18/6/5 17/5/5 19/7/5
f 19/7/5 20/8/5 18/6/5
f 22/7/6 21/8/6 23/6/6
f 23/6/6 24/5/6 22/7/6
f 26/5/7 25/7/7 27/8/7
f 27/8/7 28/6/7 26/5/7
f 30/5/8 29/7/8 31/8/8
f 31/8/8 32/6/8 30/5/8

usemtl natureKit-wood
# usermap natureKit-wood

f 34/10/3 33/9/3 6/11/3
f 6/11/3 8/12/3 34/10/3
f 2/13/4 4/12/4 35/10/4
f 35/10/4 36/14/4 2/13/4
f 14/16/1 37/15/1 38/17/1
f 38/17/1 13/18/1 14/16/1
f 11/20/2 39/19/2 40/17/2
f 40/17/2 12/18/2 11/20/2
f 41/22/9 11/21/9 9/23/9
f 11/21/9 41/22/9 42/24/9
f 42/24/9 41/22/9 19/25/9
f 19/25/9 17/26/9 42/24/9
f 11/21/9 42/24/9 2/27/9
f 11/21/9 2/27/9 36/28/9
f 36/28/9 39/29/9 11/21/9
f 42/24/9 1/30/9 2/27/9
f 39/29/9 36/28/9 25/31/9
f 30/32/9 39/29/9 25/31/9
f 30/32/9 25/31/9 26/33/9
f 30/32/9 26/33/9 37/34/9
f 30/32/9 37/34/9 33/35/9
f 33/35/9 29/36/9 30/32/9
f 6/37/9 33/35/9 37/34/9
f 6/37/9 37/34/9 14/38/9
f 6/37/9 14/38/9 43/39/9
f 6/37/9 43/39/9 44/40/9
f 44/40/9 5/41/9 6/37/9
f 16/42/9 43/39/9 14/38/9
f 24/43/9 44/40/9 43/39/9
f 43/39/9 22/44/9 24/43/9
f 44/45/4 45/17/4 7/18/4
f 7/18/4 5/46/4 44/45/4
f 43/48/2 16/47/2 15/12/2
f 15/12/2 46/49/2 43/48/2
f 3/18/3 1/50/3 42/51/3
f 42/51/3 47/17/3 3/18/3
f 41/53/1 9/52/1 10/12/1
f 10/12/1 48/49/1 41/53/1
f 49/55/10 35/54/10 4/56/10
f 4/56/10 47/57/10 49/55/10
f 4/56/10 3/58/10 47/57/10
f 8/56/11 7/58/11 45/57/11
f 45/57/11 50/59/11 8/56/11
f 50/59/11 34/54/11 8/56/11
f 40/61/12 51/60/12 48/54/12
f 48/54/12 12/58/12 40/61/12
f 48/54/12 10/56/12 12/58/12
f 48/63/8 51/62/8 52/64/8
f 48/63/8 52/64/8 20/65/8
f 48/63/8 20/65/8 19/66/8
f 19/66/8 41/67/8 48/63/8
f 46/54/13 15/56/13 13/58/13
f 13/58/13 53/68/13 46/54/13
f 13/58/13 38/61/13 53/68/13
f 46/63/7 53/62/7 54/64/7
f 46/63/7 54/64/7 21/65/7
f 46/63/7 21/65/7 22/69/7
f 22/69/7 43/70/7 46/63/7
f 44/72/8 24/71/8 23/73/8
f 23/73/8 45/74/8 44/72/8
f 23/73/8 55/75/8 45/74/8
f 50/76/8 45/74/8 55/75/8
f 42/78/7 17/77/7 18/73/7
f 18/73/7 47/74/7 42/78/7
f 18/73/7 56/75/7 47/74/7
f 49/76/7 47/74/7 56/75/7
f 57/80/15 56/79/14 52/81/16
f 55/79/18 54/81/17 57/82/15
f 38/74/6 26/83/6 28/73/6
f 28/73/6 54/84/6 38/74/6
f 54/84/6 53/85/6 38/74/6
f 26/83/6 38/74/6 37/86/6
f 32/73/5 52/84/5 51/85/5
f 51/85/5 40/74/5 32/73/5
f 40/74/5 39/86/5 32/73/5
f 39/86/5 30/83/5 32/73/5
f 50/88/6 55/87/6 31/65/6
f 31/65/6 34/89/6 50/88/6
f 31/65/6 33/90/6 34/89/6
f 31/65/6 29/91/6 33/90/6
f 27/65/5 25/91/5 36/90/5
f 36/90/5 35/89/5 27/65/5
f 35/89/5 56/87/5 27/65/5
f 35/89/5 49/88/5 56/87/5
f 55/81/18 57/92/15 52/79/16
f 57/93/15 54/79/17 56/81/14
f 31/94/19 55/81/19 52/79/19
f 52/79/19 32/95/19 31/94/19
f 23/95/20 21/94/20 54/81/20
f 54/81/20 55/79/20 23/95/20
f 54/79/21 28/95/21 27/94/21
f 27/94/21 56/81/21 54/79/21
f 52/81/22 56/79/22 18/95/22
f 18/95/22 20/94/22 52/81/22
f 55/97/15 54/96/15 56/98/15
f 56/98/15 52/99/15 55/97/15
