# Exported using Kenney Suite 1.2 

mtllib canoe.mtl 

g canoe

v -0.8699989 1.202224E-30 1.443823E-14 
v -0.8453178 1.202224E-30 0.8200241 
v -0.8453178 1.202224E-30 -0.8200241 
v -0.7714462 1.202224E-30 -1.634119 
v -0.7714462 1.202224E-30 1.634119 
v -0.6489205 1.202224E-30 -2.436397 
v -0.6489205 1.202224E-30 2.436397 
v -0.4786277 1.202224E-30 -3.221058 
v -0.4786277 1.202224E-30 3.221058 
v -0.2617979 1.202224E-30 -3.982427 
v -0.2617979 1.202224E-30 3.982427 
v 0 1.202224E-30 -4.715 
v 0 1.202224E-30 4.715 
v 0.2617979 1.202224E-30 -3.982427 
v 0.2617979 1.202224E-30 3.982427 
v 0.4786277 1.202224E-30 -3.221058 
v 0.4786277 1.202224E-30 3.221058 
v 0.6489205 1.202224E-30 -2.436397 
v 0.6489205 1.202224E-30 2.436397 
v 0.7714462 1.202224E-30 -1.634119 
v 0.7714462 1.202224E-30 1.634119 
v 0.8453178 1.202224E-30 -0.8200241 
v 0.8453178 1.202224E-30 0.8200241 
v 0.8699989 1.202224E-30 1.443823E-14 
v 0.9389448 1.387 0.955819 
v 0.9389448 0.876 0.955819 
v 0.9796214 1.387 4.331469E-14 
v 0.9796214 0.876 4.331469E-14 
v -0.9389448 1.606 0.955819 
v -0.9389448 1.825 0.955819 
v -0.9796214 1.606 -4.331469E-14 
v -0.9796214 1.825 -4.331469E-14 
v 0.3346729 1.825 -3.754461 
v 0.3346729 1.606 -3.754461 
v 0 1.825 -4.585672 
v 0 1.606 -4.585672 
v 0.9389448 1.825 0.955819 
v 0.9389448 1.606 0.955819 
v 0.9796214 1.825 4.331469E-14 
v 0.9796214 1.606 4.331469E-14 
v 0.9389448 1.825 -0.955819 
v 0.9389448 0.876 -0.955819 
v 0.8172131 1.825 1.904727 
v 0.8172131 0.876 1.904727 
v -0.3346729 1.606 3.754461 
v -0.3346729 1.825 3.754461 
v -0.6153011 1.606 2.839861 
v -0.6153011 1.825 2.839861 
v 0.6153011 1.825 2.839861 
v 0.6153011 1.606 2.839861 
v 0.6153011 0.876 2.839861 
v 0 1.606 4.585672 
v 0 1.825 4.585672 
v 0.8172131 1.825 -1.904727 
v 0.8172131 0.876 -1.904727 
v 0.6153011 1.825 -2.839861 
v 0.6153011 0.876 -2.839861 
v 0.3346729 1.825 3.754461 
v 0.3346729 1.606 3.754461 
v -0.6153011 0.876 -2.839861 
v -0.6153011 1.825 -2.839861 
v -0.3346729 0.876 -3.754461 
v -0.3346729 1.825 -3.754461 
v -0.3346729 1.606 -3.754461 
v -0.8172131 0.876 1.904727 
v -0.8172131 1.825 1.904727 
v -0.9389448 0.876 0.955819 
v -0.9389448 1.387 0.955819 
v -0.9796214 0.876 -4.331469E-14 
v -0.9796214 1.387 -4.331469E-14 
v -0.9389448 0.876 -0.955819 
v -0.9389448 1.825 -0.955819 
v -0.8172131 0.876 -1.904727 
v -0.8172131 1.825 -1.904727 
v 0.3346729 0.876 -3.754461 
v -0.6153011 0.876 2.839861 
v -1.500001 1.825 0 
v -1.457443 1.825 -1.00003 
v -1.457443 1.825 1.00003 
v -1.330078 1.825 1.992828 
v -1.330078 1.825 -1.992828 
v -1.118829 1.825 2.971216 
v -1.118829 1.825 -2.971216 
v -0.8252192 1.825 3.92812 
v -0.4513764 1.825 4.856619 
v 0 1.825 5.75 
v 0.4513764 1.825 4.856619 
v 0.8252192 1.825 3.92812 
v 1.118829 1.825 2.971216 
v 1.118829 1.825 -2.971216 
v 0.8252192 1.825 -3.92812 
v 0.4513764 1.825 -4.856619 
v 0 1.825 -5.75 
v -0.4513764 1.825 -4.856619 
v -0.8252192 1.825 -3.92812 
v 1.330078 1.825 1.992828 
v 1.330078 1.825 -1.992828 
v 1.457443 1.825 1.00003 
v 1.457443 1.825 -1.00003 
v 1.500001 1.825 0 

vn 0 -1 0
vn 0.9950793 0 0.09908237
vn 0.9963845 0 0.08495827
vn 0.9998994 0 -0.01418393
vn 1 0 0
vn -0.9950793 0 0.09908237
vn -0.9963845 0 0.08495827
vn -0.9998994 0 -0.01418393
vn -1 0 0
vn 0.9426736 0 -0.3337164
vn 0.9473121 0 -0.320312
vn 0.9276322 0 -0.3734947
vn 0.9963845 0 -0.08495827
vn 0.9855642 0 0.1693022
vn -0.9426736 0 0.3337164
vn -0.9711003 0 0.2386719
vn -0.9676173 0 0.2524219
vn 0.9676173 0 0.2524219
vn 0.9711003 0 0.2386719
vn 0.9774746 0 0.2110529
vn -0.9276322 0 0.3734947
vn 0.9855642 0 -0.1693022
vn 0.9676173 0 -0.2524219
vn 0.9426736 0 0.3337164
vn 0.9276322 0 0.3734947
vn -0.9676173 0 -0.2524219
vn -0.95601 0 -0.2933344
vn -0.9426736 0 -0.3337164
vn -0.9473121 0 -0.320312
vn -0.9855642 0 0.1693022
vn -0.9963845 0 -0.08495827
vn -0.9855642 0 -0.1693022
vn 0.95601 0 -0.2933344
vn -0.9774746 0 0.2110529
vn -0.9276322 0 -0.3734947
vn 0.9990957 0 -0.04251758
vn -0.9990957 0 -0.04251758
vn 0 0 -1
vn 0 0 1
vn 0 1 0
vn 0.9447703 -0.3183929 -0.07768631
vn 0.9406469 -0.318459 -0.1173343
vn 0.9440707 -0.3246919 -0.05749562
vn 0.9385079 -0.3075002 -0.1569923
vn 0.9458672 -0.3245502 0.001485985
vn 0.93693 -0.3108666 -0.1597628
vn -0.9014756 -0.2503597 0.3530747
vn -0.9153432 -0.2656862 0.3025847
vn -0.8830209 -0.2552078 0.3938822
vn 0.9459528 -0.3242995 0.001810815
vn 0.9464326 -0.3170854 0.06100896
vn 0.9420086 -0.3257796 0.08054499
vn -0.9324254 -0.2993868 0.2023619
vn -0.9210932 -0.2871145 0.2629692
vn -0.9270901 -0.2880874 0.2398116
vn 0.9083599 -0.2745025 -0.3154849
vn 0.9270901 -0.2880874 -0.2398116
vn 0.9210932 -0.2871145 -0.2629692
vn 0.9331049 -0.3222882 0.1595172
vn 0.9453191 -0.3030636 0.1205175
vn 0.9187871 -0.3146886 0.2383305
vn 0.9421041 -0.2824839 0.1806726
vn 0.9360062 -0.2559041 0.2416724
vn 0.8984746 -0.3040319 0.3167143
vn 0.8830209 -0.2552078 -0.3938822
vn 0.9153432 -0.2656862 -0.3025847
vn 0.8714907 -0.2918406 0.3941231
vn 0.9260378 -0.2243037 0.3035487
vn 0.8726206 -0.2693884 0.4073859
vn 0.9327052 -0.299173 -0.2013864
vn 0.9324254 -0.2993868 -0.2023619
vn -0.9083599 -0.2745025 0.3154849
vn 0.9249796 -0.1874672 0.3305582
vn -0.9453191 -0.3030636 -0.1205175
vn -0.9331049 -0.3222882 -0.1595172
vn -0.9464326 -0.3170854 -0.06100896
vn -0.8647159 -0.2477721 0.4368929
vn -0.9440707 -0.3246919 0.05749562
vn -0.9447703 -0.3183929 0.07768631
vn -0.9406469 -0.318459 0.1173343
vn -0.9385079 -0.3075002 0.1569923
vn -0.93693 -0.3108666 0.1597628
vn -0.9459528 -0.3242995 -0.001810815
vn -0.9458672 -0.3245502 -0.001485985
vn -0.9420086 -0.3257796 -0.08054499
vn -0.9249796 -0.1874672 -0.3305582
vn -0.8726206 -0.2693884 -0.4073859
vn -0.9260378 -0.2243037 -0.3035487
vn -0.8714907 -0.2918406 -0.3941231
vn 0.8647159 -0.2477721 -0.4368929
vn 0.9014756 -0.2503597 -0.3530747
vn -0.9360062 -0.2559041 -0.2416724
vn -0.8984746 -0.3040319 -0.3167143
vn -0.9187871 -0.3146886 -0.2383305
vn -0.9421041 -0.2824839 -0.1806726
vn -0.9327052 -0.299173 0.2013864

vt 3.425197 -5.684342E-14
vt 3.328019 -3.228442
vt 3.328019 3.228442
vt 3.037187 6.433539
vt 3.037187 -6.433539
vt 2.554805 9.592114
vt 2.554805 -9.592114
vt 1.88436 12.68133
vt 1.88436 -12.68133
vt 1.030701 15.67885
vt 1.030701 -15.67885
vt 1.705303E-13 18.56299
vt 1.705303E-13 -18.56299
vt -1.030701 15.67885
vt -1.030701 -15.67885
vt -1.88436 12.68133
vt -1.88436 -12.68133
vt -2.554805 9.592114
vt -2.554805 -9.592114
vt -3.037187 6.433539
vt -3.037187 -6.433539
vt -3.328019 3.228442
vt -3.328019 -3.228442
vt -3.425197 -5.684342E-14
vt 3.602492 5.46063
vt 3.602492 3.448819
vt -0.1639808 5.46063
vt -0.1639808 3.448819
vt -3.602492 6.322834
vt -3.602492 7.18504
vt 0.1639808 6.322834
vt 0.1639808 7.18504
vt -13.21953 7.18504
vt -13.21953 6.322834
vt -16.74731 7.18504
vt -16.74731 6.322834
vt 3.602492 7.18504
vt 3.602492 6.322834
vt -0.1639808 7.18504
vt -0.1639808 6.322834
vt 0.1639808 5.46063
vt 0.1639808 3.448819
vt -3.602492 3.448819
vt 7.028572 7.18504
vt 7.028572 3.448819
vt 3.262099 7.18504
vt 3.262099 3.448819
vt 3.262099 6.322834
vt 3.262099 5.46063
vt -13.74461 6.322834
vt -13.74461 7.18504
vt -9.978135 6.322834
vt -9.978135 7.18504
vt 10.41745 7.18504
vt 10.41745 6.322834
vt 6.650972 7.18504
vt 10.41745 3.448819
vt 6.650972 3.448819
vt -6.650972 7.18504
vt -6.650972 3.448819
vt -10.41745 7.18504
vt -10.41745 3.448819
vt 13.74461 7.18504
vt 13.74461 6.322834
vt 9.978135 7.18504
vt 9.978135 6.322834
vt 16.74731 7.18504
vt 16.74731 6.322834
vt 13.21953 7.18504
vt 13.21953 6.322834
vt -3.262099 7.18504
vt -3.262099 3.448819
vt -7.028572 7.18504
vt -7.028572 3.448819
vt 9.978135 3.448819
vt 13.74461 3.448819
vt -3.262099 5.46063
vt -3.262099 6.322834
vt -9.978135 3.448819
vt -13.74461 3.448819
vt -10.41745 6.322834
vt 3.856777 1.705303E-13
vt 3.696636 -3.763067
vt -3.856777 -1.705303E-13
vt -3.696636 -3.763067
vt -3.602492 5.46063
vt 3.696636 5.46063
vt -3.696636 5.46063
vt 3.696636 6.322834
vt -3.696636 6.322834
vt 3.856777 5.46063
vt -3.856777 5.46063
vt 3.856777 6.322834
vt -3.856777 6.322834
vt -3.856777 1.705303E-13
vt -3.696636 3.763067
vt -3.21737 -7.498924
vt -3.21737 7.498924
vt -2.422445 -11.18056
vt -2.422445 11.18056
vt 2.422445 -11.18056
vt -1.317609 14.78134
vt 1.317609 14.78134
vt 2.422445 11.18056
vt 3.21737 -7.498924
vt 3.21737 7.498924
vt 3.696636 3.763067
vt 3.856777 -1.705303E-13
vt 2.422445 3.448819
vt -2.422445 3.448819
vt 2.422445 6.322834
vt -2.422445 6.322834
vt 1.317609 3.448819
vt -1.317609 3.448819
vt 1.317609 6.322834
vt -1.317609 6.322834
vt -1.317609 -14.78134
vt 0 -18.05383
vt 1.317609 -14.78134
vt 0 18.05383
vt -5.905512 0
vt -5.737963 3.937124
vt -5.737963 -3.937124
vt -5.236529 -7.845779
vt -5.236529 7.845779
vt -4.404836 -11.6977
vt -4.404836 11.6977
vt -3.248897 -15.46504
vt -1.777071 -19.12055
vt 0 -22.63779
vt 1.777071 -19.12055
vt 3.248897 -15.46504
vt 4.404836 -11.6977
vt 4.404836 11.6977
vt 3.248897 15.46504
vt 1.777071 19.12055
vt 0 22.63779
vt -1.777071 19.12055
vt -3.248897 15.46504
vt 5.236529 -7.845779
vt 5.236529 7.845779
vt 5.737963 -3.937124
vt 5.737963 3.937124
vt 5.905512 0
vt 3.40248 8.765689
vt 6.132747 1.169854
vt 2.914482 1.169854
vt 7.115679 8.75913
vt 5.994774 1.196069
vt 3.174992 8.75913
vt 3.6896 8.69983
vt 3.084023 1.112463
vt -0.2510881 8.69983
vt 6.965288 8.824229
vt 9.096471 1.252955
vt 5.901272 1.252955
vt 17.4803 1.566367
vt 14.41752 1.566367
vt 17.40731 8.988518
vt 0.1030539 1.096926
vt -3.12685 1.096926
vt -3.762704 8.681815
vt 8.832047 1.356545
vt 10.49736 8.886992
vt 11.99318 1.356545
vt 13.83172 9.054816
vt 11.57073 1.56324
vt 9.891028 9.054816
vt -6.563865 8.985841
vt -5.647614 1.395268
vt -10.50455 8.985841
vt -8.832047 1.17197
vt -11.99318 1.17197
vt -14.42415 8.610125
vt 0.2510881 8.716133
vt 0.1456311 1.115763
vt -3.6896 8.716133
vt -5.901272 1.13754
vt -9.096471 1.13754
vt -10.89862 8.636417
vt 17.07311 9.260188
vt 14.15924 1.807905
vt 13.13242 9.260188
vt -16.26461 9.87674
vt -13.52931 2.357081
vt -20.2053 9.87674
vt 10.50455 8.882689
vt 8.83685 1.352771
vt 6.563865 8.882689
vt -9.891028 9.22762
vt -8.420745 1.656678
vt -13.83172 9.22762
vt -2.914482 1.10719
vt -6.132747 1.10719
vt -7.340456 8.656877
vt 3.12685 1.116718
vt -0.1030539 1.116718
vt -0.1776791 8.717454
vt 13.98377 8.945031
vt 14.79696 1.466421
vt 11.68026 1.466421
vt -14.41752 1.171089
vt -17.4803 1.171089
vt -21.31744 8.485812
vt -3.174992 8.812454
vt -2.778724 1.211282
vt -7.115679 8.812454
vt 16.56834 2.074116
vt 16.26461 9.490408
vt 20.2053 9.490408
vt -13.13242 9.527044
vt -11.05981 1.98118
vt -17.07311 9.527044
vt -14.79696 1.190182
vt -17.90262 8.564601
vt -11.68026 1.190182

usemtl natureKit-wood
# usermap natureKit-wood

f 2/2/1 1/1/1 3/3/1
f 3/3/1 4/4/1 2/2/1
f 4/4/1 5/5/1 2/2/1
f 4/4/1 6/6/1 5/5/1
f 6/6/1 7/7/1 5/5/1
f 6/6/1 8/8/1 7/7/1
f 8/8/1 9/9/1 7/7/1
f 8/8/1 10/10/1 9/9/1
f 10/10/1 11/11/1 9/9/1
f 10/10/1 12/12/1 11/11/1
f 12/12/1 13/13/1 11/11/1
f 12/12/1 14/14/1 13/13/1
f 14/14/1 15/15/1 13/13/1
f 14/14/1 16/16/1 15/15/1
f 16/16/1 17/17/1 15/15/1
f 16/16/1 18/18/1 17/17/1
f 18/18/1 19/19/1 17/17/1
f 18/18/1 20/20/1 19/19/1
f 20/20/1 21/21/1 19/19/1
f 20/20/1 22/22/1 21/21/1
f 22/22/1 23/23/1 21/21/1
f 22/22/1 24/24/1 23/23/1
f 26/26/3 25/25/2 27/27/4
f 27/27/4 28/28/5 26/26/3
f 30/30/7 29/29/6 31/31/8
f 31/31/8 32/32/9 30/30/7
f 34/34/11 33/33/10 35/35/12
f 35/35/12 36/36/12 34/34/11
f 38/38/2 37/37/3 39/39/5
f 39/39/5 40/40/4 38/38/2
f 40/31/4 39/32/5 41/30/13
f 41/30/13 27/41/4 40/31/4
f 41/30/13 28/42/5 27/41/4
f 41/30/13 42/43/13 28/42/5
f 44/45/14 43/44/14 37/46/3
f 37/46/3 26/47/3 44/45/14
f 37/46/3 38/48/2 26/47/3
f 38/48/2 25/49/2 26/47/3
f 46/51/15 45/50/15 47/52/16
f 47/52/16 48/53/17 46/51/15
f 50/55/19 49/54/18 43/56/14
f 43/56/14 51/57/20 50/55/19
f 43/56/14 44/58/14 51/57/20
f 53/35/21 52/36/21 45/34/15
f 45/34/15 46/33/15 53/35/21
f 55/60/22 54/59/22 56/61/23
f 56/61/23 57/62/23 55/60/22
f 59/64/24 58/63/24 49/65/18
f 49/65/18 50/66/19 59/64/24
f 52/68/25 53/67/25 58/69/24
f 58/69/24 59/70/24 52/68/25
f 42/72/13 41/71/13 54/73/22
f 54/73/22 55/74/22 42/72/13
f 61/65/26 60/75/26 62/76/27
f 62/76/27 63/63/28 61/65/26
f 62/76/27 64/64/29 63/63/28
f 66/73/30 65/74/30 67/72/7
f 67/72/7 30/71/7 66/73/30
f 67/72/7 68/77/6 30/71/7
f 68/77/6 29/78/6 30/71/7
f 70/27/8 69/28/9 71/26/31
f 71/26/31 31/40/8 70/27/8
f 71/26/31 32/39/9 31/40/8
f 71/26/31 72/37/31 32/39/9
f 74/56/32 73/58/32 60/57/26
f 60/57/26 61/54/26 74/56/32
f 57/79/23 56/53/23 33/51/10
f 33/51/10 75/80/33 57/79/23
f 33/51/10 34/50/11 75/80/33
f 72/46/31 71/47/31 73/45/32
f 73/45/32 74/44/32 72/46/31
f 47/81/16 76/62/34 65/60/30
f 65/60/30 48/61/17 47/81/16
f 65/60/30 66/59/30 48/61/17
f 63/69/28 64/70/29 36/68/35
f 36/68/35 35/67/35 63/69/28
f 68/25/36 29/38/36 31/40/36
f 31/40/36 70/27/36 68/25/36
f 68/83/1 70/82/1 27/84/1
f 27/84/1 25/85/1 68/83/1
f 38/29/37 25/86/37 27/41/37
f 27/41/37 40/31/37 38/29/37
f 68/88/38 25/87/38 38/89/38
f 38/89/38 29/90/38 68/88/38
f 27/92/39 70/91/39 31/93/39
f 31/93/39 40/94/39 27/92/39
f 71/96/40 69/95/40 67/85/40
f 67/85/40 65/97/40 71/96/40
f 65/97/40 73/98/40 71/96/40
f 65/97/40 76/99/40 73/98/40
f 76/99/40 60/100/40 73/98/40
f 76/99/40 51/101/40 60/100/40
f 51/101/40 62/102/40 60/100/40
f 51/101/40 75/103/40 62/102/40
f 51/101/40 57/104/40 75/103/40
f 51/101/40 44/105/40 57/104/40
f 44/105/40 55/106/40 57/104/40
f 44/105/40 26/83/40 55/106/40
f 26/83/40 42/107/40 55/106/40
f 26/83/40 28/108/40 42/107/40
f 68/86/6 67/43/7 69/42/9
f 69/42/9 70/41/8 68/86/6
f 40/108/40 31/95/40 29/85/40
f 29/85/40 38/83/40 40/108/40
f 51/110/39 76/109/39 47/111/39
f 47/111/39 50/112/39 51/110/39
f 62/114/38 75/113/38 34/115/38
f 34/115/38 64/116/38 62/114/38
f 50/101/40 47/99/40 45/117/40
f 45/117/40 52/118/40 50/101/40
f 52/118/40 59/119/40 50/101/40
f 36/120/40 64/102/40 34/103/40
f 78/122/40 77/121/40 79/123/40
f 79/123/40 80/124/40 78/122/40
f 80/124/40 81/125/40 78/122/40
f 80/124/40 82/126/40 81/125/40
f 82/126/40 83/127/40 81/125/40
f 82/126/40 84/128/40 83/127/40
f 84/128/40 32/95/40 83/127/40
f 84/128/40 30/85/40 32/95/40
f 84/128/40 66/97/40 30/85/40
f 84/128/40 85/129/40 66/97/40
f 85/129/40 48/99/40 66/97/40
f 85/129/40 46/117/40 48/99/40
f 85/129/40 86/130/40 46/117/40
f 86/130/40 53/118/40 46/117/40
f 86/130/40 87/131/40 53/118/40
f 87/131/40 58/119/40 53/118/40
f 87/131/40 49/101/40 58/119/40
f 87/131/40 88/132/40 49/101/40
f 88/132/40 43/105/40 49/101/40
f 88/132/40 37/83/40 43/105/40
f 88/132/40 89/133/40 37/83/40
f 89/133/40 39/108/40 37/83/40
f 39/108/40 89/133/40 90/134/40
f 41/107/40 39/108/40 90/134/40
f 41/107/40 90/134/40 91/135/40
f 54/106/40 41/107/40 91/135/40
f 56/104/40 54/106/40 91/135/40
f 56/104/40 91/135/40 92/136/40
f 33/103/40 56/104/40 92/136/40
f 33/103/40 92/136/40 93/137/40
f 35/120/40 33/103/40 93/137/40
f 63/102/40 35/120/40 93/137/40
f 63/102/40 93/137/40 94/138/40
f 61/100/40 63/102/40 94/138/40
f 74/98/40 61/100/40 94/138/40
f 74/98/40 94/138/40 95/139/40
f 72/96/40 74/98/40 95/139/40
f 32/95/40 72/96/40 95/139/40
f 95/139/40 83/127/40 32/95/40
f 89/133/40 96/140/40 90/134/40
f 96/140/40 97/141/40 90/134/40
f 96/140/40 98/142/40 97/141/40
f 98/142/40 99/143/40 97/141/40
f 98/142/40 100/144/40 99/143/40

usemtl natureKit-mushroom
# usermap natureKit-mushroom

f 5/146/42 79/145/41 2/147/43
f 5/149/42 80/148/44 79/150/41
f 2/152/43 79/151/41 77/153/45
f 7/155/46 80/154/44 5/156/42
f 14/158/48 12/157/47 92/159/49
f 3/161/51 1/160/50 78/162/52
f 90/164/54 18/163/53 16/165/55
f 9/167/57 84/166/56 82/168/58
f 4/170/60 81/169/59 83/171/61
f 8/173/63 6/172/62 95/174/64
f 1/176/50 77/175/45 78/177/52
f 6/179/62 4/178/60 83/180/61
f 11/182/66 85/181/65 84/183/56
f 10/185/68 94/184/67 93/186/69
f 7/188/46 82/187/70 80/189/44
f 9/165/57 82/164/58 7/163/71
f 6/191/62 83/190/61 95/192/64
f 4/194/60 3/193/51 81/195/59
f 90/168/54 16/167/55 91/166/72
f 1/197/50 2/196/43 77/198/45
f 11/200/66 84/199/56 9/201/57
f 12/203/73 10/202/68 93/204/69
f 3/206/51 78/205/52 81/207/59
f 96/195/75 21/194/74 23/193/76
f 92/209/49 12/208/47 93/210/77
f 99/145/79 22/147/78 20/146/80
f 97/154/81 20/156/80 18/155/82
f 100/198/84 24/197/83 22/196/78
f 98/162/85 23/161/76 24/160/83
f 99/150/79 20/149/80 97/148/81
f 86/204/87 13/203/86 15/202/88
f 91/183/72 14/182/48 92/181/49
f 98/205/85 96/207/75 23/206/76
f 87/184/89 86/186/87 15/185/88
f 86/210/90 85/209/65 13/208/91
f 8/212/63 95/211/64 94/213/67
f 87/215/89 15/214/88 17/216/92
f 89/190/94 88/192/93 19/191/95
f 91/199/72 16/201/55 14/200/48
f 88/174/93 17/173/92 19/172/95
f 13/157/91 85/159/65 11/158/66
f 96/169/75 89/171/94 21/170/74
f 88/211/93 87/213/89 17/212/92
f 98/177/85 24/176/83 100/175/84
f 89/180/94 19/179/95 21/178/74
f 97/189/81 18/188/82 90/187/96
f 100/153/84 22/152/78 99/151/79
f 10/214/68 8/216/63 94/215/67
