# Exported using Kenney Suite 1.2 

mtllib cliffGrey_waterfallTop.mtl 

g cliffGrey_waterfallTop

v 0 10 -3.136573 
v 1.239545 10 -2.658246 
v 0 10 -3.609557E-14 
v 1.875 10 0 
v 2.150841 10 -3.055519 
v 1.998019 10 -0.3030765 
v 2.09981 10 -0.6170584 
v 2.179694 10 -0.9398532 
v 2.179694 10 -2.938935 
v 2.237134 10 -1.269309 
v 2.237134 10 -2.609478 
v 2.271755 10 -1.603231 
v 2.271755 10 -2.275556 
v 2.28332 10 -1.939394 
v 2.5 10 -3.609557E-14 
v 2.336769 10 -3.136573 
v 2.83668 10 -2.755466 
v 2.623019 10 -0.3030765 
v 2.72481 10 -0.6170584 
v 2.804694 10 -0.9398532 
v 2.862136 10 -1.269309 
v 2.862136 10 -2.609478 
v 2.896755 10 -1.603231 
v 2.896755 10 -2.275556 
v 2.90832 10 -1.939394 
v 8.471899 9.181818 -3.34026 
v 10 9.181818 -3.779973 
v 8.471899 10 -2.69686 
v 10 10 -3.136573 
v 2.822127 9.499999 -2.838944 
v 2.822127 3.445486E-15 -4.214211 
v 2.336769 3.281416E-15 -4.584222 
v 1.239545 9.181818 -3.301645 
v 2.150841 9.181818 -3.698919 
v 7.957306 10 -2.548785 
v 7.902536 9.499999 -1.771313 
v 7.902536 10 -1.771313 
v 7.957306 9.499999 -2.548785 
v 8.125 10 -6.497203E-13 
v 8.248019 10 -0.3030765 
v 10 10 -1.205592E-12 
v 8.34981 10 -0.6170584 
v 8.429694 10 -0.9398532 
v 8.487134 10 -1.269309 
v 8.521755 10 -1.603231 
v 8.53332 10 -1.939394 
v 8.521755 10 -2.275556 
v 8.487134 10 -2.609478 
v 7.896755 10 -1.603231 
v 7.862134 10 -1.269309 
v 7.804694 10 -0.9398532 
v 7.72481 10 -0.6170584 
v 7.623019 10 -0.3030765 
v 7.5 10 -3.609557E-14 
v 0 2.431976E-15 -4.584222 
v 1.239545 0 -4.105895 
v 10 2.431976E-15 -4.584222 
v 10 2.461062E-15 -1.205592E-12 
v 0 9.181818 -3.779973 
v 7.957306 2.871239E-15 -4.584222 
v 2.822127 3.363451E-15 -4.584222 
v 7.957306 2.461062E-15 -3.996434 
v 0 2.461062E-15 -3.609557E-14 
v 7.5 9.499999 -3.609557E-14 
v 2.5 9.499999 -3.609557E-14 
v 7.957306 9.499999 -2.621168 
v 7.72481 9.499999 -0.6170584 
v 7.804694 9.499999 -0.9398532 
v 2.862136 9.499999 -2.609478 
v 7.623019 9.499999 -0.3030765 
v 7.862134 9.499999 -1.269309 
v 7.896755 9.499999 -1.603231 
v 2.90832 9.499999 -1.939394 
v 2.896755 9.499999 -2.275556 
v 2.896755 9.499999 -1.603231 
v 2.623019 9.499999 -0.3030765 
v 2.804694 9.499999 -0.9398532 
v 2.862136 9.499999 -1.269309 
v 2.72481 9.499999 -0.6170584 
v 7.957306 6.972265 -4.584222 
v 7.957306 7.302201 -4.571936 
v 2.822127 6.972265 -4.584222 
v 2.822127 7.302201 -4.571936 
v 7.957306 7.939587 -4.474897 
v 7.957306 8.236132 -4.391807 
v 2.822127 7.939587 -4.474897 
v 2.822127 8.236132 -4.391807 
v 7.957306 7.626491 -4.535285 
v 2.822127 7.626491 -4.535285 
v 7.957306 9.499999 -2.838944 
v 7.957306 9.473721 -3.013574 
v 7.957306 9.430642 -3.184834 
v 7.957306 9.371171 -3.351115 
v 7.957306 9.295868 -3.510851 
v 7.957306 9.205441 -3.662538 
v 7.957306 9.100741 -3.804749 
v 7.957306 8.982754 -3.936145 
v 7.957306 8.852589 -4.05549 
v 7.957306 8.711473 -4.16166 
v 7.957306 8.560732 -4.253656 
v 7.957306 8.418025 -4.322752 
v 2.822127 8.418025 -4.322752 
v 2.822127 8.560732 -4.253656 
v 2.822127 8.711473 -4.16166 
v 2.822127 8.852589 -4.05549 
v 2.822127 8.982754 -3.936145 
v 2.822127 9.100741 -3.804749 
v 2.822127 9.205441 -3.662538 
v 2.822127 9.295868 -3.510851 
v 2.822127 9.371171 -3.351115 
v 2.822127 9.430642 -3.184834 
v 2.822127 9.473721 -3.013574 

vn 0 1 0
vn 0 -1 0
vn 0.220618 0.6029129 0.7666966
vn -0.220618 -0.6029129 -0.7666966
vn 0.6022886 -0.1143705 -0.7900429
vn 0.3241745 0.5847623 0.7436154
vn -0.9979248 0 -0.06438966
vn -0.9986296 0 -0.05233521
vn -0.9993818 0 -0.0351565
vn 0.3567749 -0.1338428 -0.9245527
vn 1 0 0
vn -0.2902736 0.5915288 0.75222
vn 0.2902736 -0.5915288 -0.75222
vn -0.3961482 -0.1315499 -0.9087141
vn -1 0 0
vn 0 0 1
vn -0.2738928 -0.1377928 -0.9518382
vn 0.9979248 0 0.06438966
vn 0.9993818 0 0.0351565
vn 0.9615927 0 0.2744805
vn 0.9785266 0 0.2061206
vn -0.6022886 0.1143705 0.7900429
vn -0.9904982 0 0.1375254
vn -0.9851382 0 0.1717637
vn 0.9395292 0 0.3424687
vn 0.9265784 0 0.3761017
vn 0.9904982 0 0.1375254
vn 0.9976308 0 0.06879378
vn 0.9986296 0 0.05233521
vn -0.9976308 0 0.06879378
vn -0.9976308 0 -0.06879378
vn -0.9265784 0 -0.3761017
vn -0.9395292 0 -0.3424687
vn -0.9785266 0 -0.2061206
vn -0.9904982 0 -0.1375254
vn -0.9615927 0 -0.2744805
vn 0.2738928 0.1377928 0.9518382
vn -0.3567749 0.1338428 0.9245527
vn 0.3961482 0.1315499 0.9087141
vn 0 0 -1
vn 0 0.01861063 0.9998268
vn 0 0.07481216 0.9971976
vn 0 0.2297896 0.9732404
vn 0 0.3126813 0.9498581
vn 0 0.1509572 0.9885404
vn 0 0.9972124 0.07461542
vn 0 0.9968784 0.07895292
vn 0 0.3957384 0.9183632
vn 0 0.4789263 0.8778551
vn 0 0.5617366 0.8273161
vn 0 0.6392599 0.7689907
vn 0 0.7107668 0.7034277
vn 0 0.7755841 0.6312444
vn 0 0.8331017 0.5531198
vn 0 0.8827786 0.4697894
vn 0 0.9241468 0.3820375
vn 0 0.9568173 0.29069
vn 0 0.9804825 0.1966066

vt 4.64428E-13 12.34871
vt 4.880104 10.46553
vt 1.373923E-12 1.337081E-13
vt 7.38189 -8.400431E-15
vt 8.46788 12.0296
vt 7.86622 1.193215
vt 8.26697 2.429364
vt 8.581469 3.700209
vt 8.581469 11.57061
vt 8.807619 4.997281
vt 8.807619 10.27354
vt 8.943915 6.311935
vt 8.943915 8.958883
vt 8.989449 7.635409
vt 9.84252 1.555798E-13
vt 9.199881 12.34871
vt 11.16804 10.84829
vt 10.32685 1.193215
vt 10.7276 2.429364
vt 11.0421 3.700209
vt 11.26825 4.997281
vt 11.26825 10.27354
vt 11.40455 6.311935
vt 11.40455 8.958883
vt 11.45008 7.635409
vt -35.68985 26.78123
vt -41.95012 26.78123
vt -34.98938 30.81878
vt -41.24965 30.81878
vt -2.304549 37.35066
vt -2.059726 35.36915
vt 0.1703075 37.35066
vt 1.222867 -2.279468
vt 3.625669 -2.279468
vt -9.668013 23.49677
vt -13.58189 23.49677
vt -8.655745 27.46764
vt -12.56962 27.46764
vt -12.21118 39.37008
vt -9.142684 37.40157
vt -9.142684 39.37008
vt -12.21118 37.40157
vt 31.98819 2.557954E-12
vt 32.47252 1.193215
vt 39.37008 4.746425E-12
vt 32.87327 2.429364
vt 33.18777 3.700209
vt 33.41392 4.997281
vt 33.55022 6.311935
vt 33.59575 7.635409
vt 39.37008 12.34871
vt 33.55022 8.958883
vt 33.41392 10.27354
vt 33.35394 10.61756
vt 31.32797 10.03459
vt 31.11235 6.973672
vt 31.08958 6.311935
vt 30.95329 4.997281
vt 30.72714 3.700209
vt 30.41264 2.429364
vt 30.01189 1.193215
vt 29.52756 1.369748E-13
vt 6.497579 -2.253637
vt -0.7851369 37.47389
vt 1.26673 -2.253637
vt 4.445712 37.47389
vt 18.04812 1.807261E-13
vt 7.318033E-13 39.37008
vt 7.318033E-13 1.808406E-13
vt 12.34871 39.37008
vt 0.126804 20.93353
vt -0.7851369 24.92864
vt 5.357653 20.93353
vt 4.445712 24.92864
vt -31.32797 18.04812
vt -11.11074 16.59138
vt -11.11074 18.04812
vt -31.32797 15.73399
vt -39.37008 4.746425E-12
vt -4.880104 16.16494
vt -1.364242E-12 1.421085E-13
vt -3.820979E-31 18.04812
vt -9.199881 18.04812
vt -39.37008 18.04812
vt -8.655745 38.02245
vt -15.64576 -1.69277
vt -10.93335 -1.69277
vt -13.36816 38.02245
vt -12.56962 38.02245
vt -12.34871 39.37008
vt -1.421085E-13 9.689219E-15
vt -1.421085E-13 39.37008
vt -18.04812 9.574711E-15
vt 39.37008 39.37008
vt 1.364242E-12 9.689219E-15
vt 39.37008 9.689219E-15
vt 29.52756 37.40157
vt 29.52756 39.37008
vt 31.98819 39.37008
vt 9.84252 37.40157
vt 1.364242E-12 39.37008
vt 9.84252 39.37008
vt 7.38189 39.37008
vt -34.98938 38.85947
vt -32.96001 36.87201
vt -32.88121 38.85947
vt -41.24965 38.85947
vt -34.45727 -0.8897701
vt -42.82571 -0.8897701
vt -10.03459 39.37008
vt -10.03459 37.40157
vt -10.31956 37.40157
vt -9.664105 39.37008
vt -9.664105 37.40157
vt -10.97329 39.37008
vt -10.97329 37.40157
vt 8.185377 37.40157
vt 8.185377 39.37008
vt 9.102414 37.40157
vt 8.768802 39.37008
vt -10.39045 39.37008
vt -10.39045 37.40157
vt -11.68994 39.37008
vt -11.68994 37.40157
vt -11.10537 39.37008
vt -11.10537 37.40157
vt -12.39313 39.37008
vt -12.39313 37.40157
vt -8.162601 39.37008
vt -8.162601 37.40157
vt -9.484302 39.37008
vt -9.484302 37.40157
vt -7.377186 39.37008
vt -7.377186 37.40157
vt -8.039315 39.37008
vt -8.039315 37.40157
vt -8.923025 39.37008
vt -8.923025 37.40157
vt -10.23967 39.37008
vt -10.23967 37.40157
vt 7.237195 37.40157
vt 7.237195 39.37008
vt 8.561452 37.40157
vt 8.561452 39.37008
vt 7.735063 37.40157
vt 7.735063 39.37008
vt 9.056763 37.40157
vt 9.056763 39.37008
vt 6.700336 37.40157
vt 6.700336 39.37008
vt 8.024593 37.40157
vt 8.024593 39.37008
vt 3.701789 37.40157
vt 3.701789 39.37008
vt 4.989553 37.40157
vt 4.989553 39.37008
vt 5.54185 37.40157
vt 5.54185 39.37008
vt 6.858489 37.40157
vt 6.858489 39.37008
vt 6.132643 37.40157
vt 6.132643 39.37008
vt 7.454343 37.40157
vt 7.454343 39.37008
vt 4.935265 37.40157
vt 4.935265 39.37008
vt 6.244446 37.40157
vt 6.244446 39.37008
vt 4.319764 37.40157
vt 4.319764 39.37008
vt 5.61925 37.40157
vt 5.61925 39.37008
vt -31.32797 26.75919
vt -31.32797 28.05905
vt -11.11074 26.75919
vt -11.11074 28.05905
vt -31.32797 25.34566
vt -31.32797 26.55812
vt -11.11074 25.34566
vt -11.11074 26.55812
vt -31.32797 26.10071
vt -31.32797 27.35609
vt -11.11074 26.10071
vt -11.11074 27.35609
vt -31.32797 26.54552
vt -31.32797 27.83038
vt -11.11074 26.54552
vt -11.11074 27.83038
vt 10.31956 37.40157
vt 11.17695 37.40157
vt 15.73399 2.230459E-13
vt 11.86446 37.29811
vt 12.53872 37.12851
vt 13.19337 36.89437
vt 13.82225 36.59791
vt 14.41944 36.24189
vt 14.97933 35.82969
vt 15.49663 35.36517
vt 15.9665 34.85271
vt 18.04812 2.246608E-13
vt 16.38449 34.29714
vt 16.74668 33.70367
vt 17.01871 33.14183
vt 17.29058 32.42572
vt 17.61771 31.25822
vt 17.85545 30.02555
vt 17.99975 28.74882
vt 18.04812 27.44986
vt -31.32797 3.570156E-13
vt -31.32797 27.44986
vt -11.11074 3.589534E-13
vt -11.11074 27.44986
vt 9.84252 8.878601E-14
vt 29.52756 8.878601E-14
vt 31.32797 11.17695
vt 11.11074 11.17695
vt 31.32797 10.31956
vt -31.32797 22.41299
vt -31.32797 23.03722
vt -11.11074 22.41299
vt -11.11074 23.03722
vt -31.32797 20.04504
vt -31.32797 20.7403
vt -11.11074 20.04504
vt -11.11074 20.7403
vt -31.32797 17.55619
vt -31.32797 18.25145
vt -11.11074 17.55619
vt -11.11074 18.25145
vt -31.32797 14.89883
vt -31.32797 15.59409
vt -11.11074 14.89883
vt -11.11074 15.59409
vt -11.11074 12.79324
vt -11.11074 12.09798
vt -31.32797 12.79324
vt -31.32797 12.09798
vt -11.11074 9.179992
vt -31.32797 9.179992
vt -11.11074 9.87525
vt -31.32797 9.87525
vt -11.11074 6.867591
vt -11.11074 6.172333
vt -31.32797 6.867591
vt -31.32797 6.172333
vt -11.11074 3.103311
vt -31.32797 3.103311
vt -11.11074 3.798569
vt -31.32797 3.798569
vt -11.11074 0.6970673
vt -11.11074 0.001808804
vt -31.32797 0.6970673
vt -31.32797 0.001808804
vt -11.11074 -3.102982
vt -31.32797 -3.102982
vt -11.11074 -2.407723
vt -31.32797 -2.407723
vt -11.11074 -5.486581
vt -11.11074 -6.18184
vt -31.32797 -5.486581
vt -31.32797 -6.18184
vt -31.32797 24.17765
vt -31.32797 24.94363
vt -11.11074 24.17765
vt -11.11074 24.94363
vt -11.17695 37.40157
vt -16.59138 9.860693E-14
vt -11.86446 37.29811
vt -12.53872 37.12851
vt -13.19337 36.89437
vt -13.82225 36.59791
vt -14.41944 36.24189
vt -14.97933 35.82969
vt -15.49663 35.36517
vt -15.9665 34.85271
vt -16.38449 34.29714
vt -16.74668 33.70367
vt -18.04812 9.828396E-14
vt -17.01871 33.14183
vt -17.29058 32.42572
vt -17.61771 31.25822
vt -17.85545 30.02555
vt -17.99975 28.74882
vt -18.04812 27.44986

usemtl natureKit-leavesGreen
# usermap natureKit-leavesGreen

f 2/2/1 1/1/1 3/3/1
f 3/3/1 4/4/1 2/2/1
f 4/4/1 5/5/1 2/2/1
f 4/4/1 6/6/1 5/5/1
f 6/6/1 7/7/1 5/5/1
f 7/7/1 8/8/1 5/5/1
f 8/8/1 9/9/1 5/5/1
f 8/8/1 10/10/1 9/9/1
f 10/10/1 11/11/1 9/9/1
f 10/10/1 12/12/1 11/11/1
f 12/12/1 13/13/1 11/11/1
f 12/12/1 14/14/1 13/13/1
f 2/2/2 3/3/2 1/1/2
f 3/3/2 2/2/2 4/4/2
f 4/4/2 2/2/2 5/5/2
f 4/4/2 5/5/2 6/6/2
f 6/6/2 5/5/2 7/7/2
f 7/7/2 5/5/2 8/8/2
f 8/8/2 5/5/2 9/9/2
f 8/8/2 9/9/2 10/10/2
f 10/10/2 9/9/2 11/11/2
f 10/10/2 11/11/2 12/12/2
f 12/12/2 11/11/2 13/13/2
f 12/12/2 13/13/2 14/14/2
f 6/6/2 15/15/2 4/4/2
f 15/15/2 6/6/2 7/7/2
f 15/15/2 7/7/2 8/8/2
f 15/15/2 8/8/2 10/10/2
f 15/15/2 10/10/2 12/12/2
f 15/15/2 12/12/2 14/14/2
f 15/15/2 14/14/2 16/16/2
f 16/16/2 9/9/2 5/5/2
f 9/9/2 16/16/2 11/11/2
f 11/11/2 16/16/2 13/13/2
f 13/13/2 16/16/2 14/14/2
f 15/15/2 16/16/2 17/17/2
f 15/15/2 17/17/2 18/18/2
f 18/18/2 17/17/2 19/19/2
f 19/19/2 17/17/2 20/20/2
f 20/20/2 17/17/2 21/21/2
f 21/21/2 17/17/2 22/22/2
f 21/21/2 22/22/2 23/23/2
f 23/23/2 22/22/2 24/24/2
f 23/23/2 24/24/2 25/25/2
f 27/27/3 26/26/3 28/28/3
f 28/28/3 29/29/3 27/27/3
f 27/27/4 28/28/4 26/26/4
f 28/28/4 27/27/4 29/29/4
f 30/31/5 17/30/5 16/32/5
f 16/32/5 31/33/5 30/31/5
f 31/33/5 16/32/5 32/34/5
f 34/36/6 33/35/6 2/37/6
f 2/37/6 5/38/6 34/36/6
f 36/40/8 35/39/7 37/41/8
f 35/39/7 36/40/8 38/42/9
f 40/44/1 39/43/1 41/45/1
f 41/45/1 42/46/1 40/44/1
f 41/45/1 43/47/1 42/46/1
f 41/45/1 44/48/1 43/47/1
f 41/45/1 45/49/1 44/48/1
f 41/45/1 46/50/1 45/49/1
f 41/45/1 29/51/1 46/50/1
f 47/52/1 46/50/1 29/51/1
f 48/53/1 47/52/1 29/51/1
f 29/51/1 28/54/1 48/53/1
f 40/44/2 41/45/2 39/43/2
f 41/45/2 40/44/2 42/46/2
f 41/45/2 42/46/2 43/47/2
f 41/45/2 43/47/2 44/48/2
f 41/45/2 44/48/2 45/49/2
f 41/45/2 45/49/2 46/50/2
f 41/45/2 46/50/2 29/51/2
f 47/52/2 29/51/2 46/50/2
f 45/49/2 47/52/2 46/50/2
f 48/53/2 29/51/2 47/52/2
f 44/48/2 48/53/2 45/49/2
f 45/49/2 48/53/2 47/52/2
f 29/51/2 48/53/2 28/54/2
f 39/43/2 28/54/2 40/44/2
f 40/44/2 28/54/2 42/46/2
f 42/46/2 28/54/2 43/47/2
f 43/47/2 28/54/2 44/48/2
f 44/48/2 28/54/2 48/53/2
f 39/43/2 35/55/2 28/54/2
f 39/43/2 37/56/2 35/55/2
f 39/43/2 49/57/2 37/56/2
f 39/43/2 50/58/2 49/57/2
f 39/43/2 51/59/2 50/58/2
f 39/43/2 52/60/2 51/59/2
f 39/43/2 53/61/2 52/60/2
f 53/61/2 39/43/2 54/62/2
f 2/64/10 55/63/10 56/65/10
f 55/63/10 2/64/10 1/66/10
f 41/68/11 57/67/11 58/69/11
f 57/67/11 41/68/11 29/70/11
f 2/72/12 33/71/12 59/73/12
f 59/73/12 1/74/12 2/72/12
f 2/72/13 59/73/13 33/71/13
f 59/73/13 2/72/13 1/74/13
f 31/76/1 60/75/1 61/77/1
f 31/76/1 62/78/1 60/75/1
f 31/76/1 58/79/1 62/78/1
f 56/80/1 58/79/1 31/76/1
f 56/80/1 63/81/1 58/79/1
f 63/81/1 56/80/1 55/82/1
f 56/80/1 31/76/1 32/83/1
f 62/78/1 58/79/1 57/84/1
f 32/86/14 2/85/14 56/87/14
f 2/85/14 32/86/14 16/88/14
f 2/85/14 16/88/14 5/89/14
f 63/91/15 1/90/15 3/92/15
f 1/90/15 63/91/15 55/93/15
f 63/95/16 41/94/16 58/96/16
f 41/94/16 63/95/16 64/97/16
f 41/94/16 64/97/16 54/98/16
f 41/94/16 54/98/16 39/99/16
f 63/95/16 65/100/16 64/97/16
f 65/100/16 63/95/16 3/101/16
f 65/100/16 3/101/16 15/102/16
f 15/102/16 3/101/16 4/103/16
f 66/105/17 28/104/17 35/106/17
f 66/105/17 29/107/17 28/104/17
f 62/108/17 29/107/17 66/105/17
f 29/107/17 62/108/17 57/109/17

usemtl natureKit-wood
# usermap natureKit-wood

f 38/111/19 35/110/18 66/112/11
f 67/114/20 52/113/20 51/115/21
f 51/115/21 68/116/21 67/114/20
f 30/31/22 16/32/22 17/30/22
f 22/118/23 69/117/23 30/119/24
f 30/119/24 17/120/24 22/118/23
f 70/122/25 53/121/25 52/123/20
f 52/123/20 67/124/20 70/122/25
f 64/126/26 54/125/26 53/127/25
f 53/127/25 70/128/25 64/126/26
f 71/130/27 50/129/27 49/131/28
f 49/131/28 72/132/28 71/130/27
f 72/134/28 49/133/28 37/135/29
f 37/135/29 36/136/29 72/134/28
f 68/138/21 51/137/21 50/139/27
f 50/139/27 71/140/27 68/138/21
f 25/142/15 73/141/15 74/143/30
f 74/143/30 24/144/30 25/142/15
f 24/146/30 74/145/30 69/147/23
f 69/147/23 22/148/23 24/146/30
f 23/150/31 75/149/31 73/151/15
f 73/151/15 25/152/15 23/150/31
f 15/154/32 65/153/32 76/155/33
f 76/155/33 18/156/33 15/154/32
f 20/158/34 77/157/34 78/159/35
f 78/159/35 21/160/35 20/158/34
f 21/162/35 78/161/35 75/163/31
f 75/163/31 23/164/31 21/162/35
f 36/40/29 37/41/29 35/39/18
f 35/39/18 38/42/19 36/40/29
f 19/166/36 79/165/36 77/167/34
f 77/167/34 20/168/34 19/166/36
f 18/170/33 76/169/33 79/171/36
f 79/171/36 19/172/36 18/170/33
f 66/105/37 35/106/37 28/104/37
f 53/61/1 54/62/1 39/43/1
f 39/43/1 52/60/1 53/61/1
f 39/43/1 51/59/1 52/60/1
f 39/43/1 50/58/1 51/59/1
f 39/43/1 49/57/1 50/58/1
f 39/43/1 37/56/1 49/57/1
f 39/43/1 35/55/1 37/56/1
f 39/43/1 28/54/1 35/55/1
f 39/43/1 40/44/1 28/54/1
f 40/44/1 42/46/1 28/54/1
f 42/46/1 43/47/1 28/54/1
f 43/47/1 44/48/1 28/54/1
f 44/48/1 48/53/1 28/54/1
f 44/48/1 45/49/1 48/53/1
f 45/49/1 47/52/1 48/53/1
f 45/49/1 46/50/1 47/52/1
f 6/6/1 4/4/1 15/15/1
f 15/15/1 7/7/1 6/6/1
f 15/15/1 8/8/1 7/7/1
f 15/15/1 10/10/1 8/8/1
f 15/15/1 12/12/1 10/10/1
f 15/15/1 14/14/1 12/12/1
f 15/15/1 16/16/1 14/14/1
f 15/15/1 17/17/1 16/16/1
f 15/15/1 18/18/1 17/17/1
f 18/18/1 19/19/1 17/17/1
f 19/19/1 20/20/1 17/17/1
f 20/20/1 21/21/1 17/17/1
f 21/21/1 22/22/1 17/17/1
f 21/21/1 23/23/1 22/22/1
f 23/23/1 24/24/1 22/22/1
f 23/23/1 25/25/1 24/24/1
f 13/13/1 14/14/1 16/16/1
f 11/11/1 13/13/1 16/16/1
f 9/9/1 11/11/1 16/16/1
f 16/16/1 5/5/1 9/9/1

usemtl natureKit-stone
# usermap natureKit-stone

f 2/64/38 56/65/38 55/63/38
f 55/63/38 1/66/38 2/64/38
f 41/68/15 58/69/15 57/67/15
f 57/67/15 29/70/15 41/68/15
f 31/76/2 61/77/2 60/75/2
f 31/76/2 60/75/2 62/78/2
f 31/76/2 62/78/2 58/79/2
f 56/80/2 31/76/2 58/79/2
f 56/80/2 58/79/2 63/81/2
f 63/81/2 55/82/2 56/80/2
f 56/80/2 32/83/2 31/76/2
f 62/78/2 57/84/2 58/79/2
f 32/86/39 56/87/39 2/85/39
f 2/85/39 16/88/39 32/86/39
f 2/85/39 5/89/39 16/88/39
f 63/91/11 3/92/11 1/90/11
f 1/90/11 55/93/11 63/91/11
f 63/95/40 58/96/40 41/94/40
f 41/94/40 64/97/40 63/95/40
f 41/94/40 54/98/40 64/97/40
f 41/94/40 39/99/40 54/98/40
f 63/95/40 64/97/40 65/100/40
f 65/100/40 3/101/40 63/95/40
f 65/100/40 15/102/40 3/101/40
f 15/102/40 4/103/40 3/101/40
f 29/107/37 57/109/37 62/108/37
f 62/108/37 66/105/37 29/107/37
f 66/105/37 28/104/37 29/107/37
f 31/33/22 32/34/22 16/32/22
f 16/32/22 30/31/22 31/33/22

usemtl natureKit-water
# usermap natureKit-water

f 81/174/42 80/173/41 82/175/41
f 82/175/41 83/176/42 81/174/42
f 85/178/44 84/177/43 86/179/43
f 86/179/43 87/180/44 85/178/44
f 84/182/43 88/181/45 89/183/45
f 89/183/45 86/184/43 84/182/43
f 88/186/45 81/185/42 83/187/42
f 83/187/42 89/188/45 88/186/45
f 90/190/15 66/189/15 62/191/15
f 62/191/15 91/192/15 90/190/15
f 62/191/15 92/193/15 91/192/15
f 62/191/15 93/194/15 92/193/15
f 62/191/15 94/195/15 93/194/15
f 62/191/15 95/196/15 94/195/15
f 62/191/15 96/197/15 95/196/15
f 62/191/15 97/198/15 96/197/15
f 62/191/15 98/199/15 97/198/15
f 62/191/15 60/200/15 98/199/15
f 60/200/15 99/201/15 98/199/15
f 60/200/15 100/202/15 99/201/15
f 60/200/15 101/203/15 100/202/15
f 60/200/15 85/204/15 101/203/15
f 60/200/15 84/205/15 85/204/15
f 60/200/15 88/206/15 84/205/15
f 60/200/15 81/207/15 88/206/15
f 60/200/15 80/208/15 81/207/15
f 80/210/41 60/209/16 61/211/16
f 61/211/16 82/212/41 80/210/41
f 76/18/1 65/213/1 64/214/1
f 64/214/1 79/19/1 76/18/1
f 64/214/1 77/20/1 79/19/1
f 64/214/1 78/21/1 77/20/1
f 64/214/1 75/23/1 78/21/1
f 64/214/1 73/25/1 75/23/1
f 73/25/1 64/214/1 90/215/46
f 74/24/1 73/25/1 90/215/46
f 69/22/1 74/24/1 90/215/46
f 90/215/46 30/216/47 69/22/1
f 64/214/1 70/61/1 90/215/46
f 70/61/1 67/60/1 90/215/46
f 67/60/1 68/59/1 90/215/46
f 68/59/1 71/58/1 90/215/46
f 71/58/1 36/56/1 90/215/46
f 71/58/1 72/57/1 36/56/1
f 36/56/1 38/55/1 90/215/46
f 38/55/1 66/217/1 90/215/46
f 100/219/49 101/218/48 102/220/48
f 102/220/48 103/221/49 100/219/49
f 99/223/50 100/222/49 103/224/49
f 103/224/49 104/225/50 99/223/50
f 98/227/51 99/226/50 104/228/50
f 104/228/50 105/229/51 98/227/51
f 97/231/52 98/230/51 105/232/51
f 105/232/51 106/233/52 97/231/52
f 106/235/52 107/234/53 96/236/53
f 96/236/53 97/237/52 106/235/52
f 96/239/53 107/238/53 108/240/54
f 108/240/54 95/241/54 96/239/53
f 108/243/54 109/242/55 94/244/55
f 94/244/55 95/245/54 108/243/54
f 94/247/55 109/246/55 110/248/56
f 110/248/56 93/249/56 94/247/55
f 110/251/56 111/250/57 92/252/57
f 92/252/57 93/253/56 110/251/56
f 92/255/57 111/254/57 112/256/58
f 112/256/58 91/257/58 92/255/57
f 112/259/58 30/258/47 90/260/46
f 90/260/46 91/261/58 112/259/58
f 101/263/48 85/262/44 87/264/44
f 87/264/44 102/265/48 101/263/48
f 31/267/11 30/266/11 112/268/11
f 112/268/11 111/269/11 31/267/11
f 111/269/11 110/270/11 31/267/11
f 110/270/11 109/271/11 31/267/11
f 109/271/11 108/272/11 31/267/11
f 108/272/11 107/273/11 31/267/11
f 107/273/11 106/274/11 31/267/11
f 106/274/11 105/275/11 31/267/11
f 105/275/11 104/276/11 31/267/11
f 104/276/11 103/277/11 31/267/11
f 103/277/11 61/278/11 31/267/11
f 103/277/11 102/279/11 61/278/11
f 102/279/11 87/280/11 61/278/11
f 87/280/11 86/281/11 61/278/11
f 86/281/11 89/282/11 61/278/11
f 89/282/11 83/283/11 61/278/11
f 83/283/11 82/284/11 61/278/11
