# Exported using Kenney Suite 1.2 

mtllib cliffGrey_entrance.mtl 

g cliffGrey_entrance

v 7.697065 4.296056 -4.095575 
v 7.697065 4.296056 0 
v 7.957306 4.296056 -3.996434 
v 8.497065 4.296056 0 
v 8.497065 4.296056 -4.151751 
v 1.948268 4.87419 -4.414858 
v 1.948268 4.87419 0 
v 2.336769 4.87419 -4.584222 
v 3.14827 4.87419 0 
v 3.14827 4.87419 -3.965576 
v 4.249728 7.939458 -3.125881 
v 4.264214 7.979775 -3.135641 
v 4.249728 10 -3.125881 
v 6.414385 10 -4.584222 
v 6.414385 7.979775 -4.584222 
v 7.957306 10 -3.996434 
v 10 10 -4.584222 
v 10 3.609557E-15 -4.584222 
v 9.447803 1.804779E-15 -4.425326 
v 0 10 0 
v 0 10 -4.584222 
v 10 10 0 
v 1.239545 10 -4.105895 
v 2.336769 10 -4.584222 
v 0 0 0 
v 0 3.609557E-15 -4.584222 
v 0.5521989 1.402779E-15 -4.371135 
v 0.5521989 0 0 
v 4.264214 7.979775 0 
v 9.447803 0 0 
v 10 0 0 
v 6.764216 7.979775 -4.450952 
v 6.764216 7.979775 0 
v 1.239545 2.399782 -4.105895 

vn 0 -1 0
vn 0.5587353 0 0.8293461
vn 0.2765306 0 0.9610052
vn 0 1 0
vn 1 0 0
vn -0.9410867 -0.3381653 0
vn 0.9763764 -0.2160768 0
vn -0.356 0 0.9344859
vn 0.9694 -0.2454866 0
vn -0.9613442 -0.2753494 0
vn -1 0 0
vn -0.6062669 0 0.7952613
vn 0.3996211 0 0.9166803
vn -0.3600141 0 0.9329468
vn 0 0 -1

vt -30.3034 16.12431
vt -30.3034 1.187095E-15
vt -31.32797 15.73399
vt -33.45301 1.187095E-15
vt -33.45301 16.34548
vt -7.670352 17.38133
vt -7.670352 -2.785126E-15
vt -9.199881 18.04812
vt -12.39476 -2.785126E-15
vt -12.39476 15.6125
vt -20.7521 31.25771
vt -20.82088 31.41644
vt -20.7521 39.37008
vt -31.028 39.37008
vt -31.028 31.41644
vt -34.45727 16.91361
vt -36.66854 16.91361
vt -34.45727 39.37008
vt -42.82571 39.37008
vt -42.82571 1.313196E-14
vt -40.56348 6.026536E-15
vt 1.324482E-15 1.980778E-14
vt 1.324482E-15 18.04812
vt 39.37008 1.980778E-14
vt 4.880104 16.16494
vt 16.73121 12.30662
vt 9.199881 18.04812
vt 25.25348 18.04812
vt 31.32797 15.73399
vt 39.37008 18.04812
vt 0 39.37008
vt 0 0
vt -18.04812 39.37008
vt -18.04812 1.421085E-14
vt 2.684596E-29 18.04812
vt -2.174007 17.20919
vt -2.174007 2.321438E-30
vt 1.765913E-14 22.25067
vt 2.391864E-14 35.2428
vt 15.6125 22.25067
vt 12.30662 35.07413
vt 12.34504 35.2428
vt -1.956723E-15 9.285626
vt -2.175661E-15 -8.037209
vt -16.34548 9.285626
vt -17.42255 -8.037209
vt -37.19607 17.42255
vt -37.19607 -3.477808E-29
vt -39.37008 18.04812
vt -39.37008 -3.681076E-29
vt -22.57785 16.91361
vt -23.67425 16.91361
vt -18.64774 31.41644
vt -23.67425 39.37008
vt -17.17389 31.41644
vt -17.17389 39.37008
vt 2.639911E-15 23.9176
vt 3.003979E-15 8.956968
vt -17.52343 23.9176
vt -16.12431 8.956968
vt -6.529222E-17 0.5986117
vt -2.303646E-16 20.55996
vt 17.20919 0.5986117
vt 16.16494 10.42648
vt 17.38133 20.55996
vt -16.78825 12.34504
vt -16.78825 -1.712672E-14
vt -25.25348 18.04812
vt -26.63077 -1.712672E-14
vt -26.63077 17.52343
vt -3.099949E-12 -1.759209E-29
vt -3.099949E-12 39.37008
vt 18.04812 1.421085E-14
vt 18.04812 39.37008
vt 3.625669 19.18972
vt -0.3917297 19.18972
vt 3.625669 39.37008
vt -5.84459 31.25771
vt -5.84459 39.37008
vt -10.93335 9.44796
vt -13.97721 19.18972
vt -10.93335 39.37008
vt -15.64576 39.37008
vt -15.64576 19.18972
vt 4.167321 4.787061E-15
vt 1.26673 9.44796
vt 6.497579 1.347517E-14
vt 6.497579 39.37008
vt 1.26673 39.37008
vt 12.39476 19.18972
vt 7.670352 19.18972
vt 16.78825 31.41644
vt 2.174007 0
vt 39.37008 39.37008
vt 26.63077 31.41644
vt 33.45301 16.91361
vt 37.19607 0
vt 39.37008 0
vt 30.3034 16.91361

usemtl natureKit-stone
# usermap natureKit-stone

f 2/2/1 1/1/1 3/3/1
f 3/3/1 4/4/1 2/2/1
f 3/3/1 5/5/1 4/4/1
f 7/7/1 6/6/1 8/8/1
f 8/8/1 9/9/1 7/7/1
f 8/8/1 10/10/1 9/9/1
f 12/12/2 11/11/2 13/13/2
f 12/12/2 13/13/2 14/14/2
f 14/14/2 15/15/2 12/12/2
f 5/17/3 3/16/3 16/18/3
f 5/17/3 16/18/3 17/19/3
f 5/17/3 17/19/3 18/20/3
f 18/20/3 19/21/3 5/17/3
f 21/23/4 20/22/4 22/24/4
f 22/24/4 23/25/4 21/23/4
f 22/24/4 13/26/4 23/25/4
f 13/26/4 24/27/4 23/25/4
f 22/24/4 14/28/4 13/26/4
f 22/24/4 16/29/4 14/28/4
f 22/24/4 17/30/4 16/29/4
f 25/32/5 20/31/5 21/33/5
f 21/33/5 26/34/5 25/32/5
f 25/32/1 26/35/1 27/36/1
f 27/36/1 28/37/1 25/32/1
f 29/39/6 9/38/6 10/40/6
f 10/40/6 11/41/6 29/39/6
f 29/39/6 11/41/6 12/42/6
f 30/44/7 4/43/7 5/45/7
f 5/45/7 19/46/7 30/44/7
f 30/48/1 19/47/1 18/49/1
f 18/49/1 31/50/1 30/48/1
f 3/52/8 1/51/8 32/53/8
f 32/53/8 16/54/8 3/52/8
f 32/53/8 15/55/8 16/54/8
f 15/55/8 14/56/8 16/54/8
f 2/58/9 33/57/9 32/59/9
f 32/59/9 1/60/9 2/58/9
f 7/62/10 28/61/10 27/63/10
f 27/63/10 34/64/10 7/62/10
f 7/62/10 34/64/10 6/65/10
f 29/67/1 12/66/1 15/68/1
f 15/68/1 33/69/1 29/67/1
f 15/68/1 32/70/1 33/69/1
f 22/72/11 31/71/11 18/73/11
f 18/73/11 17/74/11 22/72/11
f 10/76/12 8/75/12 24/77/12
f 24/77/12 11/78/12 10/76/12
f 24/77/12 13/79/12 11/78/12
f 6/81/13 34/80/13 23/82/13
f 6/81/13 23/82/13 24/83/13
f 24/83/13 8/84/13 6/81/13
f 34/86/14 27/85/14 26/87/14
f 26/87/14 21/88/14 34/86/14
f 21/88/14 23/89/14 34/86/14
f 7/91/15 9/90/15 29/92/15
f 7/91/15 29/92/15 20/31/15
f 7/91/15 20/31/15 25/32/15
f 25/32/15 28/93/15 7/91/15
f 29/92/15 22/94/15 20/31/15
f 22/94/15 29/92/15 33/95/15
f 22/94/15 33/95/15 4/96/15
f 22/94/15 4/96/15 30/97/15
f 30/97/15 31/98/15 22/94/15
f 2/99/15 4/96/15 33/95/15
