# Exported using Kenney Suite 1.2 

mtllib cliffGrey_blockHalf.mtl 

g cliffGrey_blockHalf

v 0 0 -10 
v 0 0 0 
v 10 0 -10 
v 10 0 0 
v 10 7.5 0 
v 10 7.5 -10 
v 0 7.5 -10 
v 0 7.5 0 

vn 0 -1 0
vn -1 0 0
vn 0 0 1
vn 1 0 0
vn 0 0 -1
vn 0 1 0

vt 0 39.37008
vt 0 0
vt -39.37008 39.37008
vt -39.37008 0
vt 0 29.52756
vt 39.37008 0
vt 39.37008 29.52756
vt -39.37008 29.52756
vt 39.37008 39.37008

usemtl natureKit-stone
# usermap natureKit-stone

f 2/2/1 1/1/1 3/3/1
f 3/3/1 4/4/1 2/2/1
f 5/5/2 4/2/2 3/6/2
f 3/6/2 6/7/2 5/5/2
f 3/4/3 1/2/3 7/5/3
f 7/5/3 6/8/3 3/4/3
f 2/2/4 8/5/4 7/8/4
f 7/8/4 1/4/4 2/2/4
f 2/2/5 4/6/5 5/7/5
f 5/7/5 8/5/5 2/2/5

usemtl natureKit-leavesGreen
# usermap natureKit-leavesGreen

f 7/1/6 8/2/6 5/6/6
f 5/6/6 6/9/6 7/1/6
