# Exported using Kenney Suite 1.2 

mtllib cliffGrey_halfCornerInner.mtl 

g cliffGrey_halfCornerInner

v 3.136573 5 -3.585616 
v 1.678231 5 -5.750272 
v 3.779974 4.181818 -3.585616 
v 2.321632 4.181818 -5.750272 
v 3.136573 5 -7.66323 
v 2.658246 5 -8.760453 
v 3.779974 4.181818 -7.66323 
v 3.66039 4.181818 -7.937536 
v 3.37996 4.386364 -8.211842 
v 3.421228 4.181818 -8.486148 
v 3.301644 4.181818 -8.760453 
v 0 5 -10 
v 3.136573 5 -10 
v 0 5 -7.219114E-15 
v 2.824004 5 -2.765131 
v 4.249728 5 -1.678231 
v 10 5 -1.176716E-12 
v 6.414385 5 -3.136573 
v 7.957306 5 -2.548785 
v 10 5 -3.136573 
v 4.584222 3.281416E-15 -7.66323 
v 4.105895 0 -8.760453 
v 4.584222 3.281416E-15 -3.585616 
v 3.12588 3.281416E-15 -5.750272 
v 3.779974 4.181818 -10 
v 4.249728 0.3985592 -3.010486 
v 4.464104 3.197593E-15 -3.270307 
v 0 2.461062E-15 -10 
v 4.584222 2.431976E-15 -10 
v 2.729101 4.590909 -6.706752 
v 2.686217 4.181818 -6.228512 
v 3.415387 4.181818 -7.184991 
v 0 2.461062E-15 0 
v 10 2.461062E-15 -1.176716E-12 
v 6.414385 3.281416E-15 -4.584222 
v 7.957306 2.461062E-15 -3.996434 
v 10 2.431976E-15 -4.584222 
v 6.414385 4.181818 -3.779973 
v 6.803088 4.181818 -3.631892 
v 7.185845 4.590909 -3.164379 
v 7.957306 4.181818 -3.192185 
v 7.5686 4.181818 -3.340265 
v 4.249728 4.181818 -2.321631 
v 10 4.181818 -3.779973 
v 3.220582 4.52875 -2.833379 
v 3.631892 4.181818 -3.19691 
v 3.293247 4.590909 -2.729102 
v 3.771489 4.181818 -2.686217 

vn -0.6946675 0.5462708 0.4680015
vn 0.6946675 -0.5462708 -0.4680015
vn -0.7436154 0.5847623 0.3241745
vn 0.7436154 -0.5847623 -0.3241745
vn 0 1 0
vn 0 -1 0
vn 0.8860061 -0.2565252 -0.3862489
vn 0.8064235 -0.2334837 -0.5432923
vn -0.75222 0.5915288 -0.2902736
vn 0.75222 -0.5915288 0.2902736
vn 0.9020523 -0.2611711 0.3436442
vn 0 0 -1
vn -0.6742664 0.5302278 -0.5140265
vn 0.6742664 -0.5302278 0.5140265
vn 0.7749833 -0.2243808 0.590808
vn 0.9006678 -0.2607702 0.347558
vn 0 0 1
vn 0.590808 -0.2243808 -0.7749833
vn 1 0 0
vn 0.3436442 -0.2611711 -0.9020523
vn -0.2868714 0.5921627 0.753026
vn 0.2868714 -0.5921627 -0.753026
vn -0.5432923 -0.2334837 -0.8064235
vn 0.4680015 0.5462708 0.6946675
vn -0.4680015 -0.5462708 -0.6946675
vn -0.2664104 -0.268057 -0.9258353
vn 0.220618 0.6029129 0.7666966
vn -0.220618 -0.6029129 -0.7666966
vn -1 0 0
vn -0.753026 0.5921627 -0.2868714
vn 0.753026 -0.5921627 0.2868714
vn -0.5140265 0.5302278 0.6742664
vn 0.5140265 -0.5302278 -0.6742664
vn -0.8860061 0.2565252 0.3862489
vn -0.8064235 0.2334837 0.5432923
vn -0.9020523 0.2611711 -0.3436442
vn -0.7749833 0.2243808 -0.590808
vn -0.9006678 0.2607702 -0.347558
vn -0.590808 0.2243808 0.7749833
vn -0.3436442 0.2611711 0.9020523
vn 0.5432923 0.2334837 0.8064235
vn 0.2664104 0.268057 0.9258353

vt 4.807881 6.585127
vt 15.08377 6.585127
vt 3.392565 2.739431
vt 13.66846 2.739431
vt 22.72162 2.298914
vt 27.43403 2.298914
vt 21.70935 -1.671956
vt 22.88746 -1.671956
vt 24.31863 -0.6792381
vt 25.24366 -1.671956
vt 26.42177 -1.671956
vt 6.60721 22.63887
vt 10.46553 34.48997
vt 12.34871 30.1702
vt -1.43511E-16 39.37008
vt 12.34871 39.37008
vt 6.082102E-12 2.644849E-14
vt 11.11812 10.88634
vt 16.73121 6.60721
vt 39.37008 4.630765E-12
vt 25.25348 12.34871
vt 31.32797 10.03459
vt 39.37008 12.34871
vt 12.34871 14.1166
vt 20.44402 -7.336879
vt 27.43403 13.02968
vt 22.72162 13.02968
vt 25.15643 -7.336879
vt 1.623421 -5.336405
vt 15.08377 14.90818
vt 4.807881 14.90818
vt 11.89931 -5.336405
vt 35.94505 17.44111
vt 41.1759 17.44111
vt 36.85699 13.44601
vt 42.08784 13.44601
vt 17.03213 -1.46677
vt 17.5879 17.3005
vt 14.13119 17.3005
vt 18.28849 -3.092319
vt 19.61689 -3.092319
vt -4.395756E-12 -1.476418E-14
vt -12.34871 19.68504
vt -18.04812 -1.487868E-14
vt -4.395756E-12 19.68504
vt 22.00955 21.18148
vt 31.47981 21.18148
vt 23.54526 17.38226
vt 27.51254 19.28187
vt 25.91283 17.38226
vt 30.64796 17.38226
vt 33.01552 17.38226
vt 25.46491 0.8836609
vt 31.47981 21.08377
vt 22.00955 21.08377
vt 34.93517 0.8836609
vt 37.99692 -0.6947313
vt 41.1759 19.6958
vt 35.94505 19.6958
vt 43.22777 -0.6947313
vt 39.37008 19.68504
vt 6.082246E-12 9.689219E-15
vt 39.37008 9.689219E-15
vt 6.082246E-12 19.68504
vt -9.299952 15.72808
vt -6.120024 -2.861846
vt -2.241784 15.72808
vt -18.04812 39.37008
vt -6.082246E-12 -5.934224E-31
vt 1.218302E-31 39.37008
vt -16.16494 34.48997
vt -12.30662 22.63887
vt -18.04812 30.1702
vt -17.57521 12.87522
vt -18.04812 14.1166
vt -39.37008 4.632739E-12
vt -25.25348 18.04812
vt -31.32797 15.73399
vt -39.37008 18.04812
vt 18.04812 3.703116E-14
vt 1.68112E-12 19.68504
vt 1.68112E-12 3.714566E-14
vt 12.34871 19.68504
vt -17.17389 -6.752828
vt -25.70324 13.63999
vt -23.67425 -6.752828
vt -19.20288 13.63999
vt -18.30111 -0.2919074
vt -19.93873 -0.2919074
vt -19.20288 3.705504
vt -22.00217 1.706799
vt -25.70324 3.705504
vt -24.80146 -0.2919074
vt -23.16384 -0.2919074
vt -20.49827 1.413375
vt -31.028 -0.2003583
vt -21.76977 -0.2003583
vt -27.84354 20.04423
vt -17.56764 20.04423
vt -18.98296 14.756
vt -29.25885 14.756
vt -17.56764 18.60169
vt -27.84354 18.60169
vt -34.45727 -1.730926
vt -41.24965 18.70189
vt -42.82571 -1.730926
vt -32.88121 18.70189
vt -33.58168 11.07637
vt -41.95012 11.07637
vt -32.88121 15.11392
vt -41.24965 15.11392
vt -2.842171E-14 19.68504
vt -39.37008 9.689219E-15
vt 9.642973E-25 9.689219E-15
vt -39.37008 19.68504
vt 14.13119 12.00511
vt 17.5879 12.00511
vt 14.93811 9.702711
vt 16.85205 8.007696
vt 18.48968 8.007696
vt -3.320555 6.337351
vt -3.796964 6.625985
vt -2.241784 8.525595
vt -9.299952 8.525595
vt -7.764235 4.726375
vt -5.396671 4.726375

usemtl natureKit-leavesGreen
# usermap natureKit-leavesGreen

f 2/2/1 1/1/1 3/3/1
f 3/3/1 4/4/1 2/2/1
f 2/2/2 3/3/2 1/1/2
f 3/3/2 2/2/2 4/4/2
f 6/6/3 5/5/3 7/7/3
f 7/7/3 8/8/3 6/6/3
f 8/8/3 9/9/3 6/6/3
f 9/9/3 10/10/3 6/6/3
f 10/10/3 11/11/3 6/6/3
f 6/6/4 7/7/4 5/5/4
f 7/7/4 6/6/4 8/8/4
f 8/8/4 6/6/4 9/9/4
f 9/9/4 6/6/4 10/10/4
f 10/10/4 6/6/4 11/11/4
f 6/13/5 2/12/5 5/14/5
f 12/15/5 2/12/5 6/13/5
f 6/13/5 13/16/5 12/15/5
f 12/15/5 14/17/5 2/12/5
f 15/18/5 2/12/5 14/17/5
f 14/17/5 16/19/5 15/18/5
f 14/17/5 17/20/5 16/19/5
f 17/20/5 18/21/5 16/19/5
f 17/20/5 19/22/5 18/21/5
f 17/20/5 20/23/5 19/22/5
f 2/12/5 15/18/5 1/24/5
f 6/13/6 5/14/6 2/12/6
f 12/15/6 6/13/6 2/12/6
f 6/13/6 12/15/6 13/16/6
f 12/15/6 2/12/6 14/17/6
f 15/18/6 14/17/6 2/12/6
f 14/17/6 15/18/6 16/19/6
f 14/17/6 16/19/6 17/20/6
f 17/20/6 16/19/6 18/21/6
f 17/20/6 18/21/6 19/22/6
f 17/20/6 19/22/6 20/23/6
f 2/12/6 1/24/6 15/18/6
f 6/26/7 21/25/7 5/27/7
f 21/25/7 6/26/7 22/28/7
f 2/30/8 23/29/8 1/31/8
f 23/29/8 2/30/8 24/32/8
f 13/34/9 6/33/9 11/35/9
f 11/35/9 25/36/9 13/34/9
f 13/34/10 11/35/10 6/33/10
f 11/35/10 13/34/10 25/36/10
f 1/38/11 26/37/11 15/39/11
f 26/37/11 1/38/11 27/40/11
f 27/40/11 1/38/11 23/41/11
f 13/43/12 28/42/12 29/44/12
f 28/42/12 13/43/12 12/45/12
f 5/47/13 2/46/13 4/48/13
f 4/48/13 30/49/13 5/47/13
f 4/48/13 31/50/13 30/49/13
f 30/49/13 32/51/13 5/47/13
f 32/51/13 7/52/13 5/47/13
f 5/47/14 4/48/14 2/46/14
f 4/48/14 5/47/14 30/49/14
f 4/48/14 30/49/14 31/50/14
f 30/49/14 5/47/14 32/51/14
f 32/51/14 5/47/14 7/52/14
f 5/54/15 24/53/15 2/55/15
f 24/53/15 5/54/15 21/56/15
f 13/58/16 22/57/16 6/59/16
f 22/57/16 13/58/16 29/60/16
f 33/62/17 17/61/17 34/63/17
f 17/61/17 33/62/17 14/64/17
f 26/66/18 16/65/18 15/67/18
f 33/69/5 29/68/5 28/70/5
f 29/68/5 33/69/5 22/71/5
f 22/71/5 33/69/5 24/72/5
f 24/72/5 21/73/5 22/71/5
f 33/69/5 27/74/5 24/72/5
f 27/74/5 23/75/5 24/72/5
f 27/74/5 33/69/5 34/76/5
f 27/74/5 34/76/5 35/77/5
f 35/77/5 34/76/5 36/78/5
f 36/78/5 34/76/5 37/79/5
f 17/81/19 37/80/19 34/82/19
f 37/80/19 17/81/19 20/83/19
f 19/85/20 35/84/20 36/86/20
f 35/84/20 19/85/20 18/87/20
f 39/89/21 38/88/21 18/90/21
f 18/90/21 40/91/21 39/89/21
f 40/91/21 18/90/21 19/92/21
f 40/91/21 19/92/21 41/93/21
f 41/93/21 42/94/21 40/91/21
f 39/89/22 18/90/22 38/88/22
f 18/90/22 39/89/22 40/91/22
f 40/91/22 19/92/22 18/90/22
f 40/91/22 41/93/22 19/92/22
f 41/93/22 40/91/22 42/94/22
f 35/96/23 26/95/23 27/97/23
f 26/95/23 35/96/23 18/98/23
f 26/95/23 18/98/23 16/99/23
f 38/101/24 43/100/24 16/102/24
f 16/102/24 18/103/24 38/101/24
f 38/101/25 16/102/25 43/100/25
f 16/102/25 38/101/25 18/103/25
f 20/105/26 36/104/26 37/106/26
f 36/104/26 20/105/26 19/107/26
f 44/109/27 41/108/27 19/110/27
f 19/110/27 20/111/27 44/109/27
f 44/109/28 19/110/28 41/108/28
f 19/110/28 44/109/28 20/111/28
f 28/113/29 14/112/29 33/114/29
f 14/112/29 28/113/29 12/115/29
f 1/117/30 15/116/30 45/118/30
f 45/118/30 46/119/30 1/117/30
f 46/119/30 3/120/30 1/117/30
f 1/117/31 45/118/31 15/116/31
f 45/118/31 1/117/31 46/119/31
f 46/119/31 1/117/31 3/120/31
f 47/122/32 45/121/32 15/123/32
f 47/122/32 15/123/32 16/124/32
f 47/122/32 16/124/32 43/125/32
f 43/125/32 48/126/32 47/122/32
f 47/122/33 15/123/33 45/121/33
f 47/122/33 16/124/33 15/123/33
f 47/122/33 43/125/33 16/124/33
f 43/125/33 47/122/33 48/126/33

usemtl natureKit-stone
# usermap natureKit-stone

f 6/26/34 5/27/34 21/25/34
f 21/25/34 22/28/34 6/26/34
f 2/30/35 1/31/35 23/29/35
f 23/29/35 24/32/35 2/30/35
f 1/38/36 15/39/36 26/37/36
f 26/37/36 27/40/36 1/38/36
f 27/40/36 23/41/36 1/38/36
f 13/43/17 29/44/17 28/42/17
f 28/42/17 12/45/17 13/43/17
f 5/54/37 2/55/37 24/53/37
f 24/53/37 21/56/37 5/54/37
f 13/58/38 6/59/38 22/57/38
f 22/57/38 29/60/38 13/58/38
f 33/62/12 34/63/12 17/61/12
f 17/61/12 14/64/12 33/62/12
f 26/66/39 15/67/39 16/65/39
f 33/69/6 28/70/6 29/68/6
f 29/68/6 22/71/6 33/69/6
f 22/71/6 24/72/6 33/69/6
f 24/72/6 22/71/6 21/73/6
f 33/69/6 24/72/6 27/74/6
f 27/74/6 24/72/6 23/75/6
f 27/74/6 34/76/6 33/69/6
f 27/74/6 35/77/6 34/76/6
f 35/77/6 36/78/6 34/76/6
f 36/78/6 37/79/6 34/76/6
f 17/81/29 34/82/29 37/80/29
f 37/80/29 20/83/29 17/81/29
f 19/85/40 36/86/40 35/84/40
f 35/84/40 18/87/40 19/85/40
f 35/96/41 27/97/41 26/95/41
f 26/95/41 18/98/41 35/96/41
f 26/95/41 16/99/41 18/98/41
f 20/105/42 37/106/42 36/104/42
f 36/104/42 19/107/42 20/105/42
f 28/113/19 33/114/19 14/112/19
f 14/112/19 12/115/19 28/113/19
