# Exported using Kenney Suite 1.2 

mtllib cliffGrey_cornerInnerMid.mtl 

g cliffGrey_cornerInnerMid

v 3.12588 5.414336E-15 -5.750272 
v 4.464104 5.229925E-15 -3.270307 
v 4.584222 5.414336E-15 -3.585616 
v 0 0 -10 
v 0 0 0 
v 10 0 0 
v 6.414385 5.414336E-15 -4.584222 
v 7.957306 3.609557E-15 -3.996434 
v 10 3.609557E-15 -4.584222 
v 4.105895 1.804779E-15 -8.760453 
v 4.584222 3.609557E-15 -10 
v 4.584222 5.414336E-15 -7.66323 
v 4.464104 10 -3.270307 
v 6.414385 10 -4.584222 
v 0 10 0 
v 0 10 -10 
v 10 10 0 
v 4.584222 10 -10 
v 4.105895 10 -8.760453 
v 4.584222 10 -7.66323 
v 3.12588 10 -5.750272 
v 4.584222 10 -3.585616 
v 7.957306 10 -3.996434 
v 10 10 -4.584222 

vn 0 -1 0
vn 0.5587353 0 0.8293461
vn 1 0 0
vn 0 0 -1
vn 0 0 1
vn -0.9329468 0 -0.3600141
vn -0.9166803 0 0.3996211
vn -0.7952613 0 -0.6062669
vn -0.8293461 0 0.5587353
vn 0 1 0
vn 0.2765306 0 0.9610052
vn -1 0 0
vn -0.356 0 0.9344859
vn -0.9344859 0 -0.356

vt -12.30662 22.63887
vt -17.57521 12.87522
vt -18.04812 14.1166
vt -2.273737E-13 39.37008
vt 0 0
vt -39.37008 -5.086357E-31
vt -25.25348 18.04812
vt -31.32797 15.73399
vt -39.37008 18.04812
vt -16.16494 34.48997
vt -18.04812 39.37008
vt -18.04812 30.1702
vt -21.76977 2.059026E-14
vt -31.028 2.131628E-14
vt -21.76977 39.37008
vt -31.028 39.37008
vt 0 39.37008
vt -39.37008 39.37008
vt -39.37008 2.802597E-45
vt 39.37008 5.997557E-43
vt 39.37008 39.37008
vt 3.051278E-14 0
vt -18.04812 1.421085E-14
vt 3.051278E-14 39.37008
vt 37.99692 7.100534E-15
vt 37.99692 39.37008
vt 43.22777 1.420596E-14
vt 43.22777 39.37008
vt 20.44402 3.219553E-14
vt 20.44402 39.37008
vt 25.15643 1.798468E-14
vt 25.15643 39.37008
vt 25.46491 2.014989E-14
vt 25.46491 39.37008
vt 34.93517 2.014989E-14
vt 34.93517 39.37008
vt 1.623421 2.934177E-14
vt 1.623421 39.37008
vt 11.89931 2.934177E-14
vt 11.89931 39.37008
vt 2.299546E-13 39.37008
vt 17.57521 12.87522
vt 2.580976E-15 1.194854E-15
vt 39.37008 1.194854E-15
vt 12.30662 22.63887
vt 25.25348 18.04812
vt 31.32797 15.73399
vt 39.37008 18.04812
vt 18.04812 14.1166
vt 16.16494 34.48997
vt 18.04812 30.1702
vt 18.04812 39.37008
vt -34.45727 1.421085E-14
vt -42.82571 1.421085E-14
vt -34.45727 39.37008
vt -42.82571 39.37008
vt -3.099949E-12 -1.759209E-29
vt -3.099949E-12 39.37008
vt 18.04812 1.421085E-14
vt -23.67425 2.353642E-14
vt -23.67425 39.37008
vt -17.17389 3.064185E-14
vt -17.17389 39.37008
vt 18.28849 2.059177E-14
vt 18.28849 39.37008
vt 19.61689 2.131779E-14
vt 19.61689 39.37008

usemtl natureKit-stone
# usermap natureKit-stone

f 2/2/1 1/1/1 3/3/1
f 4/4/1 1/1/1 2/2/1
f 5/5/1 4/4/1 2/2/1
f 2/2/1 6/6/1 5/5/1
f 2/2/1 7/7/1 6/6/1
f 7/7/1 8/8/1 6/6/1
f 8/8/1 9/9/1 6/6/1
f 10/10/1 1/1/1 4/4/1
f 4/4/1 11/11/1 10/10/1
f 1/1/1 10/10/1 12/12/1
f 7/14/2 2/13/2 13/15/2
f 13/15/2 14/16/2 7/14/2
f 5/5/3 15/17/3 16/18/3
f 16/18/3 4/19/3 5/5/3
f 5/5/4 6/20/4 17/21/4
f 17/21/4 15/17/4 5/5/4
f 11/23/5 4/22/5 16/24/5
f 16/24/5 18/11/5 11/23/5
f 19/26/6 10/25/6 11/27/6
f 11/27/6 18/28/6 19/26/6
f 20/30/7 12/29/7 10/31/7
f 10/31/7 19/32/7 20/30/7
f 21/34/8 1/33/8 12/35/8
f 12/35/8 20/36/8 21/34/8
f 22/38/9 3/37/9 1/39/9
f 1/39/9 21/40/9 22/38/9
f 13/42/10 16/41/10 15/43/10
f 15/43/10 17/44/10 13/42/10
f 13/42/10 21/45/10 16/41/10
f 17/44/10 14/46/10 13/42/10
f 17/44/10 23/47/10 14/46/10
f 17/44/10 24/48/10 23/47/10
f 21/45/10 13/42/10 22/49/10
f 16/41/10 21/45/10 19/50/10
f 19/50/10 21/45/10 20/51/10
f 19/50/10 18/52/10 16/41/10
f 9/54/11 8/53/11 23/55/11
f 23/55/11 24/56/11 9/54/11
f 17/58/12 6/57/12 9/59/12
f 9/59/12 24/52/12 17/58/12
f 23/61/13 8/60/13 7/62/13
f 7/62/13 14/63/13 23/61/13
f 13/65/14 2/64/14 3/66/14
f 3/66/14 22/67/14 13/65/14
