# Exported using Kenney Suite 1.2 

mtllib cliffGrey_top.mtl 

g cliffGrey_top

v 0 2.431977E-15 -4.584222 
v 0 2.461062E-15 0 
v 1.239545 0 -4.105895 
v 10 2.461062E-15 -1.167E-12 
v 4.249728 3.281416E-15 -3.12588 
v 2.336769 3.281416E-15 -4.584222 
v 6.414385 3.281416E-15 -4.584222 
v 7.957306 2.461062E-15 -3.996434 
v 10 2.431977E-15 -4.584222 
v 0 10 0 
v 0 10 -3.136573 
v 7.957306 10 -2.548785 
v 6.414385 10 -3.136573 
v 1.239545 10 -2.658246 
v 2.336769 10 -3.136573 
v 4.249728 10 -1.678231 
v 10 10 -3.136573 
v 10 10 -1.167E-12 
v 1.239545 9.181818 -3.301646 
v 0 9.181818 -3.779973 
v 4.249728 9.181818 -2.321631 
v 6.414385 9.181818 -3.779973 
v 7.957306 9.181818 -3.192185 
v 10 9.181818 -3.779973 
v 6.803088 9.181818 -3.631892 
v 7.185845 9.59091 -3.164379 
v 7.5686 9.181818 -3.340265 
v 2.336769 9.181818 -3.779973 
v 2.815008 9.181818 -3.415388 
v 3.29325 9.59091 -2.729102 
v 3.771489 9.181818 -2.686217 
v 1.513853 9.181818 -3.421228 
v 1.788158 9.386363 -3.379959 
v 2.062464 9.181818 -3.660391 

vn 0 -1 0
vn 1 0 0
vn -0.2975294 0.1541752 0.9421816
vn 0.3359028 0.1521055 0.9295338
vn -0.5291687 0.1370257 0.8373795
vn 0.2291324 0.1571922 0.9606191
vn 0.4826752 0.1414316 0.8643043
vn 0 0 -1
vn -0.3010336 0.1539977 0.941097
vn -1 0 0
vn 0 1 0
vn -0.2325247 0.646154 0.7269232
vn 0.3851876 0.6131004 0.6897379
vn 0.1755092 0.6540514 0.7358079
vn -0.2297111 0.646598 0.7274227
vn -0.4270738 0.600729 0.6758201
vn 0.260746 0.6413818 0.7215545

vt -8.91695E-31 44.88189
vt -4.092726E-12 3.11369E-32
vt -14.64031 40.19882
vt -118.1102 1.142553E-11
vt -50.19363 30.60397
vt -27.59964 44.88189
vt -75.76044 44.88189
vt -93.98392 39.12714
vt -118.1102 44.88189
vt 3.701594E-25 86.61417
vt 3.701594E-25 2.131628E-14
vt -30.70866 86.61417
vt -44.88189 2.106436E-14
vt -77.83913 -10.1158
vt -82.10712 77.54651
vt -58.72861 -10.1158
vt -62.99659 77.54651
vt -27.43074 -4.993693
vt -41.21027 -4.993693
vt -22.61386 82.64017
vt -36.39339 82.64017
vt 0.6448023 -7.2192
vt -26.08247 -7.2192
vt -6.926645 80.21974
vt -33.65392 80.21974
vt -125.3006 -2.554936
vt -122.0121 85.14957
vt -100.4974 -2.554936
vt -97.20899 85.14957
vt -58.74485 -0.3177277
vt -88.02831 -0.3177277
vt -51.83432 87.17593
vt -81.11777 87.17593
vt 118.1102 2.131628E-14
vt 4.092726E-12 2.131628E-14
vt 118.1102 86.61417
vt 4.092726E-12 86.61417
vt -1.697003 -6.583115
vt -6.015131 81.07674
vt 13.67407 -6.583115
vt 9.355944 81.07674
vt 5.684342E-14 2.131628E-14
vt 5.684342E-14 86.61417
vt 44.88189 2.106436E-14
vt 30.70866 86.61417
vt 1.369618E-12 30.70866
vt 14.64031 26.02559
vt 4.098102E-12 -8.364162E-15
vt 50.19363 16.43075
vt 118.1102 1.141716E-11
vt 27.59964 30.70866
vt 75.76044 30.70866
vt 93.98392 24.95391
vt 118.1102 30.70866
vt -4.095963 37.92006
vt -6.015131 47.20537
vt 11.27511 37.92006
vt 9.355944 47.20537
vt -54.90567 65.66468
vt -84.18913 65.66468
vt -51.83432 74.63503
vt -81.11777 74.63503
vt -98.67052 54.53743
vt -123.4737 54.53743
vt -97.20899 63.90568
vt -122.0121 63.90568
vt -61.09971 23.09627
vt -65.91419 23.09627
vt -62.99659 32.38616
vt -71.60342 27.74122
vt -82.10712 32.38616
vt -80.21024 23.09627
vt -75.39576 23.09627
vt -3.561557 35.92778
vt -10.24338 35.92778
vt -6.926645 44.79211
vt -18.60774 40.35994
vt -33.65392 44.79211
vt -30.28883 35.92778
vt -23.60702 35.92778
vt -24.7547 44.70808
vt -28.19958 44.70808
vt -22.61386 53.9448
vt -31.10925 47.01725
vt -36.39339 53.9448
vt -38.53423 44.70808
vt -35.08934 44.70808

usemtl natureKit-stone
# usermap natureKit-stone

f 2/2/1 1/1/1 3/3/1
f 3/3/1 4/4/1 2/2/1
f 3/3/1 5/5/1 4/4/1
f 3/3/1 6/6/1 5/5/1
f 5/5/1 7/7/1 4/4/1
f 7/7/1 8/8/1 4/4/1
f 8/8/1 9/9/1 4/4/1
f 2/11/2 10/10/2 11/12/2
f 11/12/2 1/13/2 2/11/2
f 12/15/3 8/14/3 7/16/3
f 7/16/3 13/17/3 12/15/3
f 6/19/4 3/18/4 14/20/4
f 14/20/4 15/21/4 6/19/4
f 5/23/5 6/22/5 15/24/5
f 15/24/5 16/25/5 5/23/5
f 17/27/6 9/26/6 8/28/6
f 8/28/6 12/29/6 17/27/6
f 7/31/7 5/30/7 16/32/7
f 16/32/7 13/33/7 7/31/7
f 2/35/8 4/34/8 18/36/8
f 18/36/8 10/37/8 2/35/8
f 14/39/9 3/38/9 1/40/9
f 1/40/9 11/41/9 14/39/9
f 18/43/10 4/42/10 9/44/10
f 9/44/10 17/45/10 18/43/10

usemtl natureKit-leavesGreen
# usermap natureKit-leavesGreen

f 14/47/11 11/46/11 10/48/11
f 10/48/11 16/49/11 14/47/11
f 10/48/11 18/50/11 16/49/11
f 16/49/11 15/51/11 14/47/11
f 18/50/11 13/52/11 16/49/11
f 18/50/11 12/53/11 13/52/11
f 18/50/11 17/54/11 12/53/11
f 14/56/12 19/55/12 20/57/12
f 20/57/12 11/58/12 14/56/12
f 22/60/13 21/59/13 16/61/13
f 16/61/13 13/62/13 22/60/13
f 24/64/14 23/63/14 12/65/14
f 12/65/14 17/66/14 24/64/14
f 25/68/15 22/67/15 13/69/15
f 13/69/15 26/70/15 25/68/15
f 26/70/15 13/69/15 12/71/15
f 26/70/15 12/71/15 23/72/15
f 23/72/15 27/73/15 26/70/15
f 29/75/16 28/74/16 15/76/16
f 15/76/16 30/77/16 29/75/16
f 30/77/16 15/76/16 16/78/16
f 30/77/16 16/78/16 21/79/16
f 21/79/16 31/80/16 30/77/16
f 32/82/17 19/81/17 14/83/17
f 14/83/17 33/84/17 32/82/17
f 33/84/17 14/83/17 15/85/17
f 33/84/17 15/85/17 28/86/17
f 28/86/17 34/87/17 33/84/17
