# Exported using Kenney Suite 1.2 

mtllib fence_simpleLow.mtl 

g fence_simpleLow

v 0.6999993 0 0 
v 0.6999993 1.550273 0 
v 0.6999993 0 -0.7 
v 0.6999993 1.550273 -0.7 
v 0 0 -0.7 
v 0 1.550273 -0.7 
v 0 0 0 
v 0 1.550273 0 
v 9.300001 1.550273 0 
v 9.300001 0 0 
v 9.300001 1.550273 -0.7 
v 9.300001 0 -0.7 
v 10 0 -0.7 
v 10 0 0 
v 10 1.550273 -0.7 
v 10 1.550273 0 
v -0.2060294 1.550273 0.2060286 
v -0.2060294 1.550273 -0.9060286 
v -0.2060294 1.950273 0.2060286 
v -0.2060294 1.950273 -0.9060286 
v 10.20603 1.550273 0.2060286 
v 10.20603 1.950273 0.2060286 
v 10.20603 1.550273 -0.9060286 
v 10.20603 1.950273 -0.9060286 

vn -1 0 0
vn 0 0 1
vn 0 -1 0
vn 0 0 -1
vn 1 0 0
vn 0 1 0

vt 0 0
vt 0 6.103438
vt 2.755906 0
vt 2.755906 6.103438
vt -2.755906 0
vt -2.755906 6.103438
vt 0 2.755906
vt -2.755906 2.755906
vt -36.61417 2.755906
vt -36.61417 0
vt -39.37008 2.755906
vt -39.37008 0
vt -36.61417 6.103438
vt -39.37008 6.103438
vt 39.37008 0
vt 36.61417 0
vt 39.37008 6.103438
vt 36.61417 6.103438
vt 0.8111362 6.103438
vt -3.567042 6.103438
vt 0.8111362 7.678241
vt -3.567042 7.678241
vt -0.8111362 6.103438
vt -0.8111362 7.678241
vt 3.567042 6.103438
vt 3.567042 7.678241
vt -40.18121 6.103438
vt -40.18121 7.678241
vt 40.18121 6.103438
vt 40.18121 7.678241
vt 0.8111362 -0.8111363
vt 0 2.755905
vt 0.8111362 3.567042
vt -40.18121 3.567042
vt -2.755906 2.755905
vt -2.755906 -9.094833E-08
vt -36.61417 2.755905
vt -39.37008 2.755905
vt -39.37008 -9.094833E-08
vt 0 -9.094833E-08
vt -40.18121 -0.8111363
vt -36.61417 -9.094833E-08
vt -0.8111362 -0.8111363
vt -0.8111362 3.567042
vt 40.18121 -0.8111363
vt 40.18121 3.567042

usemtl natureKit-wood
# usermap natureKit-wood

f 2/2/1 1/1/1 3/3/1
f 3/3/1 4/4/1 2/2/1
f 3/5/2 5/1/2 6/2/2
f 6/2/2 4/6/2 3/5/2
f 7/1/3 5/7/3 3/8/3
f 3/8/3 1/5/3 7/1/3
f 7/1/4 1/3/4 2/4/4
f 2/4/4 8/2/4 7/1/4
f 7/1/5 8/2/5 6/6/5
f 6/6/5 5/5/5 7/1/5
f 10/1/5 9/2/5 11/6/5
f 11/6/5 12/5/5 10/1/5
f 10/10/3 12/9/3 13/11/3
f 13/11/3 14/12/3 10/10/3
f 13/12/2 12/10/2 11/13/2
f 11/13/2 15/14/2 13/12/2
f 10/16/4 14/15/4 16/17/4
f 16/17/4 9/18/4 10/16/4
f 16/2/1 14/1/1 13/3/1
f 13/3/1 15/4/1 16/2/1
f 18/20/5 17/19/5 19/21/5
f 19/21/5 20/22/5 18/20/5
f 22/24/1 21/23/1 23/25/1
f 23/25/1 24/26/1 22/24/1
f 23/27/2 18/19/2 20/21/2
f 20/21/2 24/28/2 23/27/2
f 17/23/4 21/29/4 22/30/4
f 22/30/4 19/24/4 17/23/4
f 6/32/3 17/31/3 18/33/3
f 18/33/3 23/34/3 6/32/3
f 23/34/3 4/35/3 6/32/3
f 23/34/3 2/36/3 4/35/3
f 23/34/3 11/37/3 2/36/3
f 23/34/3 15/38/3 11/37/3
f 23/34/3 16/39/3 15/38/3
f 17/31/3 6/32/3 8/40/3
f 8/40/3 21/41/3 17/31/3
f 8/40/3 2/36/3 21/41/3
f 16/39/3 23/34/3 21/41/3
f 2/36/3 9/42/3 21/41/3
f 2/36/3 11/37/3 9/42/3
f 9/42/3 16/39/3 21/41/3
f 20/44/6 19/43/6 22/45/6
f 22/45/6 24/46/6 20/44/6
