# Exported using Kenney Suite 1.2 

mtllib fence_cornerRoundStrong.mtl 

g fence_cornerRoundStrong

v 2.096748 2.829224 -3.77275 
v 2.096748 2.208175 -3.77275 
v 1.436923 2.829224 -4.76025 
v 1.436923 2.208175 -4.76025 
v 0.9116364 2.829224 -5.825426 
v 0.9116364 2.208175 -5.825426 
v 0.5298758 2.829224 -6.950052 
v 0.5298758 2.208175 -6.950052 
v 0.2981758 2.829224 -8.114887 
v 0.2981758 2.208175 -8.114887 
v 9.300001 0.6210492 -0.2205 
v 8.114886 0.6210492 -0.2981764 
v 9.300001 1.242098 -0.2205 
v 8.114886 1.242098 -0.2981764 
v 1.15092 0.6210492 -5.924541 
v 1.15092 1.242098 -5.924541 
v 0.7800508 0.6210492 -7.017087 
v 0.7800508 1.242098 -7.017087 
v 8.148694 0.6210492 -0.5549606 
v 9.300001 0.6210492 -0.4795 
v 8.148694 1.242098 -0.5549606 
v 9.300001 1.242098 -0.4795 
v 6.950052 0.6210492 -0.5298764 
v 6.950052 1.242098 -0.5298764 
v 0.5549598 0.6210492 -8.148693 
v 0.5549598 1.242098 -8.148693 
v 3.170395 1.242098 -2.625 
v 3.325 1.242098 -2.625 
v 3.77275 1.242098 -2.096748 
v 3.325 1.242098 -2.833166 
v 3.930421 1.242098 -2.302227 
v 4.760251 1.242098 -1.436922 
v 4.88975 1.242098 -1.661223 
v 5.825427 1.242098 -0.9116358 
v 5.92454 1.242098 -1.150921 
v 7.017088 1.242098 -0.7800512 
v 5.825427 0.6210492 -0.9116358 
v 4.760251 0.6210492 -1.436922 
v 1.436923 1.242098 -4.76025 
v 1.436923 0.6210492 -4.76025 
v 0.9116364 1.242098 -5.825426 
v 0.9116364 0.6210492 -5.825426 
v 4.88975 0.6210492 -1.661223 
v 5.92454 0.6210492 -1.150921 
v 0.5298758 1.242098 -6.950052 
v 0.5298758 0.6210492 -6.950052 
v 0.2981758 1.242098 -8.114887 
v 0.2981758 0.6210492 -8.114887 
v 7.017088 0.6210492 -0.7800512 
v 2.096748 1.242098 -3.77275 
v 2.096748 0.6210492 -3.77275 
v 0.220499 1.242098 -9.3 
v 0.220499 0.6210492 -9.3 
v 3.77275 0.6210492 -2.096748 
v 3.325 0.6210492 -2.833166 
v 3.930421 0.6210492 -2.302227 
v 3.325 0.6210492 -2.625 
v 3.170395 0.6210492 -2.625 
v 0.4795003 0.6210492 -9.3 
v 0.4795003 1.242098 -9.3 
v 1.661222 0.6210492 -4.88975 
v 1.661222 1.242098 -4.88975 
v 2.302227 0.6210492 -3.93042 
v 2.302227 1.242098 -3.93042 
v 3.325 2.208175 -2.833166 
v 3.325 2.208175 -2.625 
v 3.930421 2.208175 -2.302227 
v 3.77275 2.208175 -2.096748 
v 4.760251 2.208175 -1.436922 
v 4.88975 2.208175 -1.661223 
v 5.825427 2.208175 -0.9116358 
v 5.92454 2.208175 -1.150921 
v 6.950052 2.208175 -0.5298764 
v 7.017088 2.208175 -0.7800512 
v 8.114886 2.208175 -0.2981764 
v 8.148694 2.208175 -0.5549606 
v 9.300001 2.208175 -0.2205 
v 9.300001 2.208175 -0.4795 
v 3.170395 2.208175 -2.625 
v 9.300001 2.829224 -0.2205 
v 8.114886 2.829224 -0.2981764 
v 6.950052 2.829224 -0.5298764 
v 5.825427 2.829224 -0.9116358 
v 4.760251 2.829224 -1.436922 
v 3.77275 2.829224 -2.096748 
v 1.15092 2.208175 -5.924541 
v 1.15092 2.829224 -5.924541 
v 0.7800508 2.208175 -7.017087 
v 0.7800508 2.829224 -7.017087 
v 0.220499 2.829224 -9.3 
v 0.220499 2.208175 -9.3 
v 0.5549598 2.208175 -8.148693 
v 0.5549598 2.829224 -8.148693 
v 0.4795003 2.208175 -9.3 
v 0.4795003 2.829224 -9.3 
v 2.302227 2.208175 -3.93042 
v 2.302227 2.829224 -3.93042 
v 1.661222 2.208175 -4.88975 
v 1.661222 2.829224 -4.88975 
v 2.833166 2.208175 -3.325 
v 2.833166 2.829224 -3.325 
v 3.930421 2.829224 -2.302227 
v 4.88975 2.829224 -1.661223 
v 5.92454 2.829224 -1.150921 
v 2.625 2.829224 -3.170395 
v 2.625 2.829224 -3.325 
v 7.017088 2.829224 -0.7800512 
v 8.148694 2.829224 -0.5549606 
v 9.300001 2.829224 -0.4795 
v 0 0 -10 
v 0 0 -9.3 
v 0.6999993 0 -10 
v 0.220499 0 -9.3 
v 0.4795003 0 -9.3 
v 0.6999993 0 -9.3 
v 0 3.450273 -10 
v 0.6999993 3.450273 -10 
v 0.6999993 3.450273 -9.3 
v 0 3.450273 -9.3 
v 10 0 0 
v 10 3.450273 0 
v 10 0 -0.7 
v 10 3.450273 -0.7 
v 9.300001 0 -0.2205 
v 9.300001 0 0 
v 9.300001 0 -0.4795 
v 9.300001 0 -0.7 
v 9.300001 3.450273 0 
v 9.300001 3.450273 -0.7 
v 2.625 0 -3.325 
v 2.625 0 -3.1045 
v 3.325 0 -3.325 
v 2.625 0 -2.625 
v 3.325 0 -2.625 
v 2.625 0 -2.8455 
v 2.625 3.450273 -2.625 
v 2.625 3.450273 -3.325 
v 3.325 3.450273 -2.625 
v 3.325 3.450273 -3.325 
v 3.325 2.829224 -2.833166 
v 3.325 2.829224 -2.625 
v 2.625 0.6210492 -3.170395 
v 2.625 1.242098 -3.170395 
v 2.625 2.208175 -3.170395 
v 2.625 1.242098 -3.325 
v 2.625 2.208175 -3.325 
v 2.625 0.6210492 -3.325 
v 2.833166 0.6210492 -3.325 
v 2.833166 1.242098 -3.325 
v 3.170395 2.829224 -2.625 

vn 0.7933533 0 -0.6087614
vn 0.8660254 0 -0.5
vn 0.9238795 0 -0.3826834
vn 0.9659258 0 -0.258819
vn 0.9914449 0 -0.1305262
vn 0.06540313 0 -0.9978589
vn 0.1305262 0 -0.9914449
vn -0.9238795 0 0.3826834
vn -0.9659258 0 0.258819
vn -0.1305262 0 0.9914449
vn -0.06540313 0 0.9978589
vn 0.258819 0 -0.9659258
vn -0.9914449 0 0.1305262
vn 0 1 0
vn 0.3826834 0 -0.9238795
vn 0.5 0 -0.8660254
vn -0.5 0 0.8660254
vn -0.3826834 0 0.9238795
vn -0.258819 0 0.9659258
vn 0.9978589 0 -0.06540313
vn 0.6087614 0 -0.7933533
vn -0.6593459 0 0.7518399
vn -0.6087614 0 0.7933533
vn 0 -1 0
vn -0.9978589 0 0.06540313
vn -0.8660254 0 0.5
vn -0.7933533 0 0.6087614
vn -0.7518399 0 0.6593459
vn 0 0 1
vn 0 0 -1
vn 1 0 0
vn -1 0 0
vn 0.7518399 0 -0.6593459
vn 0.6593459 0 -0.7518399

vt -7.763923 11.13868
vt -7.763923 8.693602
vt -12.43973 11.13868
vt -12.43973 8.693602
vt -14.30631 11.13868
vt -14.30631 8.693602
vt -18.98212 11.13868
vt -18.98212 8.693602
vt -20.56392 11.13868
vt -20.56392 8.693602
vt -25.23973 11.13868
vt -25.23973 8.693602
vt -26.42967 11.13868
vt -26.42967 8.693602
vt -31.10548 11.13868
vt -31.10548 8.693602
vt 36.479 2.445076
vt 31.80319 2.445076
vt 36.479 4.890151
vt 31.80319 4.890151
vt 20.63061 2.445076
vt 20.63061 4.890151
vt 25.17304 2.445076
vt 25.17304 4.890151
vt -31.86988 2.445076
vt -36.41231 2.445076
vt -31.86988 4.890151
vt -36.41231 4.890151
vt 31.10548 2.445076
vt 26.42967 2.445076
vt 31.10548 4.890151
vt 26.42967 4.890151
vt 26.49636 2.445076
vt 26.49636 4.890151
vt 31.03879 2.445076
vt 31.03879 4.890151
vt 12.48187 10.33465
vt 13.09055 10.33465
vt 14.85335 8.254914
vt 13.09055 11.1542
vt 15.47409 9.063886
vt 18.74114 5.657175
vt 19.25098 6.540248
vt 22.93475 3.589117
vt 23.32496 4.531183
vt 27.36241 2.086128
vt 27.62633 3.071068
vt 31.94838 1.173923
vt 32.08147 2.184884
vt 36.61417 0.8681102
vt 36.61417 1.887795
vt 25.23973 2.445076
vt 20.56392 2.445076
vt 25.23973 4.890151
vt 20.56392 4.890151
vt 18.98212 2.445076
vt 14.30631 2.445076
vt 18.98212 4.890151
vt 14.30631 4.890151
vt -14.30631 4.890151
vt -14.30631 2.445076
vt -18.98212 4.890151
vt -18.98212 2.445076
vt -14.37301 2.445076
vt -18.91543 2.445076
vt -14.37301 4.890151
vt -18.91543 4.890151
vt -26.42967 4.890151
vt -26.42967 2.445076
vt -31.10548 4.890151
vt -31.10548 2.445076
vt -20.63061 2.445076
vt -25.17304 2.445076
vt -20.63061 4.890151
vt -25.17304 4.890151
vt -26.49636 2.445076
vt -31.03879 2.445076
vt -26.49636 4.890151
vt -31.03879 4.890151
vt -7.763923 4.890151
vt -7.763923 2.445076
vt -12.43973 4.890151
vt -12.43973 2.445076
vt -31.80319 4.890151
vt -31.80319 2.445076
vt -36.479 4.890151
vt -36.479 2.445076
vt 12.43973 2.445076
vt 7.763923 2.445076
vt 12.43973 4.890151
vt 7.763923 4.890151
vt -2.487525 2.445076
vt -5.657805 2.445076
vt -2.487525 4.890151
vt -5.657805 4.890151
vt -7.830614 2.445076
vt -12.37304 2.445076
vt -7.830614 4.890151
vt -12.37304 4.890151
vt -20.56392 4.890151
vt -20.56392 2.445076
vt -25.23973 4.890151
vt -25.23973 2.445076
vt -13.09055 11.1542
vt -13.09055 10.33465
vt -15.47409 9.063886
vt -14.85335 8.254914
vt -18.74114 5.657175
vt -19.25098 6.540248
vt -22.93475 3.589117
vt -23.32496 4.531183
vt -27.36241 2.086128
vt -27.62633 3.071068
vt -31.94838 1.173923
vt -32.08147 2.184884
vt -36.61417 0.8681102
vt -36.61417 1.887795
vt -12.48187 10.33465
vt 31.86988 2.445076
vt 31.86988 4.890151
vt 36.41231 2.445076
vt 36.41231 4.890151
vt 14.37301 2.445076
vt 14.37301 4.890151
vt 18.91543 2.445076
vt 18.91543 4.890151
vt 7.830614 2.445076
vt 7.830614 4.890151
vt 12.37304 2.445076
vt 12.37304 4.890151
vt 36.479 8.693602
vt 31.80319 8.693602
vt 36.479 11.13868
vt 31.80319 11.13868
vt 25.23973 8.693602
vt 20.56392 8.693602
vt 25.23973 11.13868
vt 20.56392 11.13868
vt 12.43973 8.693602
vt 7.763923 8.693602
vt 12.43973 11.13868
vt 7.763923 11.13868
vt 20.63061 8.693602
vt 20.63061 11.13868
vt 25.17304 8.693602
vt 25.17304 11.13868
vt 31.10548 8.693602
vt 26.42967 8.693602
vt 31.10548 11.13868
vt 26.42967 11.13868
vt 18.98212 8.693602
vt 14.30631 8.693602
vt 18.98212 11.13868
vt 14.30631 11.13868
vt -31.80319 11.13868
vt -31.80319 8.693602
vt -36.479 11.13868
vt -36.479 8.693602
vt 31.86988 8.693602
vt 31.86988 11.13868
vt 36.41231 8.693602
vt 36.41231 11.13868
vt 26.49636 8.693602
vt 26.49636 11.13868
vt 31.03879 8.693602
vt 31.03879 11.13868
vt 7.830614 8.693602
vt 7.830614 11.13868
vt 12.37304 8.693602
vt 12.37304 11.13868
vt 2.487525 8.693602
vt 2.487525 11.13868
vt 5.657805 8.693602
vt 5.657805 11.13868
vt -7.830614 8.693602
vt -12.37304 8.693602
vt -7.830614 11.13868
vt -12.37304 11.13868
vt -14.37301 8.693602
vt -18.91543 8.693602
vt -14.37301 11.13868
vt -18.91543 11.13868
vt 0.8681102 36.61417
vt 1.887795 36.61417
vt 1.173923 31.94838
vt 2.086128 27.36241
vt 2.184884 32.08147
vt 3.589117 22.93475
vt 3.071068 27.62633
vt 4.531183 23.32496
vt 5.657175 18.74114
vt 6.540248 19.25098
vt 8.254914 14.85335
vt 9.063886 15.47409
vt 10.33465 12.48187
vt 10.33465 13.09055
vt 11.1542 13.09055
vt 14.37301 8.693602
vt 14.37301 11.13868
vt 18.91543 8.693602
vt 18.91543 11.13868
vt -20.63061 8.693602
vt -25.17304 8.693602
vt -20.63061 11.13868
vt -25.17304 11.13868
vt -26.49636 8.693602
vt -31.03879 8.693602
vt -26.49636 11.13868
vt -31.03879 11.13868
vt -31.86988 8.693602
vt -36.41231 8.693602
vt -31.86988 11.13868
vt -36.41231 11.13868
vt 0 39.37008
vt 0 36.61417
vt -2.755906 39.37008
vt -0.8681102 36.61417
vt -1.887795 36.61417
vt -2.755906 36.61417
vt 0 0
vt -2.755906 0
vt 0 13.58375
vt -2.755906 13.58375
vt 2.755906 0
vt 1.887795 0
vt 2.755906 13.58375
vt 1.887795 2.445076
vt 0.8681102 0
vt 1.887795 4.890151
vt 1.887795 8.693602
vt 0.8681102 4.890151
vt 1.887795 11.13868
vt 0.8681102 11.13868
vt 0.8681102 2.445076
vt 0.8681102 8.693602
vt -36.61417 13.58375
vt -36.61417 0
vt -39.37008 13.58375
vt -39.37008 0
vt 2.755906 36.61417
vt 2.755906 39.37008
vt 36.61417 0
vt 36.61417 13.58375
vt 39.37008 0
vt 39.37008 13.58375
vt -36.61417 2.755906
vt -39.37008 2.755906
vt -1.307623E-13 1.149135E-13
vt -0.8681102 11.13868
vt -1.307623E-13 13.58375
vt -1.887795 11.13868
vt -1.887795 8.693602
vt -1.887795 4.890151
vt -1.887795 2.445076
vt -1.887795 1.149135E-13
vt -2.755906 1.149135E-13
vt -0.8681102 1.149135E-13
vt -0.8681102 8.693602
vt -0.8681102 4.890151
vt -0.8681102 2.445076
vt 36.61417 2.755906
vt 39.37008 2.755906
vt -10.33465 13.09055
vt -10.33465 12.22244
vt -13.09055 13.09055
vt -10.33465 10.33465
vt -10.33465 11.20276
vt 10.33465 10.33465
vt 13.09055 13.09055
vt -2.487525 8.693602
vt -5.657805 8.693602
vt -2.487525 11.13868
vt -5.657805 11.13868
vt 10.33465 0
vt 10.33465 2.445076
vt 13.09055 0
vt 11.1542 2.445076
vt 11.1542 11.13868
vt 13.09055 13.58375
vt 10.33465 13.58375
vt 10.33465 11.13868
vt 11.1542 8.693602
vt 11.1542 4.890151
vt 10.33465 8.693602
vt 10.33465 4.890151
vt -10.33465 1.717628E-14
vt -12.48187 11.13868
vt -10.33465 13.58375
vt -13.09055 13.58375
vt -11.20276 1.717628E-14
vt -12.22244 1.717628E-14
vt -13.09055 11.13868
vt -12.48187 2.445076
vt -13.09055 1.717628E-14
vt -12.48187 4.890151
vt -12.48187 8.693602
vt -13.09055 4.890151
vt -13.09055 8.693602
vt -13.09055 2.445076
vt -9.063886 15.47409
vt -11.1542 13.09055
vt -10.33465 12.48187
vt -8.254914 14.85335
vt -6.540248 19.25098
vt -5.657175 18.74114
vt -4.531183 23.32496
vt -3.589117 22.93475
vt -3.071068 27.62633
vt -2.184884 32.08147
vt -2.086128 27.36241
vt -1.173923 31.94838
vt -10.33465 4.890151
vt -11.1542 4.890151
vt -10.33465 8.693602
vt -11.1542 8.693602
vt -11.1542 2.445076
vt -13.09055 0
vt -10.33465 2.445076
vt -10.33465 0
vt -11.1542 11.13868
vt -10.33465 11.13868
vt -2.570261 4.890151
vt -2.570261 2.445076
vt -5.724495 4.890151
vt -5.724495 2.445076
vt -2.570261 11.13868
vt -2.570261 8.693602
vt -5.724495 11.13868
vt -5.724495 8.693602
vt 2.487525 2.445076
vt 2.487525 4.890151
vt 5.657805 2.445076
vt 5.657805 4.890151
vt 13.09055 4.890151
vt 12.48187 4.890151
vt 13.09055 8.693602
vt 12.48187 8.693602
vt 12.48187 2.445076
vt 13.09055 2.445076
vt 12.48187 11.13868
vt 13.09055 11.13868
vt 5.724495 2.445076
vt 2.570261 2.445076
vt 5.724495 4.890151
vt 2.570261 4.890151
vt 5.724495 8.693602
vt 2.570261 8.693602
vt 5.724495 11.13868
vt 2.570261 11.13868

usemtl natureKit-wood
# usermap natureKit-wood

f 2/2/1 1/1/1 3/3/2
f 3/3/2 4/4/2 2/2/1
f 4/6/2 3/5/2 5/7/3
f 5/7/3 6/8/3 4/6/2
f 6/10/3 5/9/3 7/11/4
f 7/11/4 8/12/4 6/10/3
f 8/14/4 7/13/4 9/15/5
f 9/15/5 10/16/5 8/14/4
f 12/18/7 11/17/6 13/19/6
f 13/19/6 14/20/7 12/18/7
f 16/22/8 15/21/8 17/23/9
f 17/23/9 18/24/9 16/22/8
f 20/26/11 19/25/10 21/27/10
f 21/27/10 22/28/11 20/26/11
f 23/30/12 12/29/7 14/31/7
f 14/31/7 24/32/12 23/30/12
f 18/34/9 17/33/9 25/35/13
f 25/35/13 26/36/13 18/34/9
f 28/38/14 27/37/14 29/39/14
f 29/39/14 30/40/14 28/38/14
f 29/39/14 31/41/14 30/40/14
f 29/39/14 32/42/14 31/41/14
f 32/42/14 33/43/14 31/41/14
f 32/42/14 34/44/14 33/43/14
f 34/44/14 35/45/14 33/43/14
f 34/44/14 24/46/14 35/45/14
f 24/46/14 36/47/14 35/45/14
f 24/46/14 14/48/14 36/47/14
f 14/48/14 21/49/14 36/47/14
f 14/48/14 13/50/14 21/49/14
f 13/50/14 22/51/14 21/49/14
f 37/53/15 23/52/12 24/54/12
f 24/54/12 34/55/15 37/53/15
f 38/57/16 37/56/15 34/58/15
f 34/58/15 32/59/16 38/57/16
f 40/61/2 39/60/2 41/62/3
f 41/62/3 42/63/3 40/61/2
f 44/65/18 43/64/17 33/66/17
f 33/66/17 35/67/18 44/65/18
f 46/69/4 45/68/4 47/70/5
f 47/70/5 48/71/5 46/69/4
f 49/73/19 44/72/18 35/74/18
f 35/74/18 36/75/19 49/73/19
f 19/77/10 49/76/19 36/78/19
f 36/78/19 21/79/10 19/77/10
f 51/81/1 50/80/1 39/82/2
f 39/82/2 40/83/2 51/81/1
f 48/85/5 47/84/5 52/86/20
f 52/86/20 53/87/20 48/85/5
f 54/89/21 38/88/16 32/90/16
f 32/90/16 29/91/21 54/89/21
f 56/93/23 55/92/22 30/94/22
f 30/94/22 31/95/23 56/93/23
f 43/97/17 56/96/23 31/98/23
f 31/98/23 33/99/17 43/97/17
f 42/101/3 41/100/3 45/102/4
f 45/102/4 46/103/4 42/101/3
f 57/105/24 55/104/24 56/106/24
f 56/106/24 54/107/24 57/105/24
f 56/106/24 38/108/24 54/107/24
f 56/106/24 43/109/24 38/108/24
f 43/109/24 37/110/24 38/108/24
f 43/109/24 44/111/24 37/110/24
f 44/111/24 23/112/24 37/110/24
f 44/111/24 49/113/24 23/112/24
f 49/113/24 12/114/24 23/112/24
f 49/113/24 19/115/24 12/114/24
f 19/115/24 11/116/24 12/114/24
f 19/115/24 20/117/24 11/116/24
f 58/118/24 57/105/24 54/107/24
f 26/120/13 25/119/13 59/121/25
f 59/121/25 60/122/25 26/120/13
f 62/124/26 61/123/26 15/125/8
f 15/125/8 16/126/8 62/124/26
f 64/128/27 63/127/27 61/129/26
f 61/129/26 62/130/26 64/128/27
f 66/105/24 65/104/24 67/106/24
f 67/106/24 68/107/24 66/105/24
f 67/106/24 69/108/24 68/107/24
f 67/106/24 70/109/24 69/108/24
f 70/109/24 71/110/24 69/108/24
f 70/109/24 72/111/24 71/110/24
f 72/111/24 73/112/24 71/110/24
f 72/111/24 74/113/24 73/112/24
f 74/113/24 75/114/24 73/112/24
f 74/113/24 76/115/24 75/114/24
f 76/115/24 77/116/24 75/114/24
f 76/115/24 78/117/24 77/116/24
f 79/118/24 66/105/24 68/107/24
f 75/132/7 77/131/6 80/133/6
f 80/133/6 81/134/7 75/132/7
f 71/136/15 73/135/12 82/137/12
f 82/137/12 83/138/15 71/136/15
f 68/140/21 69/139/16 84/141/16
f 84/141/16 85/142/21 68/140/21
f 87/144/8 86/143/8 88/145/9
f 88/145/9 89/146/9 87/144/8
f 73/148/12 75/147/7 81/149/7
f 81/149/7 82/150/12 73/148/12
f 69/152/16 71/151/15 83/153/15
f 83/153/15 84/154/16 69/152/16
f 10/156/5 9/155/5 90/157/20
f 90/157/20 91/158/20 10/156/5
f 93/160/13 92/159/13 94/161/25
f 94/161/25 95/162/25 93/160/13
f 89/164/9 88/163/9 92/165/13
f 92/165/13 93/166/13 89/164/9
f 97/168/27 96/167/27 98/169/26
f 98/169/26 99/170/26 97/168/27
f 101/172/28 100/171/28 96/173/27
f 96/173/27 97/174/27 101/172/28
f 70/176/17 67/175/23 102/177/23
f 102/177/23 103/178/17 70/176/17
f 72/180/18 70/179/17 103/181/17
f 103/181/17 104/182/18 72/180/18
f 95/184/14 90/183/14 9/185/14
f 9/185/14 7/186/14 95/184/14
f 7/186/14 93/187/14 95/184/14
f 7/186/14 5/188/14 93/187/14
f 5/188/14 89/189/14 93/187/14
f 5/188/14 87/190/14 89/189/14
f 5/188/14 3/191/14 87/190/14
f 3/191/14 99/192/14 87/190/14
f 3/191/14 1/193/14 99/192/14
f 1/193/14 97/194/14 99/192/14
f 1/193/14 105/195/14 97/194/14
f 105/195/14 106/196/14 97/194/14
f 106/196/14 101/197/14 97/194/14
f 99/199/26 98/198/26 86/200/8
f 86/200/8 87/201/8 99/199/26
f 74/203/19 72/202/18 104/204/18
f 104/204/18 107/205/19 74/203/19
f 76/207/10 74/206/19 107/208/19
f 107/208/19 108/209/10 76/207/10
f 78/211/11 76/210/10 108/212/10
f 108/212/10 109/213/11 78/211/11
f 111/215/24 110/214/24 112/216/24
f 112/216/24 113/217/24 111/215/24
f 112/216/24 114/218/24 113/217/24
f 112/216/24 115/219/24 114/218/24
f 112/221/29 110/220/29 116/222/29
f 116/222/29 117/223/29 112/221/29
f 114/225/30 115/224/30 118/226/30
f 118/226/30 59/227/30 114/225/30
f 59/227/30 113/228/30 114/225/30
f 59/227/30 111/220/30 113/228/30
f 118/226/30 60/229/30 59/227/30
f 118/226/30 94/230/30 60/229/30
f 94/230/30 52/231/30 60/229/30
f 118/226/30 95/232/30 94/230/30
f 118/226/30 90/233/30 95/232/30
f 111/220/30 59/227/30 53/234/30
f 53/234/30 119/222/30 111/220/30
f 53/234/30 52/231/30 119/222/30
f 90/233/30 118/226/30 119/222/30
f 52/231/30 91/235/30 119/222/30
f 52/231/30 94/230/30 91/235/30
f 91/235/30 90/233/30 119/222/30
f 111/237/31 119/236/31 116/238/31
f 116/238/31 110/239/31 111/237/31
f 116/214/14 119/215/14 118/240/14
f 118/240/14 117/241/14 116/214/14
f 118/243/32 115/242/32 112/244/32
f 112/244/32 117/245/32 118/243/32
f 121/222/32 120/220/32 122/224/32
f 122/224/32 123/226/32 121/222/32
f 125/237/24 124/116/24 126/117/24
f 126/117/24 127/246/24 125/237/24
f 127/246/24 122/247/24 125/237/24
f 122/247/24 120/239/24 125/237/24
f 125/242/30 120/244/30 121/245/30
f 121/245/30 128/243/30 125/242/30
f 80/249/31 125/248/31 128/250/31
f 128/250/31 129/223/31 80/249/31
f 129/223/31 109/251/31 80/249/31
f 129/223/31 78/252/31 109/251/31
f 129/223/31 22/253/31 78/252/31
f 129/223/31 20/254/31 22/253/31
f 129/223/31 126/255/31 20/254/31
f 129/223/31 127/256/31 126/255/31
f 124/257/31 125/248/31 80/249/31
f 20/254/31 126/255/31 124/257/31
f 80/249/31 77/258/31 124/257/31
f 77/258/31 13/259/31 124/257/31
f 13/259/31 77/258/31 78/252/31
f 78/252/31 22/253/31 13/259/31
f 13/259/31 11/260/31 124/257/31
f 11/260/31 20/254/31 124/257/31
f 122/239/29 127/237/29 129/236/29
f 129/236/29 123/238/29 122/239/29
f 129/261/14 128/242/14 121/244/14
f 121/244/14 123/262/14 129/261/14
f 131/264/24 130/263/24 132/265/24
f 132/265/24 133/266/24 131/264/24
f 132/265/24 134/105/24 133/266/24
f 135/267/24 131/264/24 133/266/24
f 137/196/14 136/268/14 138/38/14
f 138/38/14 139/269/14 137/196/14
f 67/271/23 65/270/22 140/272/22
f 140/272/22 102/273/23 67/271/23
f 57/275/32 134/274/32 132/276/32
f 132/276/32 55/277/32 57/275/32
f 132/276/32 140/278/32 55/277/32
f 140/278/32 132/276/32 139/279/32
f 140/278/32 139/279/32 138/280/32
f 138/280/32 141/281/32 140/278/32
f 55/277/32 140/278/32 65/282/32
f 30/283/32 55/277/32 65/282/32
f 30/283/32 65/282/32 66/284/32
f 66/284/32 28/285/32 30/283/32
f 105/287/31 133/286/31 136/288/31
f 136/288/31 137/289/31 105/287/31
f 105/287/31 135/290/31 133/286/31
f 105/287/31 131/291/31 135/290/31
f 137/289/31 106/292/31 105/287/31
f 131/291/31 105/287/31 142/293/31
f 142/293/31 130/294/31 131/291/31
f 105/287/31 143/295/31 142/293/31
f 143/295/31 105/287/31 144/296/31
f 144/296/31 145/297/31 143/295/31
f 144/296/31 146/298/31 145/297/31
f 142/293/31 147/299/31 130/294/31
f 147/263/24 63/300/24 148/301/24
f 63/300/24 147/263/24 142/302/24
f 63/300/24 142/302/24 51/303/24
f 61/304/24 63/300/24 51/303/24
f 61/304/24 51/303/24 40/305/24
f 15/306/24 61/304/24 40/305/24
f 15/306/24 40/305/24 42/307/24
f 17/308/24 15/306/24 42/307/24
f 25/309/24 17/308/24 42/307/24
f 25/309/24 42/307/24 46/310/24
f 59/218/24 25/309/24 46/310/24
f 59/218/24 46/310/24 48/311/24
f 48/311/24 53/217/24 59/218/24
f 60/184/14 52/183/14 47/185/14
f 47/185/14 45/186/14 60/184/14
f 45/186/14 26/187/14 60/184/14
f 45/186/14 41/188/14 26/187/14
f 41/188/14 18/189/14 26/187/14
f 41/188/14 16/190/14 18/189/14
f 41/188/14 39/191/14 16/190/14
f 39/191/14 62/192/14 16/190/14
f 39/191/14 50/193/14 62/192/14
f 50/193/14 64/194/14 62/192/14
f 50/193/14 143/195/14 64/194/14
f 143/195/14 145/196/14 64/194/14
f 145/196/14 149/197/14 64/194/14
f 141/38/14 150/37/14 85/39/14
f 85/39/14 140/40/14 141/38/14
f 85/39/14 102/41/14 140/40/14
f 85/39/14 84/42/14 102/41/14
f 84/42/14 103/43/14 102/41/14
f 84/42/14 83/44/14 103/43/14
f 83/44/14 104/45/14 103/43/14
f 83/44/14 82/46/14 104/45/14
f 82/46/14 107/47/14 104/45/14
f 82/46/14 81/48/14 107/47/14
f 81/48/14 108/49/14 107/47/14
f 81/48/14 80/50/14 108/49/14
f 80/50/14 109/51/14 108/49/14
f 146/263/24 96/300/24 100/301/24
f 96/300/24 146/263/24 144/302/24
f 96/300/24 144/302/24 2/303/24
f 98/304/24 96/300/24 2/303/24
f 98/304/24 2/303/24 4/305/24
f 86/306/24 98/304/24 4/305/24
f 86/306/24 4/305/24 6/307/24
f 88/308/24 86/306/24 6/307/24
f 92/309/24 88/308/24 6/307/24
f 92/309/24 6/307/24 8/310/24
f 94/218/24 92/309/24 8/310/24
f 94/218/24 8/310/24 10/311/24
f 10/311/24 91/217/24 94/218/24
f 149/313/29 145/312/29 146/314/29
f 149/313/29 146/314/29 100/315/29
f 149/313/29 100/315/29 139/289/29
f 148/316/29 149/313/29 139/289/29
f 148/316/29 139/289/29 132/317/29
f 147/318/29 148/316/29 132/317/29
f 132/317/29 130/319/29 147/318/29
f 100/315/29 101/320/29 139/289/29
f 101/320/29 106/321/29 139/289/29
f 106/321/29 137/288/29 139/289/29
f 142/323/33 143/322/33 50/324/1
f 50/324/1 51/325/1 142/323/33
f 144/327/33 105/326/33 1/328/1
f 1/328/1 2/329/1 144/327/33
f 149/331/28 148/330/28 63/332/27
f 63/332/27 64/333/27 149/331/28
f 27/335/30 28/334/30 66/336/30
f 27/335/30 66/336/30 79/337/30
f 27/335/30 79/337/30 136/280/30
f 58/338/30 27/335/30 136/280/30
f 58/338/30 136/280/30 133/274/30
f 57/339/30 58/338/30 133/274/30
f 133/274/30 134/276/30 57/339/30
f 79/337/30 150/340/30 136/280/30
f 150/340/30 141/341/30 136/280/30
f 141/341/30 138/279/30 136/280/30
f 58/343/34 54/342/21 29/344/21
f 29/344/21 27/345/34 58/343/34
f 79/347/34 68/346/21 85/348/21
f 85/348/21 150/349/34 79/347/34
