# Exported using Kenney Suite 1.2 

mtllib fence_corner.mtl 

g fence_corner

v 0.220499 2.829224 -0.7 
v 0.220499 2.208175 -0.7 
v 0.220499 2.829224 -9.3 
v 0.220499 2.208175 -9.3 
v 0 0 -10 
v 0 0 -9.3 
v 0.6999993 0 -10 
v 0.6999993 0 -9.3 
v 0 3.450273 -10 
v 0.6999993 3.450273 -10 
v 0.4795003 2.829224 -0.7 
v 0.4795003 2.829224 -9.3 
v 0.4795003 0.6210492 -9.3 
v 0.6999993 3.450273 -9.3 
v 0.4795003 1.242098 -9.3 
v 0.4795003 2.208175 -9.3 
v 0.220499 1.242098 -9.3 
v 0.220499 0.6210492 -9.3 
v 0 3.450273 -9.3 
v 0.4795003 0.6210492 -0.7 
v 0.4795003 1.242098 -0.7 
v 0.220499 1.242098 -0.7 
v 0.220499 0.6210492 -0.7 
v 0.4795003 2.208175 -0.7 
v 0.6999993 2.829224 -0.2205 
v 0.6999993 2.829224 -0.4795 
v 9.300001 2.829224 -0.2205 
v 9.300001 2.829224 -0.4795 
v 10 0 -5.775292E-14 
v 10 3.450273 -5.775292E-14 
v 10 0 -0.7 
v 10 3.450273 -0.7 
v 0.6999993 0.6210492 -0.4795 
v 9.300001 0.6210492 -0.4795 
v 0.6999993 1.242098 -0.4795 
v 9.300001 1.242098 -0.4795 
v 0.6999993 1.242098 -0.2205 
v 9.300001 1.242098 -0.2205 
v 9.300001 0.6210492 -0.2205 
v 0.6999993 0.6210492 -0.2205 
v 9.300001 0 -0.7 
v 9.300001 0 -5.775292E-14 
v 9.300001 3.450273 -5.775292E-14 
v 0 0 -0.7 
v 0 0 0 
v 0.6999993 0 -0.7 
v 0.6999993 0 0 
v 0.6999993 2.208175 -0.4795 
v 9.300001 2.208175 -0.4795 
v 9.300001 3.450273 -0.7 
v 9.300001 2.208175 -0.2205 
v 0 3.450273 -0.7 
v 0.6999993 3.450273 -0.7 
v 0.6999993 3.450273 0 
v 0.6999993 2.208175 -0.2205 
v 0 3.450273 0 

vn 1 0 0
vn 0 -1 0
vn 0 0 1
vn 0 1 0
vn 0 0 -1
vn -1 0 0

vt -2.755906 11.13868
vt -2.755906 8.693602
vt -36.61417 11.13868
vt -36.61417 8.693602
vt -5.684342E-14 39.37008
vt -5.684342E-14 36.61417
vt -2.755906 39.37008
vt -2.755906 36.61417
vt -5.684342E-14 0
vt -2.755906 0
vt -5.684342E-14 13.58375
vt -2.755906 13.58375
vt 0.8681102 2.755906
vt 0.8681102 36.61417
vt 1.887795 2.755906
vt 1.887795 36.61417
vt 5.684342E-14 0
vt 1.887795 2.445076
vt 2.755906 0
vt 2.755906 13.58375
vt 1.887795 4.890151
vt 1.887795 8.693602
vt 0.8681102 4.890151
vt 1.887795 11.13868
vt 0.8681102 11.13868
vt 0.8681102 2.445076
vt 5.684342E-14 13.58375
vt 0.8681102 8.693602
vt -36.61417 13.58375
vt -36.61417 0
vt -39.37008 13.58375
vt -39.37008 0
vt 2.755906 2.445076
vt 2.755906 4.890151
vt 36.61417 2.445076
vt 36.61417 4.890151
vt -2.755906 4.890151
vt -2.755906 2.445076
vt -36.61417 4.890151
vt -36.61417 2.445076
vt 2.755906 8.693602
vt 2.755906 11.13868
vt 36.61417 8.693602
vt 36.61417 11.13868
vt 5.684342E-14 36.61417
vt 5.684342E-14 39.37008
vt 2.755906 36.61417
vt 2.755906 39.37008
vt -0.8681102 2.755906
vt -1.887795 2.755906
vt -0.8681102 36.61417
vt -1.887795 36.61417
vt 36.61417 0
vt 36.61417 13.58375
vt 39.37008 0
vt 39.37008 13.58375
vt 2.755906 0.8681102
vt 2.755906 1.887795
vt 36.61417 0.8681102
vt 36.61417 1.887795
vt 2.273737E-13 0
vt 2.273737E-13 13.58375
vt -36.61417 2.755906
vt -36.61417 2.273737E-13
vt -39.37008 2.755906
vt -39.37008 2.273737E-13
vt 0 2.755906
vt 0 0
vt -2.755906 2.755906
vt -2.273737E-13 0
vt -0.8681102 11.13868
vt -2.273737E-13 13.58375
vt -1.887795 11.13868
vt -1.887795 8.693602
vt -1.887795 4.890151
vt -1.887795 2.445076
vt -0.8681102 2.445076
vt -0.8681102 8.693602
vt -0.8681102 4.890151
vt -2.755906 1.887795
vt -2.755906 0.8681102
vt -36.61417 1.887795
vt -36.61417 0.8681102
vt 0 13.58375
vt 2.755906 2.755906
vt 36.61417 2.273737E-13
vt 36.61417 2.755906
vt 39.37008 2.273737E-13
vt 39.37008 2.755906

usemtl natureKit-wood
# usermap natureKit-wood

f 2/2/1 1/1/1 3/3/1
f 3/3/1 4/4/1 2/2/1
f 6/6/2 5/5/2 7/7/2
f 7/7/2 8/8/2 6/6/2
f 7/10/3 5/9/3 9/11/3
f 9/11/3 10/12/3 7/10/3
f 3/14/4 1/13/4 11/15/4
f 11/15/4 12/16/4 3/14/4
f 13/18/5 6/17/5 8/19/5
f 8/19/5 14/20/5 13/18/5
f 14/20/5 15/21/5 13/18/5
f 14/20/5 16/22/5 15/21/5
f 16/22/5 17/23/5 15/21/5
f 14/20/5 12/24/5 16/22/5
f 14/20/5 3/25/5 12/24/5
f 6/17/5 13/18/5 18/26/5
f 18/26/5 19/27/5 6/17/5
f 18/26/5 17/23/5 19/27/5
f 3/25/5 14/20/5 19/27/5
f 17/23/5 4/28/5 19/27/5
f 17/23/5 16/22/5 4/28/5
f 4/28/5 3/25/5 19/27/5
f 6/30/1 19/29/1 9/31/1
f 9/31/1 5/32/1 6/30/1
f 21/34/6 20/33/6 13/35/6
f 13/35/6 15/36/6 21/34/6
f 17/14/4 22/13/4 21/15/4
f 21/15/4 15/16/4 17/14/4
f 23/38/1 22/37/1 17/39/1
f 17/39/1 18/40/1 23/38/1
f 11/42/6 24/41/6 16/43/6
f 16/43/6 12/44/6 11/42/6
f 9/46/4 19/45/4 14/47/4
f 14/47/4 10/48/4 9/46/4
f 24/50/2 2/49/2 4/51/2
f 4/51/2 16/52/2 24/50/2
f 20/50/2 23/49/2 18/51/2
f 18/51/2 13/52/2 20/50/2
f 14/54/6 8/53/6 7/55/6
f 7/55/6 10/56/6 14/54/6
f 26/58/4 25/57/4 27/59/4
f 27/59/4 28/60/4 26/58/4
f 30/62/6 29/61/6 31/19/6
f 31/19/6 32/20/6 30/62/6
f 34/40/3 33/38/3 35/37/3
f 35/37/3 36/39/3 34/40/3
f 35/58/4 37/57/4 38/59/4
f 38/59/4 36/60/4 35/58/4
f 40/33/5 39/35/5 38/36/5
f 38/36/5 37/34/5 40/33/5
f 42/64/2 41/63/2 31/65/2
f 31/65/2 29/66/2 42/64/2
f 42/53/5 29/55/5 30/56/5
f 30/56/5 43/54/5 42/53/5
f 45/68/2 44/67/2 46/69/2
f 46/69/2 47/10/2 45/68/2
f 49/4/3 48/2/3 26/1/3
f 26/1/3 28/3/3 49/4/3
f 27/71/1 42/70/1 43/72/1
f 43/72/1 50/12/1 27/71/1
f 50/12/1 28/73/1 27/71/1
f 50/12/1 49/74/1 28/73/1
f 50/12/1 36/75/1 49/74/1
f 50/12/1 34/76/1 36/75/1
f 42/70/1 27/71/1 39/77/1
f 39/77/1 41/10/1 42/70/1
f 39/77/1 34/76/1 41/10/1
f 34/76/1 50/12/1 41/10/1
f 27/71/1 51/78/1 39/77/1
f 51/78/1 38/79/1 39/77/1
f 38/79/1 51/78/1 49/74/1
f 49/74/1 36/75/1 38/79/1
f 31/32/3 41/30/3 50/29/3
f 50/29/3 32/31/3 31/32/3
f 40/81/2 33/80/2 34/82/2
f 34/82/2 39/83/2 40/81/2
f 23/77/3 46/10/3 44/61/3
f 44/61/3 52/62/3 23/77/3
f 52/62/3 22/79/3 23/77/3
f 52/62/3 2/78/3 22/79/3
f 2/78/3 21/75/3 22/79/3
f 52/62/3 1/71/3 2/78/3
f 52/62/3 11/73/3 1/71/3
f 46/10/3 23/77/3 20/76/3
f 20/76/3 53/12/3 46/10/3
f 20/76/3 21/75/3 53/12/3
f 11/73/3 52/62/3 53/12/3
f 21/75/3 24/74/3 53/12/3
f 21/75/3 2/78/3 24/74/3
f 24/74/3 11/73/3 53/12/3
f 40/26/6 54/84/6 47/68/6
f 47/68/6 46/19/6 40/26/6
f 46/19/6 33/18/6 40/26/6
f 46/19/6 35/21/6 33/18/6
f 46/19/6 48/22/6 35/21/6
f 46/19/6 26/24/6 48/22/6
f 54/84/6 40/26/6 25/25/6
f 25/25/6 53/20/6 54/84/6
f 25/25/6 26/24/6 53/20/6
f 26/24/6 46/19/6 53/20/6
f 40/26/6 37/23/6 25/25/6
f 37/23/6 55/28/6 25/25/6
f 55/28/6 37/23/6 35/21/6
f 35/21/6 48/22/6 55/28/6
f 45/68/1 56/84/1 52/12/1
f 52/12/1 44/10/1 45/68/1
f 55/41/5 51/43/5 27/44/5
f 27/44/5 25/42/5 55/41/5
f 55/81/2 48/80/2 49/82/2
f 49/82/2 51/83/2 55/81/2
f 52/67/4 56/68/4 54/19/4
f 54/19/4 53/85/4 52/67/4
f 45/68/5 47/19/5 54/20/5
f 54/20/5 56/84/5 45/68/5
f 50/87/4 43/86/4 30/88/4
f 30/88/4 32/89/4 50/87/4
