# Exported using Kenney Suite 1.2 

mtllib flower_beige1.mtl 

g flower_beige1

v 0.3500009 2.2 0.35 
v 0.4620004 2.8 0.2914124 
v 0.3500009 2.2 -0.35 
v 0.4620004 2.8 -0.2914124 
v -0.4620004 2.8 -0.2914124 
v -0.3500009 2.2 -0.35 
v -0.2914119 2.8 -0.462 
v -0.3500009 2.2 0.35 
v -0.4620004 2.8 0.2914124 
v 0.2914119 2.8 -0.462 
v 0.08749962 1.8 0.08749999 
v 0.08749962 1.8 -0.0875 
v 0.2914119 2.8 0.462 
v -0.08749962 1.8 0.08749999 
v -0.2914119 2.8 0.462 
v -0.08749962 1.8 -0.0875 
v -0.1749992 0.3933707 -0.5362604 
v 0 0.5499691 -1.037845 
v 0.1749992 0.3933707 -0.5362604 
v 0.5362606 0.9365969 0.175 
v 0.5362606 0.9365969 -0.175 
v 1.037846 1.30945 -2.607829E-09 
v -0.5362606 0.6243979 0.175 
v -1.037846 0.8729668 -2.607728E-09 
v -0.5362606 0.6243979 -0.175 
v -0.02430201 0.9166152 1.037845 
v -0.1993036 0.6556178 0.5362604 
v 0.1506972 0.6556178 0.5362604 
v -0.1993036 0 0.175 
v -0.1749992 0 0.175 
v 0.1506972 0 0.175 
v 0.1749992 0 -0.175 
v -0.1749992 0 -0.175 
v 0.1749992 0 0.175 

vn -0.9830202 -0.1834971 0
vn 0.7057101 -0.06282272 0.7057101
vn 0.9830202 -0.1834971 0
vn -0.7057101 -0.06282272 0.7057101
vn -0.8360479 -0.5486565 0
vn -0.7057101 -0.06282272 -0.7057101
vn 0 -0.5486565 -0.8360479
vn 0 -0.1834971 -0.9830202
vn 0.7057101 -0.06282272 -0.7057101
vn 0.8360479 -0.5486565 0
vn 0 -0.1834971 0.9830202
vn 0 -0.5486565 0.8360479
vn 0 1 0
vn 0 0.9545594 -0.2980206
vn 0 -0.9545594 0.2980206
vn 0.5965795 0.802554 0
vn -0.5965795 -0.802554 0
vn -0.4440335 0.8960101 0
vn 0.4440335 -0.8960101 0
vn 0 0.8870912 0.4615942
vn 0 -0.8870912 -0.4615942
vn 0 0.4826064 0.8758373
vn 0 -0.4826064 -0.8758373
vn 0 0.6764066 -0.7365283
vn 0 -0.6764066 0.7365283
vn -0.9988205 0.04855378 0
vn 0 0.04855378 0.9988205
vn 0.9330012 0.3598735 0
vn -0.9330012 -0.3598735 0
vn 0.9988205 0.04855378 0
vn 0 0.04855378 -0.9988205
vn 0 -1 0
vn -0.8655664 0.5007942 0
vn 0.8655664 -0.5007942 0

vt -1.377953 8.767199
vt -1.147293 11.17021
vt 1.377953 8.767199
vt 1.147293 11.17021
vt 0.4748964 11.13361
vt -7.259464E-09 8.766732
vt -0.4748964 11.13361
vt 1.377953 8.767199
vt -1.377953 8.767199
vt 7.259696E-09 8.766732
vt -0.4748964 11.13361
vt 0.4748964 11.13361
vt -1.377953 7.997383
vt 1.377953 7.997383
vt -0.3444882 6.113755
vt 0.3444882 6.113755
vt 7.259695E-09 8.766732
vt -0.3444882 6.113755
vt -1.377953 7.997383
vt -7.259927E-09 8.766732
vt 1.377953 7.997383
vt 0.3444882 6.113755
vt -1.818898 -1.147293
vt -1.818898 1.147293
vt -1.147293 -1.818898
vt -1.147293 1.818898
vt 1.147293 -1.818898
vt 1.147293 1.818898
vt 1.818898 -1.147293
vt 1.818898 1.147293
vt -0.6889764 2.47687
vt -9.646327E-08 4.545617
vt 0.6889763 2.47687
vt 0.6889763 3.894222
vt -0.6889764 3.894222
vt -1.026524E-08 6.354794
vt -0.6889763 2.983261
vt 1.026665E-08 5.187189
vt 0.6889764 2.983261
vt 0.09567996 5.290422
vt 0.7846563 3.064336
vt -0.5932964 3.064336
vt 0.7846563 0.3325044
vt 0.6889764 0.3325044
vt 0.7846563 3.279595
vt -0.5932964 0.3325044
vt -0.5932964 3.279595
vt 0.6889763 0.4660282
vt -0.6889764 0.4660282
vt 0.6889763 2.568735
vt -0.6889764 2.568735
vt -0.6889763 -0.03345241
vt -0.3444882 7.06153
vt 0.6889764 -0.03345241
vt 0.3444882 7.06153
vt -0.6889764 -0.03345241
vt -0.3444882 7.06153
vt 0.6889763 0.2479443
vt -0.6889764 0.2479443
vt 0.6889763 4.200125
vt -0.6889764 4.200125
vt 0.6889763 -0.03345241
vt 0.3444882 7.06153
vt 0.5932964 -0.03345241
vt 0.6889764 0.6889764
vt 0.6889764 -0.6889763
vt -0.6889764 0.6889764
vt -0.5932964 -0.6889763
vt -0.6889764 -0.6889763
vt -0.6889763 3.185094
vt 0.6889764 3.185094
vt -0.6889763 0.3450354
vt 0.6889764 0.3450354

usemtl natureKit-woodLight
# usermap natureKit-woodLight

f 2/2/1 1/1/1 3/3/1
f 3/3/1 4/4/1 2/2/1
f 6/6/2 5/5/2 7/7/2
f 6/9/3 8/8/3 9/4/3
f 9/4/3 5/2/3 6/9/3
f 4/11/4 3/10/4 10/12/4
f 3/14/5 1/13/5 11/15/5
f 11/15/5 12/16/5 3/14/5
f 13/11/6 1/17/6 2/12/6
f 14/18/7 11/16/7 1/14/7
f 1/14/7 8/19/7 14/18/7
f 8/9/8 1/3/8 13/4/8
f 13/4/8 15/2/8 8/9/8
f 8/20/9 15/5/9 9/7/9
f 14/22/10 8/21/10 6/19/10
f 6/19/10 16/18/10 14/22/10
f 3/9/11 6/3/11 7/4/11
f 7/4/11 10/2/11 3/9/11
f 12/18/12 16/16/12 6/14/12
f 6/14/12 3/19/12 12/18/12
f 5/24/13 9/23/13 15/25/13
f 15/25/13 7/26/13 5/24/13
f 15/25/13 13/27/13 7/26/13
f 13/27/13 10/28/13 7/26/13
f 13/27/13 2/29/13 10/28/13
f 2/29/13 4/30/13 10/28/13

usemtl natureKit-leavesGreen
# usermap natureKit-leavesGreen

f 18/32/14 17/31/14 19/33/14
f 18/32/15 19/33/15 17/31/15
f 21/35/16 20/34/16 22/36/16
f 21/35/17 22/36/17 20/34/17
f 24/38/18 23/37/18 25/39/18
f 24/38/19 25/39/19 23/37/19
f 27/41/20 26/40/20 28/42/20
f 27/41/21 28/42/21 26/40/21
f 30/44/22 29/43/22 27/45/22
f 27/45/22 31/46/22 30/44/22
f 27/45/22 28/47/22 31/46/22
f 30/44/23 27/45/23 29/43/23
f 27/45/23 30/44/23 31/46/23
f 27/45/23 31/46/23 28/47/23
f 33/49/24 32/48/24 19/50/24
f 19/50/24 17/51/24 33/49/24
f 33/49/25 19/50/25 32/48/25
f 19/50/25 33/49/25 17/51/25
f 11/53/26 34/52/26 32/54/26
f 32/54/26 12/55/26 11/53/26
f 32/56/27 33/54/27 16/55/27
f 16/55/27 12/57/27 32/56/27
f 32/59/28 34/58/28 20/60/28
f 20/60/28 21/61/28 32/59/28
f 32/59/29 20/60/29 34/58/29
f 20/60/29 32/59/29 21/61/29
f 33/56/30 30/62/30 14/63/30
f 14/63/30 16/57/30 33/56/30
f 31/64/31 34/54/31 11/55/31
f 11/55/31 30/56/31 31/64/31
f 11/55/31 14/57/31 30/56/31
f 30/66/32 33/65/32 32/67/32
f 32/67/32 31/68/32 30/66/32
f 32/67/32 34/69/32 31/68/32
f 25/71/33 23/70/33 30/72/33
f 30/72/33 33/73/33 25/71/33
f 25/71/34 30/72/34 23/70/34
f 30/72/34 25/71/34 33/73/34
