# Exported using Kenney Suite 1.2 

mtllib grass_dense.mtl 

g grass_dense

v 0.4863167 0.4625398 0.06435841 
v 0.4863167 0.7772629 0.5023936 
v 0.8863163 0.4625398 0.06435841 
v 0.8863163 0.7772629 0.5023936 
v -0.8863163 0 0.0976064 
v -0.4863167 0 0.0976064 
v -0.8863163 0.690358 -0.06435841 
v -0.4863167 0.690358 -0.06435841 
v -0.890131 0 -1.214389 
v -0.890131 0 -1.614389 
v -0.9711123 0.3751945 -1.214389 
v -0.9711123 0.3751945 -1.614389 
v -1.190131 0.6304859 -1.214389 
v -1.190131 0.6304859 -1.614389 
v 0.8863163 0 -0.0976064 
v 0.4863167 0 -0.09760641 
v -0.8863163 1.160094 -0.5023936 
v -0.4863167 1.160094 -0.5023936 
v 1.233289 0.7675668 -1.639445 
v 1.433289 0.852852 -1.639445 
v 1.233289 0.7675668 -2.039445 
v 1.433289 0.852852 -2.039445 
v 1.761405 0.3288743 -0.8036038 
v 1.361403 0.3288743 -0.8036038 
v 1.761405 0.5526481 -0.5845862 
v 1.361403 0.5526481 -0.5845862 
v 1.460915 0.98406 0.5092632 
v 1.660914 1.0934 0.5092632 
v 1.460915 0.98406 0.1092632 
v 1.660914 1.0934 0.1092632 
v 1.241896 0.5856023 0.5092632 
v 1.241896 0.5856023 0.1092632 
v 1.160913 0 0.5092632 
v 1.160913 0 0.1092632 
v 0.2562785 0 -1.15537 
v 0.6562781 0 -1.15537 
v 0.2562785 0.5856023 -1.236352 
v 0.6562781 0.5856023 -1.236352 
v -0.4505897 1.8034 -0.4807734 
v -0.2505898 1.62306 -0.4807734 
v -0.4505897 1.8034 -0.8807734 
v -0.2505898 1.62306 -0.8807734 
v 1.014271 0.4567698 -1.639445 
v 1.014271 0.4567698 -2.039445 
v 0.9332895 0 -1.639445 
v 0.9332895 0 -2.039445 
v 1.644988 0.852852 1.286273 
v 2.04499 0.852852 1.286273 
v 1.644988 0.7675668 1.086273 
v 2.04499 0.7675668 1.086273 
v 1.361403 0.6140534 -0.3845862 
v 1.761405 0.6140534 -0.3845862 
v 0.8091474 0.3288743 1.614389 
v 0.8091474 0.3288743 1.214389 
v 0.5901313 0.5526481 1.614389 
v 0.5901313 0.5526481 1.214389 
v 1.761405 0 -0.8845862 
v 1.361403 0 -0.8845862 
v -0.03157377 0.9658635 -0.4807734 
v -0.03157377 0.9658635 -0.8807734 
v 2.04499 0.4567698 0.8672556 
v 1.644988 0.4567698 0.8672556 
v 0.4863167 0.9567357 -0.1785888 
v 0.8863163 0.9567357 -0.1785888 
v 0.4863167 1.607721 -0.3976064 
v 0.8863163 1.607721 -0.3976064 
v 0.890131 0 1.614389 
v 0.890131 0 1.214389 
v 0.4863167 1.786357 -0.5976064 
v 0.8863163 1.786357 -0.5976064 
v -2.04499 0.6433377 -0.8672556 
v -1.644988 0.6433377 -0.8672556 
v -2.04499 1.08108 -1.086273 
v -1.644988 1.08108 -1.086273 
v 0.2562785 0.98406 -1.45537 
v 0.6562781 0.98406 -1.45537 
v 0.2562785 1.0934 -1.65537 
v 0.6562781 1.0934 -1.65537 
v -0.04940987 0 0.8807734 
v 0.03157377 1.071158 0.8807734 
v -0.04940987 0 0.4807734 
v 0.03157377 1.071158 0.4807734 
v 2.04499 0 0.7862732 
v 1.644988 0 0.7862732 
v 0.3901291 0.6140534 1.614389 
v 0.3901291 0.6140534 1.214389 
v -1.761405 0 0.8845862 
v -1.361403 0 0.8845862 
v -1.761405 0.4632032 0.8036038 
v -1.361403 0.4632032 0.8036038 
v -0.4863167 2.286 0.3976064 
v -0.8863163 2.286 0.3976064 
v -0.4863167 2.54 0.5976064 
v -0.8863163 2.54 0.5976064 
v -1.433289 1.2012 2.039445 
v -1.233289 1.08108 2.039445 
v -1.433289 1.2012 1.639445 
v -1.233289 1.08108 1.639445 
v -0.5901313 0.7783776 -1.614389 
v -0.5901313 0.7783776 -1.214389 
v -0.3901291 0.864864 -1.614389 
v -0.3901291 0.864864 -1.214389 
v -0.6562781 1.386 1.45537 
v -0.6562781 1.54 1.65537 
v -0.2562785 1.386 1.45537 
v -0.2562785 1.54 1.65537 
v -0.4863167 1.360371 0.1785888 
v -0.8863163 1.360371 0.1785888 
v -2.04499 0 -0.7862732 
v -1.644988 0 -0.7862732 
v 0.2505898 1.8 0.8807734 
v 0.2505898 1.8 0.4807734 
v 0.04940987 0 -0.4807734 
v 0.04940987 0 -0.8807734 
v -1.761405 0.7783776 0.5845862 
v -1.361403 0.7783776 0.5845862 
v -0.9332895 0 2.039445 
v -0.9332895 0 1.639445 
v -1.014271 0.6433377 2.039445 
v -1.014271 0.6433377 1.639445 
v -1.241896 0.8247919 -0.1092632 
v -1.160913 0 -0.1092632 
v -1.241896 0.8247919 -0.5092632 
v -1.160913 0 -0.5092632 
v -0.2562785 0 1.15537 
v -0.6562781 0 1.15537 
v -0.2562785 0.8247919 1.236352 
v -0.6562781 0.8247919 1.236352 
v 0.4505897 2 0.8807734 
v 0.4505897 2 0.4807734 
v -0.8091474 0.4632032 -1.214389 
v -0.8091474 0.4632032 -1.614389 
v -1.660914 1.54 -0.5092632 
v -1.660914 1.54 -0.1092632 
v -1.460915 1.386 -0.5092632 
v -1.460915 1.386 -0.1092632 
v -2.04499 1.2012 -1.286273 
v -1.644988 1.2012 -1.286273 
v -1.761405 0.864864 0.3845862 
v -1.361403 0.864864 0.3845862 
v 1.005125 0.3422795 1.214389 
v 1.005125 0.3422795 1.614389 
v 1.31613 0.5751746 1.214389 
v 1.31613 0.5751746 1.614389 

vn 0 -0.8121161 -0.5834958
vn 0 0.8121161 0.5834958
vn 0 -0.2284081 0.9735655
vn 0 0.2284081 -0.9735655
vn 0.9774899 -0.2109825 0
vn -0.9774899 0.2109825 0
vn 0.7589679 -0.6511281 0
vn -0.7589679 0.6511281 0
vn 0 -0.3304883 -0.94381
vn 0 0.3304883 0.94381
vn 0 -0.6819978 0.7313543
vn 0 0.6819978 -0.7313543
vn -0.3922514 -0.9198581 0
vn 0.3922514 0.9198581 0
vn 0 -0.699471 -0.7146609
vn 0 0.699471 0.7146609
vn -0.4796942 -0.8774357 0
vn 0.4796942 0.8774357 0
vn -0.990573 -0.1369854 0
vn 0.990573 0.1369854 0
vn 0 -0.1369854 0.990573
vn 0 0.1369854 -0.990573
vn 0.6696619 -0.742666 0
vn -0.6696619 0.742666 0
vn -0.9846445 -0.1745713 0
vn 0.9846445 0.1745713 0
vn 0 -0.9198581 -0.3922514
vn 0 0.9198581 0.3922514
vn 0 -0.9559577 -0.2935046
vn 0 0.9559577 0.2935046
vn 0.7146609 -0.699471 0
vn -0.7146609 0.699471 0
vn 0 -0.2390991 -0.9709952
vn 0 0.2390991 0.9709952
vn 0.9795333 -0.2012824 0
vn 0.948704 -0.3161655 0
vn -0.948704 0.3161655 0
vn -0.9795333 0.2012824 0
vn 0 -0.576036 -0.8174242
vn 0 0.576036 0.8174242
vn 0 -0.2030713 0.9791639
vn 0 -0.3188765 0.9477962
vn 0 0.3188765 -0.9477962
vn 0 0.2030713 -0.9791639
vn 0.9709952 -0.2390991 0
vn -0.9709952 0.2390991 0
vn 0 -0.7458185 0.6661491
vn 0 0.7458185 -0.6661491
vn 0 -0.2903261 0.9569278
vn 0 -0.4474529 0.8943075
vn 0 0.4474529 -0.8943075
vn 0 0.2903261 -0.9569278
vn 0 -0.8774357 0.4796942
vn 0 0.8774357 -0.4796942
vn -0.9971544 -0.07538751 0
vn -0.9831768 -0.1826565 0
vn 0.9971544 0.07538751 0
vn 0.9831768 0.1826565 0
vn 0 -0.1745713 -0.9846445
vn 0 0.1745713 0.9846445
vn 0.2935046 -0.9559577 0
vn -0.2935046 0.9559577 0
vn 0 -0.08434289 0.9964368
vn 0 0.08434289 -0.9964368
vn -0.8174242 -0.576036 0
vn 0.8174242 0.576036 0
vn 0 -0.1722191 0.9850587
vn 0 0.1722191 -0.9850587
vn 0 -0.6186408 -0.785674
vn 0 0.6186408 0.785674
vn 0.5148739 -0.8572659 0
vn -0.5148739 0.8572659 0
vn -0.3969108 -0.9178572 0
vn 0.3969108 0.9178572 0
vn 0 -0.7923294 -0.6100936
vn 0 0.7923294 0.6100936
vn 0 -0.1453836 -0.9893754
vn 0 -0.230257 -0.9731299
vn 0 0.230257 0.9731299
vn 0 0.1453836 0.9893754
vn 0 -0.4816922 0.8763405
vn 0 0.4816922 -0.8763405
vn 0 -0.1248929 0.9921703
vn 0 0.1248929 -0.9921703
vn -0.9576942 -0.287788 0
vn 0.9576942 0.287788 0
vn 0.9965035 -0.08355139 0
vn -0.9965035 0.08355139 0
vn 0 -0.5706533 0.8211911
vn 0 0.5706533 -0.8211911
vn 0.9921703 -0.1248929 0
vn 0.9569278 -0.2903261 0
vn -0.9569278 0.2903261 0
vn -0.9921703 0.1248929 0
vn 0.9725196 -0.2328206 0
vn 0.9952143 -0.09771537 0
vn -0.9725196 0.2328206 0
vn -0.9952143 0.09771537 0
vn 0 -0.09771537 -0.9952143
vn 0 -0.2328206 -0.9725196
vn 0 0.2328206 0.9725196
vn 0 0.09771537 0.9952143
vn 0.8943075 -0.4474529 0
vn -0.8943075 0.4474529 0
vn -0.7071068 -0.7071068 0
vn 0.7071068 0.7071068 0
vn -0.9850587 -0.1722191 0
vn 0.9850587 0.1722191 0
vn 0 -0.05942444 -0.9982328
vn 0 0.05942444 0.9982328
vn 0.6100936 -0.7923294 0
vn -0.6100936 0.7923294 0
vn -0.8211911 -0.5706533 0
vn 0.8211911 0.5706533 0
vn -0.8763405 -0.4816922 0
vn 0.8763405 0.4816922 0
vn 0 -0.8572659 0.5148739
vn 0 0.8572659 -0.5148739
vn 0 -0.9178572 0.3969108
vn 0 0.9178572 -0.3969108
vn 0 -0.3635563 -0.9315723
vn 0 0.3635563 0.9315723
vn 0.9315723 -0.3635563 0
vn -0.9315723 0.3635563 0
vn -0.5994091 -0.8004428 0
vn 0.5994091 0.8004428 0
vn -0.9479313 -0.3184747 0
vn 0.9479313 0.3184747 0

vt 1.914635 1.268333
vt 1.914635 3.391857
vt 3.489439 1.268333
vt 3.489439 3.391857
vt 3.489439 -0.08777202
vt 1.914635 -0.08777201
vt 3.489439 2.703971
vt 1.914635 2.703971
vt -4.781058 0.7393774
vt -6.355861 0.7393775
vt -4.781058 2.250538
vt -6.355861 2.250538
vt -4.781058 3.610548
vt -6.355861 3.610548
vt -4.781058 4.934825
vt -6.355861 4.934825
vt 3.489439 -0.1269991
vt 1.914635 -0.1269991
vt 3.489439 1.802439
vt 1.914635 1.802439
vt 3.489439 2.160585
vt 1.914635 2.160585
vt 3.489439 4.689256
vt 1.914635 4.689256
vt 6.45451 5.651693
vt 6.45451 6.507696
vt 8.029313 5.651693
vt 8.029313 6.507696
vt 6.934664 -1.287654
vt 5.359861 -1.287654
vt 6.934664 -0.05490195
vt 5.359861 -0.05490195
vt -2.004973 6.905141
vt -2.004973 7.80253
vt -0.4301699 6.905141
vt -0.4301699 7.80253
vt -2.004973 2.953557
vt -0.4301699 2.953557
vt -2.004973 0.6260956
vt -0.4301699 0.6260956
vt -1.008973 0.6231056
vt -2.583776 0.6231056
vt -1.008973 2.950567
vt -2.583776 2.950567
vt -1.892809 6.072073
vt -1.892809 5.011837
vt -3.467612 6.072073
vt -3.467612 5.011837
vt 6.45451 2.467789
vt 8.029313 2.467789
vt 6.45451 0.6414388
vt 8.029313 0.6414388
vt 6.476336 5.97528
vt 8.051139 5.97528
vt 6.476336 5.119277
vt 8.051139 5.119277
vt 5.359861 -0.7378767
vt 6.934664 -0.7378767
vt 5.359861 -1.561555
vt 6.934664 -1.561555
vt 6.355861 -1.302921
vt 4.781058 -1.302921
vt 6.355861 -0.07016896
vt 4.781058 -0.07016896
vt 6.934664 -0.8326919
vt 5.359861 -0.8326919
vt 6.934664 0.5007653
vt 5.359861 0.5007653
vt -1.892809 3.646854
vt -3.467612 3.646854
vt -1.892809 6.37414
vt -3.467612 6.37414
vt 8.051139 3.436792
vt 6.476336 3.436792
vt 8.051139 4.933702
vt 6.476336 4.933702
vt -1.914635 3.794245
vt -3.489439 3.794245
vt -1.914635 6.498345
vt -3.489439 6.498345
vt 6.355861 -0.8379106
vt 4.781058 -0.8379106
vt 6.355861 0.4955465
vt 4.781058 0.4955465
vt -1.914635 5.383955
vt -3.489439 5.383955
vt -1.914635 6.43971
vt -3.489439 6.43971
vt 8.051139 3.792905
vt 6.476336 3.792905
vt 8.051139 5.719976
vt 6.476336 5.719976
vt -1.008973 6.885989
vt -2.583776 6.885989
vt -1.008973 7.783379
vt -2.583776 7.783379
vt -3.467612 -0.0146648
vt -3.467612 4.214529
vt -1.892809 -0.0146648
vt -1.892809 4.214529
vt 8.051139 0.5403965
vt 6.476336 0.5403965
vt 8.051139 2.366747
vt 6.476336 2.366747
vt 6.355861 -0.7587419
vt 6.355861 -1.58242
vt 4.781058 -0.7587419
vt 4.781058 -1.58242
vt -1.914635 0.03241105
vt -3.489439 0.03241105
vt -1.914635 3.812557
vt -3.489439 3.812557
vt 6.45451 5.267113
vt 8.029313 5.267113
vt 6.45451 3.770203
vt 8.029313 3.770203
vt 6.934664 -0.5997741
vt 5.359861 -0.5997741
vt 6.934664 1.251521
vt 5.359861 1.251521
vt -1.914635 8.039473
vt -3.489439 8.039473
vt -1.914635 9.312265
vt -3.489439 9.312265
vt 8.029313 7.272348
vt 8.029313 6.353845
vt 6.45451 7.272348
vt 6.45451 6.353845
vt 6.355861 -0.916176
vt 4.781058 -0.916176
vt 6.355861 -0.05830663
vt 4.781058 -0.05830663
vt -2.583776 7.868984
vt -2.583776 8.862764
vt -1.008973 7.868984
vt -1.008973 8.862764
vt -1.914635 5.373776
vt -3.489439 5.373776
vt -1.914635 9.118608
vt -3.489439 9.118608
vt -1.008973 4.365071
vt -2.583776 4.365071
vt -1.008973 6.155165
vt -2.583776 6.155165
vt 8.051139 0.386614
vt 6.476336 0.386614
vt 8.051139 2.939428
vt 6.476336 2.939428
vt -3.467612 4.074521
vt -3.467612 7.070734
vt -1.892809 4.074521
vt -1.892809 7.070734
vt -1.892809 -0.01625289
vt -3.467612 -0.01625289
vt -1.892809 3.799702
vt -3.467612 3.799702
vt 6.934664 -0.307877
vt 5.359861 -0.307877
vt 6.934664 1.203153
vt 5.359861 1.203153
vt 8.029313 0.4589024
vt 6.45451 0.4589024
vt 8.029313 3.011716
vt 6.45451 3.011716
vt -0.43017 3.709438
vt -0.43017 0.4466107
vt -2.004973 3.709438
vt -2.004973 0.4466107
vt -1.008973 0.4444779
vt -2.583776 0.4444779
vt -1.008973 3.707305
vt -2.583776 3.707305
vt 8.029313 4.051891
vt 6.45451 4.051891
vt 8.029313 5.978963
vt 6.45451 5.978963
vt -3.467612 5.708608
vt -3.467612 6.822162
vt -1.892809 5.708608
vt -1.892809 6.822162
vt 4.781058 -0.603533
vt 4.781058 1.247762
vt 6.355861 -0.603533
vt 6.355861 1.247762
vt -1.914635 0.02283546
vt -3.489439 0.02283546
vt -1.914635 5.388109
vt -3.489439 5.388109
vt -2.004973 8.880058
vt -0.43017 8.880058
vt -2.004973 7.886278
vt -0.43017 7.886278
vt 4.781058 -0.3203324
vt 4.781058 1.190697
vt 6.355861 -0.3203324
vt 6.355861 1.190697
vt -2.004973 6.165679
vt -0.4301699 6.165679
vt -2.004973 4.375585
vt -0.4301699 4.375585
vt 8.051139 5.857657
vt 6.476336 5.857657
vt 8.051139 6.77616
vt 6.476336 6.77616
vt 6.934664 -0.03827299
vt 6.934664 -0.8961424
vt 5.359861 -0.03827299
vt 5.359861 -0.8961424
vt -1.008973 4.794633
vt -2.583776 4.794633
vt -1.008973 7.166409
vt -2.583776 7.166409
vt -0.43017 7.174344
vt -0.43017 4.802568
vt -2.004973 7.174344
vt -2.004973 4.802568
vt -4.781058 3.975239
vt -6.355861 3.975239
vt -4.781058 5.504929
vt -6.355861 5.504929
vt -6.355861 1.116079
vt -6.355861 2.537655
vt -4.781058 1.116079
vt -4.781058 2.537655

usemtl natureKit-leavesGreen
# usermap natureKit-leavesGreen

f 2/2/1 1/1/1 3/3/1
f 3/3/1 4/4/1 2/2/1
f 2/2/2 3/3/2 1/1/2
f 3/3/2 2/2/2 4/4/2
f 6/6/3 5/5/3 7/7/3
f 7/7/3 8/8/3 6/6/3
f 6/6/4 7/7/4 5/5/4
f 7/7/4 6/6/4 8/8/4
f 10/10/5 9/9/5 11/11/5
f 11/11/5 12/12/5 10/10/5
f 10/10/6 11/11/6 9/9/6
f 11/11/6 10/10/6 12/12/6
f 12/14/7 11/13/7 13/15/7
f 13/15/7 14/16/7 12/14/7
f 12/14/8 13/15/8 11/13/8
f 13/15/8 12/14/8 14/16/8
f 16/18/9 15/17/9 3/19/9
f 3/19/9 1/20/9 16/18/9
f 16/18/10 3/19/10 15/17/10
f 3/19/10 16/18/10 1/20/10
f 8/22/11 7/21/11 17/23/11
f 17/23/11 18/24/11 8/22/11
f 8/22/12 17/23/12 7/21/12
f 17/23/12 8/22/12 18/24/12
f 20/26/13 19/25/13 21/27/13
f 21/27/13 22/28/13 20/26/13
f 20/26/14 21/27/14 19/25/14
f 21/27/14 20/26/14 22/28/14
f 24/30/15 23/29/15 25/31/15
f 25/31/15 26/32/15 24/30/15
f 24/30/16 25/31/16 23/29/16
f 25/31/16 24/30/16 26/32/16
f 28/34/17 27/33/17 29/35/17
f 29/35/17 30/36/17 28/34/17
f 28/34/18 29/35/18 27/33/18
f 29/35/18 28/34/18 30/36/18
f 32/38/19 31/37/19 33/39/19
f 33/39/19 34/40/19 32/38/19
f 32/38/20 33/39/20 31/37/20
f 33/39/20 32/38/20 34/40/20
f 36/42/21 35/41/21 37/43/21
f 37/43/21 38/44/21 36/42/21
f 36/42/22 37/43/22 35/41/22
f 37/43/22 36/42/22 38/44/22
f 40/46/23 39/45/23 41/47/23
f 41/47/23 42/48/23 40/46/23
f 40/46/24 41/47/24 39/45/24
f 41/47/24 40/46/24 42/48/24
f 44/50/25 43/49/25 45/51/25
f 45/51/25 46/52/25 44/50/25
f 44/50/26 45/51/26 43/49/26
f 45/51/26 44/50/26 46/52/26
f 48/54/27 47/53/27 49/55/27
f 49/55/27 50/56/27 48/54/27
f 48/54/28 49/55/28 47/53/28
f 49/55/28 48/54/28 50/56/28
f 52/58/29 51/57/29 26/59/29
f 26/59/29 25/60/29 52/58/29
f 52/58/30 26/59/30 51/57/30
f 26/59/30 52/58/30 25/60/30
f 54/62/31 53/61/31 55/63/31
f 55/63/31 56/64/31 54/62/31
f 54/62/32 55/63/32 53/61/32
f 55/63/32 54/62/32 56/64/32
f 58/66/33 57/65/33 23/67/33
f 23/67/33 24/68/33 58/66/33
f 58/66/34 23/67/34 57/65/34
f 23/67/34 58/66/34 24/68/34
f 60/70/35 59/69/35 40/71/36
f 40/71/36 42/72/36 60/70/35
f 60/70/38 40/71/37 59/69/38
f 40/71/37 60/70/38 42/72/37
f 62/74/39 61/73/39 50/75/39
f 50/75/39 49/76/39 62/74/39
f 62/74/40 50/75/40 61/73/40
f 50/75/40 62/74/40 49/76/40
f 64/78/41 63/77/41 65/79/42
f 65/79/42 66/80/42 64/78/41
f 64/78/44 65/79/43 63/77/44
f 65/79/43 64/78/44 66/80/43
f 68/82/45 67/81/45 53/83/45
f 53/83/45 54/84/45 68/82/45
f 68/82/46 53/83/46 67/81/46
f 53/83/46 68/82/46 54/84/46
f 66/86/47 65/85/47 69/87/47
f 69/87/47 70/88/47 66/86/47
f 66/86/48 69/87/48 65/85/48
f 69/87/48 66/86/48 70/88/48
f 72/90/49 71/89/49 73/91/50
f 73/91/50 74/92/50 72/90/49
f 72/90/52 73/91/51 71/89/52
f 73/91/51 72/90/52 74/92/51
f 76/94/53 75/93/53 77/95/53
f 77/95/53 78/96/53 76/94/53
f 76/94/54 77/95/54 75/93/54
f 77/95/54 76/94/54 78/96/54
f 80/98/56 79/97/55 81/99/55
f 81/99/55 82/100/56 80/98/56
f 80/98/58 81/99/57 79/97/57
f 81/99/57 80/98/58 82/100/58
f 84/102/59 83/101/59 61/103/59
f 61/103/59 62/104/59 84/102/59
f 84/102/60 61/103/60 83/101/60
f 61/103/60 84/102/60 62/104/60
f 55/106/61 85/105/61 86/107/61
f 86/107/61 56/108/61 55/106/61
f 55/106/62 86/107/62 85/105/62
f 86/107/62 55/106/62 56/108/62
f 15/110/63 16/109/63 63/111/41
f 63/111/41 64/112/41 15/110/63
f 15/110/64 63/111/44 16/109/64
f 63/111/44 15/110/64 64/112/44
f 21/114/65 19/113/65 43/115/65
f 43/115/65 44/116/65 21/114/65
f 21/114/66 43/115/66 19/113/66
f 43/115/66 21/114/66 44/116/66
f 88/118/67 87/117/67 89/119/67
f 89/119/67 90/120/67 88/118/67
f 88/118/68 89/119/68 87/117/68
f 89/119/68 88/118/68 90/120/68
f 92/122/69 91/121/69 93/123/69
f 93/123/69 94/124/69 92/122/69
f 92/122/70 93/123/70 91/121/70
f 93/123/70 92/122/70 94/124/70
f 96/126/71 95/125/71 97/127/71
f 97/127/71 98/128/71 96/126/71
f 96/126/72 97/127/72 95/125/72
f 97/127/72 96/126/72 98/128/72
f 100/130/73 99/129/73 101/131/73
f 101/131/73 102/132/73 100/130/73
f 100/130/74 101/131/74 99/129/74
f 101/131/74 100/130/74 102/132/74
f 104/134/75 103/133/75 105/135/75
f 105/135/75 106/136/75 104/134/75
f 104/134/76 105/135/76 103/133/76
f 105/135/76 104/134/76 106/136/76
f 108/138/77 107/137/77 91/139/78
f 91/139/78 92/140/78 108/138/77
f 108/138/80 91/139/79 107/137/80
f 91/139/79 108/138/80 92/140/79
f 38/142/81 37/141/81 75/143/81
f 75/143/81 76/144/81 38/142/81
f 38/142/82 75/143/82 37/141/82
f 75/143/82 38/142/82 76/144/82
f 110/146/83 109/145/83 71/147/49
f 71/147/49 72/148/49 110/146/83
f 110/146/84 71/147/52 109/145/84
f 71/147/52 110/146/84 72/148/52
f 111/150/85 80/149/56 82/151/56
f 82/151/56 112/152/85 111/150/85
f 111/150/86 82/151/58 80/149/58
f 82/151/58 111/150/86 112/152/86
f 114/154/87 113/153/87 59/155/35
f 59/155/35 60/156/35 114/154/87
f 114/154/88 59/155/38 113/153/88
f 59/155/38 114/154/88 60/156/38
f 90/158/89 89/157/89 115/159/89
f 115/159/89 116/160/89 90/158/89
f 90/158/90 115/159/90 89/157/90
f 115/159/90 90/158/90 116/160/90
f 118/162/91 117/161/91 119/163/92
f 119/163/92 120/164/92 118/162/91
f 118/162/94 119/163/93 117/161/94
f 119/163/93 118/162/94 120/164/93
f 122/166/96 121/165/95 123/167/95
f 123/167/95 124/168/96 122/166/96
f 122/166/98 123/167/97 121/165/97
f 123/167/97 122/166/98 124/168/98
f 126/170/99 125/169/99 127/171/100
f 127/171/100 128/172/100 126/170/99
f 126/170/102 127/171/101 125/169/102
f 127/171/101 126/170/102 128/172/101
f 120/174/92 119/173/92 96/175/103
f 96/175/103 98/176/103 120/174/92
f 120/174/93 96/175/104 119/173/93
f 96/175/104 120/174/93 98/176/104
f 129/178/105 111/177/105 112/179/105
f 112/179/105 130/180/105 129/178/105
f 129/178/106 112/179/106 111/177/106
f 112/179/106 129/178/106 130/180/106
f 131/182/107 9/181/107 10/183/107
f 10/183/107 132/184/107 131/182/107
f 131/182/108 10/183/108 9/181/108
f 10/183/108 131/182/108 132/184/108
f 5/186/109 6/185/109 107/187/77
f 107/187/77 108/188/77 5/186/109
f 5/186/110 107/187/80 6/185/110
f 107/187/80 5/186/110 108/188/80
f 134/190/111 133/189/111 135/191/111
f 135/191/111 136/192/111 134/190/111
f 134/190/112 135/191/112 133/189/112
f 135/191/112 134/190/112 136/192/112
f 100/194/113 131/193/113 132/195/113
f 132/195/113 99/196/113 100/194/113
f 100/194/114 132/195/114 131/193/114
f 132/195/114 100/194/114 99/196/114
f 29/198/115 27/197/115 31/199/115
f 31/199/115 32/200/115 29/198/115
f 29/198/116 31/199/116 27/197/116
f 31/199/116 29/198/116 32/200/116
f 74/202/117 73/201/117 137/203/117
f 137/203/117 138/204/117 74/202/117
f 74/202/118 137/203/118 73/201/118
f 137/203/118 74/202/118 138/204/118
f 115/206/119 139/205/119 140/207/119
f 140/207/119 116/208/119 115/206/119
f 115/206/120 140/207/120 139/205/120
f 140/207/120 115/206/120 116/208/120
f 128/210/100 127/209/100 105/211/121
f 105/211/121 103/212/121 128/210/100
f 128/210/101 105/211/122 127/209/101
f 105/211/122 128/210/101 103/212/122
f 121/214/95 136/213/123 135/215/123
f 135/215/123 123/216/95 121/214/95
f 121/214/97 135/215/124 136/213/124
f 135/215/124 121/214/97 123/216/97
f 142/218/125 141/217/125 143/219/125
f 143/219/125 144/220/125 142/218/125
f 142/218/126 143/219/126 141/217/126
f 143/219/126 142/218/126 144/220/126
f 142/222/127 67/221/127 68/223/127
f 68/223/127 141/224/127 142/222/127
f 142/222/128 68/223/128 67/221/128
f 68/223/128 142/222/128 141/224/128
