# Exported using Kenney Suite 1.2 

mtllib grass.mtl 

g grass

v -1.364388 0 0.5901302 
v -0.9643888 0 0.5901302 
v -1.364388 0.3288743 0.5091477 
v -0.9643888 0.3288743 0.5091478 
v 0.1407361 0 1.460914 
v -0.2592635 0 1.460914 
v 0.1407361 0.5856023 1.541896 
v -0.2592635 0.5856023 1.541896 
v 0.7307744 0 -0.2505905 
v 1.130774 0 -0.2505905 
v 0.7307744 0.9658635 -0.3315729 
v 1.130774 0.9658635 -0.3315729 
v 0.1407361 0.98406 1.760914 
v -0.2592635 0.98406 1.760914 
v -1.70537 1.386 -0.5562791 
v -1.486351 0.8247919 -0.5562791 
v -1.70537 1.386 -0.956279 
v -1.486351 0.8247919 -0.956279 
v 0.7307744 1.62306 -0.5505905 
v 1.130774 1.62306 -0.5505905 
v 0.4285884 0.9567357 0.5863174 
v 0.4285884 0.9567357 0.1863174 
v 0.3476071 0 0.5863174 
v 0.3476071 0 0.1863174 
v 1.486351 0.5856023 0.3562791 
v 1.486351 0.5856023 -0.0437209 
v 1.40537 0 0.3562791 
v 1.40537 0 -0.0437209 
v -1.90537 1.54 -0.956279 
v -1.90537 1.54 -0.5562791 
v 0.7307744 1.8034 -0.7505904 
v 1.130774 1.8034 -0.7505904 
v -0.2307725 0 -0.3494095 
v -0.6307745 0 -0.3494095 
v -0.2307725 1.071158 -0.2684271 
v -0.6307745 1.071158 -0.2684271 
v -0.3476071 2.54 -0.7863173 
v -0.1476073 2.286 -0.7863173 
v -0.3476071 2.54 -1.186317 
v -0.1476073 2.286 -1.186317 
v -0.2307725 1.8 -0.04940951 
v -0.6307745 1.8 -0.04940951 
v 1.70537 0.98406 0.3562791 
v 1.70537 0.98406 -0.0437209 
v -0.2592635 1.0934 1.960914 
v 0.1407361 1.0934 1.960914 
v 0.6476068 1.607721 0.5863174 
v 0.6476068 1.607721 0.1863174 
v 0.8476067 1.786357 0.5863174 
v 0.8476067 1.786357 0.1863174 
v -1.40537 0 -0.5562791 
v -1.40537 0 -0.956279 
v 0.3592634 0 -1.460914 
v 0.759263 0 -1.460914 
v 0.3592634 0.8247919 -1.541896 
v 0.759263 0.8247919 -1.541896 
v -1.364388 0.5526481 0.2901301 
v -0.9643888 0.5526481 0.2901301 
v -1.364388 0.6140534 0.09013013 
v -0.9643888 0.6140534 0.09013014 
v 1.90537 1.0934 0.3562791 
v 1.90537 1.0934 -0.04372089 
v -0.2307725 2 0.1505905 
v -0.6307745 2 0.1505905 
v 0.3592634 1.54 -1.960914 
v 0.3592634 1.386 -1.760914 
v 0.759263 1.54 -1.960914 
v 0.759263 1.386 -1.760914 
v 0.07141113 1.360371 -0.7863173 
v 0.07141113 1.360371 -1.186317 
v 0.1523948 0 -0.7863173 
v 0.1523948 0 -1.186317 
v 0.1856422 0.4625398 0.5863174 
v 0.1856422 0.4625398 0.1863174 
v -1.364388 0.3422795 0.7051251 
v -1.364388 0.5751746 1.01613 
v -0.9643888 0.3422795 0.7051251 
v -0.9643888 0.5751746 1.01613 
v -0.2523947 0.7772629 0.1863174 
v -0.2523947 0.7772629 0.5863174 
v 0.7523942 1.160094 -0.7863173 
v 0.7523942 1.160094 -1.186317 
v 0.3143573 0.690358 -0.7863173 
v 0.3143573 0.690358 -1.186317 

vn 0 -0.2390991 0.9709952
vn 0 0.2390991 -0.9709952
vn 0 -0.1369854 -0.990573
vn 0 0.1369854 0.990573
vn 0 -0.08355139 0.9965035
vn 0 -0.2012824 0.9795333
vn 0 0.2012824 -0.9795333
vn 0 0.08355139 -0.9965035
vn 0 -0.4816922 -0.8763405
vn 0 0.4816922 0.8763405
vn 0.9315723 -0.3635563 0
vn 0.9725196 -0.2328206 0
vn -0.9315723 0.3635563 0
vn -0.9725196 0.2328206 0
vn 0 -0.3161655 0.948704
vn 0 0.3161655 -0.948704
vn -0.9791639 -0.2030713 0
vn -0.9964368 -0.08434289 0
vn 0.9964368 0.08434289 0
vn 0.9791639 0.2030713 0
vn -0.990573 -0.1369854 0
vn 0.990573 0.1369854 0
vn 0.6100936 -0.7923294 0
vn -0.6100936 0.7923294 0
vn 0 -0.742666 0.6696619
vn 0 0.742666 -0.6696619
vn 0 -0.07538751 -0.9971544
vn 0 -0.1826565 -0.9831768
vn 0 0.1826565 0.9831768
vn 0 0.07538751 0.9971544
vn 0.785674 -0.6186408 0
vn -0.785674 0.6186408 0
vn 0 -0.287788 -0.9576942
vn 0 0.287788 0.9576942
vn -0.8763405 -0.4816922 0
vn 0.8763405 0.4816922 0
vn 0 -0.8774357 -0.4796942
vn 0 0.8774357 0.4796942
vn -0.9477962 -0.3188765 0
vn 0.9477962 0.3188765 0
vn -0.6661491 -0.7458185 0
vn 0.6661491 0.7458185 0
vn 0.9952143 -0.09771537 0
vn -0.9952143 0.09771537 0
vn 0 -0.09771537 0.9952143
vn 0 -0.2328206 0.9725196
vn 0 0.2328206 -0.9725196
vn 0 0.09771537 -0.9952143
vn 0 -0.699471 0.7146609
vn 0 0.699471 -0.7146609
vn 0 -0.9559577 0.2935046
vn 0 0.9559577 -0.2935046
vn -0.4796942 -0.8774357 0
vn 0.4796942 0.8774357 0
vn 0 -0.7071068 -0.7071068
vn 0 0.7071068 0.7071068
vn 0 -0.7923294 0.6100936
vn 0 0.7923294 -0.6100936
vn 0.9731299 -0.230257 0
vn 0.9893754 -0.1453836 0
vn -0.9731299 0.230257 0
vn -0.9893754 0.1453836 0
vn 0.9982328 -0.05942444 0
vn -0.9982328 0.05942444 0
vn 0 -0.3635563 0.9315723
vn 0 0.3635563 -0.9315723
vn 0.94381 -0.3304883 0
vn -0.94381 0.3304883 0
vn 0 -0.8004428 -0.5994091
vn 0 0.8004428 0.5994091
vn 0.5834958 -0.8121161 0
vn -0.5834958 0.8121161 0
vn 0 -0.3184747 -0.9479313
vn 0 0.3184747 0.9479313
vn -0.7313543 -0.6819978 0
vn 0.7313543 0.6819978 0
vn -0.9735655 -0.2284081 0
vn 0.9735655 0.2284081 0

vt 5.371609 -0.5555101
vt 3.796806 -0.5555101
vt 5.371609 0.777947
vt 3.796806 0.777947
vt 0.554082 0.7878894
vt -1.020721 0.7878894
vt 0.554082 3.115351
vt -1.020721 3.115351
vt -2.877061 0.08242986
vt -4.451864 0.08242986
vt -2.877061 3.898385
vt -4.451864 3.898385
vt 0.554082 4.944513
vt -1.020721 4.944513
vt 0.554082 6.734606
vt -1.020721 6.734606
vt -2.190075 7.52424
vt -2.190075 5.152464
vt -3.764878 7.52424
vt -3.764878 5.152464
vt -2.877061 4.020278
vt -4.451864 4.020278
vt -2.877061 6.747564
vt -4.451864 6.747564
vt -2.308336 3.895571
vt -0.733533 3.895571
vt -2.308336 0.1154257
vt -0.733533 0.1154257
vt -1.402673 3.085396
vt 0.1721296 3.085396
vt -1.402673 0.7579339
vt 0.1721296 0.7579339
vt -3.764878 9.642616
vt -2.190075 9.642616
vt -3.764878 8.648835
vt -2.190075 8.648835
vt -2.877061 5.889002
vt -4.451864 5.889002
vt -2.877061 6.949238
vt -4.451864 6.949238
vt -0.9085569 -0.1037052
vt -2.48336 -0.1037052
vt -0.9085569 4.125489
vt -2.48336 4.125489
vt -3.095738 8.703367
vt -3.095738 7.430574
vt -4.670541 8.703367
vt -4.670541 7.430574
vt -0.9085569 3.734614
vt -2.48336 3.734614
vt -0.9085569 6.730827
vt -2.48336 6.730827
vt -1.402673 6.629272
vt 0.1721296 6.629272
vt -1.402673 4.839178
vt 0.1721296 4.839178
vt -1.020721 8.838872
vt 0.554082 8.838872
vt -1.020721 7.941482
vt 0.554082 7.941482
vt -2.308336 6.812201
vt -0.733533 6.812201
vt -2.308336 4.1081
vt -0.733533 4.1081
vt -2.308336 6.118028
vt -2.308336 7.173783
vt -0.733533 6.118028
vt -0.733533 7.173783
vt -2.190075 3.803481
vt -2.190075 0.5406545
vt -3.764878 3.803481
vt -3.764878 0.5406545
vt -1.414422 0.5620226
vt -2.989225 0.5620226
vt -1.414422 3.82485
vt -2.989225 3.82485
vt 5.371609 -0.4767736
vt 3.796806 -0.4767736
vt 5.371609 0.7559779
vt 3.796806 0.7559779
vt 5.371609 -0.4533363
vt 3.796806 -0.4533363
vt 5.371609 0.370342
vt 3.796806 0.370342
vt -1.402673 7.749607
vt -1.402673 8.646996
vt 0.1721296 7.749607
vt 0.1721296 8.646996
vt -0.9085569 4.873443
vt -2.48336 4.873443
vt -0.9085569 5.986997
vt -2.48336 5.986997
vt -1.414422 9.815881
vt -1.414422 8.8221
vt -2.989225 9.815881
vt -2.989225 8.8221
vt -3.095738 8.891977
vt -3.095738 5.147145
vt -4.670541 8.891977
vt -4.670541 5.147145
vt -3.095738 5.32962
vt -3.095738 -0.03565317
vt -4.670541 5.32962
vt -4.670541 -0.03565317
vt -1.414422 5.231966
vt -2.989225 5.231966
vt -1.414422 7.603742
vt -2.989225 7.603742
vt 2.308336 1.477155
vt 2.308336 -0.4522829
vt 0.733533 1.477155
vt 0.733533 -0.4522829
vt -5.371609 3.029834
vt -5.371609 4.559524
vt -3.796806 3.029834
vt -3.796806 4.559524
vt 0.733533 2.59253
vt 2.308336 2.59253
vt 0.733533 0.4690062
vt 2.308336 0.4690062
vt -3.796806 0.7399274
vt -5.371609 0.7399274
vt -3.796806 2.161504
vt -5.371609 2.161504
vt 3.095738 5.360513
vt 4.670541 5.360513
vt 3.095738 2.831842
vt 4.670541 2.831842
vt 3.095738 2.928782
vt 4.670541 2.928782
vt 3.095738 0.1370391
vt 4.670541 0.1370391

usemtl natureKit-leavesGreen
# usermap natureKit-leavesGreen

f 2/2/1 1/1/1 3/3/1
f 3/3/1 4/4/1 2/2/1
f 2/2/2 3/3/2 1/1/2
f 3/3/2 2/2/2 4/4/2
f 6/6/3 5/5/3 7/7/3
f 7/7/3 8/8/3 6/6/3
f 6/6/4 7/7/4 5/5/4
f 7/7/4 6/6/4 8/8/4
f 10/10/5 9/9/5 11/11/6
f 11/11/6 12/12/6 10/10/5
f 10/10/8 11/11/7 9/9/8
f 11/11/7 10/10/8 12/12/7
f 8/14/9 7/13/9 13/15/9
f 13/15/9 14/16/9 8/14/9
f 8/14/10 13/15/10 7/13/10
f 13/15/10 8/14/10 14/16/10
f 16/18/12 15/17/11 17/19/11
f 17/19/11 18/20/12 16/18/12
f 16/18/14 17/19/13 15/17/13
f 17/19/13 16/18/14 18/20/14
f 12/22/6 11/21/6 19/23/15
f 19/23/15 20/24/15 12/22/6
f 12/22/7 19/23/16 11/21/7
f 19/23/16 12/22/7 20/24/16
f 22/26/17 21/25/17 23/27/18
f 23/27/18 24/28/18 22/26/17
f 22/26/20 23/27/19 21/25/20
f 23/27/19 22/26/20 24/28/19
f 26/30/21 25/29/21 27/31/21
f 27/31/21 28/32/21 26/30/21
f 26/30/22 27/31/22 25/29/22
f 27/31/22 26/30/22 28/32/22
f 30/34/23 29/33/23 17/35/23
f 17/35/23 15/36/23 30/34/23
f 30/34/24 17/35/24 29/33/24
f 17/35/24 30/34/24 15/36/24
f 20/38/25 19/37/25 31/39/25
f 31/39/25 32/40/25 20/38/25
f 20/38/26 31/39/26 19/37/26
f 31/39/26 20/38/26 32/40/26
f 34/42/27 33/41/27 35/43/28
f 35/43/28 36/44/28 34/42/27
f 34/42/30 35/43/29 33/41/30
f 35/43/29 34/42/30 36/44/29
f 38/46/31 37/45/31 39/47/31
f 39/47/31 40/48/31 38/46/31
f 38/46/32 39/47/32 37/45/32
f 39/47/32 38/46/32 40/48/32
f 36/50/28 35/49/28 41/51/33
f 41/51/33 42/52/33 36/50/28
f 36/50/29 41/51/34 35/49/29
f 41/51/34 36/50/29 42/52/34
f 44/54/35 43/53/35 25/55/35
f 25/55/35 26/56/35 44/54/35
f 44/54/36 25/55/36 43/53/36
f 25/55/36 44/54/36 26/56/36
f 46/58/37 45/57/37 14/59/37
f 14/59/37 13/60/37 46/58/37
f 46/58/38 14/59/38 45/57/38
f 14/59/38 46/58/38 13/60/38
f 48/62/39 47/61/39 21/63/17
f 21/63/17 22/64/17 48/62/39
f 48/62/40 21/63/20 47/61/40
f 21/63/20 48/62/40 22/64/20
f 49/66/41 47/65/41 48/67/41
f 48/67/41 50/68/41 49/66/41
f 49/66/42 48/67/42 47/65/42
f 48/67/42 49/66/42 50/68/42
f 51/70/43 16/69/12 18/71/12
f 18/71/12 52/72/43 51/70/43
f 51/70/44 18/71/14 16/69/14
f 18/71/14 51/70/44 52/72/44
f 54/74/45 53/73/45 55/75/46
f 55/75/46 56/76/46 54/74/45
f 54/74/48 55/75/47 53/73/48
f 55/75/47 54/74/48 56/76/47
f 4/78/49 3/77/49 57/79/49
f 57/79/49 58/80/49 4/78/49
f 4/78/50 57/79/50 3/77/50
f 57/79/50 4/78/50 58/80/50
f 58/82/51 57/81/51 59/83/51
f 59/83/51 60/84/51 58/82/51
f 58/82/52 59/83/52 57/81/52
f 59/83/52 58/82/52 60/84/52
f 61/86/53 43/85/53 44/87/53
f 44/87/53 62/88/53 61/86/53
f 61/86/54 44/87/54 43/85/54
f 44/87/54 61/86/54 62/88/54
f 42/90/55 41/89/55 63/91/55
f 63/91/55 64/92/55 42/90/55
f 42/90/56 63/91/56 41/89/56
f 63/91/56 42/90/56 64/92/56
f 66/94/57 65/93/57 67/95/57
f 67/95/57 68/96/57 66/94/57
f 66/94/58 67/95/58 65/93/58
f 67/95/58 66/94/58 68/96/58
f 69/98/60 38/97/59 40/99/59
f 40/99/59 70/100/60 69/98/60
f 69/98/62 40/99/61 38/97/61
f 40/99/61 69/98/62 70/100/62
f 71/102/63 69/101/60 70/103/60
f 70/103/60 72/104/63 71/102/63
f 71/102/64 70/103/62 69/101/62
f 70/103/62 71/102/64 72/104/64
f 56/106/46 55/105/46 66/107/65
f 66/107/65 68/108/65 56/106/46
f 56/106/47 66/107/66 55/105/47
f 66/107/66 56/106/47 68/108/66
f 23/110/67 73/109/67 74/111/67
f 74/111/67 24/112/67 23/110/67
f 23/110/68 74/111/68 73/109/68
f 74/111/68 23/110/68 24/112/68
f 76/114/69 75/113/69 77/115/69
f 77/115/69 78/116/69 76/114/69
f 76/114/70 77/115/70 75/113/70
f 77/115/70 76/114/70 78/116/70
f 80/118/71 79/117/71 74/119/71
f 74/119/71 73/120/71 80/118/71
f 80/118/72 74/119/72 79/117/72
f 74/119/72 80/118/72 73/120/72
f 1/122/73 2/121/73 77/123/73
f 77/123/73 75/124/73 1/122/73
f 1/122/74 77/123/74 2/121/74
f 77/123/74 1/122/74 75/124/74
f 82/126/75 81/125/75 83/127/75
f 83/127/75 84/128/75 82/126/75
f 82/126/76 83/127/76 81/125/76
f 83/127/76 82/126/76 84/128/76
f 84/130/77 83/129/77 71/131/77
f 71/131/77 72/132/77 84/130/77
f 84/130/78 71/131/78 83/129/78
f 71/131/78 84/130/78 72/132/78
