# Exported using Kenney Suite 1.2 

mtllib ground_dirtRiverT.mtl 

g ground_dirtRiverT

v 0.6170583 2 -7.27519 
v 0.3030777 2 -7.37698 
v 0.6170583 2.5 -7.27519 
v 0.3030777 2.5 -7.37698 
v 0.9398532 2 -7.195307 
v 0.9398532 2.5 -7.195307 
v 9.026205 2 -7.854779 
v 8.516793 2 -7.980844 
v 9.026205 2.5 -7.854779 
v 8.516793 2.5 -7.980844 
v 7.996871 2 -8.071495 
v 7.574158 2 -8.115319 
v 7.996871 2.5 -8.071495 
v 7.574158 2.5 -8.115319 
v 9.521708 2 -7.69414 
v 9.521708 2.5 -7.69414 
v 0.6170583 2 -2.27519 
v 0.9398532 2 -2.195307 
v 0.6170583 2.5 -2.27519 
v 0.9398532 2.5 -2.195307 
v 9.026205 2 -2.854779 
v 9.521708 2 -2.694141 
v 9.026205 2.5 -2.854779 
v 9.521708 2.5 -2.694141 
v 1.26931 2 -2.137865 
v 1.603231 2 -2.103245 
v 1.26931 2.5 -2.137865 
v 1.603231 2.5 -2.103245 
v 8.516793 2 -2.980844 
v 8.516793 2.5 -2.980844 
v 10 0 -6.208438E-12 
v 10 2.5 -6.208438E-12 
v 10 0 -10 
v 10 2 -2.5 
v 10 2.5 -1.875 
v 10 2.5 -1.975 
v 10 2 -7.5 
v 10 2.5 -7.5 
v 10 2.5 -8.125 
v 10 2.5 -10 
v 10 2.5 -2.5 
v 0 0 0 
v 0 2.5 0 
v 7.285836 2 -8.216455 
v 7.226725 2 -8.266438 
v 7.285836 2.5 -8.216455 
v 7.226725 2.5 -8.266438 
v 2.019157 2 -8.516794 
v 2.019157 2.5 -8.516794 
v 2.145221 2 -9.026205 
v 2.145221 2.5 -9.026205 
v 1.396909 2 -7.158809 
v 1.317751 2 -7.146167 
v 1.396909 2.5 -7.158809 
v 1.317751 2.5 -7.146167 
v 7.305861 2.5 -9.521708 
v 7.305861 2 -9.521708 
v 7.5 2.5 -10 
v 7.5 2 -10 
v 1.473901 2 -7.181119 
v 1.473901 2.5 -7.181119 
v 1.928506 2 -7.996871 
v 1.928506 2.5 -7.996871 
v 7.497292 2 -8.124482 
v 7.497292 2.5 -8.124482 
v 0 0 -10 
v 0 2.5 -10 
v 2.5 2 -10 
v 2.5 2.5 -10 
v 1.875 2.5 -10 
v 8.125 2.5 -10 
v 0 2.5 -9.41765 
v 0 2.5 -8.417694 
v 0 2.5 -8.125 
v 0.3030777 2.5 -8.00198 
v 0.6170583 2.5 -7.90019 
v 0.9398532 2.5 -7.820307 
v 1.680858 2.5 -9.521708 
v 1.520221 2.5 -9.026205 
v 1.495228 2.5 -8.925215 
v 1.394157 2.5 -8.516794 
v 1.303506 2.5 -7.996871 
v 1.26931 2.5 -7.762865 
v 1.27914 2.5 -7.761846 
v 0 2.5 -7.5 
v 1.237638 2.5 -7.143387 
v 1.495228 2.5 -7.19028 
v 1.547554 2.5 -7.212758 
v 1.61674 2.5 -7.25324 
v 1.680405 2.5 -7.301948 
v 1.737576 2.5 -7.358139 
v 1.787376 2.5 -7.420952 
v 1.829047 2.5 -7.48943 
v 1.861954 2.5 -7.562525 
v 1.885591 2.5 -7.639122 
v 2.305858 2.5 -9.521708 
v 1.899598 2.5 -7.718049 
v 7.696338 2.5 -8.727653 
v 7.996871 2.5 -8.696494 
v 8.516793 2.5 -8.605844 
v 9.026205 2.5 -8.479778 
v 9.521708 2.5 -8.31914 
v 7.422571 2.5 -8.144716 
v 7.351584 2.5 -8.175593 
v 7.175503 2.5 -8.324479 
v 7.145221 2.5 -9.026205 
v 7.133257 2.5 -8.389347 
v 7.100885 2.5 -8.459665 
v 7.080464 2.5 -8.764526 
v 7.079077 2.5 -8.53394 
v 7.068753 2.5 -8.688006 
v 7.068288 2.5 -8.610597 
v 7.770221 2.5 -9.026205 
v 7.930858 2.5 -9.521708 
v 6.407247 2 -3.04589 
v 6.624508 2 -3.064524 
v 6.407247 2.5 -3.04589 
v 6.624508 2.5 -3.064524 
v 7.068753 2 -8.688006 
v 7.080464 2 -8.764526 
v 0.3030777 2 -2.37698 
v 0.3030777 2.5 -2.37698 
v 2.275558 2 -2.103245 
v 2.277675 2 -2.103465 
v 2.275558 2.5 -2.103245 
v 2.277675 2.5 -2.103465 
v 2.305858 2 -9.521708 
v 6.849556 2 -3.07307 
v 6.849556 2.5 -3.07307 
v 7.100885 2 -8.459665 
v 7.079077 2 -8.53394 
v 5.974288 2 -2.993719 
v 6.190469 2 -3.022284 
v 5.974288 2.5 -2.993719 
v 6.190469 2.5 -3.022284 
v 1.680405 2 -7.301948 
v 1.61674 2 -7.25324 
v 8.414927 2 -2.998605 
v 8.414927 2.5 -2.998605 
v 5.75882 2 -2.96021 
v 5.75882 2.5 -2.96021 
v 7.422571 2 -8.144716 
v 1.237638 2 -7.143387 
v 7.068288 2 -8.610597 
v 0 2 -2.5 
v 0 2.5 -2.5 
v 5.330467 2 -2.878433 
v 5.544176 2 -2.921774 
v 5.330467 2.5 -2.878433 
v 5.544176 2.5 -2.921774 
v 5.117807 2 -2.830207 
v 5.117807 2.5 -2.830207 
v 4.906309 2 -2.777123 
v 4.906309 2.5 -2.777123 
v 7.145221 2 -9.026205 
v 4.487236 2 -2.656495 
v 4.696081 2 -2.719209 
v 4.487236 2.5 -2.656495 
v 4.696081 2.5 -2.719209 
v 7.133257 2 -8.389347 
v 7.175503 2 -8.324479 
v 1.899598 2 -7.718049 
v 7.351584 2 -8.175593 
v 1.939394 2 -2.09168 
v 1.939394 2.5 -2.09168 
v 1.829047 2 -7.48943 
v 1.861954 2 -7.562525 
v 1.787376 2 -7.420952 
v 1.737576 2 -7.358139 
v 1.547554 2 -7.212758 
v 1.495228 2 -7.19028 
v 1.885591 2 -7.639122 
v 0 2 -7.5 
v 0 2.5 -1.875 
v 0 2.5 -1.975 
v 4.279881 2 -2.589013 
v 4.279881 2.5 -2.589013 
v 8.340816 2 -3.005959 
v 8.340816 2.5 -3.005959 
v 2.735469 2 -2.165187 
v 2.962728 2 -2.206561 
v 2.735469 2.5 -2.165187 
v 2.962728 2.5 -2.206561 
v 7.372248 2 -3.070566 
v 7.894356 2 -3.045729 
v 7.372248 2.5 -3.070566 
v 7.894356 2.5 -3.045729 
v 0.1853156 2.5 -1.79978 
v 0.3030777 2.5 -1.75198 
v 0.6170583 2.5 -1.65019 
v 0.9398532 2.5 -1.570307 
v 1.26931 2.5 -1.512865 
v 1.603231 2.5 -1.478245 
v 1.939394 2.5 -1.46668 
v 2.258737 2.5 -1.477667 
v 2.275558 2.5 -1.478245 
v 2.277675 2.5 -1.478465 
v 2.507045 2.5 -2.130811 
v 2.507045 2.5 -1.505811 
v 2.735469 2.5 -1.540187 
v 2.962728 2.5 -1.58156 
v 3.18861 2.5 -2.254893 
v 3.18861 2.5 -1.629893 
v 3.412902 2.5 -2.310138 
v 3.412902 2.5 -1.685138 
v 3.635392 2.5 -2.372244 
v 3.635392 2.5 -1.747245 
v 3.85587 2.5 -2.441153 
v 3.85587 2.5 -1.816153 
v 4.074125 2.5 -2.516799 
v 4.074125 2.5 -1.8918 
v 4.279881 2.5 -1.964013 
v 4.487236 2.5 -2.031495 
v 4.696081 2.5 -2.094209 
v 4.906309 2.5 -2.152123 
v 5.117807 2.5 -2.205207 
v 5.330467 2.5 -2.253433 
v 5.544176 2.5 -2.296775 
v 5.75882 2.5 -2.33521 
v 5.974288 2.5 -2.368719 
v 6.190469 2.5 -2.397284 
v 6.407247 2.5 -2.420889 
v 6.624508 2.5 -2.439524 
v 6.849556 2.5 -2.44807 
v 7.372248 2.5 -2.445566 
v 7.894356 2.5 -2.42073 
v 8.336596 2.5 -3.005696 
v 8.321223 2.5 -2.382087 
v 8.340816 2.5 -2.380959 
v 8.414927 2.5 -2.373605 
v 8.516793 2.5 -2.355844 
v 9.026205 2.5 -2.229779 
v 9.521708 2.5 -2.069141 
v 9.760855 2.5 -1.97207 
v 3.412902 2 -2.310138 
v 3.635392 2 -2.372244 
v 8.336596 2 -3.005696 
v 2.507045 2 -2.130811 
v 3.18861 2 -2.254893 
v 3.85587 2 -2.441153 
v 4.074125 2 -2.516799 

vn 0.2744805 0 -0.9615927
vn 0.3424687 0 -0.9395292
vn -0.2744805 0 0.9615927
vn -0.3424687 0 0.9395292
vn 0.2061206 0 -0.9785266
vn -0.2061206 0 0.9785266
vn 0.1375254 0 -0.9904982
vn 0.1107457 0 -0.9938487
vn -0.1375254 0 0.9904982
vn -0.1107457 0 0.9938487
vn -0.06879378 0 0.9976308
vn 0.06879378 0 -0.9976308
vn -1 0 0
vn 1 0 0
vn 0 0 -1
vn 0 0 1
vn 0.5883378 0 -0.8086153
vn 0.6995867 0 -0.7145476
vn -0.5883378 0 0.8086153
vn -0.6995867 0 0.7145476
vn -0.9785266 0 -0.2061206
vn -0.9615927 0 -0.2744805
vn 0.9615927 0 0.2744805
vn 0.9785266 0 0.2061206
vn -0.2184317 0 -0.9758522
vn -0.09637874 0 -0.9953447
vn 0.2184317 0 0.9758522
vn 0.09637874 0 0.9953447
vn 0.9395292 0 0.3424687
vn 0.9265784 0 0.3761017
vn -0.9265784 0 -0.3761017
vn -0.9395292 0 -0.3424687
vn -0.3371478 0 -0.9414517
vn 0.3371478 0 0.9414517
vn -0.9904982 0 -0.1375254
vn 0.9904982 0 0.1375254
vn 0.1903805 0 -0.9817104
vn -0.1903805 0 0.9817104
vn 0 -1 0
vn 0 1 0
vn 0.09686099 0 0.995298
vn 0.0617183 0 0.9980935
vn -0.09686099 0 -0.995298
vn -0.0617183 0 -0.9980935
vn 0.9968869 0 0.07884449
vn 0.9806158 0 0.1959404
vn -0.9806158 0 -0.1959404
vn -0.9968869 0 -0.07884449
vn 0.06879378 0 0.9976308
vn 0.1107555 0 0.9938477
vn -0.06879378 0 -0.9976308
vn -0.1107555 0 -0.9938477
vn 0.01658231 0 0.9998626
vn -0.01658231 0 -0.9998626
vn 0.9364153 0 -0.3508939
vn 0.9774628 0 -0.2111078
vn -0.9774628 0 0.2111078
vn -0.9364153 0 0.3508939
vn 0.1423421 0 0.9898174
vn 0.1196329 0 0.9928182
vn -0.1423421 0 -0.9898174
vn -0.1196329 0 -0.9928182
vn -0.655558 0 -0.7551448
vn -0.5573933 0 -0.8302487
vn 0.655558 0 0.7551448
vn 0.5573933 0 0.8302487
vn -0.1353487 0 0.990798
vn 0.1353487 0 -0.990798
vn 0.1649766 0 0.9862975
vn -0.1649766 0 -0.9862975
vn 0.3310037 0 -0.9436294
vn -0.3310037 0 0.9436294
vn 0.06891056 0 -0.9976228
vn -0.06891056 0 0.9976228
vn 0.9977636 0 -0.06684101
vn -0.9977636 0 0.06684101
vn -0.3761017 0 0.9265784
vn 0.3761017 0 -0.9265784
vn 0.209974 0 0.977707
vn 0.1875245 0 0.9822599
vn -0.209974 0 -0.977707
vn -0.1875245 0 -0.9822599
vn 0.2323134 0 0.9726411
vn -0.2323134 0 -0.9726411
vn 0.2545308 0 0.9670647
vn -0.2545308 0 -0.9670647
vn 0.2985534 0 0.9543929
vn 0.2766147 0 0.9609809
vn -0.2985534 0 -0.9543929
vn -0.2766147 0 -0.9609809
vn 0.8754923 0 -0.4832321
vn -0.8754923 0 0.4832321
vn 0.7959869 0 -0.6053139
vn -0.7959869 0 0.6053139
vn -0.9902892 0 -0.1390225
vn 0.9902892 0 0.1390225
vn 0.4646013 0 -0.88552
vn -0.4646013 0 0.88552
vn -0.8847498 0 -0.4660662
vn -0.9354873 0 -0.3533603
vn 0.9354873 0 0.3533603
vn 0.8847498 0 0.4660662
vn -0.8204962 0 -0.5716519
vn 0.8204962 0 0.5716519
vn -0.7437078 0 -0.6685047
vn 0.7437078 0 0.6685047
vn -0.4507133 0 -0.8926687
vn 0.4507133 0 0.8926687
vn -0.394685 0 -0.9188165
vn 0.394685 0 0.9188165
vn -0.9719334 0 -0.2352562
vn 0.9719334 0 0.2352562
vn 0.3203355 0 0.9473041
vn -0.3203355 0 -0.9473041
vn -0.01829994 0 0.9998325
vn 0.01829994 0 -0.9998325
vn 0.1639829 0 0.9864632
vn 0.1941957 0 0.9809628
vn -0.1639829 0 -0.9864632
vn -0.1941957 0 -0.9809628
vn -0.02615893 0 0.9996578
vn -0.06885238 0 0.9976268
vn 0.02615893 0 -0.9996578
vn 0.06885238 0 -0.9976268
vn 0.2540437 0 0.9671928
vn 0.2836223 0 0.9589361
vn -0.2540437 0 -0.9671928
vn -0.2836223 0 -0.9589361
vn 0.3129334 0 0.949775
vn -0.3129334 0 -0.949775
vn -0.01398469 0 0.9999022
vn 0.01398469 0 -0.9999022
vn 0.3293228 0 0.9442174
vn -0.3293228 0 -0.9442174
vn 0.1336154 0 0.9910333
vn -0.1336154 0 -0.9910333
vn 0.2242254 0 0.9745374
vn -0.2242254 0 -0.9745374

vt -6.522123 7.874016
vt -7.82161 7.874016
vt -6.522123 9.84252
vt -7.82161 9.84252
vt -3.213236 7.874016
vt -4.522418 7.874016
vt -3.213236 9.84252
vt -4.522418 9.84252
vt 27.06684 7.874016
vt 25.00079 7.874016
vt 27.06684 9.84252
vt 25.00079 9.84252
vt 28.03893 7.874016
vt 26.36579 7.874016
vt 28.03893 9.84252
vt 26.36579 9.84252
vt 26.31816 7.874016
vt 24.26741 7.874016
vt 26.31816 9.84252
vt 24.26741 9.84252
vt -0.2064235 7.874016
vt -1.515605 7.874016
vt -0.2064235 9.84252
vt -1.515605 9.84252
vt -30.3381 7.874016
vt -32.38885 7.874016
vt -30.3381 9.84252
vt -32.38885 9.84252
vt -4.102684 7.874016
vt -5.424384 7.874016
vt -4.102684 9.84252
vt -5.424384 9.84252
vt -2.160674 7.874016
vt -3.477313 7.874016
vt -2.160674 9.84252
vt -3.477313 9.84252
vt -29.72963 7.874016
vt -31.79568 7.874016
vt -29.72963 9.84252
vt -31.79568 9.84252
vt -1.511543E-23 4.768024E-27
vt -1.511543E-23 9.84252
vt 39.37008 4.768024E-27
vt 9.84252 7.874016
vt 7.38189 9.84252
vt 7.77559 9.84252
vt 29.52756 7.874016
vt 29.52756 9.84252
vt 31.98819 9.84252
vt 39.37008 9.84252
vt 9.84252 9.84252
vt 39.37008 -2.454352E-24
vt 2.444267E-11 4.757134E-36
vt 2.444267E-11 9.84252
vt 1.017154 7.874016
vt 0.7123855 7.874016
vt 1.017154 9.84252
vt 0.7123855 9.84252
vt 34.45847 7.874016
vt 34.45847 9.84252
vt 36.52452 7.874016
vt 36.52452 9.84252
vt 9.875666 7.874016
vt 9.560073 7.874016
vt 9.875666 9.84252
vt 9.560073 9.84252
vt -45.55258 9.84252
vt -45.55258 7.874016
vt -47.58483 9.84252
vt -47.58483 7.874016
vt 13.44223 7.874016
vt 13.12664 7.874016
vt 13.44223 9.84252
vt 13.12664 9.84252
vt 32.31996 7.874016
vt 32.31996 9.84252
vt 34.39778 7.874016
vt 34.39778 9.84252
vt 25.82819 7.874016
vt 25.52342 7.874016
vt 25.82819 9.84252
vt 25.52342 9.84252
vt -1.691243E-11 -1.705677E-11
vt -39.37008 -1.705677E-11
vt -1.691243E-11 9.84252
vt -9.84252 7.874016
vt -9.84252 9.84252
vt -7.38189 9.84252
vt -29.52756 7.874016
vt -39.37008 9.84252
vt -29.52756 9.84252
vt -31.98819 9.84252
vt 1.421085E-12 37.07737
vt 7.38189 39.37008
vt 0 39.37008
vt 3.865352E-12 33.14053
vt 4.583001E-12 31.98819
vt 1.193215 31.50386
vt 2.429364 31.10311
vt 3.700209 30.78861
vt 6.617556 37.48704
vt 5.985122 35.53624
vt 5.886728 35.13864
vt 5.488805 33.53069
vt 5.13191 31.48374
vt 4.997281 30.56246
vt 5.03598 30.55845
vt 6.110164E-12 29.52756
vt 1.193215 29.04323
vt 2.429364 28.64248
vt 3.700209 28.32798
vt 4.872591 28.12357
vt 5.187994 28.13452
vt 5.499638 28.18429
vt 5.802761 28.27212
vt 5.886728 28.30819
vt 6.092732 28.39668
vt 6.365123 28.55606
vt 6.615772 28.74783
vt 6.840848 28.96905
vt 7.036916 29.21635
vt 7.200977 29.48595
vt 7.330528 29.77372
vt 7.423587 30.07528
vt 7.59254 31.48374
vt 7.949435 33.53069
vt 8.445752 35.53624
vt 9.078186 37.48704
vt 9.84252 39.37008
vt 7.478734 30.38602
vt 29.81952 31.95008
vt 30.30054 34.36084
vt 31.48374 31.77754
vt 31.48374 34.23817
vt 33.53069 33.88128
vt 33.53069 31.42064
vt 35.53624 33.38496
vt 35.53624 30.92433
vt 37.48704 32.75252
vt 37.48704 30.29189
vt 39.37008 31.98819
vt 39.37008 29.52756
vt 29.52756 39.37008
vt 29.51689 31.98615
vt 29.22272 32.06581
vt 28.94324 32.18737
vt 28.76323 37.48704
vt 28.68439 32.34825
vt 28.45167 32.54503
vt 28.25001 32.77354
vt 28.13079 35.53624
vt 28.08369 33.02893
vt 27.95624 33.30577
vt 27.87584 34.50601
vt 27.87038 33.59819
vt 27.82974 34.20475
vt 27.82791 33.89999
vt 30.59142 35.53624
vt 31.22385 37.48704
vt 31.98819 39.37008
vt 39.37008 39.37008
vt -26.15786 7.874016
vt -27.01636 7.874016
vt -26.15786 9.84252
vt -27.01636 9.84252
vt -38.02054 9.84252
vt -38.02054 7.874016
vt -38.32531 9.84252
vt -38.32531 7.874016
vt 1.750923 7.874016
vt 0.4514365 7.874016
vt 1.750923 9.84252
vt 0.4514365 9.84252
vt -2.444267E-11 0
vt -39.37008 39.37008
vt -39.37008 2.444267E-11
vt -9.765021 7.874016
vt -9.773408 7.874016
vt -9.765021 9.84252
vt -9.773408 9.84252
vt 36.40879 7.874016
vt 36.40879 9.84252
vt 38.45954 7.874016
vt 38.45954 9.84252
vt -27.40644 7.874016
vt -27.40644 9.84252
vt -26.51978 7.874016
vt -26.51978 9.84252
vt -24.07983 9.84252
vt -24.07983 7.874016
vt -24.3846 9.84252
vt -24.3846 7.874016
vt -24.8621 7.874016
vt -25.7206 7.874016
vt -24.8621 9.84252
vt -25.7206 9.84252
vt 22.72259 7.874016
vt 22.407 7.874016
vt 22.72259 9.84252
vt 22.407 9.84252
vt -30.6095 7.874016
vt -31.01661 7.874016
vt -30.6095 9.84252
vt -31.01661 9.84252
vt -24.19414 7.874016
vt -25.05264 7.874016
vt -24.19414 9.84252
vt -25.05264 9.84252
vt 20.12996 7.874016
vt 19.8252 7.874016
vt 20.12996 9.84252
vt 19.8252 9.84252
vt 5.845051 7.874016
vt 5.845051 9.84252
vt 6.160644 7.874016
vt 6.160644 9.84252
vt -34.06683 9.84252
vt -34.06683 7.874016
vt -34.3716 9.84252
vt -34.3716 7.874016
vt 3.701789 7.874016
vt 2.414024 7.874016
vt 3.701789 9.84252
vt 2.414024 9.84252
vt -25.51678 7.874016
vt -26.37528 7.874016
vt -25.51678 9.84252
vt -26.37528 9.84252
vt -22.81983 7.874016
vt -23.67833 7.874016
vt -22.81983 9.84252
vt -23.67833 9.84252
vt -22.11419 7.874016
vt -22.97269 7.874016
vt -22.11419 9.84252
vt -22.97269 9.84252
vt -21.39672 7.874016
vt -22.25522 7.874016
vt -21.39672 9.84252
vt -22.25522 9.84252
vt -23.51327 7.874016
vt -24.37177 7.874016
vt -23.51327 9.84252
vt -24.37177 9.84252
vt -40.19205 9.84252
vt -40.19205 7.874016
vt -41.25336 9.84252
vt -41.25336 7.874016
vt -42.47947 9.84252
vt -42.47947 7.874016
vt -44.53022 9.84252
vt -44.53022 7.874016
vt -19.92781 7.874016
vt -20.78631 7.874016
vt -19.92781 9.84252
vt -20.78631 9.84252
vt -20.6678 7.874016
vt -21.5263 7.874016
vt -20.6678 9.84252
vt -21.5263 9.84252
vt -18.25852 9.84252
vt -18.25852 7.874016
vt -18.56329 9.84252
vt -18.56329 7.874016
vt -5.575426 9.84252
vt -5.575426 7.874016
vt -5.880194 9.84252
vt -5.880194 7.874016
vt 38.149 7.874016
vt 38.149 9.84252
vt 40.18125 7.874016
vt 40.18125 9.84252
vt 30.99524 7.874016
vt 30.99524 9.84252
vt 32.09885 7.874016
vt 32.09885 9.84252
vt -29.38682 9.84252
vt -29.38682 7.874016
vt -29.69159 9.84252
vt -29.69159 7.874016
vt 14.00771 7.874016
vt 13.70294 7.874016
vt 14.00771 9.84252
vt 13.70294 9.84252
vt -7.914045 7.874016
vt -9.238302 7.874016
vt -7.914045 9.84252
vt -9.238302 9.84252
vt 29.84309 7.874016
vt 29.84309 9.84252
vt 30.15868 7.874016
vt 30.15868 9.84252
vt 27.63543 7.874016
vt 25.55761 7.874016
vt 27.63543 9.84252
vt 25.55761 9.84252
vt 28.6164 7.874016
vt 28.6164 9.84252
vt 28.93199 7.874016
vt 28.93199 9.84252
vt 25.18533 7.874016
vt 24.86974 7.874016
vt 25.18533 9.84252
vt 24.86974 9.84252
vt 19.91513 7.874016
vt 19.59954 7.874016
vt 19.91513 9.84252
vt 19.59954 9.84252
vt 16.58164 7.874016
vt 16.49025 7.874016
vt 16.58164 9.84252
vt 16.49025 9.84252
vt 16.80585 7.874016
vt 16.80585 9.84252
vt 30.61145 7.874016
vt 30.61145 9.84252
vt 30.92705 7.874016
vt 30.92705 9.84252
vt -0.03043347 7.874016
vt -1.220502 7.874016
vt -0.03043347 9.84252
vt -1.220502 9.84252
vt -9.817601 7.874016
vt -11.10537 7.874016
vt -9.817601 9.84252
vt -11.10537 9.84252
vt 26.95013 7.874016
vt 26.95013 9.84252
vt 27.26572 7.874016
vt 27.26572 9.84252
vt -6.023486 7.874016
vt -7.347744 7.874016
vt -6.023486 9.84252
vt -7.347744 9.84252
vt 30.90976 7.874016
vt 30.90976 9.84252
vt 31.22536 7.874016
vt 31.22536 9.84252
vt -39.37008 1.570645E-28
vt 1.517538E-23 1.570613E-28
vt 1.517538E-23 9.84252
vt -7.77559 9.84252
vt -33.14053 9.84252
vt -37.07737 9.84252
vt -30.74542 7.874016
vt -32.77768 7.874016
vt -30.74542 9.84252
vt -32.77768 9.84252
vt 25.3741 7.874016
vt 23.34184 7.874016
vt 25.3741 9.84252
vt 23.34184 9.84252
vt 7.591379 7.874016
vt 7.286611 7.874016
vt 7.591379 9.84252
vt 7.286611 9.84252
vt -12.04643 9.84252
vt -12.04643 7.874016
vt -12.3512 9.84252
vt -12.3512 7.874016
vt -19.17714 7.874016
vt -20.03564 7.874016
vt -19.17714 9.84252
vt -20.03564 9.84252
vt -31.80191 7.874016
vt -31.80191 9.84252
vt -31.50871 7.874016
vt -31.50871 9.84252
vt -12.12221 7.874016
vt -13.03164 7.874016
vt -12.12221 9.84252
vt -13.03164 9.84252
vt -28.4174 7.874016
vt -30.47526 7.874016
vt -28.4174 9.84252
vt -30.47526 9.84252
vt 1.833207E-11 9.84252
vt 1.193215 9.35819
vt 1.961105E-11 7.77559
vt 1.985974E-11 7.38189
vt 0.7295893 7.085747
vt 1.193215 6.897559
vt 2.429364 8.957439
vt 2.429364 6.496809
vt 3.700209 8.642941
vt 3.700209 6.182311
vt 4.997281 8.41679
vt 4.997281 5.95616
vt 6.311935 8.280494
vt 6.311935 5.819864
vt 7.635409 8.234961
vt 7.635409 5.774331
vt 8.958883 8.280494
vt 8.892664 5.817586
vt 8.958883 5.819864
vt 8.967225 8.281359
vt 8.967225 5.820729
vt 9.870259 8.389019
vt 9.870259 5.92839
vt 10.76956 8.524358
vt 10.76956 6.063728
vt 11.66429 8.687246
vt 11.66429 6.226616
vt 12.55359 8.877531
vt 12.55359 6.416901
vt 13.43662 9.095032
vt 13.43662 6.634402
vt 14.31256 9.339545
vt 14.31256 6.878916
vt 15.18059 9.61084
vt 15.18059 7.15021
vt 16.03987 9.90866
vt 16.03987 7.44803
vt 16.84992 10.19296
vt 16.84992 7.732335
vt 17.66628 10.45864
vt 17.66628 7.99801
vt 18.48851 10.70555
vt 18.48851 8.244917
vt 19.31618 10.93356
vt 19.31618 8.472926
vt 20.14885 11.14255
vt 20.14885 8.681917
vt 20.98609 11.33241
vt 20.98609 8.871781
vt 21.82746 11.50305
vt 21.82746 9.042419
vt 22.67252 11.65437
vt 22.67252 9.19374
vt 23.52082 11.78629
vt 23.52082 9.325665
vt 24.37192 11.89876
vt 24.37192 9.438126
vt 25.22538 11.99169
vt 25.22538 9.531061
vt 26.08074 12.06505
vt 26.08074 9.604424
vt 26.96676 12.0987
vt 26.96676 9.63807
vt 29.0246 12.08884
vt 29.0246 9.628214
vt 31.08014 11.99106
vt 31.08014 9.530432
vt 32.82124 11.83345
vt 32.76072 9.378297
vt 32.83786 9.373855
vt 32.83786 11.83448
vt 33.12963 11.80553
vt 33.12963 9.344901
vt 33.53069 11.7356
vt 33.53069 9.274975
vt 35.53624 11.23929
vt 35.53624 8.778657
vt 37.48704 10.60685
vt 37.48704 8.146224
vt 38.42856 7.764057
vt 39.37008 7.38189
vt 39.37008 7.77559
vt 39.37008 2.444489E-11
vt 2.444276E-11 2.223055E-15
vt -26.9085 7.874016
vt -28.96637 7.874016
vt -26.9085 9.84252
vt -28.96637 9.84252
vt -15.38719 7.874016
vt -16.29662 7.874016
vt -15.38719 9.84252
vt -16.29662 9.84252
vt 1.833162E-11 9.84252
vt 6.110285E-12 29.52756
vt -16.44699 7.874016
vt -17.35642 7.874016
vt -16.44699 9.84252
vt -17.35642 9.84252
vt -33.49441 7.874016
vt -33.51106 7.874016
vt -33.49441 9.84252
vt -33.51106 9.84252
vt -17.49086 7.874016
vt -18.40029 7.874016
vt -17.49086 9.84252
vt -18.40029 9.84252
vt -9.884538 7.874016
vt -10.79397 7.874016
vt -9.884538 9.84252
vt -10.79397 9.84252
vt -14.31245 7.874016
vt -15.22188 7.874016
vt -14.31245 9.84252
vt -15.22188 9.84252
vt -29.8725 7.874016
vt -31.62072 7.874016
vt -29.8725 9.84252
vt -31.62072 9.84252
vt -13.22378 7.874016
vt -14.13321 7.874016
vt -13.22378 9.84252
vt -14.13321 9.84252
vt -11.00878 7.874016
vt -11.91821 7.874016
vt -11.00878 9.84252
vt -11.91821 9.84252
vt -18.41618 7.874016
vt -19.27468 7.874016
vt -18.41618 9.84252
vt -19.27468 9.84252

usemtl natureKit-wood
# usermap natureKit-wood

f 2/2/2 1/1/1 3/3/1
f 3/3/1 4/4/2 2/2/2
f 2/2/4 3/3/3 1/1/3
f 3/3/3 2/2/4 4/4/4
f 1/6/1 5/5/5 6/7/5
f 6/7/5 3/8/1 1/6/1
f 1/6/3 6/7/6 5/5/6
f 6/7/6 1/6/3 3/8/3
f 8/10/5 7/9/1 9/11/1
f 9/11/1 10/12/5 8/10/5
f 8/10/6 9/11/3 7/9/3
f 9/11/3 8/10/6 10/12/6
f 12/14/8 11/13/7 13/15/7
f 13/15/7 14/16/8 12/14/8
f 12/14/10 13/15/9 11/13/9
f 13/15/9 12/14/10 14/16/10
f 7/18/1 15/17/2 16/19/2
f 16/19/2 9/20/1 7/18/1
f 7/18/3 16/19/4 15/17/4
f 16/19/4 7/18/3 9/20/3
f 18/22/6 17/21/3 19/23/3
f 19/23/3 20/24/6 18/22/6
f 18/22/5 19/23/1 17/21/1
f 19/23/1 18/22/5 20/24/5
f 22/26/4 21/25/3 23/27/3
f 23/27/3 24/28/4 22/26/4
f 22/26/2 23/27/1 21/25/1
f 23/27/1 22/26/2 24/28/2
f 26/30/11 25/29/9 27/31/9
f 27/31/9 28/32/11 26/30/11
f 26/30/12 27/31/7 25/29/7
f 27/31/7 26/30/12 28/32/12
f 25/34/9 18/33/6 20/35/6
f 20/35/6 27/36/9 25/34/9
f 25/34/7 20/35/5 18/33/5
f 20/35/5 25/34/7 27/36/7
f 21/38/3 29/37/6 30/39/6
f 30/39/6 23/40/3 21/38/3
f 21/38/1 30/39/5 29/37/5
f 30/39/5 21/38/1 23/40/1
f 32/42/13 31/41/13 33/43/13
f 33/43/13 34/44/13 32/42/13
f 34/44/13 35/45/13 32/42/13
f 34/44/13 36/46/13 35/45/13
f 33/43/13 37/47/13 34/44/13
f 33/43/13 38/48/13 37/47/13
f 33/43/13 39/49/13 38/48/13
f 33/43/13 40/50/13 39/49/13
f 36/46/13 34/44/13 41/51/13
f 32/42/14 33/43/14 31/41/14
f 33/43/14 32/42/14 34/44/14
f 34/44/14 32/42/14 35/45/14
f 34/44/14 35/45/14 36/46/14
f 33/43/14 34/44/14 37/47/14
f 33/43/14 37/47/14 38/48/14
f 33/43/14 38/48/14 39/49/14
f 33/43/14 39/49/14 40/50/14
f 36/46/14 41/51/14 34/44/14
f 42/53/15 31/52/15 32/50/15
f 32/50/15 43/54/15 42/53/15
f 42/53/16 32/50/16 31/52/16
f 32/50/16 42/53/16 43/54/16
f 45/56/18 44/55/17 46/57/17
f 46/57/17 47/58/18 45/56/18
f 45/56/20 46/57/19 44/55/19
f 46/57/19 45/56/20 47/58/20
f 49/60/21 48/59/21 50/61/22
f 50/61/22 51/62/22 49/60/21
f 49/60/24 50/61/23 48/59/24
f 50/61/23 49/60/24 51/62/23
f 53/64/26 52/63/25 54/65/25
f 54/65/25 55/66/26 53/64/26
f 53/64/28 54/65/27 52/63/27
f 54/65/27 53/64/28 55/66/28
f 57/68/29 56/67/29 58/69/30
f 58/69/30 59/70/30 57/68/29
f 57/68/32 58/69/31 56/67/32
f 58/69/31 57/68/32 59/70/31
f 52/72/25 60/71/33 61/73/33
f 61/73/33 54/74/25 52/72/25
f 52/72/27 61/73/34 60/71/34
f 61/73/34 52/72/27 54/74/27
f 63/76/35 62/75/35 48/77/21
f 48/77/21 49/78/21 63/76/35
f 63/76/36 48/77/24 62/75/36
f 48/77/24 63/76/36 49/78/24
f 64/80/37 12/79/8 14/81/8
f 14/81/8 65/82/37 64/80/37
f 64/80/38 14/81/10 12/79/10
f 14/81/10 64/80/38 65/82/38
f 33/84/16 66/83/16 67/85/16
f 67/85/16 68/86/16 33/84/16
f 67/85/16 69/87/16 68/86/16
f 67/85/16 70/88/16 69/87/16
f 33/84/16 68/86/16 59/89/16
f 59/89/16 40/90/16 33/84/16
f 59/89/16 58/91/16 40/90/16
f 58/91/16 71/92/16 40/90/16
f 33/84/15 67/85/15 66/83/15
f 67/85/15 33/84/15 68/86/15
f 67/85/15 68/86/15 69/87/15
f 67/85/15 69/87/15 70/88/15
f 33/84/15 59/89/15 68/86/15
f 59/89/15 33/84/15 40/90/15
f 59/89/15 40/90/15 58/91/15
f 58/91/15 40/90/15 71/92/15
f 70/94/39 72/93/39 67/95/39
f 72/93/39 70/94/39 73/96/39
f 73/96/39 70/94/39 74/97/39
f 74/97/39 70/94/39 75/98/39
f 75/98/39 70/94/39 76/99/39
f 76/99/39 70/94/39 77/100/39
f 77/100/39 70/94/39 78/101/39
f 77/100/39 78/101/39 79/102/39
f 77/100/39 79/102/39 80/103/39
f 77/100/39 80/103/39 81/104/39
f 77/100/39 81/104/39 82/105/39
f 77/100/39 82/105/39 83/106/39
f 83/106/39 82/105/39 84/107/39
f 75/98/39 85/108/39 74/97/39
f 85/108/39 75/98/39 4/109/39
f 4/109/39 75/98/39 76/99/39
f 4/109/39 76/99/39 3/110/39
f 3/110/39 76/99/39 77/100/39
f 3/110/39 77/100/39 6/111/39
f 6/111/39 77/100/39 83/106/39
f 6/111/39 83/106/39 86/112/39
f 86/112/39 83/106/39 55/113/39
f 55/113/39 83/106/39 84/107/39
f 55/113/39 84/107/39 82/105/39
f 55/113/39 82/105/39 81/104/39
f 55/113/39 81/104/39 54/114/39
f 54/114/39 81/104/39 80/103/39
f 54/114/39 80/103/39 61/115/39
f 61/115/39 80/103/39 87/116/39
f 87/116/39 80/103/39 88/117/39
f 88/117/39 80/103/39 79/102/39
f 88/117/39 79/102/39 78/101/39
f 88/117/39 78/101/39 89/118/39
f 89/118/39 78/101/39 90/119/39
f 90/119/39 78/101/39 91/120/39
f 91/120/39 78/101/39 70/94/39
f 91/120/39 70/94/39 92/121/39
f 92/121/39 70/94/39 93/122/39
f 93/122/39 70/94/39 94/123/39
f 94/123/39 70/94/39 95/124/39
f 95/124/39 70/94/39 63/125/39
f 63/125/39 70/94/39 49/126/39
f 49/126/39 70/94/39 51/127/39
f 51/127/39 70/94/39 96/128/39
f 96/128/39 70/94/39 69/129/39
f 95/124/39 63/125/39 97/130/39
f 98/132/40 14/131/40 13/133/40
f 13/133/40 99/134/40 98/132/40
f 13/133/40 100/135/40 99/134/40
f 13/133/40 10/136/40 100/135/40
f 10/136/40 101/137/40 100/135/40
f 10/136/40 9/138/40 101/137/40
f 9/138/40 102/139/40 101/137/40
f 9/138/40 16/140/40 102/139/40
f 16/140/40 39/141/40 102/139/40
f 16/140/40 38/142/40 39/141/40
f 14/131/40 98/132/40 58/143/40
f 65/144/40 14/131/40 58/143/40
f 103/145/40 65/144/40 58/143/40
f 104/146/40 103/145/40 58/143/40
f 104/146/40 58/143/40 56/147/40
f 46/148/40 104/146/40 56/147/40
f 47/149/40 46/148/40 56/147/40
f 105/150/40 47/149/40 56/147/40
f 105/150/40 56/147/40 106/151/40
f 107/152/40 105/150/40 106/151/40
f 108/153/40 107/152/40 106/151/40
f 108/153/40 106/151/40 109/154/40
f 110/155/40 108/153/40 109/154/40
f 110/155/40 109/154/40 111/156/40
f 111/156/40 112/157/40 110/155/40
f 98/132/40 113/158/40 58/143/40
f 113/158/40 114/159/40 58/143/40
f 114/159/40 71/160/40 58/143/40
f 98/132/39 13/133/39 14/131/39
f 13/133/39 98/132/39 99/134/39
f 13/133/39 99/134/39 100/135/39
f 13/133/39 100/135/39 10/136/39
f 10/136/39 100/135/39 101/137/39
f 10/136/39 101/137/39 9/138/39
f 9/138/39 101/137/39 102/139/39
f 9/138/39 102/139/39 16/140/39
f 16/140/39 102/139/39 39/141/39
f 16/140/39 39/141/39 38/142/39
f 14/131/39 58/143/39 98/132/39
f 65/144/39 58/143/39 14/131/39
f 103/145/39 58/143/39 65/144/39
f 104/146/39 58/143/39 103/145/39
f 104/146/39 56/147/39 58/143/39
f 46/148/39 56/147/39 104/146/39
f 47/149/39 56/147/39 46/148/39
f 105/150/39 56/147/39 47/149/39
f 105/150/39 106/151/39 56/147/39
f 107/152/39 106/151/39 105/150/39
f 108/153/39 106/151/39 107/152/39
f 108/153/39 109/154/39 106/151/39
f 110/155/39 109/154/39 108/153/39
f 110/155/39 111/156/39 109/154/39
f 111/156/39 110/155/39 112/157/39
f 98/132/39 58/143/39 113/158/39
f 113/158/39 99/134/39 98/132/39
f 99/134/39 113/158/39 114/159/39
f 113/158/39 58/143/39 114/159/39
f 114/159/39 58/143/39 71/160/39
f 99/134/39 114/159/39 71/160/39
f 99/134/39 71/160/39 100/135/39
f 100/135/39 71/160/39 40/161/39
f 100/135/39 40/161/39 101/137/39
f 101/137/39 40/161/39 102/139/39
f 102/139/39 40/161/39 39/141/39
f 116/163/42 115/162/41 117/164/41
f 117/164/41 118/165/42 116/163/42
f 116/163/44 117/164/43 115/162/43
f 117/164/43 116/163/44 118/165/44
f 119/167/45 111/166/45 109/168/46
f 109/168/46 120/169/46 119/167/45
f 119/167/48 109/168/47 111/166/48
f 109/168/47 119/167/48 120/169/47
f 17/171/3 121/170/4 122/172/4
f 122/172/4 19/173/3 17/171/3
f 17/171/1 122/172/2 121/170/2
f 122/172/2 17/171/1 19/173/1
f 42/174/39 66/95/39 33/175/39
f 33/175/39 31/176/39 42/174/39
f 42/174/40 33/175/40 66/95/40
f 33/175/40 42/174/40 31/176/40
f 124/178/50 123/177/49 125/179/49
f 125/179/49 126/180/50 124/178/50
f 124/178/52 125/179/51 123/177/51
f 125/179/51 124/178/52 126/180/52
f 51/182/22 50/181/22 127/183/32
f 127/183/32 96/184/32 51/182/22
f 51/182/23 127/183/29 50/181/23
f 127/183/29 51/182/23 96/184/29
f 129/186/53 128/185/53 116/187/42
f 116/187/42 118/188/42 129/186/53
f 129/186/54 116/187/44 128/185/54
f 116/187/44 129/186/54 118/188/44
f 130/190/55 108/189/55 110/191/56
f 110/191/56 131/192/56 130/190/55
f 130/190/58 110/191/57 108/189/58
f 110/191/57 130/190/58 131/192/57
f 133/194/60 132/193/59 134/195/59
f 134/195/59 135/196/60 133/194/60
f 133/194/62 134/195/61 132/193/61
f 134/195/61 133/194/62 135/196/62
f 137/198/64 136/197/63 90/199/63
f 90/199/63 89/200/64 137/198/64
f 137/198/66 90/199/65 136/197/65
f 90/199/65 137/198/66 89/200/66
f 29/202/6 138/201/67 139/203/67
f 139/203/67 30/204/6 29/202/6
f 29/202/5 139/203/68 138/201/68
f 139/203/68 29/202/5 30/204/5
f 75/98/40 74/97/40 85/108/40
f 85/108/40 4/109/40 75/98/40
f 4/109/40 76/99/40 75/98/40
f 4/109/40 3/110/40 76/99/40
f 3/110/40 77/100/40 76/99/40
f 3/110/40 6/111/40 77/100/40
f 6/111/40 83/106/40 77/100/40
f 6/111/40 86/112/40 83/106/40
f 86/112/40 55/113/40 83/106/40
f 55/113/40 84/107/40 83/106/40
f 55/113/40 82/105/40 84/107/40
f 55/113/40 81/104/40 82/105/40
f 55/113/40 54/114/40 81/104/40
f 54/114/40 80/103/40 81/104/40
f 54/114/40 61/115/40 80/103/40
f 61/115/40 87/116/40 80/103/40
f 87/116/40 88/117/40 80/103/40
f 88/117/40 79/102/40 80/103/40
f 88/117/40 78/101/40 79/102/40
f 88/117/40 89/118/40 78/101/40
f 89/118/40 90/119/40 78/101/40
f 90/119/40 91/120/40 78/101/40
f 91/120/40 70/94/40 78/101/40
f 91/120/40 92/121/40 70/94/40
f 92/121/40 93/122/40 70/94/40
f 93/122/40 94/123/40 70/94/40
f 94/123/40 95/124/40 70/94/40
f 95/124/40 63/125/40 70/94/40
f 63/125/40 49/126/40 70/94/40
f 49/126/40 51/127/40 70/94/40
f 51/127/40 96/128/40 70/94/40
f 96/128/40 69/129/40 70/94/40
f 95/124/40 97/130/40 63/125/40
f 132/206/59 140/205/69 141/207/69
f 141/207/69 134/208/59 132/206/59
f 132/206/61 141/207/70 140/205/70
f 141/207/70 132/206/61 134/208/61
f 142/210/71 64/209/37 65/211/37
f 65/211/37 103/212/71 142/210/71
f 142/210/72 65/211/38 64/209/38
f 65/211/38 142/210/72 103/212/72
f 86/214/73 143/213/73 53/215/26
f 53/215/26 55/216/26 86/214/73
f 86/214/74 53/215/28 143/213/74
f 53/215/28 86/214/74 55/216/28
f 144/218/75 112/217/75 111/219/45
f 111/219/45 119/220/45 144/218/75
f 144/218/76 111/219/48 112/217/76
f 111/219/48 144/218/76 119/220/48
f 121/222/4 145/221/77 146/223/77
f 146/223/77 122/224/4 121/222/4
f 121/222/2 146/223/78 145/221/78
f 146/223/78 121/222/2 122/224/2
f 115/226/41 133/225/60 135/227/60
f 135/227/60 117/228/41 115/226/41
f 115/226/43 135/227/62 133/225/62
f 135/227/62 115/226/43 117/228/43
f 148/230/80 147/229/79 149/231/79
f 149/231/79 150/232/80 148/230/80
f 148/230/82 149/231/81 147/229/81
f 149/231/81 148/230/82 150/232/82
f 147/234/79 151/233/83 152/235/83
f 152/235/83 149/236/79 147/234/79
f 147/234/81 152/235/84 151/233/84
f 152/235/84 147/234/81 149/236/81
f 151/238/83 153/237/85 154/239/85
f 154/239/85 152/240/83 151/238/83
f 151/238/84 154/239/86 153/237/86
f 154/239/86 151/238/84 152/240/84
f 140/242/69 148/241/80 150/243/80
f 150/243/80 141/244/69 140/242/69
f 140/242/70 150/243/82 148/241/82
f 150/243/82 140/242/70 141/244/70
f 120/246/46 109/245/46 106/247/23
f 106/247/23 155/248/23 120/246/46
f 120/246/47 106/247/22 109/245/47
f 106/247/22 120/246/47 155/248/22
f 155/250/23 106/249/23 56/251/29
f 56/251/29 57/252/29 155/250/23
f 155/250/22 56/251/32 106/249/22
f 56/251/32 155/250/22 57/252/32
f 157/254/88 156/253/87 158/255/87
f 158/255/87 159/256/88 157/254/88
f 157/254/90 158/255/89 156/253/89
f 158/255/89 157/254/90 159/256/90
f 153/258/85 157/257/88 159/259/88
f 159/259/88 154/260/85 153/258/85
f 153/258/86 159/259/90 157/257/90
f 159/259/90 153/258/86 154/260/86
f 160/262/91 107/261/91 108/263/55
f 108/263/55 130/264/55 160/262/91
f 160/262/92 108/263/58 107/261/92
f 108/263/58 160/262/92 130/264/58
f 45/266/18 47/265/18 105/267/93
f 105/267/93 161/268/93 45/266/18
f 45/266/20 105/267/94 47/265/20
f 105/267/94 45/266/20 161/268/94
f 96/270/32 127/269/32 68/271/31
f 68/271/31 69/272/31 96/270/32
f 96/270/29 68/271/30 127/269/29
f 68/271/30 96/270/29 69/272/30
f 97/274/95 162/273/95 62/275/35
f 62/275/35 63/276/35 97/274/95
f 97/274/96 62/275/36 162/273/96
f 62/275/36 97/274/96 63/276/36
f 131/278/56 110/277/56 112/279/75
f 112/279/75 144/280/75 131/278/56
f 131/278/57 112/279/76 110/277/57
f 112/279/76 131/278/57 144/280/76
f 163/282/97 142/281/71 103/283/71
f 103/283/71 104/284/97 163/282/97
f 163/282/98 103/283/72 142/281/72
f 103/283/72 163/282/98 104/284/98
f 123/286/49 164/285/16 165/287/16
f 165/287/16 125/288/49 123/286/49
f 123/286/51 165/287/15 164/285/15
f 165/287/15 123/286/51 125/288/51
f 93/290/99 166/289/99 167/291/100
f 167/291/100 94/292/100 93/290/99
f 93/290/102 167/291/101 166/289/102
f 167/291/101 93/290/102 94/292/101
f 11/294/7 8/293/5 10/295/5
f 10/295/5 13/296/7 11/294/7
f 11/294/9 10/295/6 8/293/6
f 10/295/6 11/294/9 13/296/9
f 92/298/103 168/297/103 166/299/99
f 166/299/99 93/300/99 92/298/103
f 92/298/104 166/299/102 168/297/104
f 166/299/102 92/298/104 93/300/102
f 136/302/63 169/301/105 91/303/105
f 91/303/105 90/304/63 136/302/63
f 136/302/65 91/303/106 169/301/106
f 91/303/106 136/302/65 90/304/65
f 170/306/107 137/305/64 89/307/64
f 89/307/64 88/308/107 170/306/107
f 170/306/108 89/307/66 137/305/66
f 89/307/66 170/306/108 88/308/108
f 60/310/33 171/309/109 87/311/109
f 87/311/109 61/312/33 60/310/33
f 87/311/109 171/309/109 170/313/107
f 170/313/107 88/314/107 87/311/109
f 60/310/34 87/311/110 171/309/110
f 87/311/110 60/310/34 61/312/34
f 87/311/110 170/313/108 171/309/110
f 170/313/108 87/311/110 88/314/108
f 94/316/100 167/315/100 172/317/111
f 172/317/111 95/318/111 94/316/100
f 94/316/101 172/317/112 167/315/101
f 172/317/112 94/316/101 95/318/112
f 5/320/5 143/319/73 86/321/73
f 86/321/73 6/322/5 5/320/5
f 5/320/6 86/321/74 143/319/74
f 86/321/74 5/320/6 6/322/6
f 173/324/78 2/323/2 4/325/2
f 4/325/2 85/326/78 173/324/78
f 173/324/77 4/325/4 2/323/4
f 4/325/4 173/324/77 85/326/77
f 91/328/105 169/327/105 168/329/103
f 168/329/103 92/330/103 91/328/105
f 91/328/106 168/329/104 169/327/106
f 168/329/104 91/328/106 92/330/104
f 164/332/16 26/331/11 28/333/11
f 28/333/11 165/334/16 164/332/16
f 164/332/15 28/333/12 26/331/12
f 28/333/12 164/332/15 165/334/15
f 95/336/111 172/335/111 162/337/95
f 162/337/95 97/338/95 95/336/111
f 95/336/112 162/337/96 172/335/112
f 162/337/96 95/336/112 97/338/96
f 173/89/14 85/91/14 74/92/14
f 173/89/14 74/92/14 66/339/14
f 145/86/14 173/89/14 66/339/14
f 145/86/14 66/339/14 42/340/14
f 174/88/14 145/86/14 42/340/14
f 42/340/14 43/341/14 174/88/14
f 174/88/14 175/342/14 145/86/14
f 175/342/14 146/87/14 145/86/14
f 74/92/14 73/343/14 66/339/14
f 73/343/14 72/344/14 66/339/14
f 72/344/14 67/90/14 66/339/14
f 173/89/13 74/92/13 85/91/13
f 173/89/13 66/339/13 74/92/13
f 145/86/13 66/339/13 173/89/13
f 145/86/13 42/340/13 66/339/13
f 174/88/13 42/340/13 145/86/13
f 42/340/13 174/88/13 43/341/13
f 174/88/13 145/86/13 175/342/13
f 175/342/13 145/86/13 146/87/13
f 74/92/13 66/339/13 73/343/13
f 73/343/13 66/339/13 72/344/13
f 72/344/13 66/339/13 67/90/13
f 34/346/77 22/345/4 24/347/4
f 24/347/4 41/348/77 34/346/77
f 34/346/78 24/347/2 22/345/2
f 24/347/2 34/346/78 41/348/78
f 15/350/2 37/349/78 38/351/78
f 38/351/78 16/352/2 15/350/2
f 15/350/4 38/351/77 37/349/77
f 38/351/77 15/350/4 16/352/4
f 44/354/17 163/353/97 104/355/97
f 104/355/97 46/356/17 44/354/17
f 44/354/19 104/355/98 163/353/98
f 104/355/98 44/354/19 46/356/19
f 161/358/93 105/357/93 107/359/91
f 107/359/91 160/360/91 161/358/93
f 161/358/94 107/359/92 105/357/94
f 107/359/92 161/358/94 160/360/92
f 156/362/87 176/361/113 177/363/113
f 177/363/113 158/364/87 156/362/87
f 156/362/89 177/363/114 176/361/114
f 177/363/114 156/362/89 158/364/89
f 139/366/67 138/365/67 178/367/115
f 178/367/115 179/368/115 139/366/67
f 139/366/68 178/367/116 138/365/68
f 178/367/116 139/366/68 179/368/116
f 181/370/118 180/369/117 182/371/117
f 182/371/117 183/372/118 181/370/118
f 181/370/120 182/371/119 180/369/119
f 182/371/119 181/370/120 183/372/120
f 185/374/122 184/373/121 186/375/121
f 186/375/121 187/376/122 185/374/122
f 185/374/124 186/375/123 184/373/123
f 186/375/123 185/374/124 187/376/124
f 122/378/40 146/377/40 175/379/40
f 175/379/40 174/380/40 122/378/40
f 174/380/40 188/381/40 122/378/40
f 188/381/40 189/382/40 122/378/40
f 189/382/40 19/383/40 122/378/40
f 189/382/40 190/384/40 19/383/40
f 190/384/40 20/385/40 19/383/40
f 190/384/40 191/386/40 20/385/40
f 191/386/40 27/387/40 20/385/40
f 191/386/40 192/388/40 27/387/40
f 192/388/40 28/389/40 27/387/40
f 192/388/40 193/390/40 28/389/40
f 193/390/40 165/391/40 28/389/40
f 193/390/40 194/392/40 165/391/40
f 194/392/40 125/393/40 165/391/40
f 194/392/40 195/394/40 125/393/40
f 195/394/40 196/395/40 125/393/40
f 196/395/40 126/396/40 125/393/40
f 196/395/40 197/397/40 126/396/40
f 197/397/40 198/398/40 126/396/40
f 197/397/40 199/399/40 198/398/40
f 199/399/40 182/400/40 198/398/40
f 199/399/40 200/401/40 182/400/40
f 200/401/40 183/402/40 182/400/40
f 200/401/40 201/403/40 183/402/40
f 201/403/40 202/404/40 183/402/40
f 201/403/40 203/405/40 202/404/40
f 203/405/40 204/406/40 202/404/40
f 203/405/40 205/407/40 204/406/40
f 205/407/40 206/408/40 204/406/40
f 205/407/40 207/409/40 206/408/40
f 207/409/40 208/410/40 206/408/40
f 207/409/40 209/411/40 208/410/40
f 209/411/40 210/412/40 208/410/40
f 209/411/40 211/413/40 210/412/40
f 211/413/40 177/414/40 210/412/40
f 211/413/40 212/415/40 177/414/40
f 212/415/40 158/416/40 177/414/40
f 212/415/40 213/417/40 158/416/40
f 213/417/40 159/418/40 158/416/40
f 213/417/40 214/419/40 159/418/40
f 214/419/40 154/420/40 159/418/40
f 214/419/40 215/421/40 154/420/40
f 215/421/40 152/422/40 154/420/40
f 215/421/40 216/423/40 152/422/40
f 216/423/40 149/424/40 152/422/40
f 216/423/40 217/425/40 149/424/40
f 217/425/40 150/426/40 149/424/40
f 217/425/40 218/427/40 150/426/40
f 218/427/40 141/428/40 150/426/40
f 218/427/40 219/429/40 141/428/40
f 219/429/40 134/430/40 141/428/40
f 219/429/40 220/431/40 134/430/40
f 220/431/40 135/432/40 134/430/40
f 220/431/40 221/433/40 135/432/40
f 221/433/40 117/434/40 135/432/40
f 221/433/40 222/435/40 117/434/40
f 222/435/40 118/436/40 117/434/40
f 222/435/40 223/437/40 118/436/40
f 223/437/40 129/438/40 118/436/40
f 223/437/40 224/439/40 129/438/40
f 224/439/40 186/440/40 129/438/40
f 224/439/40 225/441/40 186/440/40
f 225/441/40 187/442/40 186/440/40
f 225/441/40 226/443/40 187/442/40
f 226/443/40 227/444/40 187/442/40
f 226/443/40 228/445/40 227/444/40
f 228/445/40 229/446/40 227/444/40
f 229/446/40 179/447/40 227/444/40
f 229/446/40 139/448/40 179/447/40
f 229/446/40 230/449/40 139/448/40
f 230/449/40 30/450/40 139/448/40
f 230/449/40 231/451/40 30/450/40
f 231/451/40 23/452/40 30/450/40
f 231/451/40 232/453/40 23/452/40
f 232/453/40 24/454/40 23/452/40
f 232/453/40 233/455/40 24/454/40
f 233/455/40 41/50/40 24/454/40
f 233/455/40 234/456/40 41/50/40
f 234/456/40 35/457/40 41/50/40
f 35/457/40 36/458/40 41/50/40
f 122/378/39 175/379/39 146/377/39
f 175/379/39 122/378/39 174/380/39
f 174/380/39 122/378/39 188/381/39
f 188/381/39 122/378/39 189/382/39
f 189/382/39 122/378/39 19/383/39
f 189/382/39 19/383/39 190/384/39
f 190/384/39 19/383/39 20/385/39
f 190/384/39 20/385/39 191/386/39
f 191/386/39 20/385/39 27/387/39
f 191/386/39 27/387/39 192/388/39
f 192/388/39 27/387/39 28/389/39
f 192/388/39 28/389/39 193/390/39
f 193/390/39 28/389/39 165/391/39
f 193/390/39 165/391/39 194/392/39
f 194/392/39 165/391/39 125/393/39
f 194/392/39 125/393/39 195/394/39
f 195/394/39 125/393/39 196/395/39
f 196/395/39 125/393/39 126/396/39
f 196/395/39 126/396/39 197/397/39
f 197/397/39 126/396/39 198/398/39
f 197/397/39 198/398/39 199/399/39
f 199/399/39 198/398/39 182/400/39
f 199/399/39 182/400/39 200/401/39
f 200/401/39 182/400/39 183/402/39
f 200/401/39 183/402/39 201/403/39
f 201/403/39 183/402/39 202/404/39
f 201/403/39 202/404/39 203/405/39
f 203/405/39 202/404/39 204/406/39
f 203/405/39 204/406/39 205/407/39
f 205/407/39 204/406/39 206/408/39
f 205/407/39 206/408/39 207/409/39
f 207/409/39 206/408/39 208/410/39
f 207/409/39 208/410/39 209/411/39
f 209/411/39 208/410/39 210/412/39
f 209/411/39 210/412/39 211/413/39
f 211/413/39 210/412/39 177/414/39
f 211/413/39 177/414/39 212/415/39
f 212/415/39 177/414/39 158/416/39
f 212/415/39 158/416/39 213/417/39
f 213/417/39 158/416/39 159/418/39
f 213/417/39 159/418/39 214/419/39
f 214/419/39 159/418/39 154/420/39
f 214/419/39 154/420/39 215/421/39
f 215/421/39 154/420/39 152/422/39
f 215/421/39 152/422/39 216/423/39
f 216/423/39 152/422/39 149/424/39
f 216/423/39 149/424/39 217/425/39
f 217/425/39 149/424/39 150/426/39
f 217/425/39 150/426/39 218/427/39
f 218/427/39 150/426/39 141/428/39
f 218/427/39 141/428/39 219/429/39
f 219/429/39 141/428/39 134/430/39
f 219/429/39 134/430/39 220/431/39
f 220/431/39 134/430/39 135/432/39
f 220/431/39 135/432/39 221/433/39
f 221/433/39 135/432/39 117/434/39
f 221/433/39 117/434/39 222/435/39
f 222/435/39 117/434/39 118/436/39
f 222/435/39 118/436/39 223/437/39
f 223/437/39 118/436/39 129/438/39
f 223/437/39 129/438/39 224/439/39
f 224/439/39 129/438/39 186/440/39
f 224/439/39 186/440/39 225/441/39
f 225/441/39 186/440/39 187/442/39
f 225/441/39 187/442/39 226/443/39
f 226/443/39 187/442/39 227/444/39
f 226/443/39 227/444/39 228/445/39
f 228/445/39 227/444/39 229/446/39
f 229/446/39 227/444/39 179/447/39
f 229/446/39 179/447/39 139/448/39
f 229/446/39 139/448/39 230/449/39
f 230/449/39 139/448/39 30/450/39
f 230/449/39 30/450/39 231/451/39
f 231/451/39 30/450/39 23/452/39
f 231/451/39 23/452/39 232/453/39
f 232/453/39 23/452/39 24/454/39
f 232/453/39 24/454/39 233/455/39
f 233/455/39 24/454/39 41/50/39
f 233/455/39 41/50/39 234/456/39
f 234/456/39 41/50/39 35/457/39
f 35/457/39 41/50/39 36/458/39
f 32/459/39 228/445/39 229/446/39
f 32/459/39 229/446/39 230/449/39
f 32/459/39 230/449/39 231/451/39
f 32/459/39 231/451/39 232/453/39
f 32/459/39 232/453/39 233/455/39
f 32/459/39 233/455/39 234/456/39
f 32/459/39 234/456/39 35/457/39
f 32/459/39 226/443/39 228/445/39
f 32/459/39 225/441/39 226/443/39
f 32/459/39 224/439/39 225/441/39
f 32/459/39 223/437/39 224/439/39
f 32/459/39 222/435/39 223/437/39
f 32/459/39 221/433/39 222/435/39
f 32/459/39 220/431/39 221/433/39
f 32/459/39 219/429/39 220/431/39
f 32/459/39 218/427/39 219/429/39
f 32/459/39 217/425/39 218/427/39
f 32/459/39 216/423/39 217/425/39
f 32/459/39 215/421/39 216/423/39
f 32/459/39 214/419/39 215/421/39
f 32/459/39 213/417/39 214/419/39
f 32/459/39 212/415/39 213/417/39
f 32/459/39 211/413/39 212/415/39
f 32/459/39 209/411/39 211/413/39
f 32/459/39 207/409/39 209/411/39
f 32/459/39 205/407/39 207/409/39
f 32/459/39 203/405/39 205/407/39
f 32/459/39 201/403/39 203/405/39
f 32/459/39 200/401/39 201/403/39
f 32/459/39 199/399/39 200/401/39
f 32/459/39 197/397/39 199/399/39
f 32/459/39 196/395/39 197/397/39
f 32/459/39 195/394/39 196/395/39
f 32/459/39 194/392/39 195/394/39
f 32/459/39 193/390/39 194/392/39
f 32/459/39 192/388/39 193/390/39
f 43/460/39 192/388/39 32/459/39
f 43/460/39 191/386/39 192/388/39
f 43/460/39 190/384/39 191/386/39
f 43/460/39 189/382/39 190/384/39
f 43/460/39 188/381/39 189/382/39
f 188/381/39 43/460/39 174/380/39
f 184/462/121 128/461/53 129/463/53
f 129/463/53 186/464/121 184/462/121
f 184/462/123 129/463/54 128/461/54
f 129/463/54 184/462/123 186/464/123
f 236/466/126 235/465/125 204/467/125
f 204/467/125 206/468/126 236/466/126
f 236/466/128 204/467/127 235/465/127
f 204/467/127 236/466/128 206/468/128
f 144/157/39 184/440/39 128/438/39
f 184/440/39 144/157/39 131/155/39
f 184/440/39 131/155/39 130/153/39
f 184/440/39 130/153/39 160/152/39
f 184/440/39 160/152/39 161/150/39
f 184/440/39 161/150/39 45/149/39
f 184/440/39 45/149/39 44/148/39
f 184/440/39 44/148/39 163/146/39
f 184/440/39 163/146/39 142/145/39
f 184/440/39 142/145/39 185/442/39
f 185/442/39 142/145/39 64/144/39
f 185/442/39 64/144/39 12/131/39
f 185/442/39 12/131/39 11/133/39
f 185/442/39 11/133/39 237/444/39
f 237/444/39 11/133/39 8/136/39
f 237/444/39 8/136/39 178/447/39
f 178/447/39 8/136/39 138/448/39
f 138/448/39 8/136/39 29/450/39
f 29/450/39 8/136/39 7/138/39
f 29/450/39 7/138/39 21/452/39
f 21/452/39 7/138/39 15/140/39
f 21/452/39 15/140/39 22/454/39
f 22/454/39 15/140/39 37/142/39
f 22/454/39 37/142/39 34/50/39
f 2/109/39 145/469/39 173/470/39
f 145/469/39 2/109/39 121/378/39
f 121/378/39 2/109/39 1/110/39
f 121/378/39 1/110/39 17/383/39
f 17/383/39 1/110/39 5/111/39
f 17/383/39 5/111/39 18/385/39
f 18/385/39 5/111/39 143/112/39
f 18/385/39 143/112/39 25/387/39
f 25/387/39 143/112/39 53/113/39
f 25/387/39 53/113/39 26/389/39
f 26/389/39 53/113/39 52/114/39
f 26/389/39 52/114/39 60/115/39
f 26/389/39 60/115/39 171/116/39
f 26/389/39 171/116/39 170/117/39
f 26/389/39 170/117/39 137/118/39
f 26/389/39 137/118/39 164/391/39
f 164/391/39 137/118/39 136/119/39
f 164/391/39 136/119/39 169/120/39
f 164/391/39 169/120/39 168/121/39
f 164/391/39 168/121/39 166/122/39
f 164/391/39 166/122/39 167/123/39
f 164/391/39 167/123/39 172/124/39
f 164/391/39 172/124/39 162/130/39
f 164/391/39 162/130/39 62/125/39
f 164/391/39 62/125/39 48/126/39
f 164/391/39 48/126/39 123/393/39
f 123/393/39 48/126/39 50/127/39
f 123/393/39 50/127/39 127/128/39
f 123/393/39 127/128/39 124/396/39
f 124/396/39 127/128/39 238/398/39
f 238/398/39 127/128/39 68/129/39
f 238/398/39 68/129/39 59/143/39
f 238/398/39 59/143/39 180/400/39
f 180/400/39 59/143/39 181/402/39
f 181/402/39 59/143/39 239/404/39
f 239/404/39 59/143/39 235/406/39
f 235/406/39 59/143/39 236/408/39
f 236/408/39 59/143/39 240/410/39
f 240/410/39 59/143/39 241/412/39
f 241/412/39 59/143/39 176/414/39
f 176/414/39 59/143/39 156/416/39
f 156/416/39 59/143/39 57/147/39
f 156/416/39 57/147/39 157/418/39
f 157/418/39 57/147/39 153/420/39
f 153/420/39 57/147/39 151/422/39
f 151/422/39 57/147/39 155/151/39
f 151/422/39 155/151/39 147/424/39
f 147/424/39 155/151/39 148/426/39
f 148/426/39 155/151/39 120/154/39
f 148/426/39 120/154/39 140/428/39
f 140/428/39 120/154/39 132/430/39
f 132/430/39 120/154/39 133/432/39
f 133/432/39 120/154/39 119/156/39
f 133/432/39 119/156/39 115/434/39
f 115/434/39 119/156/39 116/436/39
f 116/436/39 119/156/39 128/438/39
f 128/438/39 119/156/39 144/157/39
f 240/472/129 236/471/126 206/473/126
f 206/473/126 208/474/129 240/472/129
f 240/472/130 206/473/128 236/471/128
f 206/473/128 240/472/130 208/474/130
f 178/476/115 237/475/131 227/477/131
f 227/477/131 179/478/115 178/476/115
f 178/476/116 227/477/132 237/475/132
f 227/477/132 178/476/116 179/478/116
f 241/480/133 240/479/129 208/481/129
f 208/481/129 210/482/133 241/480/133
f 241/480/134 208/481/130 240/479/130
f 208/481/130 241/480/134 210/482/134
f 238/484/135 124/483/50 126/485/50
f 126/485/50 198/486/135 238/484/135
f 238/484/136 126/485/52 124/483/52
f 126/485/52 238/484/136 198/486/136
f 235/488/125 239/487/137 202/489/137
f 202/489/137 204/490/125 235/488/125
f 235/488/127 202/489/138 239/487/138
f 202/489/138 235/488/127 204/490/127
f 237/492/131 185/491/122 187/493/122
f 187/493/122 227/494/131 237/492/131
f 237/492/132 187/493/124 185/491/124
f 187/493/124 237/492/132 227/494/132
f 239/496/137 181/495/118 183/497/118
f 183/497/118 202/498/137 239/496/137
f 239/496/138 183/497/120 181/495/120
f 183/497/120 239/496/138 202/498/138
f 180/500/117 238/499/135 198/501/135
f 198/501/135 182/502/117 180/500/117
f 180/500/119 198/501/136 238/499/136
f 198/501/136 180/500/119 182/502/119
f 176/504/113 241/503/133 210/505/133
f 210/505/133 177/506/113 176/504/113
f 176/504/114 210/505/134 241/503/134
f 210/505/134 176/504/114 177/506/114

usemtl natureKit-leavesGreen
# usermap natureKit-leavesGreen

f 70/94/40 67/95/40 72/93/40
f 72/93/40 73/96/40 70/94/40
f 73/96/40 74/97/40 70/94/40
f 74/97/40 75/98/40 70/94/40
f 75/98/40 76/99/40 70/94/40
f 76/99/40 77/100/40 70/94/40
f 77/100/40 78/101/40 70/94/40
f 77/100/40 79/102/40 78/101/40
f 77/100/40 80/103/40 79/102/40
f 77/100/40 81/104/40 80/103/40
f 77/100/40 82/105/40 81/104/40
f 77/100/40 83/106/40 82/105/40
f 83/106/40 84/107/40 82/105/40
f 113/158/40 98/132/40 99/134/40
f 99/134/40 114/159/40 113/158/40
f 99/134/40 71/160/40 114/159/40
f 99/134/40 100/135/40 71/160/40
f 100/135/40 40/161/40 71/160/40
f 100/135/40 101/137/40 40/161/40
f 101/137/40 102/139/40 40/161/40
f 102/139/40 39/141/40 40/161/40
f 188/381/40 174/380/40 43/460/40
f 43/460/40 189/382/40 188/381/40
f 43/460/40 190/384/40 189/382/40
f 43/460/40 191/386/40 190/384/40
f 43/460/40 192/388/40 191/386/40
f 43/460/40 32/459/40 192/388/40
f 32/459/40 193/390/40 192/388/40
f 32/459/40 194/392/40 193/390/40
f 32/459/40 195/394/40 194/392/40
f 32/459/40 196/395/40 195/394/40
f 32/459/40 197/397/40 196/395/40
f 32/459/40 199/399/40 197/397/40
f 32/459/40 200/401/40 199/399/40
f 32/459/40 201/403/40 200/401/40
f 32/459/40 203/405/40 201/403/40
f 32/459/40 205/407/40 203/405/40
f 32/459/40 207/409/40 205/407/40
f 32/459/40 209/411/40 207/409/40
f 32/459/40 211/413/40 209/411/40
f 32/459/40 212/415/40 211/413/40
f 32/459/40 213/417/40 212/415/40
f 32/459/40 214/419/40 213/417/40
f 32/459/40 215/421/40 214/419/40
f 32/459/40 216/423/40 215/421/40
f 32/459/40 217/425/40 216/423/40
f 32/459/40 218/427/40 217/425/40
f 32/459/40 219/429/40 218/427/40
f 32/459/40 220/431/40 219/429/40
f 32/459/40 221/433/40 220/431/40
f 32/459/40 222/435/40 221/433/40
f 32/459/40 223/437/40 222/435/40
f 32/459/40 224/439/40 223/437/40
f 32/459/40 225/441/40 224/439/40
f 32/459/40 226/443/40 225/441/40
f 32/459/40 228/445/40 226/443/40
f 32/459/40 229/446/40 228/445/40
f 32/459/40 230/449/40 229/446/40
f 32/459/40 231/451/40 230/449/40
f 32/459/40 232/453/40 231/451/40
f 32/459/40 233/455/40 232/453/40
f 32/459/40 234/456/40 233/455/40
f 32/459/40 35/457/40 234/456/40

usemtl natureKit-water
# usermap natureKit-water

f 144/157/40 128/438/40 184/440/40
f 184/440/40 131/155/40 144/157/40
f 184/440/40 130/153/40 131/155/40
f 184/440/40 160/152/40 130/153/40
f 184/440/40 161/150/40 160/152/40
f 184/440/40 45/149/40 161/150/40
f 184/440/40 44/148/40 45/149/40
f 184/440/40 163/146/40 44/148/40
f 184/440/40 142/145/40 163/146/40
f 184/440/40 185/442/40 142/145/40
f 185/442/40 64/144/40 142/145/40
f 185/442/40 12/131/40 64/144/40
f 185/442/40 11/133/40 12/131/40
f 185/442/40 237/444/40 11/133/40
f 237/444/40 8/136/40 11/133/40
f 237/444/40 178/447/40 8/136/40
f 178/447/40 138/448/40 8/136/40
f 138/448/40 29/450/40 8/136/40
f 29/450/40 7/138/40 8/136/40
f 29/450/40 21/452/40 7/138/40
f 21/452/40 15/140/40 7/138/40
f 21/452/40 22/454/40 15/140/40
f 22/454/40 37/142/40 15/140/40
f 22/454/40 34/50/40 37/142/40
f 2/109/40 173/470/40 145/469/40
f 145/469/40 121/378/40 2/109/40
f 121/378/40 1/110/40 2/109/40
f 121/378/40 17/383/40 1/110/40
f 17/383/40 5/111/40 1/110/40
f 17/383/40 18/385/40 5/111/40
f 18/385/40 143/112/40 5/111/40
f 18/385/40 25/387/40 143/112/40
f 25/387/40 53/113/40 143/112/40
f 25/387/40 26/389/40 53/113/40
f 26/389/40 52/114/40 53/113/40
f 26/389/40 60/115/40 52/114/40
f 26/389/40 171/116/40 60/115/40
f 26/389/40 170/117/40 171/116/40
f 26/389/40 137/118/40 170/117/40
f 26/389/40 164/391/40 137/118/40
f 164/391/40 136/119/40 137/118/40
f 164/391/40 169/120/40 136/119/40
f 164/391/40 168/121/40 169/120/40
f 164/391/40 166/122/40 168/121/40
f 164/391/40 167/123/40 166/122/40
f 164/391/40 172/124/40 167/123/40
f 164/391/40 162/130/40 172/124/40
f 164/391/40 62/125/40 162/130/40
f 164/391/40 48/126/40 62/125/40
f 164/391/40 123/393/40 48/126/40
f 123/393/40 50/127/40 48/126/40
f 123/393/40 127/128/40 50/127/40
f 123/393/40 124/396/40 127/128/40
f 124/396/40 238/398/40 127/128/40
f 238/398/40 68/129/40 127/128/40
f 238/398/40 59/143/40 68/129/40
f 238/398/40 180/400/40 59/143/40
f 180/400/40 181/402/40 59/143/40
f 181/402/40 239/404/40 59/143/40
f 239/404/40 235/406/40 59/143/40
f 235/406/40 236/408/40 59/143/40
f 236/408/40 240/410/40 59/143/40
f 240/410/40 241/412/40 59/143/40
f 241/412/40 176/414/40 59/143/40
f 176/414/40 156/416/40 59/143/40
f 156/416/40 57/147/40 59/143/40
f 156/416/40 157/418/40 57/147/40
f 157/418/40 153/420/40 57/147/40
f 153/420/40 151/422/40 57/147/40
f 151/422/40 155/151/40 57/147/40
f 151/422/40 147/424/40 155/151/40
f 147/424/40 148/426/40 155/151/40
f 148/426/40 120/154/40 155/151/40
f 148/426/40 140/428/40 120/154/40
f 140/428/40 132/430/40 120/154/40
f 132/430/40 133/432/40 120/154/40
f 133/432/40 119/156/40 120/154/40
f 133/432/40 115/434/40 119/156/40
f 115/434/40 116/436/40 119/156/40
f 116/436/40 128/438/40 119/156/40
f 128/438/40 144/157/40 119/156/40
