# Exported using Kenney Suite 1.2 

mtllib ground_dirtRiverTile.mtl 

g ground_dirtRiverTile

v 10 0 0 
v 0 0 0 
v 10 2.5 0 
v 0 2.5 0 
v 0 0 -10 
v 10 0 -10 
v 0 2.5 -10 
v 10 2.5 -10 
v 1.220477 2.5 -3.571763 
v 1.288626 2.5 -4.089401 
v 1.288626 2.5 -3.054125 
v 1.488426 2.5 -2.571763 
v 1.488426 2.5 -4.571763 
v 1.806264 2.5 -2.157549 
v 1.806264 2.5 -4.985977 
v 1.925912 2.5 -3.571763 
v 1.970022 2.5 -3.236704 
v 2.220478 2.5 -1.839712 
v 2.099349 2.5 -2.92448 
v 2.305081 2.5 -2.656367 
v 2.702839 2.5 -1.639911 
v 2.573195 2.5 -2.450636 
v 2.885418 2.5 -2.321308 
v 3.220477 2.5 -1.571763 
v 3.220477 2.5 -2.277197 
v 3.555536 2.5 -2.321308 
v 3.738115 2.5 -1.639911 
v 3.924618 2.5 -2.474186 
v 4.220476 2.5 -1.839712 
v 4.023483 2.5 -2.525652 
v 4.18288 2.5 -2.591677 
v 4.347427 2.5 -2.643559 
v 4.319341 2.5 -1.891178 
v 4.422317 2.5 -1.933831 
v 4.51587 2.5 -2.680901 
v 4.528618 2.5 -1.967348 
v 4.686923 2.5 -2.703421 
v 4.637434 2.5 -1.991472 
v 4.747939 2.5 -2.00602 
v 4.859293 2.5 -2.710947 
v 4.859293 2.5 -2.010882 
v 4.970644 2.5 -2.00602 
v 5.03166 2.5 -2.703421 
v 5.081148 2.5 -1.991472 
v 5.202713 2.5 -2.680901 
v 5.189967 2.5 -1.967348 
v 5.296266 2.5 -1.933831 
v 5.371156 2.5 -2.643559 
v 5.399241 2.5 -1.891178 
v 5.535703 2.5 -2.591677 
v 5.498106 2.5 -1.839712 
v 5.815921 2.5 -1.618181 
v 5.6951 2.5 -2.525652 
v 5.861051 2.5 -2.439264 
v 6.356018 2.5 -1.422903 
v 6.140323 2.5 -2.244601 
v 6.507237 2.5 -2.111938 
v 6.928253 2.5 -1.374066 
v 6.895983 2.5 -2.078762 
v 7.280071 2.5 -2.14733 
v 7.493629 2.5 -1.474998 
v 7.633324 2.5 -2.31297 
v 8.013618 2.5 -1.718822 
v 7.931669 2.5 -2.564396 
v 8.154776 2.5 -2.884472 
v 8.452783 2.5 -2.08892 
v 8.287437 2.5 -3.251386 
v 8.320616 2.5 -3.640132 
v 8.680553 2.5 -4.757768 
v 8.310456 2.5 -5.196933 
v 8.252047 2.5 -4.02422 
v 8.171229 2.5 -5.331827 
v 8.086405 2.5 -4.377474 
v 8.040328 2.5 -5.474815 
v 7.918224 2.5 -5.625386 
v 7.805355 2.5 -5.782996 
v 7.798412 2.5 -4.719213 
v 7.702127 2.5 -5.947083 
v 7.669506 2.5 -4.844106 
v 7.608905 2.5 -6.117056 
v 7.526031 2.5 -6.292305 
v 7.510302 2.5 -5.018011 
v 7.453799 2.5 -6.472202 
v 7.392466 2.5 -6.656103 
v 7.361798 2.5 -5.201137 
v 7.342255 2.5 -6.843345 
v 7.303348 2.5 -7.033257 
v 7.275877 2.5 -7.225159 
v 7.224524 2.5 -5.392826 
v 7.098975 2.5 -5.59239 
v 7.056098 2.5 -7.755756 
v 6.9856 2.5 -5.799113 
v 6.884806 2.5 -6.012254 
v 6.796956 2.5 -6.231049 
v 6.722362 2.5 -6.45471 
v 6.706476 2.5 -8.211392 
v 6.661296 2.5 -6.682438 
v 6.613975 2.5 -6.913412 
v 6.596014 2.5 -7.038877 
v 6.445174 2.5 -7.40304 
v 6.250842 2.5 -8.561012 
v 6.207659 2.5 -7.712574 
v 5.898125 2.5 -7.950089 
v 5.720243 2.5 -8.780793 
v 5.537663 2.5 -8.099397 
v 5.150843 2.5 -8.855757 
v 5.150843 2.5 -8.150323 
v 4.764018 2.5 -8.099397 
v 4.581439 2.5 -8.780793 
v 4.403558 2.5 -7.950089 
v 4.094024 2.5 -7.712574 
v 4.050841 2.5 -8.561012 
v 3.856509 2.5 -7.40304 
v 3.692987 2.5 -7.008265 
v 3.651576 2.5 -6.836 
v 3.595207 2.5 -8.211392 
v 3.581927 2.5 -6.597126 
v 3.500948 2.5 -6.361851 
v 3.408825 2.5 -6.130712 
v 3.305769 2.5 -5.904236 
v 3.245585 2.5 -7.755756 
v 3.19201 2.5 -5.682941 
v 3.067815 2.5 -5.467333 
v 3.025804 2.5 -7.225159 
v 2.975457 2.5 -7.015728 
v 2.933462 2.5 -5.257902 
v 2.915163 2.5 -6.808941 
v 2.845063 2.5 -6.60527 
v 2.789259 2.5 -5.055128 
v 2.765317 2.5 -6.40518 
v 2.676101 2.5 -6.209127 
v 2.635536 2.5 -4.859472 
v 2.577624 2.5 -6.017559 
v 2.472644 2.5 -4.671381 
v 2.470112 2.5 -5.830913 
v 2.353806 2.5 -5.649614 
v 2.338331 2.5 -4.530493 
v 2.228975 2.5 -5.474078 
v 2.099349 2.5 -4.219046 
v 2.095902 2.5 -5.304705 
v 1.970022 2.5 -3.906821 
v 1.954889 2.5 -5.14188 
v 8.781195 2.5 -2.560071 
v 8.924377 2.5 -4.23778 
v 8.976474 2.5 -3.100168 
v 9.025311 2.5 -3.672403 
v 3.792965 2 -6.137335 
v 3.859367 2 -6.330261 
v 3.539636 2 -5.58063 
v 3.632917 2 -5.762091 
v 3.327625 2 -5.232098 
v 3.437796 2 -5.403831 
v 3.083327 2 -4.905385 
v 3.209381 2 -5.065823 
v 2.839618 2 -4.635622 
v 2.949755 2 -4.75115 
v 2.501435 2 -3.849463 
v 2.537606 2 -4.124211 
v 2.537606 2 -3.574715 
v 3.717425 2 -5.947801 
v 2.643654 2 -4.380235 
v 2.643654 2 -3.318691 
v 2.812352 2 -3.098838 
v 4.765465 2 -3.137423 
v 4.906807 2 -3.143594 
v 3.032207 2 -2.930139 
v 3.288231 2 -2.82409 
v 3.837726 2 -2.82409 
v 4.140372 2 -2.94945 
v 4.221442 2 -2.991652 
v 4.35215 2 -3.045793 
v 4.625199 2 -3.118957 
v 5.048146 2 -3.137423 
v 5.188413 2 -3.118957 
v 3.56298 2 -2.787919 
v 4.487078 2 -3.088336 
v 5.326536 2 -3.088336 
v 6.891847 2 -2.681428 
v 7.181513 2 -2.817254 
v 7.688866 2 -4.220478 
v 7.745092 2 -3.905526 
v 7.316885 2 -4.790372 
v 7.211182 2 -4.892785 
v 6.846297 2 -5.342734 
v 6.743345 2 -5.506377 
v 5.461464 2 -3.045793 
v 5.59217 2 -2.991652 
v 6.258121 2 -2.652407 
v 6.576893 2 -2.625202 
v 7.426157 2 -3.023422 
v 5.72825 2 -2.920815 
v 7.609103 2 -3.285885 
v 7.553039 2 -4.510146 
v 7.080636 2 -5.035386 
v 6.958861 2 -5.18555 
v 6.650379 2 -5.67589 
v 6.567729 2 -5.850667 
v 6.49569 2 -6.030077 
v 6.434524 2 -6.21348 
v 6.384449 2 -6.400216 
v 5.957251 2 -2.76119 
v 6.345646 2 -6.589615 
v 7.717886 2 -3.586754 
v 6.012468 2 -7.244929 
v 6.20723 2 -6.99111 
v 3.950438 2 -6.667395 
v 4.084525 2 -6.99111 
v 6.330919 2 -6.692497 
v 4.828682 2 -7.562123 
v 5.145876 2 -7.603882 
v 3.916478 2 -6.526138 
v 4.279287 2 -7.244929 
v 5.463071 2 -7.562123 
v 5.758648 2 -7.439691 
v 4.533105 2 -7.439691 

vn 0 0 -1
vn 0 0 1
vn 1 0 0
vn 0 -1 0
vn -1 0 0
vn 0 1 0
vn -0.7657176 0.5758473 -0.28649
vn -0.7676641 0.5752087 -0.282536
vn -0.78275 0.5689423 -0.2522045
vn -0.7858601 0.5673635 -0.2460131
vn -0.7172248 0.5782285 -0.3888963
vn -0.7159467 0.5779151 -0.3917072
vn -0.7330337 0.5804371 -0.3546184
vn -0.7327838 0.5804256 -0.3551534
vn -0.6860898 0.5645466 -0.4588768
vn -0.6828421 0.5623711 -0.4663316
vn -0.7016239 0.5729723 -0.4235879
vn -0.699353 0.5719418 -0.4287049
vn -0.6492451 0.531494 -0.5440541
vn -0.6662181 0.548988 -0.5047432
vn -0.6545183 0.5373363 -0.5318604
vn -0.6704543 0.5527573 -0.4949245
vn -0.6503788 0.5396529 -0.5345859
vn -0.6316428 0.5095067 -0.5843203
vn -0.637358 0.5192996 -0.5693002
vn -0.6380462 0.5179384 -0.5697691
vn -0.6509627 0.7589119 0.0173272
vn -0.686053 0.7102917 -0.1575344
vn -0.6614804 0.7496651 -0.0211195
vn -0.6907496 0.6897557 -0.2170301
vn -0.592738 0.7873777 0.1694048
vn -0.6024132 0.7842443 0.1485232
vn -0.7491673 0.5796494 -0.3205539
vn -0.7499916 0.5795303 -0.3188374
vn -0.6870763 0.632915 -0.3568541
vn -0.6751381 0.5938937 -0.437583
vn -0.5166126 0.8009651 0.3025993
vn -0.5212499 0.8005489 0.2956686
vn -0.4239432 0.802182 0.4204476
vn -0.4202372 0.8020017 0.4244925
vn 0.06274798 0.6485757 0.7585593
vn -0.001467233 0.6544167 0.7561327
vn 0.0701999 0.6475781 0.7587587
vn 0.00154786 0.6542528 0.7562743
vn -0.3133839 0.7912515 0.5250824
vn -0.2978637 0.7889079 0.5374956
vn -0.181544 0.7661604 0.6164739
vn -0.1499799 0.7585163 0.6341602
vn 0.2413055 0.6170186 0.7490392
vn 0.3641381 0.5542873 0.7484444
vn 0.1646904 0.6516218 0.74045
vn 0.335802 0.5687741 0.7508216
vn 0.3367233 0.5671853 0.7516105
vn 0.3637448 0.5539482 0.7488866
vn 0.264599 0.5977409 0.7567649
vn 0.2864349 0.5892062 0.7555071
vn 0.1281019 0.6375537 0.759681
vn 0.1401363 0.6349623 0.7597268
vn -0.06517408 0.655338 0.7525186
vn -0.06652816 0.655305 0.7524291
vn -0.1290055 0.6513811 0.7477034
vn -0.1347443 0.6507848 0.7472101
vn 0.02877594 0.7045573 0.7090635
vn -0.02365716 0.7222527 0.6912246
vn 0.1952021 0.6208572 0.7592314
vn 0.2120245 0.6158054 0.7588342
vn -0.193582 0.6423686 0.7415447
vn -0.2037991 0.6404766 0.7404429
vn 0.1757665 0.77917 0.6016645
vn 0.317319 0.8001245 0.5090279
vn 0.1995081 0.7835143 0.5884742
vn 0.3275575 0.8011471 0.5008686
vn 0.6901208 0.6782216 -0.252485
vn 0.6880814 0.7000148 -0.1911106
vn 0.6687914 0.7415399 -0.05326094
vn 0.6588362 0.752197 -0.01159452
vn 0.6178063 0.5097736 -0.5987038
vn 0.6218942 0.5124038 -0.5921907
vn 0.6316144 0.527406 -0.5682484
vn 0.613341 0.5029273 -0.6089967
vn 0.6870136 0.5654187 -0.4564143
vn 0.7071865 0.5740036 -0.4128041
vn 0.6833513 0.5634378 -0.464294
vn 0.7049221 0.5732374 -0.4177125
vn -0.2594937 0.6278973 0.7337629
vn -0.2743431 0.6238891 0.7317774
vn -0.3272692 0.6073198 0.7239182
vn -0.3469301 0.6002378 0.7206622
vn -0.1891034 0.6758288 0.7123871
vn 0.007899829 0.7400318 0.6725255
vn -0.1275963 0.698047 0.7045917
vn 0.04895006 0.7509488 0.6585436
vn 0.4363595 0.8068195 0.3982871
vn 0.4364885 0.8068197 0.3981453
vn -0.4088367 0.5744055 0.7091621
vn -0.4464239 0.5563839 0.7008158
vn 0.5353288 0.8005232 0.2694173
vn 0.528392 0.8014844 0.2800444
vn 0.6789271 0.6197971 -0.3935852
vn 0.6623622 0.5810865 -0.4728793
vn 0.6379602 0.5287662 -0.5598331
vn 0.6447059 0.5350448 -0.5459682
vn 0.6611512 0.5487527 -0.5116147
vn 0.6662891 0.5525542 -0.5007423
vn 0.7270589 0.5785549 -0.3696747
vn 0.7468311 0.5792048 -0.3267494
vn 0.7261561 0.5784329 -0.3716351
vn 0.7472802 0.5791745 -0.3257745
vn 0.766654 0.5759715 -0.2837226
vn 0.7684578 0.5754838 -0.2798052
vn 0.7866265 0.5687618 -0.2402683
vn 0.7897843 0.5672539 -0.233375
vn 0.8067882 0.557368 -0.1960451
vn 0.8112776 0.5542477 -0.186113
vn -0.411767 0.5775353 0.704912
vn -0.3307243 0.6168396 0.7142341
vn 0.8271056 0.5414653 -0.1507032
vn 0.8328609 0.5360948 -0.1376408
vn 0.614104 0.7800428 0.12004
vn 0.6033886 0.7842454 0.1445033
vn 0.5311366 0.6800455 -0.5054027
vn 0.502938 0.6869482 -0.5245528
vn 0.6853755 0.6287678 -0.367303
vn 0.6535556 0.6416911 -0.4013695
vn -0.7874175 0.568268 -0.238841
vn -0.7709832 0.5785141 -0.2662828
vn -0.691695 0.620231 -0.3699617
vn -0.6585892 0.6341242 -0.4051503
vn 0.8062897 0.5598252 -0.1910298
vn 0.7793725 0.5790371 -0.2393627
vn -0.1712535 0.7314238 -0.6600693
vn 0.0003450138 0.7377632 -0.6750594
vn -0.1829912 0.7305697 -0.6578618
vn -0.0004132575 0.7377598 -0.6750633
vn -0.8002991 0.5587747 -0.2174678
vn -0.8045971 0.5558177 -0.209022
vn -0.5058458 0.6817512 -0.5285218
vn -0.5355831 0.6741436 -0.5086072
vn 0.181702 0.7323117 -0.6562805
vn 0.1715029 0.7329592 -0.658299
vn 0.3604444 0.7136682 -0.6006309
vn 0.3401609 0.7165384 -0.6089854
vn -0.3411761 0.713318 -0.6121898
vn -0.3630357 0.7100093 -0.6034002

vt 39.37008 0
vt 0 0
vt 39.37008 9.84252
vt 0 9.84252
vt -39.37008 0
vt -39.37008 9.84252
vt 0 39.37008
vt -39.37008 39.37008
vt 4.805028 14.06206
vt 5.073328 16.1
vt 5.073328 12.02411
vt 5.859946 10.12505
vt 5.859946 17.99907
vt 7.111274 8.494288
vt 7.111274 19.62983
vt 7.582326 14.06206
vt 7.755993 12.74293
vt 8.742036 7.242961
vt 8.265157 11.5137
vt 9.07512 10.45814
vt 10.6411 6.456344
vt 10.13068 9.648172
vt 11.35992 9.139008
vt 12.67904 6.188043
vt 12.67904 8.965342
vt 13.99817 9.139008
vt 14.71699 6.456344
vt 15.45125 9.740891
vt 16.61605 7.242961
vt 15.84048 9.943514
vt 16.46803 10.20345
vt 17.11585 10.40771
vt 17.00528 7.445583
vt 17.4107 7.61351
vt 17.77901 10.55473
vt 17.8292 7.745463
vt 18.45246 10.64339
vt 18.25761 7.84044
vt 18.69267 7.897717
vt 19.13107 10.67302
vt 19.13107 7.916858
vt 19.56947 7.897717
vt 19.80968 10.64339
vt 20.00452 7.84044
vt 20.48313 10.55473
vt 20.43294 7.745463
vt 20.85144 7.61351
vt 21.14628 10.40771
vt 21.25685 7.445583
vt 21.79411 10.20345
vt 21.64609 7.242961
vt 22.89733 6.370793
vt 22.42166 9.943514
vt 23.075 9.603403
vt 25.02369 5.601981
vt 24.1745 8.83701
vt 25.61904 8.314719
vt 27.27659 5.409708
vt 27.14954 8.1841
vt 28.6617 8.454054
vt 29.50248 5.80708
vt 30.05246 9.106183
vt 31.54968 6.767015
vt 31.22705 10.09605
vt 32.10542 11.35619
vt 33.27868 8.224094
vt 32.62771 12.80073
vt 32.75833 14.33123
vt 34.17541 18.73137
vt 32.71833 20.46037
vt 32.48837 15.84339
vt 32.17019 20.99145
vt 31.83624 17.23415
vt 31.65484 21.55439
vt 31.17411 22.14719
vt 30.72974 22.7677
vt 30.70241 18.57958
vt 30.32333 23.41371
vt 30.1949 19.07128
vt 29.95632 24.0829
vt 29.63004 24.77286
vt 29.56812 19.75595
vt 29.34566 25.48111
vt 29.1042 26.20513
vt 28.98346 20.47692
vt 28.90652 26.9423
vt 28.75333 27.68999
vt 28.64519 28.44551
vt 28.44301 21.2316
vt 27.94872 22.01728
vt 27.77991 30.53448
vt 27.50236 22.83116
vt 27.10553 23.67029
vt 26.75966 24.53169
vt 26.46599 25.41225
vt 26.40345 32.32832
vt 26.22557 26.30881
vt 26.03926 27.21816
vt 25.96856 27.71211
vt 25.3747 29.14583
vt 24.60961 33.70477
vt 24.4396 30.36447
vt 23.22096 31.29956
vt 22.52064 34.57005
vt 21.80182 31.88739
vt 20.2789 34.86518
vt 20.2789 32.08789
vt 18.75598 31.88739
vt 18.03716 34.57005
vt 17.33684 31.29956
vt 16.1182 30.36447
vt 15.94819 33.70477
vt 15.18311 29.14583
vt 14.53932 27.59159
vt 14.37628 26.91339
vt 14.15436 32.32832
vt 14.10207 25.97294
vt 13.78326 25.04666
vt 13.42057 24.13666
vt 13.01483 23.24503
vt 12.7779 30.53448
vt 12.56697 22.37379
vt 12.07801 21.52493
vt 11.91262 28.44551
vt 11.7144 27.62098
vt 11.54906 20.7004
vt 11.47703 26.80686
vt 11.20104 26.005
vt 10.98134 19.90208
vt 10.88707 25.21725
vt 10.53583 24.44538
vt 10.37613 19.13178
vt 10.14813 23.69118
vt 9.734819 18.39127
vt 9.724851 22.95635
vt 9.266955 22.24258
vt 9.20603 17.83659
vt 8.775492 21.55149
vt 8.265157 16.61042
vt 8.251581 20.88466
vt 7.755993 15.38119
vt 7.696419 20.24362
vt 34.57163 10.07902
vt 35.13535 16.68417
vt 35.34045 12.20539
vt 35.53272 14.45828
vt 27.70721 2.873429
vt 28.16885 5.27446
vt 28.51049 2.873429
vt 29.14846 5.27446
vt 25.9115 5.052251
vt 25.64404 7.468612
vt 26.71478 5.052251
vt 26.62365 7.468612
vt 24.41178 6.531063
vt 23.65937 8.924257
vt 25.21506 6.531063
vt 24.63898 8.924257
vt 21.45434 10.25142
vt 22.43395 10.25142
vt 22.68564 7.9063
vt 23.48892 7.9063
vt 19.26234 11.34586
vt 20.02869 11.34586
vt 20.92371 9.06964
vt 21.55211 9.06964
vt 14.93145 2.575937
vt 16.26196 2.575937
vt 16.31115 -0.3051687
vt 17.40217 -0.3051687
vt 12.95206 -0.9596035
vt 13.74027 -4.055261
vt 11.62155 -0.9596035
vt 12.64925 -4.055261
vt 27.17112 3.575662
vt 27.39024 5.988479
vt 27.9744 3.575662
vt 28.36985 5.988479
vt 18.20944 10.15993
vt 19.75499 10.15993
vt 20.01744 7.793285
vt 21.28479 7.793285
vt 17.17845 6.533674
vt 18.50896 6.533674
vt 18.82431 3.908406
vt 19.91533 3.908406
vt 20.27541 10.83456
vt 21.25502 10.83456
vt 21.74251 8.521642
vt 22.54579 8.521642
vt 8.804843 -3.585606
vt 9.17916 -6.825844
vt 7.474333 -3.585606
vt 8.088141 -6.825844
vt 26.5721 4.306849
vt 26.548 6.724807
vt 27.37538 4.306849
vt 27.52761 6.724807
vt 22.58319 9.610277
vt 23.5628 9.610277
vt 23.57608 7.238204
vt 24.37936 7.238204
vt 4.102923 -5.006452
vt 4.029685 -8.303501
vt 2.772413 -5.006452
vt 2.938666 -8.303501
vt 25.19085 5.798069
vt 24.68043 8.206121
vt 25.99413 5.798069
vt 25.66004 8.206121
vt -19.28261 -1.545384
vt -19.8396 -1.545384
vt -18.89915 1.051371
vt -19.57841 1.051371
vt -5.667337 -3.761099
vt -6.61448 -6.892789
vt -6.997847 -3.761099
vt -7.705498 -6.892789
vt -18.2139 3.804322
vt -19.50359 3.804322
vt -16.42997 6.222
vt -18.00277 6.222
vt -19.82071 5.119083
vt -20.18054 5.119083
vt -18.20327 7.460345
vt -18.64208 7.460345
vt -19.86205 3.805269
vt -20.41904 3.805269
vt -18.43991 6.218957
vt -19.11917 6.218957
vt -19.65644 -0.2730472
vt -20.21343 -0.2730472
vt -19.00458 2.297886
vt -19.68383 2.297886
vt -18.7599 -2.716336
vt -19.31689 -2.716336
vt -18.64731 -0.108909
vt -19.32657 -0.108909
vt -18.0923 -3.752514
vt -18.64929 -3.752514
vt -18.25097 -1.149901
vt -18.93022 -1.149901
vt -16.43115 -0.3548093
vt -15.07129 2.324435
vt -15.34013 -0.3548093
vt -13.74078 2.324435
vt -0.8332676 -5.071755
vt -1.357232 -8.331147
vt -2.163778 -5.071755
vt -2.44825 -8.331147
vt -19.94727 2.439552
vt -20.50426 2.439552
vt -18.77408 4.917288
vt -19.45334 4.917288
vt -19.87856 1.067069
vt -20.43555 1.067069
vt -18.96278 3.597872
vt -19.64204 3.597872
vt -17.84188 -4.619376
vt -18.39239 -2.036912
vt -17.28489 -4.619376
vt -17.71313 -2.036912
vt -10.06985 -1.194581
vt -11.38379 -4.124057
vt -11.40036 -1.194581
vt -12.4748 -4.124057
vt -29.04846 6.36133
vt -30.30804 6.36133
vt -29.53962 9.584911
vt -31.07568 9.584911
vt -11.03748 29.04208
vt -9.88717 31.88198
vt -9.777908 29.04208
vt -8.351107 31.88198
vt 7.565347 23.43482
vt 6.985908 23.43482
vt 9.121825 25.69863
vt 8.415191 25.69863
vt -3.451041 25.85687
vt -4.212196 25.85687
vt -2.825022 28.25257
vt -3.75326 28.25257
vt -16.34381 -5.280007
vt -16.9008 -5.280007
vt -17.03791 -2.73238
vt -17.71717 -2.73238
vt -15.27622 -5.694049
vt -15.83321 -5.694049
vt -16.23043 -3.194781
vt -16.90969 -3.194781
vt -23.66105 -3.515823
vt -24.92062 -3.515823
vt -24.8192 -0.6832899
vt -26.35526 -0.6832899
vt -27.30667 0.7679672
vt -28.56624 0.7679672
vt -28.16529 3.8248
vt -29.70135 3.8248
vt -28.76774 12.51168
vt -30.02731 12.51168
vt -28.84853 15.82442
vt -30.38459 15.82442
vt -14.09025 -5.816892
vt -14.69424 -5.816892
vt -15.29685 -3.377778
vt -16.03342 -3.377778
vt -26.48362 18.49669
vt -27.74319 18.49669
vt -26.13912 21.81078
vt -27.67518 21.81078
vt 7.337286 27.48142
vt 5.584684 25.13927
vt 5.577806 27.48142
vt 4.141911 25.13927
vt 6.321919 26.7138
vt 4.962139 24.40757
vt 5.393682 26.7138
vt 4.200984 24.40757
vt 3.27939 27.47383
vt 2.160775 25.13078
vt 2.351152 27.47383
vt 1.39962 25.13078
vt -9.00791 25.67515
vt -9.769065 25.67515
vt -8.882266 28.091
vt -9.810504 28.091
vt -0.5518854 30.94523
vt -2.192789 28.35763
vt -2.087949 30.94523
vt -3.452361 28.35763
vt -0.6469765 25.61132
vt -1.408132 25.61132
vt 0.2267577 27.98449
vt -0.7014801 27.98449
vt -11.74077 25.2644
vt -12.50193 25.2644
vt -11.86599 27.67736
vt -12.79423 27.67736
vt -14.43014 24.6519
vt -15.1913 24.6519
vt -14.80548 27.05335
vt -15.73371 27.05335
vt -17.06636 23.84705
vt -17.82752 23.84705
vt -17.69017 26.22865
vt -18.6184 26.22865
vt -18.36004 -5.754586
vt -19.61962 -5.754586
vt -19.72939 -3.174703
vt -21.26545 -3.174703
vt -19.63998 22.86035
vt -20.40113 22.86035
vt -20.50971 25.2143
vt -21.43795 25.2143
vt -6.241356 25.87542
vt -7.002512 25.87542
vt -5.865 28.28547
vt -6.793238 28.28547
vt -11.92549 -5.375694
vt -13.02449 -5.375694
vt -13.43853 -3.040445
vt -14.77877 -3.040445
vt -22.35177 23.64218
vt -23.61134 23.64218
vt -21.59603 26.86967
vt -23.1321 26.86967
vt -16.65376 27.33506
vt -17.91333 27.33506
vt -15.52887 30.3979
vt -17.06494 30.3979
vt -8.219015 29.77715
vt -9.211864 32.39814
vt -6.959444 29.77715
vt -7.6758 32.39814
vt 30.20329 3.775496
vt 31.05527 6.220384
vt 31.58277 3.775496
vt 32.73756 6.220384
vt -22.14175 21.70402
vt -22.55092 21.70402
vt -23.25399 24.02329
vt -23.75299 24.02329
vt 22.75766 28.10124
vt 24.29372 28.10124
vt 22.73397 25.20063
vt 23.99354 25.20063
vt 28.58583 1.621727
vt 29.52819 3.980306
vt 29.1578 1.621727
vt 30.22572 3.980306
vt -14.80442 26.23415
vt -16.07693 26.23415
vt -15.66492 28.70062
vt -17.21675 28.70062
vt 32.36583 11.17328
vt 33.90189 11.17328
vt 31.62568 8.572667
vt 32.88525 8.572667
vt 28.17914 2.216199
vt 28.88204 4.59903
vt 28.98242 2.216199
vt 29.86165 4.59903
vt 8.47764 31.30723
vt 7.939485 34.16133
vt 9.737212 31.30723
vt 9.475548 34.16133
vt 16.17853 29.10425
vt 15.9171 32.00861
vt 17.43811 29.10425
vt 17.45317 32.00861
vt 0.1560906 31.54493
vt -0.6315387 34.30066
vt 1.415662 31.54493
vt 0.9045244 34.30066
vt 31.27215 17.00152
vt 32.80821 17.00152
vt 30.73 14.2624
vt 31.98957 14.2624
vt 27.99498 22.89288
vt 29.53104 22.89288
vt 27.6972 20.04959
vt 28.95677 20.04959
vt 39.37008 39.37008
vt 9.848166 15.15537
vt 9.990573 16.23705
vt 9.990573 14.07368
vt 10.40809 13.06571
vt 10.40809 17.24502
vt 11.07226 12.20015
vt 11.1796 18.25048
vt 11.93782 11.53598
vt 11.61321 18.70532
vt 12.13908 19.31254
vt 12.94579 11.11847
vt 12.63535 19.94418
vt 13.10089 20.59881
vt 14.02747 10.97606
vt 13.53463 21.27493
vt 13.93558 21.97098
vt 14.30282 22.6854
vt 15.10916 11.11847
vt 14.63553 23.41654
vt 14.93293 24.16274
vt 15.19436 24.92229
vt 16.30068 11.61201
vt 15.41921 25.69346
vt 15.5529 26.24959
vt 16.08081 27.52406
vt 16.84759 28.52334
vt 16.61985 11.77816
vt 17.13445 11.99131
vt 17.84687 29.29012
vt 17.66566 12.1588
vt 18.20945 12.27936
vt 19.01056 29.77214
vt 18.76167 12.35206
vt 19.31813 12.37636
vt 20.25936 29.93654
vt 19.8746 12.35206
vt 20.42682 12.27936
vt 21.50816 29.77214
vt 20.97061 12.1588
vt 21.50183 11.99131
vt 22.01642 11.77816
vt 22.67185 29.29012
vt 22.55216 11.49927
vt 23.45375 10.87083
vt 23.67113 28.52334
vt 24.63827 10.44255
vt 24.43791 27.52406
vt 24.92488 26.34841
vt 25.89328 10.33544
vt 24.98286 25.94337
vt 25.13563 25.1977
vt 25.33277 24.46252
vt 25.57358 23.74046
vt 25.8572 23.03412
vt 26.18259 22.34603
vt 27.13325 10.5568
vt 26.54861 21.67865
vt 26.95393 21.03439
vt 27.39709 20.41555
vt 28.27367 11.09155
vt 27.87652 19.82436
vt 28.39048 19.26293
vt 29.23684 11.90324
vt 28.80663 18.85973
vt 29.73638 17.75648
vt 29.9571 12.93655
vt 30.27112 16.61606
vt 30.38538 14.12108
vt 30.49249 15.37609

usemtl natureKit-wood
# usermap natureKit-wood

f 2/2/1 1/1/1 3/3/1
f 3/3/1 4/4/1 2/2/1
f 6/5/2 5/2/2 7/4/2
f 7/4/2 8/6/2 6/5/2
f 2/2/3 4/4/3 7/6/3
f 7/6/3 5/5/3 2/2/3
f 2/2/4 5/7/4 6/8/4
f 6/8/4 1/5/4 2/2/4
f 3/4/5 1/2/5 6/1/5
f 6/1/5 8/3/5 3/4/5
f 10/10/6 9/9/6 11/11/6
f 11/11/6 12/12/6 10/10/6
f 12/12/6 13/13/6 10/10/6
f 12/12/6 14/14/6 13/13/6
f 14/14/6 15/15/6 13/13/6
f 14/14/6 16/16/6 15/15/6
f 14/14/6 17/17/6 16/16/6
f 14/14/6 18/18/6 17/17/6
f 18/18/6 19/19/6 17/17/6
f 18/18/6 20/20/6 19/19/6
f 18/18/6 21/21/6 20/20/6
f 21/21/6 22/22/6 20/20/6
f 21/21/6 23/23/6 22/22/6
f 21/21/6 24/24/6 23/23/6
f 24/24/6 25/25/6 23/23/6
f 24/24/6 26/26/6 25/25/6
f 24/24/6 27/27/6 26/26/6
f 27/27/6 28/28/6 26/26/6
f 27/27/6 29/29/6 28/28/6
f 29/29/6 30/30/6 28/28/6
f 29/29/6 31/31/6 30/30/6
f 29/29/6 32/32/6 31/31/6
f 29/29/6 33/33/6 32/32/6
f 33/33/6 34/34/6 32/32/6
f 34/34/6 35/35/6 32/32/6
f 34/34/6 36/36/6 35/35/6
f 36/36/6 37/37/6 35/35/6
f 36/36/6 38/38/6 37/37/6
f 38/38/6 39/39/6 37/37/6
f 39/39/6 40/40/6 37/37/6
f 39/39/6 41/41/6 40/40/6
f 41/41/6 42/42/6 40/40/6
f 42/42/6 43/43/6 40/40/6
f 42/42/6 44/44/6 43/43/6
f 44/44/6 45/45/6 43/43/6
f 44/44/6 46/46/6 45/45/6
f 46/46/6 47/47/6 45/45/6
f 47/47/6 48/48/6 45/45/6
f 47/47/6 49/49/6 48/48/6
f 49/49/6 50/50/6 48/48/6
f 49/49/6 51/51/6 50/50/6
f 51/51/6 52/52/6 50/50/6
f 52/52/6 53/53/6 50/50/6
f 52/52/6 54/54/6 53/53/6
f 52/52/6 55/55/6 54/54/6
f 55/55/6 56/56/6 54/54/6
f 55/55/6 57/57/6 56/56/6
f 55/55/6 58/58/6 57/57/6
f 58/58/6 59/59/6 57/57/6
f 58/58/6 60/60/6 59/59/6
f 58/58/6 61/61/6 60/60/6
f 61/61/6 62/62/6 60/60/6
f 61/61/6 63/63/6 62/62/6
f 63/63/6 64/64/6 62/62/6
f 63/63/6 65/65/6 64/64/6
f 63/63/6 66/66/6 65/65/6
f 66/66/6 67/67/6 65/65/6
f 66/66/6 68/68/6 67/67/6
f 68/68/6 66/66/6 69/69/6
f 68/68/6 69/69/6 70/70/6
f 71/71/6 68/68/6 70/70/6
f 71/71/6 70/70/6 72/72/6
f 73/73/6 71/71/6 72/72/6
f 73/73/6 72/72/6 74/74/6
f 73/73/6 74/74/6 75/75/6
f 73/73/6 75/75/6 76/76/6
f 77/77/6 73/73/6 76/76/6
f 77/77/6 76/76/6 78/78/6
f 79/79/6 77/77/6 78/78/6
f 79/79/6 78/78/6 80/80/6
f 79/79/6 80/80/6 81/81/6
f 82/82/6 79/79/6 81/81/6
f 82/82/6 81/81/6 83/83/6
f 82/82/6 83/83/6 84/84/6
f 85/85/6 82/82/6 84/84/6
f 85/85/6 84/84/6 86/86/6
f 85/85/6 86/86/6 87/87/6
f 85/85/6 87/87/6 88/88/6
f 89/89/6 85/85/6 88/88/6
f 90/90/6 89/89/6 88/88/6
f 90/90/6 88/88/6 91/91/6
f 92/92/6 90/90/6 91/91/6
f 93/93/6 92/92/6 91/91/6
f 94/94/6 93/93/6 91/91/6
f 95/95/6 94/94/6 91/91/6
f 95/95/6 91/91/6 96/96/6
f 97/97/6 95/95/6 96/96/6
f 98/98/6 97/97/6 96/96/6
f 99/99/6 98/98/6 96/96/6
f 100/100/6 99/99/6 96/96/6
f 100/100/6 96/96/6 101/101/6
f 102/102/6 100/100/6 101/101/6
f 103/103/6 102/102/6 101/101/6
f 103/103/6 101/101/6 104/104/6
f 105/105/6 103/103/6 104/104/6
f 105/105/6 104/104/6 106/106/6
f 107/107/6 105/105/6 106/106/6
f 108/108/6 107/107/6 106/106/6
f 108/108/6 106/106/6 109/109/6
f 110/110/6 108/108/6 109/109/6
f 111/111/6 110/110/6 109/109/6
f 111/111/6 109/109/6 112/112/6
f 113/113/6 111/111/6 112/112/6
f 114/114/6 113/113/6 112/112/6
f 115/115/6 114/114/6 112/112/6
f 115/115/6 112/112/6 116/116/6
f 117/117/6 115/115/6 116/116/6
f 118/118/6 117/117/6 116/116/6
f 119/119/6 118/118/6 116/116/6
f 120/120/6 119/119/6 116/116/6
f 120/120/6 116/116/6 121/121/6
f 122/122/6 120/120/6 121/121/6
f 123/123/6 122/122/6 121/121/6
f 123/123/6 121/121/6 124/124/6
f 123/123/6 124/124/6 125/125/6
f 126/126/6 123/123/6 125/125/6
f 126/126/6 125/125/6 127/127/6
f 126/126/6 127/127/6 128/128/6
f 129/129/6 126/126/6 128/128/6
f 129/129/6 128/128/6 130/130/6
f 129/129/6 130/130/6 131/131/6
f 132/132/6 129/129/6 131/131/6
f 132/132/6 131/131/6 133/133/6
f 134/134/6 132/132/6 133/133/6
f 134/134/6 133/133/6 135/135/6
f 134/134/6 135/135/6 136/136/6
f 137/137/6 134/134/6 136/136/6
f 137/137/6 136/136/6 138/138/6
f 139/139/6 137/137/6 138/138/6
f 139/139/6 138/138/6 140/140/6
f 141/141/6 139/139/6 140/140/6
f 141/141/6 140/140/6 142/142/6
f 16/16/6 141/141/6 142/142/6
f 142/142/6 15/15/6 16/16/6
f 66/66/6 143/143/6 69/69/6
f 143/143/6 144/144/6 69/69/6
f 143/143/6 145/145/6 144/144/6
f 145/145/6 146/146/6 144/144/6
f 118/148/8 147/147/7 148/149/9
f 148/149/9 117/150/10 118/148/8
f 122/152/12 149/151/11 150/153/13
f 150/153/13 120/154/14 122/152/12
f 126/156/16 151/155/15 152/157/17
f 152/157/17 123/158/18 126/156/16
f 129/160/20 132/159/19 153/161/21
f 153/161/21 154/162/22 129/160/20
f 134/164/24 137/163/23 155/165/25
f 155/165/25 156/166/26 134/164/24
f 141/168/28 16/167/27 157/169/29
f 157/169/29 158/170/30 141/168/28
f 157/172/29 16/171/27 17/173/31
f 17/173/31 159/174/32 157/172/29
f 119/176/34 160/175/33 147/177/7
f 147/177/7 118/178/8 119/176/34
f 137/180/23 139/179/35 161/181/36
f 161/181/36 155/182/25 137/180/23
f 139/184/35 141/183/28 158/185/30
f 158/185/30 161/186/36 139/184/35
f 132/188/19 134/187/24 156/189/26
f 156/189/26 153/190/21 132/188/19
f 159/192/32 17/191/31 19/193/37
f 19/193/37 162/194/38 159/192/32
f 120/196/14 150/195/13 160/197/33
f 160/197/33 119/198/34 120/196/14
f 126/200/16 129/199/20 154/201/22
f 154/201/22 151/202/15 126/200/16
f 162/204/38 19/203/37 20/205/39
f 20/205/39 163/206/40 162/204/38
f 123/208/18 152/207/17 149/209/11
f 149/209/11 122/210/12 123/208/18
f 165/212/42 164/211/41 37/213/43
f 37/213/43 40/214/44 165/212/42
f 166/216/46 22/215/45 23/217/47
f 23/217/47 167/218/48 166/216/46
f 169/220/50 168/219/49 26/221/51
f 26/221/51 28/222/52 169/220/50
f 170/224/53 169/223/50 28/225/52
f 28/225/52 30/226/54 170/224/53
f 171/228/55 170/227/53 30/229/54
f 30/229/54 31/230/56 171/228/55
f 164/232/41 172/231/57 35/233/58
f 35/233/58 37/234/43 164/232/41
f 173/236/59 165/235/42 40/237/44
f 40/237/44 43/238/60 173/236/59
f 174/240/61 173/239/59 43/241/60
f 43/241/60 45/242/62 174/240/61
f 26/244/51 168/243/49 175/245/63
f 175/245/63 25/246/64 26/244/51
f 163/248/40 20/247/39 22/249/45
f 22/249/45 166/250/46 163/248/40
f 176/252/65 171/251/55 31/253/56
f 31/253/56 32/254/66 176/252/65
f 172/256/57 176/255/65 32/257/66
f 32/257/66 35/258/58 172/256/57
f 48/260/68 177/259/67 174/261/61
f 174/261/61 45/262/62 48/260/68
f 167/264/48 23/263/47 25/265/64
f 25/265/64 175/266/63 167/264/48
f 179/268/70 178/267/69 60/269/71
f 60/269/71 62/270/72 179/268/70
f 71/272/74 180/271/73 181/273/75
f 181/273/75 68/274/76 71/272/74
f 183/276/78 182/275/77 77/277/79
f 77/277/79 79/278/80 183/276/78
f 185/280/82 184/279/81 89/281/83
f 89/281/83 90/282/84 185/280/82
f 186/284/85 177/283/67 48/285/68
f 48/285/68 50/286/86 186/284/85
f 187/288/87 186/287/85 50/289/86
f 50/289/86 53/290/88 187/288/87
f 189/292/90 188/291/89 57/293/91
f 57/293/91 59/294/92 189/292/90
f 178/296/69 189/295/90 59/297/92
f 59/297/92 60/298/71 178/296/69
f 190/300/93 179/299/70 62/301/72
f 62/301/72 64/302/94 190/300/93
f 191/304/95 187/303/87 53/305/88
f 53/305/88 54/306/96 191/304/95
f 192/308/97 190/307/93 64/309/94
f 64/309/94 65/310/98 192/308/97
f 193/312/100 73/311/99 77/313/79
f 77/313/79 182/314/77 193/312/100
f 183/316/78 79/315/80 82/317/101
f 82/317/101 194/318/102 183/316/78
f 194/320/102 82/319/101 85/321/103
f 85/321/103 195/322/104 194/320/102
f 197/324/106 196/323/105 92/325/107
f 92/325/107 93/326/108 197/324/106
f 180/328/73 71/327/74 73/329/99
f 73/329/99 193/330/100 180/328/73
f 184/332/81 195/331/104 85/333/103
f 85/333/103 89/334/83 184/332/81
f 198/336/109 197/335/106 93/337/108
f 93/337/108 94/338/110 198/336/109
f 199/340/111 198/339/109 94/341/110
f 94/341/110 95/342/112 199/340/111
f 200/344/113 199/343/111 95/345/112
f 95/345/112 97/346/114 200/344/113
f 188/348/89 201/347/115 56/349/116
f 56/349/116 57/350/91 188/348/89
f 202/352/117 200/351/113 97/353/114
f 97/353/114 98/354/118 202/352/117
f 196/356/105 185/355/82 90/357/84
f 90/357/84 92/358/107 196/356/105
f 201/360/115 191/359/95 54/361/96
f 54/361/96 56/362/116 201/360/115
f 203/364/119 192/363/97 65/365/98
f 65/365/98 67/366/120 203/364/119
f 181/368/75 203/367/119 67/369/120
f 67/369/120 68/370/76 181/368/75
f 102/372/122 204/371/121 205/373/123
f 205/373/123 100/374/124 102/372/122
f 114/376/126 206/375/125 207/377/127
f 207/377/127 113/378/128 114/376/126
f 208/380/129 202/379/117 98/381/118
f 98/381/118 99/382/130 208/380/129
f 107/384/132 108/383/131 209/385/133
f 209/385/133 210/386/134 107/384/132
f 115/388/136 211/387/135 206/389/125
f 206/389/125 114/390/126 115/388/136
f 205/392/123 208/391/129 99/393/130
f 99/393/130 100/394/124 205/392/123
f 111/396/137 113/395/128 207/397/127
f 207/397/127 212/398/138 111/396/137
f 117/400/10 148/399/9 211/401/135
f 211/401/135 115/402/136 117/400/10
f 105/404/140 213/403/139 214/405/141
f 214/405/141 103/406/142 105/404/140
f 107/408/132 210/407/134 213/409/139
f 213/409/139 105/410/140 107/408/132
f 103/412/142 214/411/141 204/413/121
f 204/413/121 102/414/122 103/412/142
f 110/416/143 111/415/137 212/417/138
f 212/417/138 215/418/144 110/416/143
f 108/420/131 110/419/143 215/421/144
f 215/421/144 209/422/133 108/420/131

usemtl natureKit-leavesGreen
# usermap natureKit-leavesGreen

f 11/11/6 7/7/6 4/2/6
f 4/2/6 12/12/6 11/11/6
f 4/2/6 14/14/6 12/12/6
f 4/2/6 18/18/6 14/14/6
f 4/2/6 21/21/6 18/18/6
f 4/2/6 3/1/6 21/21/6
f 11/11/6 9/9/6 7/7/6
f 3/1/6 24/24/6 21/21/6
f 3/1/6 27/27/6 24/24/6
f 3/1/6 29/29/6 27/27/6
f 3/1/6 33/33/6 29/29/6
f 3/1/6 34/34/6 33/33/6
f 3/1/6 36/36/6 34/34/6
f 3/1/6 38/38/6 36/36/6
f 3/1/6 39/39/6 38/38/6
f 3/1/6 52/52/6 39/39/6
f 52/52/6 41/41/6 39/39/6
f 52/52/6 42/42/6 41/41/6
f 52/52/6 44/44/6 42/42/6
f 52/52/6 46/46/6 44/44/6
f 52/52/6 47/47/6 46/46/6
f 52/52/6 49/49/6 47/47/6
f 52/52/6 51/51/6 49/49/6
f 3/1/6 55/55/6 52/52/6
f 3/1/6 58/58/6 55/55/6
f 3/1/6 61/61/6 58/58/6
f 3/1/6 63/63/6 61/61/6
f 3/1/6 66/66/6 63/63/6
f 3/1/6 143/143/6 66/66/6
f 3/1/6 145/145/6 143/143/6
f 3/1/6 146/146/6 145/145/6
f 146/146/6 3/1/6 8/423/6
f 144/144/6 146/146/6 8/423/6
f 69/69/6 144/144/6 8/423/6
f 70/70/6 69/69/6 8/423/6
f 72/72/6 70/70/6 8/423/6
f 74/74/6 72/72/6 8/423/6
f 75/75/6 74/74/6 8/423/6
f 76/76/6 75/75/6 8/423/6
f 78/78/6 76/76/6 8/423/6
f 80/80/6 78/78/6 8/423/6
f 81/81/6 80/80/6 8/423/6
f 83/83/6 81/81/6 8/423/6
f 84/84/6 83/83/6 8/423/6
f 86/86/6 84/84/6 8/423/6
f 87/87/6 86/86/6 8/423/6
f 88/88/6 87/87/6 8/423/6
f 91/91/6 88/88/6 8/423/6
f 96/96/6 91/91/6 8/423/6
f 101/101/6 96/96/6 8/423/6
f 104/104/6 101/101/6 8/423/6
f 106/106/6 104/104/6 8/423/6
f 109/109/6 106/106/6 8/423/6
f 109/109/6 8/423/6 7/7/6
f 7/7/6 112/112/6 109/109/6
f 7/7/6 116/116/6 112/112/6
f 7/7/6 121/121/6 116/116/6
f 7/7/6 13/13/6 121/121/6
f 7/7/6 10/10/6 13/13/6
f 7/7/6 9/9/6 10/10/6
f 13/13/6 15/15/6 121/121/6
f 15/15/6 142/142/6 121/121/6
f 142/142/6 140/140/6 121/121/6
f 140/140/6 138/138/6 121/121/6
f 138/138/6 136/136/6 121/121/6
f 136/136/6 124/124/6 121/121/6
f 136/136/6 135/135/6 124/124/6
f 135/135/6 133/133/6 124/124/6
f 133/133/6 131/131/6 124/124/6
f 131/131/6 130/130/6 124/124/6
f 130/130/6 128/128/6 124/124/6
f 128/128/6 127/127/6 124/124/6
f 127/127/6 125/125/6 124/124/6

usemtl natureKit-water
# usermap natureKit-water

f 158/425/6 157/424/6 159/426/6
f 159/426/6 162/427/6 158/425/6
f 162/427/6 161/428/6 158/425/6
f 162/427/6 163/429/6 161/428/6
f 163/429/6 155/430/6 161/428/6
f 163/429/6 166/431/6 155/430/6
f 166/431/6 156/432/6 155/430/6
f 166/431/6 153/433/6 156/432/6
f 166/431/6 167/434/6 153/433/6
f 167/434/6 154/435/6 153/433/6
f 167/434/6 151/436/6 154/435/6
f 167/434/6 175/437/6 151/436/6
f 175/437/6 152/438/6 151/436/6
f 175/437/6 149/439/6 152/438/6
f 175/437/6 150/440/6 149/439/6
f 175/437/6 168/441/6 150/440/6
f 168/441/6 160/442/6 150/440/6
f 168/441/6 147/443/6 160/442/6
f 168/441/6 148/444/6 147/443/6
f 168/441/6 169/445/6 148/444/6
f 169/445/6 211/446/6 148/444/6
f 169/445/6 206/447/6 211/446/6
f 169/445/6 207/448/6 206/447/6
f 169/445/6 212/449/6 207/448/6
f 169/445/6 170/450/6 212/449/6
f 170/450/6 171/451/6 212/449/6
f 171/451/6 215/452/6 212/449/6
f 171/451/6 176/453/6 215/452/6
f 176/453/6 172/454/6 215/452/6
f 172/454/6 209/455/6 215/452/6
f 172/454/6 164/456/6 209/455/6
f 164/456/6 165/457/6 209/455/6
f 165/457/6 210/458/6 209/455/6
f 165/457/6 173/459/6 210/458/6
f 173/459/6 174/460/6 210/458/6
f 174/460/6 213/461/6 210/458/6
f 174/460/6 177/462/6 213/461/6
f 177/462/6 186/463/6 213/461/6
f 186/463/6 187/464/6 213/461/6
f 187/464/6 214/465/6 213/461/6
f 187/464/6 191/466/6 214/465/6
f 191/466/6 201/467/6 214/465/6
f 201/467/6 204/468/6 214/465/6
f 201/467/6 188/469/6 204/468/6
f 188/469/6 205/470/6 204/468/6
f 188/469/6 208/471/6 205/470/6
f 188/469/6 189/472/6 208/471/6
f 189/472/6 202/473/6 208/471/6
f 189/472/6 200/474/6 202/473/6
f 189/472/6 199/475/6 200/474/6
f 189/472/6 198/476/6 199/475/6
f 189/472/6 197/477/6 198/476/6
f 189/472/6 196/478/6 197/477/6
f 189/472/6 178/479/6 196/478/6
f 178/479/6 185/480/6 196/478/6
f 178/479/6 184/481/6 185/480/6
f 178/479/6 195/482/6 184/481/6
f 178/479/6 179/483/6 195/482/6
f 179/483/6 194/484/6 195/482/6
f 179/483/6 183/485/6 194/484/6
f 179/483/6 190/486/6 183/485/6
f 190/486/6 182/487/6 183/485/6
f 190/486/6 193/488/6 182/487/6
f 190/486/6 192/489/6 193/488/6
f 192/489/6 180/490/6 193/488/6
f 192/489/6 203/491/6 180/490/6
f 203/491/6 181/492/6 180/490/6
