# Exported using Kenney Suite 1.2 

mtllib ground_dirtRiverCorner.mtl 

g ground_dirtRiverCorner

v 5.827057 2 -6.717872 
v 5.638723 2 -6.867392 
v 5.827057 2.5 -6.717872 
v 5.638723 2.5 -6.867392 
v 5.449748 2 -6.994474 
v 5.251331 2 -7.106247 
v 5.449748 2.5 -6.994474 
v 5.251331 2.5 -7.106247 
v 5.044715 2 -7.202013 
v 5.044715 2.5 -7.202013 
v 0.06392241 2 -2.450071 
v 0.1268196 2 -2.398854 
v 0.06392241 2.5 -2.450071 
v 0.1268196 2.5 -2.398854 
v 2.520974 2 -0.4158964 
v 2.520974 2.5 -0.4158964 
v 2.479708 2 -0.6220969 
v 2.479708 2.5 -0.6220969 
v 1.849403 2 -1.432294 
v 2.022898 2 -1.313462 
v 1.849403 2.5 -1.432294 
v 2.022898 2.5 -1.313462 
v 2.530005 2 -0.2058014 
v 2.530005 2.5 -0.2058014 
v 10 0 -1.490229E-07 
v 0 0 -1.490229E-07 
v 10 2.5 -1.490229E-07 
v 7.5 2 -8.561869E-12 
v 7.5 2.5 -8.561869E-12 
v 8.125 2.5 -9.514793E-12 
v 2.5 2 -9.457039E-13 
v 0 2.5 -1.490229E-07 
v 2.5 2.5 -9.457039E-13 
v 1.875 2.5 0 
v 7.668374 2.5 -0.6101895 
v 7.668374 2 -0.6101895 
v 4.831185 2 -7.281174 
v 4.831185 2.5 -7.281174 
v 4.612076 2 -7.343238 
v 4.612076 2.5 -7.343238 
v 4.388752 2 -7.387817 
v 4.388752 2.5 -7.387817 
v 0.5362058 2 -2.006113 
v 0.5362058 2.5 -2.006113 
v 0.4812026 2 -2.065725 
v 0.4812026 2.5 -2.065725 
v 0.9431124 2 -1.665524 
v 0.9901571 2 -1.64871 
v 0.9431124 2.5 -1.665524 
v 0.9901571 2.5 -1.64871 
v 2.407193 2 -0.8194876 
v 2.407193 2.5 -0.8194876 
v 1.283672 2 -1.607474 
v 1.283672 2.5 -1.607474 
v 1.136608 2 -1.617934 
v 1.136608 2.5 -1.617934 
v 7.011254 2.5 -5.470139 
v 7.011254 2 -5.470139 
v 6.315982 2.5 -6.315982 
v 6.315982 2 -6.315982 
v 0.2494264 2 -2.292642 
v 0.3090882 2 -2.23769 
v 0.2494264 2.5 -2.292642 
v 0.3090882 2.5 -2.23769 
v 0.8103299 2 -1.734547 
v 0.8103299 2.5 -1.734547 
v 0.7695389 2 -1.763392 
v 0.7695389 2.5 -1.763392 
v 0.4249978 2 -2.124208 
v 0.4249978 2.5 -2.124208 
v 0.8973169 2 -1.685499 
v 0.8973169 2.5 -1.685499 
v 1.038237 2 -1.635134 
v 1.038237 2.5 -1.635134 
v 1.087129 2 -1.62486 
v 1.087129 2.5 -1.62486 
v 0 2 -2.5 
v 0 2.5 -2.5 
v 7.865219 2.5 -1.279768 
v 7.865219 2 -1.279768 
v 7.964871 2.5 -2.370145 
v 7.964871 2 -2.370145 
v 0 2.5 -7.5 
v 0 2 -7.5 
v 0 2.5 -8.125 
v 0 0 -10 
v 0 2.5 -1.875 
v 0 2.5 -10 
v 0.36762 2 -2.181538 
v 0.36762 2.5 -2.181538 
v 0.730803 2 -1.794945 
v 0.730803 2.5 -1.794945 
v 0.6943035 2 -1.829059 
v 0.6943035 2.5 -1.829059 
v 0.8529902 2 -1.708542 
v 0.8529902 2.5 -1.708542 
v 10 0 -10 
v 10 2.5 -10 
v 1.458261 2 -1.583424 
v 1.659684 2 -1.523002 
v 1.458261 2.5 -1.583424 
v 1.659684 2.5 -1.523002 
v 0.6337929 2 -1.89387 
v 0.6337929 2.5 -1.89387 
v 2.176032 2 -1.16934 
v 2.176032 2.5 -1.16934 
v 1.905456 2.5 -0.1117199 
v 1.918349 2.5 -0.2267963 
v 2.305157 2.5 -1.003363 
v 2.511792 2.5 -0.04325648 
v 1.913376 2.5 -0.3424861 
v 1.890652 2.5 -0.4560313 
v 1.850722 2.5 -0.5647253 
v 1.794536 2.5 -0.6659771 
v 1.723433 2.5 -0.7573731 
v 1.639109 2.5 -0.8367345 
v 1.543572 2.5 -0.9021696 
v 1.439104 2.5 -0.9521185 
v 1.328189 2.5 -0.9853904 
v 1.213477 2.5 -1.001192 
v 1.154778 2.5 -1.006706 
v 1.09659 2.5 -1.016198 
v 1.039181 2.5 -1.029626 
v 0.9828186 2.5 -1.046927 
v 0.9277654 2.5 -1.068021 
v 0.8742738 2.5 -1.09281 
v 0.8225894 2.5 -1.121181 
v 0.7729578 2.5 -1.153 
v 0.7256031 2.5 -1.188121 
v 0.680747 2.5 -1.226382 
v 0.6385946 2.5 -1.267604 
v 0.5993462 2.5 -1.311598 
v 0.5899882 2.5 -1.945395 
v 0.5548358 2.5 -1.363952 
v 0.509274 2.5 -1.415392 
v 0.4626751 2.5 -1.465895 
v 0.4150605 2.5 -1.515441 
v 0.366447 2.5 -1.564011 
v 0.3168607 2.5 -1.611583 
v 0.2663159 2.5 -1.658137 
v 0.2148366 2.5 -1.703656 
v 0.188663 2.5 -2.346371 
v 0.1624441 2.5 -1.74812 
v 0.1091599 2.5 -1.79151 
v 0.05500317 2.5 -1.833809 
v 2.305157 2 -1.003363 
v 2.511792 2 -0.04325648 
v 0.188663 2 -2.346371 
v 2.030087 2 -7.164522 
v 1.61613 2 -7.168532 
v 2.030087 2.5 -7.164522 
v 1.61613 2.5 -7.168532 
v 8.09535 2.5 -4.742108 
v 8.452337 2.5 -3.581619 
v 8.46745 2.5 -1.164862 
v 8.577955 2.5 -2.373979 
v 7.851591 2.5 -3.459192 
v 7.529659 2.5 -4.505716 
v 7.520492 2.5 -5.811553 
v 6.749506 2.5 -6.749506 
v 6.205215 2.5 -7.196905 
v 5.994954 2.5 -7.356253 
v 5.772772 2.5 -7.49851 
v 5.540056 2.5 -7.62279 
v 5.298259 2.5 -7.728318 
v 5.048888 2.5 -7.814435 
v 4.793499 2.5 -7.880604 
v 4.533684 2.5 -7.926412 
v 4.271064 2.5 -7.951575 
v 4.162605 2.5 -7.414634 
v 4.007277 2.5 -7.955933 
v 3.935046 2.5 -7.42352 
v 3.74397 2.5 -7.939462 
v 3.707497 2.5 -7.41442 
v 3.482785 2.5 -7.902262 
v 3.481376 2.5 -7.387392 
v 3.233428 2.5 -7.337656 
v 3.225348 2.5 -7.844567 
v 2.867367 2.5 -7.76397 
v 2.852793 2.5 -7.251959 
v 2.504244 2.5 -7.711167 
v 2.443125 2.5 -7.192387 
v 2.138133 2.5 -7.686468 
v 1.771209 2.5 -7.690022 
v 1.405647 2.5 -7.721806 
v 1.203709 2.5 -7.20439 
v 1.043613 2.5 -7.781633 
v 0.7952714 2.5 -7.271885 
v 0.6872606 2.5 -7.869148 
v 0.3932405 2.5 -7.370617 
v 0.3386998 2.5 -7.98383 
v 0.5899882 2 -1.945395 
v 7.851591 2 -3.459192 
v 7.529659 2 -4.505716 
v 4.162605 2 -7.414634 
v 1.203709 2 -7.20439 
v 0.3932405 2 -7.370617 
v 3.481376 2 -7.387392 
v 3.233428 2 -7.337656 
v 3.707497 2 -7.41442 
v 3.935046 2 -7.42352 
v 2.852793 2 -7.251959 
v 2.443125 2 -7.192387 
v 0.7952714 2 -7.271885 

vn 0.6284114 0 -0.7778812
vn 0.590368 0 -0.8071342
vn 0.5248312 0 -0.8512064
vn 0.4560207 0 -0.8899692
vn 0.3843659 0 -0.9231808
vn -0.6235285 0 0.7818006
vn -0.6392785 0 0.7689753
vn -0.9927801 0 0.1199484
vn -0.962483 0 0.271342
vn -0.4997094 0 0.8661932
vn -0.6270905 0 0.7789464
vn -0.9994115 0 -0.03430457
vn 0 0 -1
vn 0.9639741 0 0.2659962
vn 0.9617208 0 0.2740312
vn 0.3103136 0 -0.9506343
vn 0.2343258 0 -0.9721582
vn 0.1568763 0 -0.9876182
vn -0.741794 0 0.6706278
vn -0.7280204 0 0.6855555
vn -0.3683989 0 0.9296679
vn -0.3043192 0 0.95257
vn -0.9092422 0 0.4162674
vn -0.1037605 0 0.9946023
vn -0.1048433 0 0.9944887
vn 0.8306001 0 -0.5568692
vn 0.7071068 0 -0.7071068
vn -0.6699809 0 0.7423784
vn -0.6849206 0 0.7286177
vn -0.5492558 0 0.8356542
vn -0.6048168 0 0.7963645
vn -0.7139463 0 0.7002004
vn -0.4307724 0 0.9024605
vn -0.2388304 0 0.9710613
vn -0.1722356 0 0.9850558
vn -0.6155567 0 0.7880927
vn 0.9822801 0 0.1874191
vn 0.9999804 0 -0.006252408
vn 1 0 0
vn -0.6995777 0 0.7145565
vn -0.6575772 0 0.7533872
vn -0.7072924 0 0.706921
vn -0.4911513 0 0.8710743
vn -1 0 0
vn 0 -1 0
vn -0.2125314 0 0.9771542
vn -0.3604162 0 0.9327916
vn -0.7466092 0 0.6652628
vn -0.7395231 0 0.6731311
vn 0 0 1
vn 0 1 0
vn -0.834327 0 0.5512699
vn -0.9822188 0 -0.1877398
vn -0.6547648 0 0.7558327
vn -0.02883382 0 -0.9995843
vn 0.04818771 0 -0.9988384
vn -0.7552617 0 0.6554234
vn 0.9798597 0 -0.1996874
vn 0.9226787 0 -0.3855698
vn 0.07844837 0 -0.9969182
vn 0.1249234 0 -0.9921664
vn 0.2757203 0 -0.9612379
vn 0.3125355 0 -0.9499062
vn -0.1578024 0 -0.9874707
vn -0.2081724 0 -0.9780921
vn -0.07938322 0 -0.9968442
vn -0.00046889 0 -0.9999999
vn -0.1819077 0 -0.9833156
vn -0.1056843 0 -0.9943997
vn 0.2009178 0 -0.9796081
vn -0.9647946 0 -0.2630045

vt 1.5223 7.874016
vt 0.5755603 7.874016
vt 1.5223 9.84252
vt 0.5755603 9.84252
vt 5.1781 7.874016
vt 4.281521 7.874016
vt 5.1781 9.84252
vt 4.281521 9.84252
vt 6.992578 7.874016
vt 6.095999 7.874016
vt 6.992578 9.84252
vt 6.095999 9.84252
vt 5.895651 7.874016
vt 5.576315 7.874016
vt 5.895651 9.84252
vt 5.576315 9.84252
vt -0.3420558 7.874016
vt -0.3420558 9.84252
vt 0.4858538 7.874016
vt 0.4858538 9.84252
vt -2.820657 7.874016
vt -3.648566 7.874016
vt -2.820657 9.84252
vt -3.648566 9.84252
vt 0.3816832 7.874016
vt 0.3816832 9.84252
vt 1.209593 7.874016
vt 1.209593 9.84252
vt 39.37008 -9.974747E-15
vt 1.038531E-12 -1.146795E-14
vt 39.37008 9.84252
vt 29.52756 7.874016
vt 29.52756 9.84252
vt 31.98819 9.84252
vt 9.842519 7.874016
vt 1.038531E-12 9.84252
vt 9.842519 9.84252
vt 7.381889 9.84252
vt -7.854218 9.84252
vt -7.854218 7.874016
vt -10.34632 9.84252
vt -10.34632 7.874016
vt 8.766236 7.874016
vt 7.869658 7.874016
vt 8.766236 9.84252
vt 7.869658 9.84252
vt 10.48801 7.874016
vt 9.591434 7.874016
vt 10.48801 9.84252
vt 9.591434 9.84252
vt 12.14717 7.874016
vt 11.25059 7.874016
vt 12.14717 9.84252
vt 11.25059 9.84252
vt 4.373099 7.874016
vt 4.373099 9.84252
vt 4.692436 7.874016
vt 4.692436 9.84252
vt -1.289588 7.874016
vt -1.486281 7.874016
vt -1.289588 9.84252
vt -1.486281 9.84252
vt -1.067509 7.874016
vt -1.067509 9.84252
vt -0.2395992 7.874016
vt -0.2395992 9.84252
vt 3.33412 7.874016
vt 2.437541 7.874016
vt 3.33412 9.84252
vt 2.437541 9.84252
vt -4.592105 7.874016
vt -4.592105 9.84252
vt -4.011645 7.874016
vt -4.011645 9.84252
vt 0.8912047 9.84252
vt 0.8912047 7.874016
vt -3.419512 9.84252
vt -3.419512 7.874016
vt 5.392795 7.874016
vt 5.073458 7.874016
vt 5.392795 9.84252
vt 5.073458 9.84252
vt 1.338016 7.874016
vt 1.338016 9.84252
vt 1.534709 7.874016
vt 1.534709 9.84252
vt 4.551177 7.874016
vt 4.551177 9.84252
vt 4.870513 7.874016
vt 4.870513 9.84252
vt -0.5849828 7.874016
vt -0.7816762 7.874016
vt -0.5849828 9.84252
vt -0.7816762 9.84252
vt -1.987766 7.874016
vt -2.184459 7.874016
vt -1.987766 9.84252
vt -2.184459 9.84252
vt -2.676284 7.874016
vt -2.872977 7.874016
vt -2.676284 9.84252
vt -2.872977 9.84252
vt -3.351954 7.874016
vt -3.548647 7.874016
vt -3.351954 9.84252
vt -3.548647 9.84252
vt 5.739292 7.874016
vt 5.739292 9.84252
vt 6.058629 7.874016
vt 6.058629 9.84252
vt -10.81992 9.84252
vt -10.81992 7.874016
vt -13.56761 9.84252
vt -13.56761 7.874016
vt -7.83585 9.84252
vt -7.83585 7.874016
vt -12.14657 9.84252
vt -12.14657 7.874016
vt -29.52756 9.84252
vt -29.52756 7.874016
vt -31.98819 9.84252
vt -39.37008 -2.869706E-26
vt -9.842521 7.874016
vt -5.867043E-07 -2.209271E-26
vt -7.38189 9.84252
vt -5.867043E-07 9.84252
vt -9.842521 9.84252
vt -39.37008 9.84252
vt 4.727311 7.874016
vt 4.727311 9.84252
vt 5.046648 7.874016
vt 5.046648 9.84252
vt 2.723364 7.874016
vt 2.723364 9.84252
vt 2.920057 7.874016
vt 2.920057 9.84252
vt 0.1227867 7.874016
vt -0.07390667 7.874016
vt 0.1227867 9.84252
vt -0.07390667 9.84252
vt 5.867043E-07 0
vt 5.867043E-07 9.84252
vt 39.37008 0
vt -1.037392E-12 39.37008
vt -1.037392E-12 5.867043E-07
vt -39.37008 39.37008
vt -39.37008 5.867043E-07
vt -3.70788 7.874016
vt -4.53579 7.874016
vt -3.70788 9.84252
vt -4.53579 9.84252
vt 3.39803 7.874016
vt 3.39803 9.84252
vt 3.747116 7.874016
vt 3.747116 9.84252
vt -2.255569 7.874016
vt -3.083478 7.874016
vt -2.255569 9.84252
vt -3.083478 9.84252
vt -1.037392E-12 0
vt -39.37008 0
vt -1.037392E-12 9.84252
vt 7.381889 -9.040029E-15
vt 7.501791 0.4398422
vt 9.842519 3.731867E-12
vt 7.552557 0.8928989
vt 7.964165 5.171111
vt 8.56706 4.603701
vt 9.075423 3.950248
vt 9.477139 3.226329
vt 9.76263 2.4492
vt 9.925091 1.637387
vt 9.888944 0.1703011
vt 9.960649 0.8102416
vt 7.532976 1.34837
vt 7.443516 1.795399
vt 7.286309 2.223328
vt 7.281114 5.638951
vt 7.065103 2.621957
vt 6.78517 2.981784
vt 6.534186 5.99607
vt 6.453184 3.29423
vt 6.077058 3.551849
vt 5.741189 6.233954
vt 5.66576 3.748498
vt 5.229092 3.87949
vt 5.053828 6.328639
vt 4.777464 3.941702
vt 4.546367 3.963407
vt 4.474831 6.36982
vt 4.31728 4.000779
vt 4.280036 6.397086
vt 4.091265 4.053645
vt 4.087547 6.437536
vt 3.898255 6.490984
vt 3.869369 4.121759
vt 3.713036 6.557182
vt 3.652619 4.204807
vt 3.532748 6.635823
vt 3.442019 4.302403
vt 3.358226 6.726544
vt 3.238544 4.414097
vt 3.190277 6.828924
vt 3.043137 4.53937
vt 3.02968 6.942489
vt 2.877179 7.066713
vt 2.856701 4.677643
vt 2.733479 7.201021
vt 2.680102 4.828275
vt 2.514155 4.990569
vt 2.495247 7.456181
vt 2.359631 5.163773
vt 2.322786 7.659038
vt 2.184397 5.369891
vt 2.111047 7.898082
vt 2.005013 5.572408
vt 1.894496 8.132777
vt 1.821553 5.77124
vt 1.673223 8.363026
vt 1.634092 5.966305
vt 1.44732 8.588733
vt 1.442708 6.157522
vt 1.24748 6.344813
vt 1.216879 8.809804
vt 1.048488 6.5281
vt 0.981995 9.026151
vt 0.8458148 6.707307
vt 0.7427657 9.237681
vt 0.6395434 6.882361
vt 0.4992896 9.444309
vt 0.4297593 7.05319
vt 0.2516669 9.64595
vt 0.2165488 7.219722
vt 8.140341E-13 7.38189
vt 7.389092E-13 9.842521
vt -4.142925 7.874016
vt -4.836776 7.874016
vt -4.142925 9.84252
vt -4.836776 9.84252
vt -2.454755 7.874016
vt -2.454755 9.84252
vt -1.626845 7.874016
vt -1.626845 9.84252
vt -1.777382 7.874016
vt -1.777382 9.84252
vt -0.9494728 7.874016
vt -0.9494728 9.84252
vt 1.27042 7.874016
vt 1.27042 9.84252
vt 1.914366 7.874016
vt 1.914366 9.84252
vt 5.410971 7.874016
vt 5.410971 9.84252
vt 5.730308 7.874016
vt 5.730308 9.84252
vt 5.220765 7.874016
vt 4.901429 7.874016
vt 5.220765 9.84252
vt 4.901429 9.84252
vt 7.718934 7.874016
vt 6.089103 7.874016
vt 7.718934 9.84252
vt 6.089103 9.84252
vt 2.232324 7.874016
vt 2.035631 7.874016
vt 2.232324 9.84252
vt 2.035631 9.84252
vt 29.52756 3.371693E-11
vt 30.19045 2.402321
vt 31.98819 3.746355E-11
vt 30.96543 5.038455
vt 31.35776 9.331281
vt 31.87146 18.66972
vt 33.27692 14.10086
vt 33.33641 4.586071
vt 33.77148 9.346373
vt 30.91178 13.61887
vt 29.64433 17.73904
vt 29.60823 22.88013
vt 27.60336 21.53598
vt 26.57286 26.57286
vt 24.86607 24.86607
vt 24.42998 28.33427
vt 23.60218 28.96163
vt 22.94117 26.44831
vt 22.72745 29.52169
vt 22.19969 27.03698
vt 21.81124 30.01099
vt 21.4557 27.5373
vt 20.85929 30.42645
vt 20.67454 27.97735
vt 19.87751 30.76549
vt 19.86109 28.35438
vt 19.02042 28.66604
vt 18.87204 31.026
vt 18.15778 28.91039
vt 17.84915 31.20635
vt 17.27855 29.0859
vt 16.81521 31.30541
vt 16.38821 29.19147
vt 15.77669 31.32257
vt 15.49231 29.22646
vt 14.74004 31.25772
vt 14.59645 29.19063
vt 13.71175 31.11127
vt 13.70621 29.08422
vt 12.73003 28.88841
vt 12.69822 30.88412
vt 11.28885 30.56681
vt 11.23147 28.55102
vt 9.859229 30.35892
vt 9.618602 28.31648
vt 8.41785 30.26169
vt 7.992467 28.20678
vt 6.973264 30.27568
vt 6.362713 28.22257
vt 5.534039 30.40081
vt 4.739008 28.36374
vt 4.108716 30.63635
vt 3.130986 28.62947
vt 2.70575 30.9809
vt 1.548186 29.01818
vt 1.333464 31.4324
vt 1.069925E-13 29.52756
vt 2.717832E-15 31.98819
vt 0.8304431 7.874016
vt 0.6337497 7.874016
vt 0.8304431 9.84252
vt 0.6337497 9.84252
vt -3.308638 7.874016
vt -4.136548 7.874016
vt -3.308638 9.84252
vt -4.136548 9.84252
vt 4.064487 7.874016
vt 4.064487 9.84252
vt 4.330746 7.874016
vt 4.330746 9.84252
vt -6.036925 9.84252
vt -6.036925 7.874016
vt -10.34764 9.84252
vt -10.34764 7.874016
vt -3.928152 9.84252
vt -3.928152 7.874016
vt -8.238869 9.84252
vt -8.238869 7.874016
vt -1.589288 9.84252
vt -1.589288 7.874016
vt -5.900005 9.84252
vt -5.900005 7.874016
vt 3.419511 7.874016
vt 0.9277794 7.874016
vt 3.419511 9.84252
vt 0.9277794 9.84252
vt 5.562666 7.874016
vt 5.243329 7.874016
vt 5.562666 9.84252
vt 5.243329 9.84252
vt 4.193152 7.874016
vt 4.193152 9.84252
vt 4.512489 7.874016
vt 4.512489 9.84252
vt 13.73335 7.874016
vt 12.83677 7.874016
vt 13.73335 9.84252
vt 12.83677 9.84252
vt 2.264335 7.874016
vt 2.264335 9.84252
vt 3.894165 7.874016
vt 3.894165 9.84252
vt -7.59858 7.874016
vt -9.228411 7.874016
vt -7.59858 9.84252
vt -9.228411 9.84252
vt 19.1586 7.874016
vt 18.16298 7.874016
vt 19.1586 9.84252
vt 18.16298 9.84252
vt 15.75117 7.874016
vt 15.75117 9.84252
vt 16.64775 7.874016
vt 16.64775 9.84252
vt 15.22314 7.874016
vt 13.59331 7.874016
vt 15.22314 9.84252
vt 13.59331 9.84252
vt 9.872911 7.874016
vt 9.872911 9.84252
vt 11.50274 7.874016
vt 11.50274 9.84252
vt 18.7643 7.874016
vt 17.22823 7.874016
vt 18.7643 9.84252
vt 17.22823 9.84252
vt -5.417209 7.874016
vt -5.417209 9.84252
vt -3.787378 7.874016
vt -3.787378 9.84252
vt 15.23667 7.874016
vt 14.34009 7.874016
vt 15.23667 9.84252
vt 14.34009 9.84252
vt 0.05112774 7.874016
vt -1.578703 7.874016
vt 0.05112774 9.84252
vt -1.578703 9.84252
vt 2.588628 7.874016
vt 2.588628 9.84252
vt 2.765143 7.874016
vt 2.765143 9.84252
vt 17.95778 7.874016
vt 17.0612 7.874016
vt 17.95778 9.84252
vt 17.0612 9.84252
vt 39.37008 5.867043E-07
vt 39.37008 39.37008
vt 1.04011E-12 39.37008
vt 1.041408E-12 5.867043E-07
vt 9.842519 3.727274E-12
vt 29.52756 3.371218E-11
vt 1.038467E-13 29.52756
vt 7.291243E-13 9.842521

usemtl natureKit-wood
# usermap natureKit-wood

f 2/2/2 1/1/1 3/3/1
f 3/3/1 4/4/2 2/2/2
f 6/6/4 5/5/3 7/7/3
f 7/7/3 8/8/4 6/6/4
f 9/10/5 6/9/4 8/11/4
f 8/11/4 10/12/5 9/10/5
f 12/14/7 11/13/6 13/15/6
f 13/15/6 14/16/7 12/14/7
f 16/18/8 15/17/8 17/19/9
f 17/19/9 18/20/9 16/18/8
f 20/22/11 19/21/10 21/23/10
f 21/23/10 22/24/11 20/22/11
f 24/26/12 23/25/12 15/27/8
f 15/27/8 16/28/8 24/26/12
f 26/30/13 25/29/13 27/31/13
f 27/31/13 28/32/13 26/30/13
f 27/31/13 29/33/13 28/32/13
f 27/31/13 30/34/13 29/33/13
f 26/30/13 28/32/13 31/35/13
f 31/35/13 32/36/13 26/30/13
f 31/35/13 33/37/13 32/36/13
f 33/37/13 34/38/13 32/36/13
f 28/40/14 29/39/14 35/41/15
f 35/41/15 36/42/15 28/40/14
f 37/44/16 9/43/5 10/45/5
f 10/45/5 38/46/16 37/44/16
f 39/48/17 37/47/16 38/49/16
f 38/49/16 40/50/17 39/48/17
f 41/52/18 39/51/17 40/53/17
f 40/53/17 42/54/18 41/52/18
f 44/56/19 43/55/19 45/57/20
f 45/57/20 46/58/20 44/56/19
f 48/60/22 47/59/21 49/61/21
f 49/61/21 50/62/22 48/60/22
f 18/64/9 17/63/9 51/65/23
f 51/65/23 52/66/23 18/64/9
f 5/68/3 2/67/2 4/69/2
f 4/69/2 7/70/3 5/68/3
f 54/72/24 53/71/24 55/73/25
f 55/73/25 56/74/25 54/72/24
f 58/76/26 57/75/26 59/77/27
f 59/77/27 60/78/27 58/76/26
f 62/80/29 61/79/28 63/81/28
f 63/81/28 64/82/29 62/80/29
f 66/84/30 65/83/30 67/85/31
f 67/85/31 68/86/31 66/84/30
f 46/88/20 45/87/20 69/89/32
f 69/89/32 70/90/32 46/88/20
f 47/92/21 71/91/33 72/93/33
f 72/93/33 49/94/21 47/92/21
f 73/96/34 48/95/22 50/97/22
f 50/97/22 74/98/34 73/96/34
f 75/100/35 73/99/34 74/101/34
f 74/101/34 76/102/35 75/100/35
f 55/104/25 75/103/35 76/105/35
f 76/105/35 56/106/25 55/104/25
f 13/108/6 11/107/6 77/109/36
f 77/109/36 78/110/36 13/108/6
f 36/112/15 35/111/15 79/113/37
f 79/113/37 80/114/37 36/112/15
f 80/116/37 79/115/37 81/117/38
f 81/117/38 82/118/38 80/116/37
f 84/120/39 83/119/39 85/121/39
f 84/120/39 85/121/39 86/122/39
f 77/123/39 84/120/39 86/122/39
f 77/123/39 86/122/39 26/124/39
f 87/125/39 77/123/39 26/124/39
f 26/124/39 32/126/39 87/125/39
f 87/125/39 78/127/39 77/123/39
f 85/121/39 88/128/39 86/122/39
f 70/130/32 69/129/32 89/131/40
f 89/131/40 90/132/40 70/130/32
f 92/134/41 91/133/41 93/135/42
f 93/135/42 94/136/42 92/134/41
f 71/138/33 95/137/43 96/139/43
f 96/139/43 72/140/33 71/138/33
f 27/142/44 25/141/44 97/143/44
f 97/143/44 98/31/44 27/142/44
f 26/145/45 86/144/45 97/146/45
f 97/146/45 25/147/45 26/145/45
f 100/149/47 99/148/46 101/150/46
f 101/150/46 102/151/47 100/149/47
f 94/153/42 93/152/42 103/154/48
f 103/154/48 104/155/48 94/153/42
f 105/157/49 20/156/11 22/158/11
f 22/158/11 106/159/49 105/157/49
f 97/161/50 86/160/50 88/162/50
f 88/162/50 98/128/50 97/161/50
f 107/164/51 34/163/51 33/165/51
f 33/165/51 108/166/51 107/164/51
f 33/165/51 22/167/51 108/166/51
f 33/165/51 106/168/51 22/167/51
f 33/165/51 109/169/51 106/168/51
f 33/165/51 52/170/51 109/169/51
f 33/165/51 18/171/51 52/170/51
f 33/165/51 16/172/51 18/171/51
f 33/165/51 110/173/51 16/172/51
f 110/173/51 24/174/51 16/172/51
f 111/175/51 108/166/51 22/167/51
f 112/176/51 111/175/51 22/167/51
f 113/177/51 112/176/51 22/167/51
f 113/177/51 22/167/51 21/178/51
f 114/179/51 113/177/51 21/178/51
f 115/180/51 114/179/51 21/178/51
f 115/180/51 21/178/51 102/181/51
f 116/182/51 115/180/51 102/181/51
f 117/183/51 116/182/51 102/181/51
f 117/183/51 102/181/51 101/184/51
f 118/185/51 117/183/51 101/184/51
f 119/186/51 118/185/51 101/184/51
f 119/186/51 101/184/51 54/187/51
f 120/188/51 119/186/51 54/187/51
f 121/189/51 120/188/51 54/187/51
f 121/189/51 54/187/51 56/190/51
f 122/191/51 121/189/51 56/190/51
f 122/191/51 56/190/51 76/192/51
f 123/193/51 122/191/51 76/192/51
f 123/193/51 76/192/51 74/194/51
f 123/193/51 74/194/51 50/195/51
f 124/196/51 123/193/51 50/195/51
f 124/196/51 50/195/51 49/197/51
f 125/198/51 124/196/51 49/197/51
f 125/198/51 49/197/51 72/199/51
f 126/200/51 125/198/51 72/199/51
f 126/200/51 72/199/51 96/201/51
f 127/202/51 126/200/51 96/201/51
f 127/202/51 96/201/51 66/203/51
f 128/204/51 127/202/51 66/203/51
f 128/204/51 66/203/51 68/205/51
f 128/204/51 68/205/51 92/206/51
f 129/207/51 128/204/51 92/206/51
f 129/207/51 92/206/51 94/208/51
f 130/209/51 129/207/51 94/208/51
f 131/210/51 130/209/51 94/208/51
f 131/210/51 94/208/51 104/211/51
f 132/212/51 131/210/51 104/211/51
f 132/212/51 104/211/51 133/213/51
f 134/214/51 132/212/51 133/213/51
f 134/214/51 133/213/51 44/215/51
f 135/216/51 134/214/51 44/215/51
f 135/216/51 44/215/51 46/217/51
f 136/218/51 135/216/51 46/217/51
f 136/218/51 46/217/51 70/219/51
f 137/220/51 136/218/51 70/219/51
f 137/220/51 70/219/51 90/221/51
f 138/222/51 137/220/51 90/221/51
f 139/223/51 138/222/51 90/221/51
f 139/223/51 90/221/51 64/224/51
f 140/225/51 139/223/51 64/224/51
f 140/225/51 64/224/51 63/226/51
f 141/227/51 140/225/51 63/226/51
f 141/227/51 63/226/51 142/228/51
f 143/229/51 141/227/51 142/228/51
f 143/229/51 142/228/51 14/230/51
f 144/231/51 143/229/51 14/230/51
f 144/231/51 14/230/51 13/232/51
f 145/233/51 144/231/51 13/232/51
f 87/234/51 145/233/51 13/232/51
f 13/232/51 78/235/51 87/234/51
f 99/237/46 53/236/24 54/238/24
f 54/238/24 101/239/46 99/237/46
f 109/241/52 146/240/52 105/242/49
f 105/242/49 106/243/49 109/241/52
f 52/245/23 51/244/23 146/246/52
f 146/246/52 109/247/52 52/245/23
f 110/249/53 147/248/53 23/250/12
f 23/250/12 24/251/12 110/249/53
f 142/253/54 148/252/54 12/254/7
f 12/254/7 14/255/7 142/253/54
f 89/257/40 62/256/29 64/258/29
f 64/258/29 90/259/40 89/257/40
f 150/261/56 149/260/55 151/262/55
f 151/262/55 152/263/56 150/261/56
f 67/265/31 91/264/41 92/266/41
f 92/266/41 68/267/31 67/265/31
f 35/269/51 29/268/51 30/270/51
f 30/270/51 79/271/51 35/269/51
f 30/270/51 81/272/51 79/271/51
f 30/270/51 153/273/51 81/272/51
f 30/270/51 154/274/51 153/273/51
f 30/270/51 155/275/51 154/274/51
f 155/275/51 156/276/51 154/274/51
f 157/277/51 81/272/51 153/273/51
f 158/278/51 157/277/51 153/273/51
f 158/278/51 153/273/51 159/279/51
f 57/280/51 158/278/51 159/279/51
f 57/280/51 159/279/51 160/281/51
f 59/282/51 57/280/51 160/281/51
f 59/282/51 160/281/51 161/283/51
f 59/282/51 161/283/51 162/284/51
f 3/285/51 59/282/51 162/284/51
f 3/285/51 162/284/51 163/286/51
f 4/287/51 3/285/51 163/286/51
f 4/287/51 163/286/51 164/288/51
f 7/289/51 4/287/51 164/288/51
f 7/289/51 164/288/51 165/290/51
f 8/291/51 7/289/51 165/290/51
f 8/291/51 165/290/51 166/292/51
f 10/293/51 8/291/51 166/292/51
f 38/294/51 10/293/51 166/292/51
f 38/294/51 166/292/51 167/295/51
f 40/296/51 38/294/51 167/295/51
f 40/296/51 167/295/51 168/297/51
f 42/298/51 40/296/51 168/297/51
f 42/298/51 168/297/51 169/299/51
f 170/300/51 42/298/51 169/299/51
f 170/300/51 169/299/51 171/301/51
f 172/302/51 170/300/51 171/301/51
f 172/302/51 171/301/51 173/303/51
f 174/304/51 172/302/51 173/303/51
f 174/304/51 173/303/51 175/305/51
f 176/306/51 174/304/51 175/305/51
f 177/307/51 176/306/51 175/305/51
f 177/307/51 175/305/51 178/308/51
f 177/307/51 178/308/51 179/309/51
f 180/310/51 177/307/51 179/309/51
f 180/310/51 179/309/51 181/311/51
f 182/312/51 180/310/51 181/311/51
f 182/312/51 181/311/51 183/313/51
f 151/314/51 182/312/51 183/313/51
f 151/314/51 183/313/51 184/315/51
f 152/316/51 151/314/51 184/315/51
f 152/316/51 184/315/51 185/317/51
f 186/318/51 152/316/51 185/317/51
f 186/318/51 185/317/51 187/319/51
f 188/320/51 186/318/51 187/319/51
f 188/320/51 187/319/51 189/321/51
f 190/322/51 188/320/51 189/321/51
f 190/322/51 189/321/51 191/323/51
f 83/324/51 190/322/51 191/323/51
f 191/323/51 85/325/51 83/324/51
f 95/327/43 65/326/30 66/328/30
f 66/328/30 96/329/43 95/327/43
f 19/331/10 100/330/47 102/332/47
f 102/332/47 21/333/10 19/331/10
f 104/335/48 103/334/48 192/336/57
f 192/336/57 133/337/57 104/335/48
f 82/339/38 81/338/38 157/340/58
f 157/340/58 193/341/58 82/339/38
f 193/343/58 157/342/58 158/344/59
f 158/344/59 194/345/59 193/343/58
f 194/347/59 158/346/59 57/348/26
f 57/348/26 58/349/26 194/347/59
f 1/351/1 60/350/27 59/352/27
f 59/352/27 3/353/1 1/351/1
f 61/355/28 148/354/54 142/356/54
f 142/356/54 63/357/28 61/355/28
f 133/359/57 192/358/57 43/360/19
f 43/360/19 44/361/19 133/359/57
f 195/363/60 41/362/18 42/364/18
f 42/364/18 170/365/60 195/363/60
f 186/367/61 196/366/61 150/368/56
f 150/368/56 152/369/56 186/367/61
f 84/371/63 197/370/62 190/372/62
f 190/372/62 83/373/63 84/371/63
f 199/375/65 198/374/64 176/376/64
f 176/376/64 177/377/65 199/375/65
f 174/379/66 200/378/66 201/380/67
f 201/380/67 172/381/67 174/379/66
f 203/383/69 202/382/68 180/384/68
f 180/384/68 182/385/69 203/383/69
f 151/387/55 149/386/55 203/388/69
f 203/388/69 182/389/69 151/387/55
f 202/391/68 199/390/65 177/392/65
f 177/392/65 180/393/68 202/391/68
f 190/395/62 197/394/62 204/396/70
f 204/396/70 188/397/70 190/395/62
f 201/399/67 195/398/60 170/400/60
f 170/400/60 172/401/67 201/399/67
f 204/403/70 196/402/61 186/404/61
f 186/404/61 188/405/70 204/403/70
f 33/407/71 31/406/71 147/408/53
f 147/408/53 110/409/53 33/407/71
f 198/411/64 200/410/66 174/412/66
f 174/412/66 176/413/64 198/411/64

usemtl natureKit-leavesGreen
# usermap natureKit-leavesGreen

f 155/275/51 30/270/51 27/414/51
f 27/414/51 156/276/51 155/275/51
f 156/276/51 27/414/51 98/415/51
f 154/274/51 156/276/51 98/415/51
f 153/273/51 154/274/51 98/415/51
f 159/279/51 153/273/51 98/415/51
f 160/281/51 159/279/51 98/415/51
f 161/283/51 160/281/51 98/415/51
f 162/284/51 161/283/51 98/415/51
f 163/286/51 162/284/51 98/415/51
f 164/288/51 163/286/51 98/415/51
f 165/290/51 164/288/51 98/415/51
f 166/292/51 165/290/51 98/415/51
f 167/295/51 166/292/51 98/415/51
f 168/297/51 167/295/51 98/415/51
f 169/299/51 168/297/51 98/415/51
f 171/301/51 169/299/51 98/415/51
f 173/303/51 171/301/51 98/415/51
f 175/305/51 173/303/51 98/415/51
f 178/308/51 175/305/51 98/415/51
f 179/309/51 178/308/51 98/415/51
f 181/311/51 179/309/51 98/415/51
f 183/313/51 181/311/51 98/415/51
f 184/315/51 183/313/51 98/415/51
f 185/317/51 184/315/51 98/415/51
f 187/319/51 185/317/51 98/415/51
f 189/321/51 187/319/51 98/415/51
f 191/323/51 189/321/51 98/415/51
f 191/323/51 98/415/51 88/416/51
f 88/416/51 85/325/51 191/323/51
f 145/233/51 87/234/51 32/417/51
f 32/417/51 34/163/51 145/233/51
f 34/163/51 144/231/51 145/233/51
f 34/163/51 143/229/51 144/231/51
f 34/163/51 131/210/51 143/229/51
f 131/210/51 141/227/51 143/229/51
f 131/210/51 140/225/51 141/227/51
f 131/210/51 139/223/51 140/225/51
f 131/210/51 138/222/51 139/223/51
f 131/210/51 137/220/51 138/222/51
f 131/210/51 132/212/51 137/220/51
f 132/212/51 136/218/51 137/220/51
f 132/212/51 135/216/51 136/218/51
f 132/212/51 134/214/51 135/216/51
f 34/163/51 130/209/51 131/210/51
f 34/163/51 129/207/51 130/209/51
f 34/163/51 128/204/51 129/207/51
f 34/163/51 127/202/51 128/204/51
f 34/163/51 126/200/51 127/202/51
f 34/163/51 125/198/51 126/200/51
f 34/163/51 124/196/51 125/198/51
f 34/163/51 123/193/51 124/196/51
f 34/163/51 122/191/51 123/193/51
f 34/163/51 121/189/51 122/191/51
f 34/163/51 120/188/51 121/189/51
f 34/163/51 119/186/51 120/188/51
f 34/163/51 118/185/51 119/186/51
f 34/163/51 117/183/51 118/185/51
f 34/163/51 116/182/51 117/183/51
f 34/163/51 115/180/51 116/182/51
f 34/163/51 114/179/51 115/180/51
f 34/163/51 113/177/51 114/179/51
f 34/163/51 112/176/51 113/177/51
f 34/163/51 107/164/51 112/176/51
f 107/164/51 111/175/51 112/176/51
f 107/164/51 108/166/51 111/175/51

usemtl natureKit-water
# usermap natureKit-water

f 147/173/51 31/418/51 28/419/51
f 28/419/51 23/174/51 147/173/51
f 28/419/51 202/310/51 23/174/51
f 28/419/51 199/307/51 202/310/51
f 28/419/51 198/306/51 199/307/51
f 28/419/51 200/304/51 198/306/51
f 28/419/51 201/302/51 200/304/51
f 28/419/51 195/300/51 201/302/51
f 28/419/51 41/298/51 195/300/51
f 28/419/51 39/296/51 41/298/51
f 28/419/51 37/294/51 39/296/51
f 28/419/51 9/293/51 37/294/51
f 28/419/51 6/291/51 9/293/51
f 28/419/51 5/289/51 6/291/51
f 28/419/51 2/287/51 5/289/51
f 28/419/51 1/285/51 2/287/51
f 28/419/51 60/282/51 1/285/51
f 28/419/51 58/280/51 60/282/51
f 28/419/51 194/278/51 58/280/51
f 28/419/51 36/269/51 194/278/51
f 36/269/51 193/277/51 194/278/51
f 36/269/51 80/271/51 193/277/51
f 80/271/51 82/272/51 193/277/51
f 197/322/51 84/420/51 77/421/51
f 77/421/51 11/232/51 197/322/51
f 11/232/51 12/230/51 197/322/51
f 12/230/51 148/228/51 197/322/51
f 148/228/51 61/226/51 197/322/51
f 61/226/51 62/224/51 197/322/51
f 62/224/51 89/221/51 197/322/51
f 89/221/51 69/219/51 197/322/51
f 69/219/51 204/320/51 197/322/51
f 69/219/51 45/217/51 204/320/51
f 45/217/51 43/215/51 204/320/51
f 43/215/51 192/213/51 204/320/51
f 192/213/51 103/211/51 204/320/51
f 103/211/51 93/208/51 204/320/51
f 93/208/51 91/206/51 204/320/51
f 91/206/51 67/205/51 204/320/51
f 67/205/51 65/203/51 204/320/51
f 65/203/51 196/318/51 204/320/51
f 65/203/51 95/201/51 196/318/51
f 95/201/51 71/199/51 196/318/51
f 71/199/51 47/197/51 196/318/51
f 47/197/51 48/195/51 196/318/51
f 48/195/51 73/194/51 196/318/51
f 73/194/51 75/192/51 196/318/51
f 75/192/51 55/190/51 196/318/51
f 55/190/51 53/187/51 196/318/51
f 53/187/51 150/316/51 196/318/51
f 53/187/51 99/184/51 150/316/51
f 99/184/51 100/181/51 150/316/51
f 100/181/51 149/314/51 150/316/51
f 100/181/51 19/178/51 149/314/51
f 19/178/51 20/167/51 149/314/51
f 20/167/51 105/168/51 149/314/51
f 105/168/51 203/312/51 149/314/51
f 105/168/51 146/169/51 203/312/51
f 146/169/51 51/170/51 203/312/51
f 51/170/51 17/171/51 203/312/51
f 17/171/51 202/310/51 203/312/51
f 17/171/51 15/172/51 202/310/51
f 15/172/51 23/174/51 202/310/51
