# Exported using Kenney Suite 1.2 

mtllib ground_dirtRiverEntrance.mtl 

g ground_dirtRiverEntrance

v 7.27519 2 0.6170589 
v 7.376981 2 0.3030771 
v 7.27519 2.5 0.6170589 
v 7.376981 2.5 0.3030771 
v 7.195308 2 0.9398538 
v 7.195308 2.5 0.9398538 
v 7.854779 2 9.026207 
v 7.980843 2 8.516796 
v 7.854779 2.5 9.026207 
v 7.980843 2.5 8.516796 
v 8.071494 2 7.996873 
v 8.11532 2 7.57416 
v 8.071494 2.5 7.996873 
v 8.11532 2.5 7.57416 
v 7.694139 2 9.521709 
v 7.694139 2.5 9.521709 
v 0 0 10 
v 0 2 10 
v 10 0 10 
v 7.5 2 10 
v 7.5 2.5 10 
v 8.125 2.5 10 
v 10 2.5 10 
v 0 0 6.208439E-12 
v 0 2 6.208439E-12 
v 8.216457 2 7.285838 
v 8.266439 2 7.226727 
v 8.216457 2.5 7.285838 
v 8.266439 2.5 7.226727 
v 8.516793 2 2.019158 
v 8.516793 2.5 2.019158 
v 9.026205 2 2.145222 
v 9.026205 2.5 2.145222 
v 7.158809 2 1.396909 
v 7.146168 2 1.317751 
v 7.158809 2.5 1.396909 
v 7.146168 2.5 1.317751 
v 9.521708 2.5 7.305861 
v 9.521708 2 7.305861 
v 10 2.5 7.500002 
v 10 2 7.500002 
v 7.18112 2 1.473902 
v 7.18112 2.5 1.473902 
v 7.996871 2 1.928506 
v 7.996871 2.5 1.928506 
v 8.124483 2 7.497292 
v 8.124483 2.5 7.497292 
v 10 0 1.192093E-06 
v 10 2.5 1.192093E-06 
v 10 2 2.500001 
v 10 2.5 2.500001 
v 10 2.5 1.875001 
v 10 2.5 8.125002 
v 9.417653 2.5 1.192093E-06 
v 8.417697 2.5 1.192093E-06 
v 8.125 2.5 1.192093E-06 
v 8.001981 2.5 0.3030777 
v 7.90019 2.5 0.6170595 
v 7.820308 2.5 0.9398544 
v 9.521708 2.5 1.680861 
v 9.026205 2.5 1.520222 
v 8.925217 2.5 1.49523 
v 8.516796 2.5 1.394158 
v 7.996871 2.5 1.303506 
v 7.762866 2.5 1.269311 
v 7.761846 2.5 1.27914 
v 7.5 2.5 1.192093E-06 
v 7.143388 2.5 1.237639 
v 7.19028 2.5 1.49523 
v 7.212758 2.5 1.547555 
v 7.253242 2.5 1.616742 
v 7.301948 2.5 1.680407 
v 7.358139 2.5 1.737576 
v 7.420952 2.5 1.787377 
v 7.489431 2.5 1.829049 
v 7.562528 2.5 1.861956 
v 7.639122 2.5 1.885592 
v 9.521708 2.5 2.305861 
v 7.71805 2.5 1.8996 
v 8.727654 2.5 7.69634 
v 8.696494 2.5 7.996873 
v 8.605843 2.5 8.516796 
v 8.479778 2.5 9.026207 
v 8.319139 2.5 9.521709 
v 8.144717 2.5 7.422572 
v 8.175592 2.5 7.351585 
v 8.32448 2.5 7.175504 
v 9.026205 2.5 7.145223 
v 8.389349 2.5 7.133259 
v 8.459665 2.5 7.100887 
v 8.764526 2.5 7.080465 
v 8.53394 2.5 7.079077 
v 8.688006 2.5 7.068756 
v 8.610597 2.5 7.06829 
v 9.026205 2.5 7.770223 
v 9.521708 2.5 7.930861 
v 8.688006 2 7.068756 
v 8.764526 2 7.080465 
v 9.521708 2 2.305861 
v 8.459665 2 7.100887 
v 8.53394 2 7.079077 
v 7.301948 2 1.680407 
v 7.253242 2 1.616742 
v 8.144717 2 7.422572 
v 7.143388 2 1.237639 
v 8.610597 2 7.06829 
v 9.026205 2 7.145223 
v 8.389349 2 7.133259 
v 8.32448 2 7.175504 
v 7.71805 2 1.8996 
v 8.175592 2 7.351585 
v 7.489431 2 1.829049 
v 7.562528 2 1.861956 
v 7.420952 2 1.787377 
v 7.358139 2 1.737576 
v 7.212758 2 1.547555 
v 7.19028 2 1.49523 
v 7.639122 2 1.885592 
v 7.5 2 1.192093E-06 

vn 0.9615928 0 0.2744806
vn 0.9395292 0 0.3424689
vn -0.9615928 0 -0.2744806
vn -0.9395292 0 -0.3424689
vn 0.9785267 0 0.2061207
vn -0.9785267 0 -0.2061207
vn 0.9904984 0 0.1375255
vn 0.9938489 0 0.1107458
vn -0.9904984 0 -0.1375255
vn -0.9938489 0 -0.1107458
vn 1.192093E-07 0 -1
vn -1.192093E-07 0 1
vn 1 0 1.192093E-07
vn -1 0 -1.192093E-07
vn 0.8086153 0 0.588338
vn 0.7145476 0 0.6995869
vn -0.8086153 0 -0.588338
vn -0.7145476 0 -0.6995869
vn 0.2061207 0 -0.9785267
vn 0.2744806 0 -0.9615928
vn -0.2744806 0 0.9615928
vn -0.2061207 0 0.9785267
vn 0.9758523 0 -0.2184316
vn 0.9953448 0 -0.09637864
vn -0.9758523 0 0.2184316
vn -0.9953448 0 0.09637864
vn -0.3424689 0 0.9395292
vn -0.3761019 0 0.9265785
vn 0.3761019 0 -0.9265785
vn 0.3424689 0 -0.9395292
vn 0.9414519 0 -0.3371477
vn -0.9414519 0 0.3371477
vn 0.1375255 0 -0.9904984
vn -0.1375255 0 0.9904984
vn 0.9817105 0 0.1903807
vn -0.9817105 0 -0.1903807
vn 0 -1 0
vn 0 1 0
vn -0.07884461 0 0.996887
vn -0.1959406 0 0.9806159
vn 0.1959406 0 -0.9806159
vn 0.07884461 0 -0.996887
vn 0.3508938 0 0.9364154
vn 0.2111077 0 0.9774629
vn -0.2111077 0 -0.9774629
vn -0.3508938 0 -0.9364154
vn 0.755145 0 -0.655558
vn 0.8302488 0 -0.5573933
vn -0.755145 0 0.655558
vn -0.8302488 0 0.5573933
vn 0.9436295 0 0.3310039
vn -0.9436295 0 -0.3310039
vn 0.9976229 0 0.06891069
vn -0.9976229 0 -0.06891069
vn 0.0668409 0 0.9977638
vn -0.0668409 0 -0.9977638
vn 0.4832321 0 0.8754925
vn -0.4832321 0 -0.8754925
vn 0.6053139 0 0.7959871
vn -0.6053139 0 -0.7959871
vn 0.1390226 0 -0.9902893
vn -0.1390226 0 0.9902893
vn 0.88552 0 0.4646015
vn -0.88552 0 -0.4646015
vn 0.4660664 0 -0.8847499
vn 0.3533604 0 -0.9354873
vn -0.3533604 0 0.9354873
vn -0.4660664 0 0.8847499
vn 0.5716521 0 -0.8204962
vn -0.5716521 0 0.8204962
vn 0.6685048 0 -0.7437078
vn -0.6685048 0 0.7437078
vn 0.8926689 0 -0.4507132
vn -0.8926689 0 0.4507132
vn 0.9188167 0 -0.3946849
vn -0.9188167 0 0.3946849
vn 0.2352564 0 -0.9719334
vn -0.2352564 0 0.9719334
vn 0.9265785 0 0.3761019
vn -0.9265785 0 -0.3761019

vt -6.522123 7.874016
vt -7.82161 7.874016
vt -6.522123 9.84252
vt -7.82161 9.84252
vt -3.213236 7.874016
vt -4.522418 7.874016
vt -3.213236 9.84252
vt -4.522418 9.84252
vt 27.06684 7.874016
vt 25.00079 7.874016
vt 27.06684 9.84252
vt 25.00079 9.84252
vt 28.03893 7.874016
vt 26.36579 7.874016
vt 28.03893 9.84252
vt 26.36579 9.84252
vt 26.31816 7.874016
vt 24.26741 7.874016
vt 26.31816 9.84252
vt 24.26741 9.84252
vt 3.567127E-15 1.097534E-14
vt 3.567127E-15 7.874016
vt 39.37008 1.097534E-14
vt 29.52756 7.874016
vt 29.52756 9.84252
vt 31.98819 9.84252
vt 39.37008 9.84252
vt 39.37008 -2.454352E-24
vt 2.444267E-11 4.757134E-36
vt 39.37008 7.874016
vt 2.444267E-11 7.874016
vt 1.017154 7.874016
vt 0.7123855 7.874016
vt 1.017154 9.84252
vt 0.7123855 9.84252
vt 34.45847 7.874016
vt 34.45847 9.84252
vt 36.52452 7.874016
vt 36.52452 9.84252
vt 9.875666 7.874016
vt 9.560073 7.874016
vt 9.875666 9.84252
vt 9.560073 9.84252
vt -45.55258 9.84252
vt -45.55258 7.874016
vt -47.58483 9.84252
vt -47.58483 7.874016
vt 13.44223 7.874016
vt 13.12664 7.874016
vt 13.44223 9.84252
vt 13.12664 9.84252
vt 32.31996 7.874016
vt 32.31996 9.84252
vt 34.39778 7.874016
vt 34.39778 9.84252
vt 25.82819 7.874016
vt 25.52342 7.874016
vt 25.82819 9.84252
vt 25.52342 9.84252
vt -1.691243E-11 -1.705677E-11
vt -39.37008 -1.705677E-11
vt -1.691243E-11 9.84252
vt -9.84252 7.874016
vt -9.84252 9.84252
vt -7.38189 9.84252
vt -29.52756 7.874016
vt -39.37008 9.84252
vt -29.52756 9.84252
vt -31.98819 9.84252
vt 1.428191E-12 37.07737
vt 7.38189 39.37008
vt 0 39.37008
vt 3.865352E-12 33.14053
vt 4.590106E-12 31.98819
vt 1.193215 31.50386
vt 2.429364 31.10311
vt 3.700209 30.78861
vt 6.617556 37.48704
vt 5.985122 35.53624
vt 5.886728 35.13864
vt 5.488805 33.53069
vt 5.13191 31.48374
vt 4.997281 30.56246
vt 5.03598 30.55845
vt 6.11727E-12 29.52756
vt 1.193215 29.04323
vt 2.429364 28.64248
vt 3.700209 28.32798
vt 4.872591 28.12357
vt 5.187994 28.13452
vt 5.499638 28.18429
vt 5.802761 28.27212
vt 5.886728 28.30819
vt 6.092732 28.39668
vt 6.365123 28.55606
vt 6.615772 28.74783
vt 6.840848 28.96905
vt 7.036916 29.21635
vt 7.200977 29.48595
vt 7.330528 29.77372
vt 7.423587 30.07528
vt 7.59254 31.48374
vt 7.949435 33.53069
vt 8.445752 35.53624
vt 9.078186 37.48704
vt 9.84252 39.37008
vt 7.478734 30.38602
vt 29.81952 31.95008
vt 30.30054 34.36084
vt 31.48374 31.77754
vt 31.48374 34.23817
vt 33.53069 33.88128
vt 33.53069 31.42064
vt 35.53624 33.38496
vt 35.53624 30.92433
vt 37.48704 32.75252
vt 37.48704 30.29189
vt 39.37008 31.98819
vt 39.37008 29.52756
vt 29.52756 39.37008
vt 29.51689 31.98615
vt 29.22272 32.06581
vt 28.94324 32.18737
vt 28.76323 37.48704
vt 28.68439 32.34825
vt 28.45167 32.54503
vt 28.25001 32.77354
vt 28.13079 35.53624
vt 28.08369 33.02893
vt 27.95624 33.30577
vt 27.87584 34.50601
vt 27.87038 33.59819
vt 27.82974 34.20475
vt 27.82791 33.89999
vt 30.59142 35.53624
vt 31.22385 37.48704
vt 31.98819 39.37008
vt 39.37008 39.37008
vt -38.02054 9.84252
vt -38.02054 7.874016
vt -38.32531 9.84252
vt -38.32531 7.874016
vt -2.444267E-11 0
vt -39.37008 39.37008
vt -39.37008 2.444267E-11
vt 36.40879 7.874016
vt 36.40879 9.84252
vt 38.45954 7.874016
vt 38.45954 9.84252
vt -24.07983 9.84252
vt -24.07983 7.874016
vt -24.3846 9.84252
vt -24.3846 7.874016
vt 22.72259 7.874016
vt 22.407 7.874016
vt 22.72259 9.84252
vt 22.407 9.84252
vt 20.12996 7.874016
vt 19.8252 7.874016
vt 20.12996 9.84252
vt 19.8252 9.84252
vt 5.845051 7.874016
vt 5.845051 9.84252
vt 6.160644 7.874016
vt 6.160644 9.84252
vt -34.06683 9.84252
vt -34.06683 7.874016
vt -34.3716 9.84252
vt -34.3716 7.874016
vt -40.19205 9.84252
vt -40.19205 7.874016
vt -41.25336 9.84252
vt -41.25336 7.874016
vt -42.47947 9.84252
vt -42.47947 7.874016
vt -44.53022 9.84252
vt -44.53022 7.874016
vt -18.25852 9.84252
vt -18.25852 7.874016
vt -18.56329 9.84252
vt -18.56329 7.874016
vt -5.575426 9.84252
vt -5.575426 7.874016
vt -5.880194 9.84252
vt -5.880194 7.874016
vt 38.149 7.874016
vt 38.149 9.84252
vt 40.18125 7.874016
vt 40.18125 9.84252
vt 30.99524 7.874016
vt 30.99524 9.84252
vt 32.09885 7.874016
vt 32.09885 9.84252
vt -29.38682 9.84252
vt -29.38682 7.874016
vt -29.69159 9.84252
vt -29.69159 7.874016
vt 14.00771 7.874016
vt 13.70294 7.874016
vt 14.00771 9.84252
vt 13.70294 9.84252
vt 29.84309 7.874016
vt 29.84309 9.84252
vt 30.15868 7.874016
vt 30.15868 9.84252
vt 27.63543 7.874016
vt 25.55761 7.874016
vt 27.63543 9.84252
vt 25.55761 9.84252
vt 28.6164 7.874016
vt 28.6164 9.84252
vt 28.93199 7.874016
vt 28.93199 9.84252
vt 25.18533 7.874016
vt 24.86974 7.874016
vt 25.18533 9.84252
vt 24.86974 9.84252
vt 19.91513 7.874016
vt 19.59954 7.874016
vt 19.91513 9.84252
vt 19.59954 9.84252
vt 16.58164 7.874016
vt 16.49025 7.874016
vt 16.58164 9.84252
vt 16.49025 9.84252
vt 16.80585 7.874016
vt 16.80585 9.84252
vt 30.61145 7.874016
vt 30.61145 9.84252
vt 30.92705 7.874016
vt 30.92705 9.84252
vt -0.03043347 7.874016
vt -1.220502 7.874016
vt -0.03043347 9.84252
vt -1.220502 9.84252
vt -9.817601 7.874016
vt -11.10537 7.874016
vt -9.817601 9.84252
vt -11.10537 9.84252
vt 26.95013 7.874016
vt 26.95013 9.84252
vt 27.26572 7.874016
vt 27.26572 9.84252
vt 30.90976 7.874016
vt 30.90976 9.84252
vt 31.22536 7.874016
vt 31.22536 9.84252
vt -39.37008 5.830852E-27
vt 1.517684E-23 5.830176E-27
vt 1.517684E-23 7.874016
vt -33.14053 9.84252
vt -37.07737 9.84252
vt 25.3741 7.874016
vt 23.34184 7.874016
vt 25.3741 9.84252
vt 23.34184 9.84252
vt 7.591379 7.874016
vt 7.286611 7.874016
vt 7.591379 9.84252
vt 7.286611 9.84252
vt -12.04643 9.84252
vt -12.04643 7.874016
vt -12.3512 9.84252
vt -12.3512 7.874016
vt 2.444175E-11 6.358017E-16
vt 6.116856E-12 29.52756
vt 39.37008 2.444331E-11

usemtl natureKit-wood
# usermap natureKit-wood

f 2/2/2 1/1/1 3/3/1
f 3/3/1 4/4/2 2/2/2
f 2/2/4 3/3/3 1/1/3
f 3/3/3 2/2/4 4/4/4
f 1/6/1 5/5/5 6/7/5
f 6/7/5 3/8/1 1/6/1
f 1/6/3 6/7/6 5/5/6
f 6/7/6 1/6/3 3/8/3
f 8/10/5 7/9/1 9/11/1
f 9/11/1 10/12/5 8/10/5
f 8/10/6 9/11/3 7/9/3
f 9/11/3 8/10/6 10/12/6
f 12/14/8 11/13/7 13/15/7
f 13/15/7 14/16/8 12/14/8
f 12/14/10 13/15/9 11/13/9
f 13/15/9 12/14/10 14/16/10
f 7/18/1 15/17/2 16/19/2
f 16/19/2 9/20/1 7/18/1
f 7/18/3 16/19/4 15/17/4
f 16/19/4 7/18/3 9/20/3
f 18/22/11 17/21/11 19/23/11
f 19/23/11 20/24/11 18/22/11
f 19/23/11 21/25/11 20/24/11
f 19/23/11 22/26/11 21/25/11
f 19/23/11 23/27/11 22/26/11
f 18/22/12 19/23/12 17/21/12
f 19/23/12 18/22/12 20/24/12
f 19/23/12 20/24/12 21/25/12
f 19/23/12 21/25/12 22/26/12
f 19/23/12 22/26/12 23/27/12
f 24/29/13 17/28/13 18/30/13
f 18/30/13 25/31/13 24/29/13
f 24/29/14 18/30/14 17/28/14
f 18/30/14 24/29/14 25/31/14
f 27/33/16 26/32/15 28/34/15
f 28/34/15 29/35/16 27/33/16
f 27/33/18 28/34/17 26/32/17
f 28/34/17 27/33/18 29/35/18
f 31/37/19 30/36/19 32/38/20
f 32/38/20 33/39/20 31/37/19
f 31/37/22 32/38/21 30/36/22
f 32/38/21 31/37/22 33/39/21
f 35/41/24 34/40/23 36/42/23
f 36/42/23 37/43/24 35/41/24
f 35/41/26 36/42/25 34/40/25
f 36/42/25 35/41/26 37/43/26
f 39/45/27 38/44/27 40/46/28
f 40/46/28 41/47/28 39/45/27
f 39/45/30 40/46/29 38/44/30
f 40/46/29 39/45/30 41/47/29
f 34/49/23 42/48/31 43/50/31
f 43/50/31 36/51/23 34/49/23
f 34/49/25 43/50/32 42/48/32
f 43/50/32 34/49/25 36/51/25
f 45/53/33 44/52/33 30/54/19
f 30/54/19 31/55/19 45/53/33
f 45/53/34 30/54/22 44/52/34
f 30/54/22 45/53/34 31/55/22
f 46/57/35 12/56/8 14/58/8
f 14/58/8 47/59/35 46/57/35
f 46/57/36 14/58/10 12/56/10
f 14/58/10 46/57/36 47/59/36
f 19/61/14 48/60/14 49/62/14
f 49/62/14 50/63/14 19/61/14
f 49/62/14 51/64/14 50/63/14
f 49/62/14 52/65/14 51/64/14
f 19/61/14 50/63/14 41/66/14
f 41/66/14 23/67/14 19/61/14
f 41/66/14 40/68/14 23/67/14
f 40/68/14 53/69/14 23/67/14
f 19/61/13 49/62/13 48/60/13
f 49/62/13 19/61/13 50/63/13
f 49/62/13 50/63/13 51/64/13
f 49/62/13 51/64/13 52/65/13
f 19/61/13 41/66/13 50/63/13
f 41/66/13 19/61/13 23/67/13
f 41/66/13 23/67/13 40/68/13
f 40/68/13 23/67/13 53/69/13
f 52/71/37 54/70/37 49/72/37
f 54/70/37 52/71/37 55/73/37
f 55/73/37 52/71/37 56/74/37
f 56/74/37 52/71/37 57/75/37
f 57/75/37 52/71/37 58/76/37
f 58/76/37 52/71/37 59/77/37
f 59/77/37 52/71/37 60/78/37
f 59/77/37 60/78/37 61/79/37
f 59/77/37 61/79/37 62/80/37
f 59/77/37 62/80/37 63/81/37
f 59/77/37 63/81/37 64/82/37
f 59/77/37 64/82/37 65/83/37
f 65/83/37 64/82/37 66/84/37
f 57/75/37 67/85/37 56/74/37
f 67/85/37 57/75/37 4/86/37
f 4/86/37 57/75/37 58/76/37
f 4/86/37 58/76/37 3/87/37
f 3/87/37 58/76/37 59/77/37
f 3/87/37 59/77/37 6/88/37
f 6/88/37 59/77/37 65/83/37
f 6/88/37 65/83/37 68/89/37
f 68/89/37 65/83/37 37/90/37
f 37/90/37 65/83/37 66/84/37
f 37/90/37 66/84/37 64/82/37
f 37/90/37 64/82/37 63/81/37
f 37/90/37 63/81/37 36/91/37
f 36/91/37 63/81/37 62/80/37
f 36/91/37 62/80/37 43/92/37
f 43/92/37 62/80/37 69/93/37
f 69/93/37 62/80/37 70/94/37
f 70/94/37 62/80/37 61/79/37
f 70/94/37 61/79/37 60/78/37
f 70/94/37 60/78/37 71/95/37
f 71/95/37 60/78/37 72/96/37
f 72/96/37 60/78/37 73/97/37
f 73/97/37 60/78/37 52/71/37
f 73/97/37 52/71/37 74/98/37
f 74/98/37 52/71/37 75/99/37
f 75/99/37 52/71/37 76/100/37
f 76/100/37 52/71/37 77/101/37
f 77/101/37 52/71/37 45/102/37
f 45/102/37 52/71/37 31/103/37
f 31/103/37 52/71/37 33/104/37
f 33/104/37 52/71/37 78/105/37
f 78/105/37 52/71/37 51/106/37
f 77/101/37 45/102/37 79/107/37
f 80/109/38 14/108/38 13/110/38
f 13/110/38 81/111/38 80/109/38
f 13/110/38 82/112/38 81/111/38
f 13/110/38 10/113/38 82/112/38
f 10/113/38 83/114/38 82/112/38
f 10/113/38 9/115/38 83/114/38
f 9/115/38 84/116/38 83/114/38
f 9/115/38 16/117/38 84/116/38
f 16/117/38 22/118/38 84/116/38
f 16/117/38 21/119/38 22/118/38
f 14/108/38 80/109/38 40/120/38
f 47/121/38 14/108/38 40/120/38
f 85/122/38 47/121/38 40/120/38
f 86/123/38 85/122/38 40/120/38
f 86/123/38 40/120/38 38/124/38
f 28/125/38 86/123/38 38/124/38
f 29/126/38 28/125/38 38/124/38
f 87/127/38 29/126/38 38/124/38
f 87/127/38 38/124/38 88/128/38
f 89/129/38 87/127/38 88/128/38
f 90/130/38 89/129/38 88/128/38
f 90/130/38 88/128/38 91/131/38
f 92/132/38 90/130/38 91/131/38
f 92/132/38 91/131/38 93/133/38
f 93/133/38 94/134/38 92/132/38
f 80/109/38 95/135/38 40/120/38
f 95/135/38 96/136/38 40/120/38
f 96/136/38 53/137/38 40/120/38
f 80/109/37 13/110/37 14/108/37
f 13/110/37 80/109/37 81/111/37
f 13/110/37 81/111/37 82/112/37
f 13/110/37 82/112/37 10/113/37
f 10/113/37 82/112/37 83/114/37
f 10/113/37 83/114/37 9/115/37
f 9/115/37 83/114/37 84/116/37
f 9/115/37 84/116/37 16/117/37
f 16/117/37 84/116/37 22/118/37
f 16/117/37 22/118/37 21/119/37
f 14/108/37 40/120/37 80/109/37
f 47/121/37 40/120/37 14/108/37
f 85/122/37 40/120/37 47/121/37
f 86/123/37 40/120/37 85/122/37
f 86/123/37 38/124/37 40/120/37
f 28/125/37 38/124/37 86/123/37
f 29/126/37 38/124/37 28/125/37
f 87/127/37 38/124/37 29/126/37
f 87/127/37 88/128/37 38/124/37
f 89/129/37 88/128/37 87/127/37
f 90/130/37 88/128/37 89/129/37
f 90/130/37 91/131/37 88/128/37
f 92/132/37 91/131/37 90/130/37
f 92/132/37 93/133/37 91/131/37
f 93/133/37 92/132/37 94/134/37
f 80/109/37 40/120/37 95/135/37
f 95/135/37 81/111/37 80/109/37
f 81/111/37 95/135/37 96/136/37
f 95/135/37 40/120/37 96/136/37
f 96/136/37 40/120/37 53/137/37
f 81/111/37 96/136/37 53/137/37
f 81/111/37 53/137/37 82/112/37
f 82/112/37 53/137/37 23/138/37
f 82/112/37 23/138/37 83/114/37
f 83/114/37 23/138/37 84/116/37
f 84/116/37 23/138/37 22/118/37
f 97/140/39 93/139/39 91/141/40
f 91/141/40 98/142/40 97/140/39
f 97/140/42 91/141/41 93/139/42
f 91/141/41 97/140/42 98/142/41
f 24/143/37 48/72/37 19/144/37
f 19/144/37 17/145/37 24/143/37
f 24/143/38 19/144/38 48/72/38
f 19/144/38 24/143/38 17/145/38
f 33/147/20 32/146/20 99/148/30
f 99/148/30 78/149/30 33/147/20
f 33/147/21 99/148/27 32/146/21
f 99/148/27 33/147/21 78/149/27
f 100/151/43 90/150/43 92/152/44
f 92/152/44 101/153/44 100/151/43
f 100/151/46 92/152/45 90/150/46
f 92/152/45 100/151/46 101/153/45
f 103/155/48 102/154/47 72/156/47
f 72/156/47 71/157/48 103/155/48
f 103/155/50 72/156/49 102/154/49
f 72/156/49 103/155/50 71/157/50
f 57/75/38 56/74/38 67/85/38
f 67/85/38 4/86/38 57/75/38
f 4/86/38 58/76/38 57/75/38
f 4/86/38 3/87/38 58/76/38
f 3/87/38 59/77/38 58/76/38
f 3/87/38 6/88/38 59/77/38
f 6/88/38 65/83/38 59/77/38
f 6/88/38 68/89/38 65/83/38
f 68/89/38 37/90/38 65/83/38
f 37/90/38 66/84/38 65/83/38
f 37/90/38 64/82/38 66/84/38
f 37/90/38 63/81/38 64/82/38
f 37/90/38 36/91/38 63/81/38
f 36/91/38 62/80/38 63/81/38
f 36/91/38 43/92/38 62/80/38
f 43/92/38 69/93/38 62/80/38
f 69/93/38 70/94/38 62/80/38
f 70/94/38 61/79/38 62/80/38
f 70/94/38 60/78/38 61/79/38
f 70/94/38 71/95/38 60/78/38
f 71/95/38 72/96/38 60/78/38
f 72/96/38 73/97/38 60/78/38
f 73/97/38 52/71/38 60/78/38
f 73/97/38 74/98/38 52/71/38
f 74/98/38 75/99/38 52/71/38
f 75/99/38 76/100/38 52/71/38
f 76/100/38 77/101/38 52/71/38
f 77/101/38 45/102/38 52/71/38
f 45/102/38 31/103/38 52/71/38
f 31/103/38 33/104/38 52/71/38
f 33/104/38 78/105/38 52/71/38
f 78/105/38 51/106/38 52/71/38
f 77/101/38 79/107/38 45/102/38
f 104/159/51 46/158/35 47/160/35
f 47/160/35 85/161/51 104/159/51
f 104/159/52 47/160/36 46/158/36
f 47/160/36 104/159/52 85/161/52
f 68/163/53 105/162/53 35/164/24
f 35/164/24 37/165/24 68/163/53
f 68/163/54 35/164/26 105/162/54
f 35/164/26 68/163/54 37/165/26
f 106/167/55 94/166/55 93/168/39
f 93/168/39 97/169/39 106/167/55
f 106/167/56 93/168/42 94/166/56
f 93/168/42 106/167/56 97/169/42
f 98/171/40 91/170/40 88/172/21
f 88/172/21 107/173/21 98/171/40
f 98/171/41 88/172/20 91/170/41
f 88/172/20 98/171/41 107/173/20
f 107/175/21 88/174/21 38/176/27
f 38/176/27 39/177/27 107/175/21
f 107/175/20 38/176/30 88/174/20
f 38/176/30 107/175/20 39/177/30
f 108/179/57 89/178/57 90/180/43
f 90/180/43 100/181/43 108/179/57
f 108/179/58 90/180/46 89/178/58
f 90/180/46 108/179/58 100/181/46
f 27/183/16 29/182/16 87/184/59
f 87/184/59 109/185/59 27/183/16
f 27/183/18 87/184/60 29/182/18
f 87/184/60 27/183/18 109/185/60
f 78/187/30 99/186/30 50/188/29
f 50/188/29 51/189/29 78/187/30
f 78/187/27 50/188/28 99/186/27
f 50/188/28 78/187/27 51/189/28
f 79/191/61 110/190/61 44/192/33
f 44/192/33 45/193/33 79/191/61
f 79/191/62 44/192/34 110/190/62
f 44/192/34 79/191/62 45/193/34
f 101/195/44 92/194/44 94/196/55
f 94/196/55 106/197/55 101/195/44
f 101/195/45 94/196/56 92/194/45
f 94/196/56 101/195/45 106/197/56
f 111/199/63 104/198/51 85/200/51
f 85/200/51 86/201/63 111/199/63
f 111/199/64 85/200/52 104/198/52
f 85/200/52 111/199/64 86/201/64
f 75/203/65 112/202/65 113/204/66
f 113/204/66 76/205/66 75/203/65
f 75/203/68 113/204/67 112/202/68
f 113/204/67 75/203/68 76/205/67
f 11/207/7 8/206/5 10/208/5
f 10/208/5 13/209/7 11/207/7
f 11/207/9 10/208/6 8/206/6
f 10/208/6 11/207/9 13/209/9
f 74/211/69 114/210/69 112/212/65
f 112/212/65 75/213/65 74/211/69
f 74/211/70 112/212/68 114/210/70
f 112/212/68 74/211/70 75/213/68
f 102/215/47 115/214/71 73/216/71
f 73/216/71 72/217/47 102/215/47
f 102/215/49 73/216/72 115/214/72
f 73/216/72 102/215/49 72/217/49
f 116/219/73 103/218/48 71/220/48
f 71/220/48 70/221/73 116/219/73
f 116/219/74 71/220/50 103/218/50
f 71/220/50 116/219/74 70/221/74
f 42/223/31 117/222/75 69/224/75
f 69/224/75 43/225/31 42/223/31
f 69/224/75 117/222/75 116/226/73
f 116/226/73 70/227/73 69/224/75
f 42/223/32 69/224/76 117/222/76
f 69/224/76 42/223/32 43/225/32
f 69/224/76 116/226/74 117/222/76
f 116/226/74 69/224/76 70/227/74
f 76/229/66 113/228/66 118/230/77
f 118/230/77 77/231/77 76/229/66
f 76/229/67 118/230/78 113/228/67
f 118/230/78 76/229/67 77/231/78
f 5/233/5 105/232/53 68/234/53
f 68/234/53 6/235/5 5/233/5
f 5/233/6 68/234/54 105/232/54
f 68/234/54 5/233/6 6/235/6
f 119/237/79 2/236/2 4/238/2
f 4/238/2 67/239/79 119/237/79
f 119/237/80 4/238/4 2/236/4
f 4/238/4 119/237/80 67/239/80
f 73/241/71 115/240/71 114/242/69
f 114/242/69 74/243/69 73/241/71
f 73/241/72 114/242/70 115/240/72
f 114/242/70 73/241/72 74/243/70
f 77/245/77 118/244/77 110/246/61
f 110/246/61 79/247/61 77/245/77
f 77/245/78 110/246/62 118/244/78
f 110/246/62 77/245/78 79/247/62
f 119/66/12 67/68/12 56/69/12
f 119/66/12 56/69/12 48/248/12
f 119/66/12 48/248/12 24/249/12
f 24/249/12 25/250/12 119/66/12
f 56/69/12 55/251/12 48/248/12
f 55/251/12 54/252/12 48/248/12
f 54/252/12 49/67/12 48/248/12
f 119/66/11 56/69/11 67/68/11
f 119/66/11 48/248/11 56/69/11
f 119/66/11 24/249/11 48/248/11
f 24/249/11 119/66/11 25/250/11
f 56/69/11 48/248/11 55/251/11
f 55/251/11 48/248/11 54/252/11
f 54/252/11 48/248/11 49/67/11
f 15/254/2 20/253/79 21/255/79
f 21/255/79 16/256/2 15/254/2
f 15/254/4 21/255/80 20/253/80
f 21/255/80 15/254/4 16/256/4
f 26/258/15 111/257/63 86/259/63
f 86/259/63 28/260/15 26/258/15
f 26/258/17 86/259/64 111/257/64
f 86/259/64 26/258/17 28/260/17
f 109/262/59 87/261/59 89/263/57
f 89/263/57 108/264/57 109/262/59
f 109/262/60 89/263/58 87/261/60
f 89/263/58 109/262/60 108/264/58
f 2/86/37 25/265/37 119/266/37
f 25/265/37 2/86/37 18/267/37
f 18/267/37 2/86/37 1/87/37
f 18/267/37 1/87/37 5/88/37
f 18/267/37 5/88/37 105/89/37
f 18/267/37 105/89/37 35/90/37
f 18/267/37 35/90/37 34/91/37
f 18/267/37 34/91/37 42/92/37
f 18/267/37 42/92/37 117/93/37
f 18/267/37 117/93/37 116/94/37
f 18/267/37 116/94/37 103/95/37
f 18/267/37 103/95/37 102/96/37
f 18/267/37 102/96/37 115/97/37
f 18/267/37 115/97/37 114/98/37
f 18/267/37 114/98/37 112/99/37
f 18/267/37 112/99/37 113/100/37
f 18/267/37 113/100/37 118/101/37
f 18/267/37 118/101/37 110/107/37
f 18/267/37 110/107/37 44/102/37
f 18/267/37 44/102/37 30/103/37
f 18/267/37 30/103/37 32/104/37
f 18/267/37 32/104/37 99/105/37
f 18/267/37 99/105/37 50/106/37
f 18/267/37 50/106/37 100/130/37
f 100/130/37 50/106/37 101/132/37
f 101/132/37 50/106/37 106/134/37
f 18/267/37 100/130/37 108/129/37
f 18/267/37 108/129/37 109/127/37
f 18/267/37 109/127/37 27/126/37
f 18/267/37 27/126/37 26/125/37
f 18/267/37 26/125/37 111/123/37
f 18/267/37 111/123/37 104/122/37
f 18/267/37 104/122/37 46/121/37
f 18/267/37 46/121/37 12/108/37
f 50/106/37 97/133/37 106/134/37
f 50/106/37 98/131/37 97/133/37
f 50/106/37 107/128/37 98/131/37
f 50/106/37 39/124/37 107/128/37
f 39/124/37 50/106/37 41/120/37
f 18/267/37 12/108/37 11/110/37
f 18/267/37 11/110/37 8/113/37
f 18/267/37 8/113/37 7/115/37
f 18/267/37 7/115/37 15/117/37
f 18/267/37 15/117/37 20/119/37

usemtl natureKit-leavesGreen
# usermap natureKit-leavesGreen

f 52/71/38 49/72/38 54/70/38
f 54/70/38 55/73/38 52/71/38
f 55/73/38 56/74/38 52/71/38
f 56/74/38 57/75/38 52/71/38
f 57/75/38 58/76/38 52/71/38
f 58/76/38 59/77/38 52/71/38
f 59/77/38 60/78/38 52/71/38
f 59/77/38 61/79/38 60/78/38
f 59/77/38 62/80/38 61/79/38
f 59/77/38 63/81/38 62/80/38
f 59/77/38 64/82/38 63/81/38
f 59/77/38 65/83/38 64/82/38
f 65/83/38 66/84/38 64/82/38
f 95/135/38 80/109/38 81/111/38
f 81/111/38 96/136/38 95/135/38
f 81/111/38 53/137/38 96/136/38
f 81/111/38 82/112/38 53/137/38
f 82/112/38 23/138/38 53/137/38
f 82/112/38 83/114/38 23/138/38
f 83/114/38 84/116/38 23/138/38
f 84/116/38 22/118/38 23/138/38

usemtl natureKit-water
# usermap natureKit-water

f 2/86/38 119/266/38 25/265/38
f 25/265/38 18/267/38 2/86/38
f 18/267/38 1/87/38 2/86/38
f 18/267/38 5/88/38 1/87/38
f 18/267/38 105/89/38 5/88/38
f 18/267/38 35/90/38 105/89/38
f 18/267/38 34/91/38 35/90/38
f 18/267/38 42/92/38 34/91/38
f 18/267/38 117/93/38 42/92/38
f 18/267/38 116/94/38 117/93/38
f 18/267/38 103/95/38 116/94/38
f 18/267/38 102/96/38 103/95/38
f 18/267/38 115/97/38 102/96/38
f 18/267/38 114/98/38 115/97/38
f 18/267/38 112/99/38 114/98/38
f 18/267/38 113/100/38 112/99/38
f 18/267/38 118/101/38 113/100/38
f 18/267/38 110/107/38 118/101/38
f 18/267/38 44/102/38 110/107/38
f 18/267/38 30/103/38 44/102/38
f 18/267/38 32/104/38 30/103/38
f 18/267/38 99/105/38 32/104/38
f 18/267/38 50/106/38 99/105/38
f 18/267/38 100/130/38 50/106/38
f 100/130/38 101/132/38 50/106/38
f 101/132/38 106/134/38 50/106/38
f 18/267/38 108/129/38 100/130/38
f 18/267/38 109/127/38 108/129/38
f 18/267/38 27/126/38 109/127/38
f 18/267/38 26/125/38 27/126/38
f 18/267/38 111/123/38 26/125/38
f 18/267/38 104/122/38 111/123/38
f 18/267/38 46/121/38 104/122/38
f 18/267/38 12/108/38 46/121/38
f 18/267/38 11/110/38 12/108/38
f 18/267/38 8/113/38 11/110/38
f 18/267/38 7/115/38 8/113/38
f 18/267/38 15/117/38 7/115/38
f 18/267/38 20/119/38 15/117/38
f 50/106/38 106/134/38 97/133/38
f 50/106/38 97/133/38 98/131/38
f 50/106/38 98/131/38 107/128/38
f 50/106/38 107/128/38 39/124/38
f 39/124/38 41/120/38 50/106/38
