# Exported using Kenney Suite 1.2 

mtllib ground_dirtRiverCornerBank.mtl 

g ground_dirtRiverCornerBank

v 0 0 -10 
v 0 0 -1.490229E-07 
v 10 0 -10 
v 10 0 -1.490229E-07 
v 0 2.5 -10 
v 10 2.5 -10 
v 0 2.5 -7.5 
v 0 2 -7.5 
v 0 2.5 -8.125 
v 0 2 -2.5 
v 0 2.5 -1.875 
v 0 2.5 -1.490229E-07 
v 0 2.5 -2.5 
v 1.875 2.5 0 
v 1.905456 2.5 -0.1117199 
v 2.5 2.5 -9.457039E-13 
v 1.918349 2.5 -0.2267963 
v 2.022898 2.5 -1.313462 
v 2.176032 2.5 -1.16934 
v 2.305157 2.5 -1.003363 
v 2.407193 2.5 -0.8194876 
v 2.479708 2.5 -0.6220969 
v 2.520974 2.5 -0.4158964 
v 2.511792 2.5 -0.04325648 
v 2.530005 2.5 -0.2058014 
v 1.913376 2.5 -0.3424861 
v 1.890652 2.5 -0.4560313 
v 1.850722 2.5 -0.5647253 
v 1.849403 2.5 -1.432294 
v 1.794536 2.5 -0.6659771 
v 1.723433 2.5 -0.7573731 
v 1.659684 2.5 -1.523002 
v 1.639109 2.5 -0.8367345 
v 1.543572 2.5 -0.9021696 
v 1.458261 2.5 -1.583424 
v 1.439104 2.5 -0.9521185 
v 1.328189 2.5 -0.9853904 
v 1.283672 2.5 -1.607474 
v 1.213477 2.5 -1.001192 
v 1.154778 2.5 -1.006706 
v 1.136608 2.5 -1.617934 
v 1.09659 2.5 -1.016198 
v 1.087129 2.5 -1.62486 
v 1.039181 2.5 -1.029626 
v 1.038237 2.5 -1.635134 
v 0.9901571 2.5 -1.64871 
v 0.9828186 2.5 -1.046927 
v 0.9431124 2.5 -1.665524 
v 0.9277654 2.5 -1.068021 
v 0.8973169 2.5 -1.685499 
v 0.8742738 2.5 -1.09281 
v 0.8529902 2.5 -1.708542 
v 0.8225894 2.5 -1.121181 
v 0.8103299 2.5 -1.734547 
v 0.7729578 2.5 -1.153 
v 0.7695389 2.5 -1.763392 
v 0.730803 2.5 -1.794945 
v 0.7256031 2.5 -1.188121 
v 0.6943035 2.5 -1.829059 
v 0.680747 2.5 -1.226382 
v 0.6385946 2.5 -1.267604 
v 0.6337929 2.5 -1.89387 
v 0.5993462 2.5 -1.311598 
v 0.5899882 2.5 -1.945395 
v 0.5548358 2.5 -1.363952 
v 0.5362058 2.5 -2.006113 
v 0.509274 2.5 -1.415392 
v 0.4812026 2.5 -2.065725 
v 0.4626751 2.5 -1.465895 
v 0.4249978 2.5 -2.124208 
v 0.4150605 2.5 -1.515441 
v 0.36762 2.5 -2.181538 
v 0.366447 2.5 -1.564011 
v 0.3168607 2.5 -1.611583 
v 0.3090882 2.5 -2.23769 
v 0.2663159 2.5 -1.658137 
v 0.2494264 2.5 -2.292642 
v 0.2148366 2.5 -1.703656 
v 0.188663 2.5 -2.346371 
v 0.1624441 2.5 -1.74812 
v 0.1268196 2.5 -2.398854 
v 0.1091599 2.5 -1.79151 
v 0.06392241 2.5 -2.450071 
v 0.05500317 2.5 -1.833809 
v 0.06392241 2 -2.450071 
v 0.1268196 2 -2.398854 
v 10 2.5 -1.490229E-07 
v 7.5 2 -8.561869E-12 
v 7.5 2.5 -8.561869E-12 
v 8.125 2.5 -9.514793E-12 
v 2.5 2 -9.457039E-13 
v 0.188663 2 -2.346371 
v 0.8103299 2 -1.734547 
v 0.8529902 2 -1.708542 
v 2.479708 2 -0.6220969 
v 2.407193 2 -0.8194876 
v 7.011254 2.5 -5.470139 
v 7.011254 2 -5.470139 
v 6.315982 2.5 -6.315982 
v 6.315982 2 -6.315982 
v 4.612076 2 -7.343238 
v 4.388752 2 -7.387817 
v 4.612076 2.5 -7.343238 
v 4.388752 2.5 -7.387817 
v 4.162605 2 -7.414634 
v 3.935046 2 -7.42352 
v 4.162605 2.5 -7.414634 
v 3.935046 2.5 -7.42352 
v 0.2494264 2 -2.292642 
v 2.852793 2 -7.251959 
v 2.443125 2 -7.192387 
v 2.852793 2.5 -7.251959 
v 2.443125 2.5 -7.192387 
v 0.8973169 2 -1.685499 
v 0.9431124 2 -1.665524 
v 5.827057 2 -6.717872 
v 5.827057 2.5 -6.717872 
v 2.022898 2 -1.313462 
v 2.176032 2 -1.16934 
v 0.3932405 2 -7.370617 
v 0.3932405 2.5 -7.370617 
v 0.730803 2 -1.794945 
v 0.6943035 2 -1.829059 
v 3.707497 2 -7.41442 
v 3.481376 2 -7.387392 
v 3.707497 2.5 -7.41442 
v 3.481376 2.5 -7.387392 
v 1.283672 2 -1.607474 
v 1.458261 2 -1.583424 
v 0.7695389 2 -1.763392 
v 5.044715 2 -7.202013 
v 4.831185 2 -7.281174 
v 5.044715 2.5 -7.202013 
v 4.831185 2.5 -7.281174 
v 2.530005 2 -0.2058014 
v 2.520974 2 -0.4158964 
v 3.233428 2 -7.337656 
v 3.233428 2.5 -7.337656 
v 0.6337929 2 -1.89387 
v 0.4249978 2 -2.124208 
v 0.36762 2 -2.181538 
v 2.305157 2 -1.003363 
v 5.638723 2 -6.867392 
v 5.638723 2.5 -6.867392 
v 0.5899882 2 -1.945395 
v 0.5362058 2 -2.006113 
v 7.851591 2.5 -3.459192 
v 7.851591 2 -3.459192 
v 7.529659 2.5 -4.505716 
v 7.529659 2 -4.505716 
v 1.659684 2 -1.523002 
v 5.449748 2 -6.994474 
v 5.251331 2 -7.106247 
v 5.449748 2.5 -6.994474 
v 5.251331 2.5 -7.106247 
v 2.030087 2 -7.164522 
v 2.030087 2.5 -7.164522 
v 1.203709 2 -7.20439 
v 1.203709 2.5 -7.20439 
v 1.61613 2 -7.168532 
v 1.61613 2.5 -7.168532 
v 1.087129 2 -1.62486 
v 1.136608 2 -1.617934 
v 7.865219 2.5 -1.279768 
v 7.865219 2 -1.279768 
v 7.964871 2.5 -2.370145 
v 7.964871 2 -2.370145 
v 1.038237 2 -1.635134 
v 0.9901571 2 -1.64871 
v 1.849403 2 -1.432294 
v 0.7952714 2 -7.271885 
v 0.7952714 2.5 -7.271885 
v 7.668374 2.5 -0.6101895 
v 7.668374 2 -0.6101895 
v 2.511792 2 -0.04325648 
v 0.3090882 2 -2.23769 
v 0.4812026 2 -2.065725 
v 8.040962 2.5 -8.314311 
v 8.794513 2.5 -7.685705 
v 8.46745 2.5 -1.164862 
v 8.497739 2.5 -1.338216 
v 8.533912 2.5 -1.510439 
v 8.575924 2.5 -1.681331 
v 8.623724 2.5 -1.850695 
v 8.677258 2.5 -2.018335 
v 8.736467 2.5 -2.184056 
v 8.801281 2.5 -2.347666 
v 9.359689 2.5 -6.883487 
v 8.871622 2.5 -2.508977 
v 8.947412 2.5 -2.6678 
v 9.028563 2.5 -2.823954 
v 9.114979 2.5 -2.977255 
v 9.206562 2.5 -3.127528 
v 9.618713 2.5 -4.018096 
v 9.697981 2.5 -5.962323 
v 9.786329 2.5 -4.984992 
v 0.3386998 2.5 -7.98383 
v 0.5385685 2.5 -7.942561 
v 0.7399106 2.5 -7.909196 
v 0.9424067 2.5 -7.883785 
v 1.145749 2.5 -7.866371 
v 1.349618 2.5 -7.856977 
v 1.5537 2.5 -7.85562 
v 1.757677 2.5 -7.8623 
v 1.961231 2.5 -7.87701 
v 2.164049 2.5 -7.899724 
v 2.365816 2.5 -7.930408 
v 2.566216 2.5 -7.969015 
v 2.764943 2.5 -8.015484 
v 3.034017 2.5 -8.086123 
v 3.302026 2.5 -8.160695 
v 3.568916 2.5 -8.239184 
v 3.834627 2.5 -8.321576 
v 4.099102 2.5 -8.407851 
v 4.362283 2.5 -8.497991 
v 4.624119 2.5 -8.591977 
v 5.206168 2.5 -8.80573 
v 6.183498 2.5 -8.894078 
v 7.150395 2.5 -8.726464 

vn 0 -1 0
vn 0 0 1
vn 1 0 0
vn 0 1 0
vn -0.6235285 0 0.7818006
vn -0.6392785 0 0.7689753
vn -1 0 0
vn 0 0 -1
vn -0.6547648 0 0.7558327
vn -0.6155567 0 0.7880927
vn -0.5492558 0 0.8356542
vn -0.4911513 0 0.8710743
vn -0.962483 0 0.271342
vn -0.9092422 0 0.4162674
vn 0.8306001 0 -0.5568692
vn 0.7071068 0 -0.7071068
vn 0.2343258 0 -0.9721582
vn 0.1568763 0 -0.9876182
vn 0.07844837 0 -0.9969182
vn -0.00046889 0 -0.9999999
vn -0.6699809 0 0.7423784
vn -0.1819077 0 -0.9833156
vn -0.1056843 0 -0.9943997
vn -0.4307724 0 0.9024605
vn -0.3683989 0 0.9296679
vn 0.6284114 0 -0.7778812
vn -0.6270905 0 0.7789464
vn -0.7395231 0 0.6731311
vn 0.2757203 0 -0.9612379
vn 0.3125355 0 -0.9499062
vn -0.6575772 0 0.7533872
vn -0.7072924 0 0.706921
vn -0.07938322 0 -0.9968442
vn -0.1578024 0 -0.9874707
vn -0.1037605 0 0.9946023
vn -0.2125314 0 0.9771542
vn -0.6048168 0 0.7963645
vn 0.3843659 0 -0.9231808
vn 0.3103136 0 -0.9506343
vn -0.9994115 0 -0.03430457
vn -0.9927801 0 0.1199484
vn -0.2081724 0 -0.9780921
vn -0.7466092 0 0.6652628
vn -0.7139463 0 0.7002004
vn -0.6995777 0 0.7145565
vn -0.834327 0 0.5512699
vn 0.590368 0 -0.8071342
vn -0.7552617 0 0.6554234
vn -0.741794 0 0.6706278
vn 0.9798597 0 -0.1996874
vn 0.9226787 0 -0.3855698
vn -0.3604162 0 0.9327916
vn 0.5248312 0 -0.8512064
vn 0.4560207 0 -0.8899692
vn -0.02883382 0 -0.9995843
vn 0.1249234 0 -0.9921664
vn 0.04818771 0 -0.9988384
vn -0.1722356 0 0.9850558
vn -0.1048433 0 0.9944887
vn 0.9822801 0 0.1874191
vn 0.9999804 0 -0.006252408
vn -0.2388304 0 0.9710613
vn -0.3043192 0 0.95257
vn -0.4997094 0 0.8661932
vn 0.2009178 0 -0.9796081
vn 0.9617208 0 0.2740312
vn -0.9647946 0 -0.2630045
vn -0.9822188 0 -0.1877398
vn -0.6849206 0 0.7286177
vn 0.9639741 0 0.2659962
vn -0.7280204 0 0.6855555

vt -1.037392E-12 39.37008
vt -1.037392E-12 5.867043E-07
vt -39.37008 39.37008
vt -39.37008 5.867043E-07
vt -1.037392E-12 0
vt -39.37008 0
vt -1.037392E-12 9.84252
vt -39.37008 9.84252
vt -29.52756 9.84252
vt -29.52756 7.874016
vt -31.98819 9.84252
vt -39.37008 -2.869706E-26
vt -9.842521 7.874016
vt -5.867043E-07 -2.209271E-26
vt -7.38189 9.84252
vt -5.867043E-07 9.84252
vt -9.842521 9.84252
vt 7.381889 8.623049E-15
vt 7.501791 0.4398422
vt 9.842519 3.731867E-12
vt 7.552557 0.8928989
vt 7.964165 5.171111
vt 8.56706 4.603701
vt 9.075423 3.950248
vt 9.477139 3.226329
vt 9.76263 2.4492
vt 9.925091 1.637387
vt 9.888944 0.1703011
vt 9.960649 0.8102416
vt 7.532976 1.34837
vt 7.443516 1.795399
vt 7.286309 2.223328
vt 7.281114 5.638951
vt 7.065103 2.621957
vt 6.78517 2.981784
vt 6.534186 5.99607
vt 6.453184 3.29423
vt 6.077058 3.551849
vt 5.741189 6.233954
vt 5.66576 3.748498
vt 5.229092 3.87949
vt 5.053828 6.328639
vt 4.777464 3.941702
vt 4.546367 3.963407
vt 4.474831 6.36982
vt 4.31728 4.000779
vt 4.280036 6.397086
vt 4.091265 4.053645
vt 4.087547 6.437536
vt 3.898255 6.490984
vt 3.869369 4.121759
vt 3.713036 6.557182
vt 3.652619 4.204807
vt 3.532748 6.635823
vt 3.442019 4.302403
vt 3.358226 6.726544
vt 3.238544 4.414097
vt 3.190277 6.828924
vt 3.043137 4.53937
vt 3.02968 6.942489
vt 2.877179 7.066713
vt 2.856701 4.677643
vt 2.733479 7.201021
vt 2.680102 4.828275
vt 2.514155 4.990569
vt 2.495247 7.456181
vt 2.359631 5.163773
vt 2.322786 7.659038
vt 2.184397 5.369891
vt 2.111047 7.898082
vt 2.005013 5.572408
vt 1.894496 8.132777
vt 1.821553 5.77124
vt 1.673223 8.363026
vt 1.634092 5.966305
vt 1.44732 8.588733
vt 1.442708 6.157522
vt 1.24748 6.344813
vt 1.216879 8.809804
vt 1.048488 6.5281
vt 0.981995 9.026151
vt 0.8458148 6.707307
vt 0.7427657 9.237681
vt 0.6395434 6.882361
vt 0.4992896 9.444309
vt 0.4297593 7.05319
vt 0.2516669 9.64595
vt 0.2165488 7.219722
vt 8.241743E-13 7.38189
vt 7.389092E-13 9.842521
vt 5.895651 7.874016
vt 5.576315 7.874016
vt 5.895651 9.84252
vt 5.576315 9.84252
vt 5.867043E-07 0
vt 5.867043E-07 9.84252
vt 39.37008 0
vt 39.37008 9.84252
vt 39.37008 -9.974747E-15
vt 1.038531E-12 -1.146795E-14
vt 29.52756 7.874016
vt 29.52756 9.84252
vt 31.98819 9.84252
vt 9.842519 7.874016
vt 1.038531E-12 9.84252
vt 9.842519 9.84252
vt 7.381889 9.84252
vt 5.410971 7.874016
vt 5.410971 9.84252
vt 5.730308 7.874016
vt 5.730308 9.84252
vt 5.739292 7.874016
vt 5.739292 9.84252
vt 6.058629 7.874016
vt 6.058629 9.84252
vt 0.8304431 7.874016
vt 0.6337497 7.874016
vt 0.8304431 9.84252
vt 0.6337497 9.84252
vt -1.067509 7.874016
vt -1.067509 9.84252
vt -0.2395992 7.874016
vt -0.2395992 9.84252
vt 0.8912047 9.84252
vt 0.8912047 7.874016
vt -3.419512 9.84252
vt -3.419512 7.874016
vt 12.14717 7.874016
vt 11.25059 7.874016
vt 12.14717 9.84252
vt 11.25059 9.84252
vt 15.23667 7.874016
vt 14.34009 7.874016
vt 15.23667 9.84252
vt 14.34009 9.84252
vt 5.562666 7.874016
vt 5.243329 7.874016
vt 5.562666 9.84252
vt 5.243329 9.84252
vt 15.22314 7.874016
vt 13.59331 7.874016
vt 15.22314 9.84252
vt 13.59331 9.84252
vt -0.5849828 7.874016
vt -0.7816762 7.874016
vt -0.5849828 9.84252
vt -0.7816762 9.84252
vt 3.419511 7.874016
vt 0.9277794 7.874016
vt 3.419511 9.84252
vt 0.9277794 9.84252
vt -2.255569 7.874016
vt -3.083478 7.874016
vt -2.255569 9.84252
vt -3.083478 9.84252
vt -7.59858 7.874016
vt -9.228411 7.874016
vt -7.59858 9.84252
vt -9.228411 9.84252
vt 2.723364 7.874016
vt 2.723364 9.84252
vt 2.920057 7.874016
vt 2.920057 9.84252
vt 17.95778 7.874016
vt 17.0612 7.874016
vt 17.95778 9.84252
vt 17.0612 9.84252
vt -4.142925 7.874016
vt -4.836776 7.874016
vt -4.142925 9.84252
vt -4.836776 9.84252
vt 2.232324 7.874016
vt 2.035631 7.874016
vt 2.232324 9.84252
vt 2.035631 9.84252
vt 8.766236 7.874016
vt 7.869658 7.874016
vt 8.766236 9.84252
vt 7.869658 9.84252
vt 0.3816832 7.874016
vt 0.3816832 9.84252
vt 1.209593 7.874016
vt 1.209593 9.84252
vt 19.1586 7.874016
vt 18.16298 7.874016
vt 19.1586 9.84252
vt 18.16298 9.84252
vt -0.3420558 7.874016
vt -0.3420558 9.84252
vt 0.4858538 7.874016
vt 0.4858538 9.84252
vt 3.39803 7.874016
vt 3.39803 9.84252
vt 3.747116 7.874016
vt 3.747116 9.84252
vt 0.1227867 7.874016
vt -0.07390667 7.874016
vt 0.1227867 9.84252
vt -0.07390667 9.84252
vt 4.727311 7.874016
vt 4.727311 9.84252
vt 5.046648 7.874016
vt 5.046648 9.84252
vt 1.338016 7.874016
vt 1.338016 9.84252
vt 1.534709 7.874016
vt 1.534709 9.84252
vt -1.777382 7.874016
vt -1.777382 9.84252
vt -0.9494728 7.874016
vt -0.9494728 9.84252
vt 1.5223 7.874016
vt 0.5755603 7.874016
vt 1.5223 9.84252
vt 0.5755603 9.84252
vt 15.75117 7.874016
vt 15.75117 9.84252
vt 16.64775 7.874016
vt 16.64775 9.84252
vt 18.7643 7.874016
vt 17.22823 7.874016
vt 18.7643 9.84252
vt 17.22823 9.84252
vt 10.48801 7.874016
vt 9.591434 7.874016
vt 10.48801 9.84252
vt 9.591434 9.84252
vt 4.193152 7.874016
vt 4.193152 9.84252
vt 4.512489 7.874016
vt 4.512489 9.84252
vt 13.73335 7.874016
vt 12.83677 7.874016
vt 13.73335 9.84252
vt 12.83677 9.84252
vt -3.928152 9.84252
vt -3.928152 7.874016
vt -8.238869 9.84252
vt -8.238869 7.874016
vt -3.70788 7.874016
vt -4.53579 7.874016
vt -3.70788 9.84252
vt -4.53579 9.84252
vt 5.1781 7.874016
vt 4.281521 7.874016
vt 5.1781 9.84252
vt 4.281521 9.84252
vt -1.589288 9.84252
vt -1.589288 7.874016
vt -5.900005 9.84252
vt -5.900005 7.874016
vt 9.872911 7.874016
vt 9.872911 9.84252
vt 11.50274 7.874016
vt 11.50274 9.84252
vt 2.264335 7.874016
vt 2.264335 9.84252
vt 3.894165 7.874016
vt 3.894165 9.84252
vt -3.351954 7.874016
vt -3.548647 7.874016
vt -3.351954 9.84252
vt -3.548647 9.84252
vt -7.83585 9.84252
vt -7.83585 7.874016
vt -12.14657 9.84252
vt -12.14657 7.874016
vt -2.676284 7.874016
vt -2.872977 7.874016
vt -2.676284 9.84252
vt -2.872977 9.84252
vt -1.289588 7.874016
vt -1.486281 7.874016
vt -1.289588 9.84252
vt -1.486281 9.84252
vt -3.308638 7.874016
vt -4.136548 7.874016
vt -3.308638 9.84252
vt -4.136548 9.84252
vt 6.992578 7.874016
vt 6.095999 7.874016
vt 6.992578 9.84252
vt 6.095999 9.84252
vt 0.05112774 7.874016
vt -1.578703 7.874016
vt 0.05112774 9.84252
vt -1.578703 9.84252
vt -6.036925 9.84252
vt -6.036925 7.874016
vt -10.34764 9.84252
vt -10.34764 7.874016
vt -10.81992 9.84252
vt -10.81992 7.874016
vt -13.56761 9.84252
vt -13.56761 7.874016
vt 7.718934 7.874016
vt 6.089103 7.874016
vt 7.718934 9.84252
vt 6.089103 9.84252
vt -5.417209 7.874016
vt -5.417209 9.84252
vt -3.787378 7.874016
vt -3.787378 9.84252
vt 2.588628 7.874016
vt 2.588628 9.84252
vt 2.765143 7.874016
vt 2.765143 9.84252
vt 1.27042 7.874016
vt 1.27042 9.84252
vt 1.914366 7.874016
vt 1.914366 9.84252
vt 3.33412 7.874016
vt 2.437541 7.874016
vt 3.33412 9.84252
vt 2.437541 9.84252
vt -2.454755 7.874016
vt -2.454755 9.84252
vt -1.626845 7.874016
vt -1.626845 9.84252
vt 5.392795 7.874016
vt 5.073458 7.874016
vt 5.392795 9.84252
vt 5.073458 9.84252
vt 5.220765 7.874016
vt 4.901429 7.874016
vt 5.220765 9.84252
vt 4.901429 9.84252
vt -1.987766 7.874016
vt -2.184459 7.874016
vt -1.987766 9.84252
vt -2.184459 9.84252
vt -2.820657 7.874016
vt -3.648566 7.874016
vt -2.820657 9.84252
vt -3.648566 9.84252
vt -7.854218 9.84252
vt -7.854218 7.874016
vt -10.34632 9.84252
vt -10.34632 7.874016
vt 4.373099 7.874016
vt 4.373099 9.84252
vt 4.692436 7.874016
vt 4.692436 9.84252
vt 4.064487 7.874016
vt 4.064487 9.84252
vt 4.330746 7.874016
vt 4.330746 9.84252
vt 4.551177 7.874016
vt 4.551177 9.84252
vt 4.870513 7.874016
vt 4.870513 9.84252
vt -4.592105 7.874016
vt -4.592105 9.84252
vt -4.011645 7.874016
vt -4.011645 9.84252
vt 29.52756 3.371085E-11
vt 30.19045 2.402321
vt 31.98819 3.746039E-11
vt 30.96543 5.038455
vt 31.35776 9.331281
vt 31.65733 32.73351
vt 34.62406 30.25868
vt 33.33641 4.586071
vt 33.45567 5.268566
vt 33.59808 5.946609
vt 33.76348 6.619413
vt 33.95167 7.286201
vt 34.16244 7.946199
vt 34.39555 8.598644
vt 34.65071 9.24278
vt 36.84917 27.10034
vt 34.92765 9.877861
vt 35.22604 10.50315
vt 35.54552 11.11793
vt 35.88574 11.72148
vt 36.2463 12.3131
vt 37.86895 15.81928
vt 38.18102 23.47371
vt 38.52885 19.62595
vt -1.1303E-15 31.98819
vt 1.333464 31.4324
vt 1.001143E-13 29.52756
vt 1.548186 29.01818
vt 2.120353 31.26993
vt 3.130986 28.62947
vt 2.91303 31.13857
vt 3.710266 31.03853
vt 4.739008 28.36374
vt 4.510823 30.96996
vt 5.313459 30.93298
vt 6.362713 28.22257
vt 6.11693 30.92764
vt 6.919987 30.95394
vt 7.992467 28.20678
vt 7.721385 31.01185
vt 8.519881 31.10128
vt 9.618602 28.31648
vt 9.314236 31.22208
vt 10.10322 31.37407
vt 11.23147 28.55102
vt 10.8856 31.55702
vt 11.94495 31.83513
vt 12.73003 28.88841
vt 13.0001 32.12872
vt 13.70621 29.08422
vt 14.05085 32.43773
vt 14.59645 29.19063
vt 15.09695 32.76211
vt 15.49231 29.22646
vt 16.1382 33.10178
vt 16.38821 29.19147
vt 17.17435 33.45666
vt 17.27855 29.0859
vt 18.20519 33.82668
vt 18.15778 28.91039
vt 19.02042 28.66604
vt 20.49672 34.66823
vt 19.86109 28.35438
vt 20.67454 27.97735
vt 24.34448 35.01606
vt 21.4557 27.5373
vt 22.19969 27.03698
vt 22.94117 26.44831
vt 24.86607 24.86607
vt 28.15116 34.35616
vt 27.60336 21.53598
vt 29.64433 17.73904
vt 30.91178 13.61887
vt 1.041408E-12 5.867043E-07
vt 39.37008 5.867043E-07
vt 39.37008 39.37008
vt 1.036262E-12 39.37008
vt 9.842519 3.727274E-12
vt 29.52756 3.371218E-11
vt 1.038467E-13 29.52756
vt 7.291243E-13 9.842521

usemtl natureKit-wood
# usermap natureKit-wood

f 2/2/1 1/1/1 3/3/1
f 3/3/1 4/4/1 2/2/1
f 3/6/2 1/5/2 5/7/2
f 5/7/2 6/8/2 3/6/2
f 8/10/3 7/9/3 9/11/3
f 8/10/3 9/11/3 1/12/3
f 10/13/3 8/10/3 1/12/3
f 10/13/3 1/12/3 2/14/3
f 11/15/3 10/13/3 2/14/3
f 2/14/3 12/16/3 11/15/3
f 11/15/3 13/17/3 10/13/3
f 9/11/3 5/8/3 1/12/3
f 15/19/4 14/18/4 16/20/4
f 16/20/4 17/21/4 15/19/4
f 16/20/4 18/22/4 17/21/4
f 16/20/4 19/23/4 18/22/4
f 16/20/4 20/24/4 19/23/4
f 16/20/4 21/25/4 20/24/4
f 16/20/4 22/26/4 21/25/4
f 16/20/4 23/27/4 22/26/4
f 16/20/4 24/28/4 23/27/4
f 24/28/4 25/29/4 23/27/4
f 26/30/4 17/21/4 18/22/4
f 27/31/4 26/30/4 18/22/4
f 28/32/4 27/31/4 18/22/4
f 28/32/4 18/22/4 29/33/4
f 30/34/4 28/32/4 29/33/4
f 31/35/4 30/34/4 29/33/4
f 31/35/4 29/33/4 32/36/4
f 33/37/4 31/35/4 32/36/4
f 34/38/4 33/37/4 32/36/4
f 34/38/4 32/36/4 35/39/4
f 36/40/4 34/38/4 35/39/4
f 37/41/4 36/40/4 35/39/4
f 37/41/4 35/39/4 38/42/4
f 39/43/4 37/41/4 38/42/4
f 40/44/4 39/43/4 38/42/4
f 40/44/4 38/42/4 41/45/4
f 42/46/4 40/44/4 41/45/4
f 42/46/4 41/45/4 43/47/4
f 44/48/4 42/46/4 43/47/4
f 44/48/4 43/47/4 45/49/4
f 44/48/4 45/49/4 46/50/4
f 47/51/4 44/48/4 46/50/4
f 47/51/4 46/50/4 48/52/4
f 49/53/4 47/51/4 48/52/4
f 49/53/4 48/52/4 50/54/4
f 51/55/4 49/53/4 50/54/4
f 51/55/4 50/54/4 52/56/4
f 53/57/4 51/55/4 52/56/4
f 53/57/4 52/56/4 54/58/4
f 55/59/4 53/57/4 54/58/4
f 55/59/4 54/58/4 56/60/4
f 55/59/4 56/60/4 57/61/4
f 58/62/4 55/59/4 57/61/4
f 58/62/4 57/61/4 59/63/4
f 60/64/4 58/62/4 59/63/4
f 61/65/4 60/64/4 59/63/4
f 61/65/4 59/63/4 62/66/4
f 63/67/4 61/65/4 62/66/4
f 63/67/4 62/66/4 64/68/4
f 65/69/4 63/67/4 64/68/4
f 65/69/4 64/68/4 66/70/4
f 67/71/4 65/69/4 66/70/4
f 67/71/4 66/70/4 68/72/4
f 69/73/4 67/71/4 68/72/4
f 69/73/4 68/72/4 70/74/4
f 71/75/4 69/73/4 70/74/4
f 71/75/4 70/74/4 72/76/4
f 73/77/4 71/75/4 72/76/4
f 74/78/4 73/77/4 72/76/4
f 74/78/4 72/76/4 75/79/4
f 76/80/4 74/78/4 75/79/4
f 76/80/4 75/79/4 77/81/4
f 78/82/4 76/80/4 77/81/4
f 78/82/4 77/81/4 79/83/4
f 80/84/4 78/82/4 79/83/4
f 80/84/4 79/83/4 81/85/4
f 82/86/4 80/84/4 81/85/4
f 82/86/4 81/85/4 83/87/4
f 84/88/4 82/86/4 83/87/4
f 11/89/4 84/88/4 83/87/4
f 83/87/4 13/90/4 11/89/4
f 86/92/6 85/91/5 83/93/5
f 83/93/5 81/94/6 86/92/6
f 87/96/7 4/95/7 3/97/7
f 3/97/7 6/98/7 87/96/7
f 2/100/8 4/99/8 87/98/8
f 87/98/8 88/101/8 2/100/8
f 87/98/8 89/102/8 88/101/8
f 87/98/8 90/103/8 89/102/8
f 2/100/8 88/101/8 91/104/8
f 91/104/8 12/105/8 2/100/8
f 91/104/8 16/106/8 12/105/8
f 16/106/8 14/107/8 12/105/8
f 79/109/9 92/108/9 86/110/6
f 86/110/6 81/111/6 79/109/9
f 83/113/5 85/112/5 10/114/10
f 10/114/10 13/115/10 83/113/5
f 94/117/12 93/116/11 54/118/11
f 54/118/11 52/119/12 94/117/12
f 22/121/13 95/120/13 96/122/14
f 96/122/14 21/123/14 22/121/13
f 98/125/15 97/124/15 99/126/16
f 99/126/16 100/127/16 98/125/15
f 102/129/18 101/128/17 103/130/17
f 103/130/17 104/131/18 102/129/18
f 106/133/20 105/132/19 107/134/19
f 107/134/19 108/135/20 106/133/20
f 109/137/21 92/136/9 79/138/9
f 79/138/9 77/139/21 109/137/21
f 111/141/23 110/140/22 112/142/22
f 112/142/22 113/143/23 111/141/23
f 115/145/25 114/144/24 50/146/24
f 50/146/24 48/147/25 115/145/25
f 116/149/26 100/148/16 99/150/16
f 99/150/16 117/151/26 116/149/26
f 119/153/28 118/152/27 18/154/27
f 18/154/27 19/155/28 119/153/28
f 8/157/30 120/156/29 121/158/29
f 121/158/29 7/159/30 8/157/30
f 57/161/31 122/160/31 123/162/32
f 123/162/32 59/163/32 57/161/31
f 125/165/34 124/164/33 126/166/33
f 126/166/33 127/167/34 125/165/34
f 129/169/36 128/168/35 38/170/35
f 38/170/35 35/171/36 129/169/36
f 130/173/37 122/172/31 57/174/31
f 57/174/31 56/175/37 130/173/37
f 132/177/39 131/176/38 133/178/38
f 133/178/38 134/179/39 132/177/39
f 25/181/40 135/180/40 136/182/41
f 136/182/41 23/183/41 25/181/40
f 137/185/42 125/184/34 127/186/34
f 127/186/34 138/187/42 137/185/42
f 23/189/41 136/188/41 95/190/13
f 95/190/13 22/191/13 23/189/41
f 59/193/32 123/192/32 139/194/43
f 139/194/43 62/195/43 59/193/32
f 114/197/24 94/196/12 52/198/12
f 52/198/12 50/199/24 114/197/24
f 70/201/44 140/200/44 141/202/45
f 141/202/45 72/203/45 70/201/44
f 54/205/11 93/204/11 130/206/37
f 130/206/37 56/207/37 54/205/11
f 21/209/14 96/208/14 142/210/46
f 142/210/46 20/211/46 21/209/14
f 143/213/47 116/212/26 117/214/26
f 117/214/26 144/215/47 143/213/47
f 126/217/33 124/216/33 106/218/20
f 106/218/20 108/219/20 126/217/33
f 110/221/22 137/220/42 138/222/42
f 138/222/42 112/223/22 110/221/22
f 101/225/17 132/224/39 134/226/39
f 134/226/39 103/227/17 101/225/17
f 64/229/48 145/228/48 146/230/49
f 146/230/49 66/231/49 64/229/48
f 105/233/19 102/232/18 104/234/18
f 104/234/18 107/235/19 105/233/19
f 148/237/50 147/236/50 149/238/51
f 149/238/51 150/239/51 148/237/50
f 151/241/52 129/240/36 35/242/36
f 35/242/36 32/243/52 151/241/52
f 153/245/54 152/244/53 154/246/53
f 154/246/53 155/247/54 153/245/54
f 150/249/51 149/248/51 97/250/15
f 97/250/15 98/251/15 150/249/51
f 157/253/55 156/252/55 111/254/23
f 111/254/23 113/255/23 157/253/55
f 159/257/56 158/256/56 160/258/57
f 160/258/57 161/259/57 159/257/56
f 163/261/59 162/260/58 43/262/58
f 43/262/58 41/263/59 163/261/59
f 165/265/60 164/264/60 166/266/61
f 166/266/61 167/267/61 165/265/60
f 162/269/58 168/268/62 45/270/62
f 45/270/62 43/271/58 162/269/58
f 169/273/63 115/272/25 48/274/25
f 48/274/25 46/275/63 169/273/63
f 170/277/64 151/276/52 32/278/52
f 32/278/52 29/279/64 170/277/64
f 131/281/38 153/280/54 155/282/54
f 155/282/54 133/283/38 131/281/38
f 171/285/65 158/284/56 159/286/56
f 159/286/56 172/287/65 171/285/65
f 167/289/61 166/288/61 147/290/50
f 147/290/50 148/291/50 167/289/61
f 174/293/66 173/292/66 164/294/60
f 164/294/60 165/295/60 174/293/66
f 160/297/57 156/296/55 157/298/55
f 157/298/55 161/299/57 160/297/57
f 121/301/29 120/300/29 171/302/65
f 171/302/65 172/303/65 121/301/29
f 16/305/67 91/304/67 175/306/68
f 175/306/68 24/307/68 16/305/67
f 24/309/68 175/308/68 135/310/40
f 135/310/40 25/311/40 24/309/68
f 152/313/53 143/312/47 144/314/47
f 144/314/47 154/315/53 152/313/53
f 20/317/46 142/316/46 119/318/28
f 119/318/28 19/319/28 20/317/46
f 176/321/69 109/320/21 77/322/21
f 77/322/21 75/323/69 176/321/69
f 141/325/45 176/324/69 75/326/69
f 75/326/69 72/327/45 141/325/45
f 168/329/62 169/328/63 46/330/63
f 46/330/63 45/331/62 168/329/62
f 118/333/27 170/332/64 29/334/64
f 29/334/64 18/335/27 118/333/27
f 88/337/70 89/336/70 173/338/66
f 173/338/66 174/339/66 88/337/70
f 66/341/49 146/340/49 177/342/71
f 177/342/71 68/343/71 66/341/49
f 62/345/43 139/344/43 145/346/48
f 145/346/48 64/347/48 62/345/43
f 68/349/71 177/348/71 140/350/44
f 140/350/44 70/351/44 68/349/71
f 38/353/35 128/352/35 163/354/59
f 163/354/59 41/355/59 38/353/35
f 173/357/4 89/356/4 90/358/4
f 90/358/4 164/359/4 173/357/4
f 90/358/4 166/360/4 164/359/4
f 90/358/4 178/361/4 166/360/4
f 90/358/4 179/362/4 178/361/4
f 90/358/4 180/363/4 179/362/4
f 180/363/4 181/364/4 179/362/4
f 181/364/4 182/365/4 179/362/4
f 182/365/4 183/366/4 179/362/4
f 183/366/4 184/367/4 179/362/4
f 184/367/4 185/368/4 179/362/4
f 185/368/4 186/369/4 179/362/4
f 186/369/4 187/370/4 179/362/4
f 187/370/4 188/371/4 179/362/4
f 187/370/4 189/372/4 188/371/4
f 189/372/4 190/373/4 188/371/4
f 190/373/4 191/374/4 188/371/4
f 191/374/4 192/375/4 188/371/4
f 192/375/4 193/376/4 188/371/4
f 193/376/4 194/377/4 188/371/4
f 194/377/4 195/378/4 188/371/4
f 194/377/4 196/379/4 195/378/4
f 197/381/4 9/380/4 7/382/4
f 7/382/4 121/383/4 197/381/4
f 121/383/4 198/384/4 197/381/4
f 121/383/4 172/385/4 198/384/4
f 172/385/4 199/386/4 198/384/4
f 172/385/4 200/387/4 199/386/4
f 172/385/4 159/388/4 200/387/4
f 159/388/4 201/389/4 200/387/4
f 159/388/4 202/390/4 201/389/4
f 159/388/4 161/391/4 202/390/4
f 161/391/4 203/392/4 202/390/4
f 161/391/4 204/393/4 203/392/4
f 161/391/4 157/394/4 204/393/4
f 157/394/4 205/395/4 204/393/4
f 157/394/4 206/396/4 205/395/4
f 157/394/4 113/397/4 206/396/4
f 113/397/4 207/398/4 206/396/4
f 113/397/4 208/399/4 207/398/4
f 113/397/4 112/400/4 208/399/4
f 112/400/4 209/401/4 208/399/4
f 112/400/4 210/402/4 209/401/4
f 112/400/4 138/403/4 210/402/4
f 138/403/4 211/404/4 210/402/4
f 138/403/4 127/405/4 211/404/4
f 127/405/4 212/406/4 211/404/4
f 127/405/4 126/407/4 212/406/4
f 126/407/4 213/408/4 212/406/4
f 126/407/4 108/409/4 213/408/4
f 108/409/4 214/410/4 213/408/4
f 108/409/4 107/411/4 214/410/4
f 107/411/4 215/412/4 214/410/4
f 107/411/4 104/413/4 215/412/4
f 104/413/4 216/414/4 215/412/4
f 104/413/4 103/415/4 216/414/4
f 103/415/4 134/416/4 216/414/4
f 134/416/4 217/417/4 216/414/4
f 134/416/4 133/418/4 217/417/4
f 133/418/4 155/419/4 217/417/4
f 155/419/4 218/420/4 217/417/4
f 155/419/4 154/421/4 218/420/4
f 154/421/4 144/422/4 218/420/4
f 144/422/4 117/423/4 218/420/4
f 117/423/4 99/424/4 218/420/4
f 99/424/4 219/425/4 218/420/4
f 99/424/4 97/426/4 219/425/4
f 97/426/4 149/427/4 219/425/4
f 149/427/4 178/361/4 219/425/4
f 149/427/4 147/428/4 178/361/4
f 147/428/4 166/360/4 178/361/4

usemtl natureKit-leavesGreen
# usermap natureKit-leavesGreen

f 84/88/4 11/89/4 12/429/4
f 12/429/4 14/18/4 84/88/4
f 14/18/4 82/86/4 84/88/4
f 14/18/4 80/84/4 82/86/4
f 14/18/4 61/65/4 80/84/4
f 61/65/4 78/82/4 80/84/4
f 61/65/4 76/80/4 78/82/4
f 61/65/4 74/78/4 76/80/4
f 61/65/4 73/77/4 74/78/4
f 61/65/4 71/75/4 73/77/4
f 61/65/4 63/67/4 71/75/4
f 63/67/4 69/73/4 71/75/4
f 63/67/4 67/71/4 69/73/4
f 63/67/4 65/69/4 67/71/4
f 14/18/4 60/64/4 61/65/4
f 14/18/4 58/62/4 60/64/4
f 14/18/4 55/59/4 58/62/4
f 14/18/4 53/57/4 55/59/4
f 14/18/4 51/55/4 53/57/4
f 14/18/4 49/53/4 51/55/4
f 14/18/4 47/51/4 49/53/4
f 14/18/4 44/48/4 47/51/4
f 14/18/4 42/46/4 44/48/4
f 14/18/4 40/44/4 42/46/4
f 14/18/4 39/43/4 40/44/4
f 14/18/4 37/41/4 39/43/4
f 14/18/4 36/40/4 37/41/4
f 14/18/4 34/38/4 36/40/4
f 14/18/4 33/37/4 34/38/4
f 14/18/4 31/35/4 33/37/4
f 14/18/4 30/34/4 31/35/4
f 14/18/4 28/32/4 30/34/4
f 14/18/4 27/31/4 28/32/4
f 14/18/4 15/19/4 27/31/4
f 15/19/4 26/30/4 27/31/4
f 15/19/4 17/21/4 26/30/4
f 180/363/4 90/358/4 87/430/4
f 87/430/4 181/364/4 180/363/4
f 87/430/4 182/365/4 181/364/4
f 87/430/4 183/366/4 182/365/4
f 87/430/4 184/367/4 183/366/4
f 87/430/4 185/368/4 184/367/4
f 87/430/4 186/369/4 185/368/4
f 87/430/4 187/370/4 186/369/4
f 87/430/4 189/372/4 187/370/4
f 87/430/4 190/373/4 189/372/4
f 87/430/4 191/374/4 190/373/4
f 87/430/4 192/375/4 191/374/4
f 87/430/4 193/376/4 192/375/4
f 87/430/4 194/377/4 193/376/4
f 87/430/4 196/379/4 194/377/4
f 196/379/4 87/430/4 6/431/4
f 195/378/4 196/379/4 6/431/4
f 188/371/4 195/378/4 6/431/4
f 179/362/4 188/371/4 6/431/4
f 178/361/4 179/362/4 6/431/4
f 219/425/4 178/361/4 6/431/4
f 218/420/4 219/425/4 6/431/4
f 217/417/4 218/420/4 6/431/4
f 202/390/4 217/417/4 6/431/4
f 201/389/4 202/390/4 6/431/4
f 200/387/4 201/389/4 6/431/4
f 199/386/4 200/387/4 6/431/4
f 198/384/4 199/386/4 6/431/4
f 197/381/4 198/384/4 6/431/4
f 197/381/4 6/431/4 5/432/4
f 5/432/4 9/380/4 197/381/4
f 202/390/4 203/392/4 217/417/4
f 203/392/4 204/393/4 217/417/4
f 204/393/4 205/395/4 217/417/4
f 205/395/4 206/396/4 217/417/4
f 206/396/4 207/398/4 217/417/4
f 207/398/4 208/399/4 217/417/4
f 208/399/4 209/401/4 217/417/4
f 209/401/4 210/402/4 217/417/4
f 210/402/4 211/404/4 217/417/4
f 211/404/4 212/406/4 217/417/4
f 212/406/4 213/408/4 217/417/4
f 213/408/4 214/410/4 217/417/4
f 214/410/4 215/412/4 217/417/4
f 215/412/4 216/414/4 217/417/4

usemtl natureKit-water
# usermap natureKit-water

f 175/28/4 91/433/4 88/434/4
f 88/434/4 135/29/4 175/28/4
f 88/434/4 110/400/4 135/29/4
f 88/434/4 137/403/4 110/400/4
f 88/434/4 125/405/4 137/403/4
f 88/434/4 124/407/4 125/405/4
f 88/434/4 106/409/4 124/407/4
f 88/434/4 105/411/4 106/409/4
f 88/434/4 102/413/4 105/411/4
f 88/434/4 101/415/4 102/413/4
f 88/434/4 132/416/4 101/415/4
f 88/434/4 131/418/4 132/416/4
f 88/434/4 153/419/4 131/418/4
f 88/434/4 152/421/4 153/419/4
f 88/434/4 143/422/4 152/421/4
f 88/434/4 116/423/4 143/422/4
f 88/434/4 100/424/4 116/423/4
f 88/434/4 98/426/4 100/424/4
f 88/434/4 150/427/4 98/426/4
f 88/434/4 174/357/4 150/427/4
f 174/357/4 148/428/4 150/427/4
f 174/357/4 165/359/4 148/428/4
f 165/359/4 167/360/4 148/428/4
f 120/383/4 8/435/4 10/436/4
f 10/436/4 85/87/4 120/383/4
f 85/87/4 86/85/4 120/383/4
f 86/85/4 92/83/4 120/383/4
f 92/83/4 109/81/4 120/383/4
f 109/81/4 176/79/4 120/383/4
f 176/79/4 141/76/4 120/383/4
f 141/76/4 140/74/4 120/383/4
f 140/74/4 171/385/4 120/383/4
f 140/74/4 177/72/4 171/385/4
f 177/72/4 146/70/4 171/385/4
f 146/70/4 145/68/4 171/385/4
f 145/68/4 139/66/4 171/385/4
f 139/66/4 123/63/4 171/385/4
f 123/63/4 122/61/4 171/385/4
f 122/61/4 130/60/4 171/385/4
f 130/60/4 93/58/4 171/385/4
f 93/58/4 158/388/4 171/385/4
f 93/58/4 94/56/4 158/388/4
f 94/56/4 114/54/4 158/388/4
f 114/54/4 115/52/4 158/388/4
f 115/52/4 169/50/4 158/388/4
f 169/50/4 168/49/4 158/388/4
f 168/49/4 162/47/4 158/388/4
f 162/47/4 163/45/4 158/388/4
f 163/45/4 128/42/4 158/388/4
f 128/42/4 160/391/4 158/388/4
f 128/42/4 129/39/4 160/391/4
f 129/39/4 151/36/4 160/391/4
f 151/36/4 156/394/4 160/391/4
f 151/36/4 170/33/4 156/394/4
f 170/33/4 118/22/4 156/394/4
f 118/22/4 119/23/4 156/394/4
f 119/23/4 111/397/4 156/394/4
f 119/23/4 142/24/4 111/397/4
f 142/24/4 96/25/4 111/397/4
f 96/25/4 95/26/4 111/397/4
f 95/26/4 110/400/4 111/397/4
f 95/26/4 136/27/4 110/400/4
f 136/27/4 135/29/4 110/400/4
