# Exported using Kenney Suite 1.2 

mtllib palm_large.mtl 

g Group 140

v -0.6321979 0.498095 -0.6130401 
v 0.6321979 0.498095 -0.6130401 
v -0.4867911 2.662893 -0.4676346 
v 0.4867911 2.662893 -0.4676346 
v 0.6321979 0.498095 0.651355 
v 0.4867911 2.662893 0.5059496 
v -0.6321979 0.498095 0.651355 
v -0.4867911 2.662893 0.5059496 
v 0.3602266 6.475235 0.9157937 
v 0.2809763 9.310545 0.2809764 
v 0.3602266 6.475235 0.1953414 
v 0.2809763 9.310545 -0.2809764 
v -0.3602266 6.475235 0.9157937 
v -0.3602266 6.475235 0.1953414 
v -0.2809763 9.310545 0.2809764 
v -0.2809763 9.310545 -0.2809764 
v -0.5436897 0 -0.5245323 
v -0.5436897 0 0.5628474 
v 0.5436897 0 -0.5245323 
v 0.5436897 0 0.5628474 

vn 0 0.06701714 0.9977518
vn -0.9977518 0.06701714 0
vn 0 0.06701714 -0.9977518
vn 0.9977518 0.06701714 0
vn -0.9996096 0.02794009 0
vn 0.9996096 0.02794009 0
vn 0 0.2184875 -0.9758397
vn 0 -0.1068886 -0.994271
vn 0.9994493 0.03318071 0
vn 0 -0.1656734 0.9861807
vn 0 0.1713311 0.9852135
vn -0.9994493 0.03318071 0
vn 0 -1 0
vn -0.984577 -0.1749518 0
vn 0 -0.1749518 -0.984577
vn 0.984577 -0.1749518 0
vn 0 1 0
vn 0 -0.1749518 0.984577

vt -1.30054E-16 8.107619
vt -25.98425 8.107619
vt -2.988189 52.69605
vt -22.99606 52.69605
vt 5.43441 8.471818
vt 8.422599 53.06025
vt 31.41866 8.471818
vt 28.43047 53.06025
vt 25.98425 10.57741
vt -2.249513E-17 10.57741
vt 22.99606 55.16584
vt 2.988189 55.16584
vt -5.43441 10.21321
vt -31.41866 10.21321
vt -8.422599 54.80164
vt -28.43047 54.80164
vt 2.479301E-16 132.4491
vt 13.04596 190.7395
vt 14.80583 132.4491
vt 24.59451 190.7395
vt -6.794467E-17 133.1751
vt -14.80583 133.1751
vt -13.04596 191.4655
vt -24.59451 191.4655
vt 20.39504 129.8558
vt 5.589212 129.8558
vt 18.7664 189.5662
vt 7.217854 189.5662
vt 22.99606 53.51061
vt 2.988189 53.51061
vt 20.39504 132.3085
vt 5.589212 132.3085
vt 0 133.183
vt -8.422599 54.79343
vt -14.80583 133.183
vt -28.43047 54.79343
vt -5.589212 133.6848
vt -20.39504 133.6848
vt -7.217854 192.7691
vt -18.7664 192.7691
vt -2.988189 49.0442
vt -22.99606 49.0442
vt -5.589212 128.5665
vt -20.39504 128.5665
vt 3.121802E-16 132.3209
vt 14.80583 132.3209
vt 8.422599 53.93125
vt 28.43047 53.93125
vt -1.818898 29.59976
vt -1.818898 7.253307
vt -24.16535 29.59976
vt -24.16535 7.253307
vt 5.43441 14.62434
vt 31.41866 14.62434
vt 7.253307 4.227771
vt 29.59976 4.227771
vt 24.16535 -1.268979
vt 1.818898 -1.268979
vt 25.98425 9.127588
vt 0 9.127588
vt -5.43441 10.07835
vt -7.253307 -0.3182193
vt -31.41866 10.07835
vt -29.59976 -0.3182193
vt 7.217854 13.04596
vt 7.217854 24.59451
vt 18.7664 13.04596
vt 18.7664 24.59451
vt -1.818898 5.178531
vt -24.16535 5.178531
vt -9.503379E-17 15.5751
vt -25.98425 15.5751

usemtl natureKit-wood
# usermap natureKit-wood

f 2/2/1 1/1/1 3/3/1
f 3/3/1 4/4/1 2/2/1
f 6/6/2 5/5/2 2/7/2
f 2/7/2 4/8/2 6/6/2
f 7/10/3 5/9/3 6/11/3
f 6/11/3 8/12/3 7/10/3
f 1/14/4 7/13/4 8/15/4
f 8/15/4 3/16/4 1/14/4
f 10/18/5 9/17/5 11/19/5
f 11/19/5 12/20/5 10/18/5
f 14/22/6 13/21/6 15/23/6
f 15/23/6 16/24/6 14/22/6
f 13/26/7 9/25/7 10/27/7
f 10/27/7 15/28/7 13/26/7
f 8/30/8 6/29/8 9/31/8
f 9/31/8 13/32/8 8/30/8
f 8/34/9 13/33/9 14/35/9
f 14/35/9 3/36/9 8/34/9
f 11/38/10 14/37/10 16/39/10
f 16/39/10 12/40/10 11/38/10
f 4/42/11 3/41/11 14/43/11
f 14/43/11 11/44/11 4/42/11
f 11/46/12 9/45/12 6/47/12
f 6/47/12 4/48/12 11/46/12
f 18/50/13 17/49/13 19/51/13
f 19/51/13 20/52/13 18/50/13
f 2/54/14 5/53/14 20/55/14
f 20/55/14 19/56/14 2/54/14
f 18/58/15 20/57/15 5/59/15
f 5/59/15 7/60/15 18/58/15
f 18/62/16 7/61/16 1/63/16
f 1/63/16 17/64/16 18/62/16
f 16/66/17 15/65/17 10/67/17
f 10/67/17 12/68/17 16/66/17
f 19/70/18 17/69/18 1/71/18
f 1/71/18 2/72/18 19/70/18
g Group 142

v -0.4536033 9.713701 0.4536031 
v -0.4536033 9.713701 -0.4536031 
v -0.3175211 9.922231 0.3175222 
v -0.3175211 9.922231 -0.3175222 
v 0.3175211 9.922231 0.3175222 
v 0.3175211 9.922231 -0.3175222 
v -0.4536033 9.310545 0.4536031 
v -0.2809763 9.310545 -0.2809764 
v -0.4536033 9.310545 -0.4536031 
v 0.4536033 9.310545 -0.4536031 
v 0.2809763 9.310545 -0.2809764 
v 0.4536033 9.310545 0.4536031 
v 0.4536033 9.713701 0.4536031 
v 0.4536033 9.713701 -0.4536031 
v -0.6048036 9.532976 -0.9818769 
v 0.6048036 9.532976 -0.9818769 
v 0.6048036 10.11686 -0.9818769 
v -0.6048036 10.11686 -0.9818769 
v -0.6048036 9.532976 -2.038424 
v 0.6048036 9.532976 -2.038424 
v -0.6048036 10.11686 -2.038424 
v -0.6048036 9.56078 -3.108874 
v -0.6048036 9.185428 -3.108874 
v 0.6048036 10.11686 -2.038424 
v 0.6048036 9.185428 -3.108874 
v 0.6048036 9.56078 -3.108874 
v -0.4359031 8.671056 -3.859437 
v 0.2898622 8.671056 -3.859437 
v -0.4359031 8.851781 -3.859437 
v 0.2898622 8.851781 -3.859437 
v -3.108873 9.56078 -0.6048037 
v -2.038424 10.11686 -0.6048037 
v -3.108873 9.56078 0.6048043 
v -2.038424 10.11686 0.6048043 
v -2.038424 9.532976 -0.6048037 
v -2.038424 9.532976 0.6048043 
v -0.9818769 9.532976 -0.6048037 
v -0.9818769 9.532976 0.6048043 
v -3.859437 8.671056 0.4359024 
v -3.859437 8.851781 0.4359024 
v -3.108873 9.185428 0.6048043 
v -0.9818769 10.11686 0.6048043 
v -0.9818769 10.11686 -0.6048037 
v -3.108873 9.185428 -0.6048037 
v -3.859437 8.851781 -0.2898628 
v -3.859437 8.671056 -0.2898628 
v -0.6048036 9.532976 0.9818769 
v -0.6048036 9.532976 2.038424 
v 0.6048036 9.532976 0.9818769 
v 0.6048036 9.532976 2.038424 
v 0.6048036 9.185428 3.108874 
v 0.6048036 9.56078 3.108874 
v 0.6048036 10.11686 2.038424 
v 0.6048036 10.11686 0.9818769 
v -0.6048036 10.11686 0.9818769 
v -0.6048036 10.11686 2.038424 
v -0.6048036 9.185428 3.108874 
v -0.6048036 9.56078 3.108874 
v -0.2898622 8.851781 3.859437 
v -0.2898622 8.671056 3.859437 
v 0.4359007 8.671056 3.859437 
v 0.4359007 8.851781 3.859437 
v 2.038424 9.532976 -0.6048037 
v 2.038424 9.532976 0.6048043 
v 3.108873 9.185428 -0.6048037 
v 3.108873 9.185428 0.6048043 
v 0.9818769 9.532976 -0.6048037 
v 0.9818769 10.11686 -0.6048037 
v 3.108873 9.56078 -0.6048037 
v 3.859437 8.851781 -0.4359018 
v 3.108873 9.56078 0.6048043 
v 3.859437 8.851781 0.2898628 
v 0.9818769 9.532976 0.6048043 
v 0.9818769 10.11686 0.6048043 
v 2.038424 10.11686 0.6048043 
v 2.038424 10.11686 -0.6048037 
v 3.859437 8.671056 -0.4359018 
v 3.859437 8.671056 0.2898628 

vn 0.8374569 0.5465034 0
vn 0 0.5465034 -0.8374569
vn -0.8374569 0.5465034 0
vn 0 0.5465034 0.8374569
vn 0 -0.9216354 0.388057
vn -0.9613961 0 -0.275168
vn 0 0.7949513 -0.6066733
vn 1 0 0
vn -1 0 0
vn 0 0 1
vn 0 0.7269484 0.6866919
vn 0 0.8874055 0.4609899
vn 0 -0.9511248 -0.3088068
vn -0.9221116 0 0.3869239
vn 0 -0.8248826 -0.565304
vn 0.9613961 0 -0.275168
vn 0.9756026 0 0.2195435
vn 0.4609899 0.8874055 0
vn 0.2195435 0 -0.9756026
vn 0 0 -1
vn 0.6866919 0.7269484 0
vn -0.565304 -0.8248826 0
vn -0.275168 0 -0.9613961
vn 0.388057 -0.9216354 0
vn -0.275168 0 0.9613961
vn -0.3088068 -0.9511248 0
vn -0.6066733 0.7949513 0
vn 0.3869239 0 0.9221116
vn 0.9221116 0 -0.3869239
vn 0 -0.8248826 0.565304
vn 0 0.7269484 -0.6866919
vn -0.9756026 0 -0.2195435
vn 0 -0.9216354 -0.388057
vn -0.9613961 0 0.275168
vn 0.9613961 0 0.275168
vn 0 0.7949513 0.6066733
vn 0 0.8874055 -0.4609899
vn 0 -0.9511248 0.3088068
vn 0.3088068 -0.9511248 0
vn 0.275168 0 0.9613961
vn -0.6866919 0.7269484 0
vn 0.275168 0 -0.9613961
vn 0.565304 -0.8248826 0
vn -0.2195435 0 0.9756026
vn -0.4609899 0.8874055 0
vn -0.388057 -0.9216354 0
vn 0.6066733 0.7949513 0
vn -0.3869239 0 -0.9221116

vt -96.45268 77.43978
vt -122.1446 77.43978
vt -100.3065 84.4915
vt -118.2908 84.4915
vt 100.3065 100.3065
vt 100.3065 118.2908
vt 118.2908 100.3065
vt 118.2908 118.2908
vt -96.45268 96.45268
vt -101.3414 117.2559
vt -96.45268 122.1446
vt -122.1446 122.1446
vt -117.2559 117.2559
vt -117.2559 101.3414
vt -101.3414 101.3414
vt -122.1446 96.45268
vt 122.1446 77.43978
vt 96.45268 77.43978
vt 118.2908 84.4915
vt 100.3065 84.4915
vt 96.45268 -42.02439
vt 100.3065 -34.97267
vt 122.1446 -42.02439
vt 118.2908 -34.97267
vt -96.45268 -42.02439
vt -122.1446 -42.02439
vt -100.3065 -34.97267
vt -118.2908 -34.97267
vt 96.45268 96.45268
vt 96.45268 122.1446
vt 122.1446 96.45268
vt 122.1446 122.1446
vt -92.17069 135.8333
vt -96.45268 119.6006
vt -126.4266 135.8333
vt -122.1446 119.6006
vt 151.0397 18.11024
vt 151.0397 29.52756
vt 166.601 24.40945
vt 166.601 40.94488
vt 92.17069 133.8322
vt 126.4266 133.8322
vt 96.45268 115.0126
vt 122.1446 115.0126
vt -92.17069 167.0265
vt -92.17069 137.1052
vt -126.4266 167.0265
vt -126.4266 137.1052
vt -167.0265 40.94488
vt -167.0265 24.40945
vt -197.3415 25.19685
vt -197.3415 14.56693
vt -137.1052 24.40945
vt -137.1052 40.94488
vt 167.0265 24.40945
vt 167.0265 40.94488
vt 197.3415 14.56693
vt 197.3415 25.19685
vt 137.1052 40.94488
vt 137.1052 24.40945
vt -96.95397 0
vt -117.5075 0
vt -96.95397 5.11811
vt -117.5075 5.11811
vt -92.17069 -126.1546
vt -96.95397 -155.3944
vt -126.4266 -126.1546
vt -117.5075 -155.3944
vt 92.17069 167.0265
vt 126.4266 167.0265
vt 92.17069 137.1052
vt 126.4266 137.1052
vt -92.17069 -163.5064
vt -126.4266 -163.5064
vt -92.17069 -129.345
vt -126.4266 -129.345
vt 92.17069 -183.198
vt 92.17069 -151.3252
vt 126.4266 -183.198
vt 126.4266 -151.3252
vt 133.0534 14.56693
vt 133.0534 25.19685
vt 156.1046 6.339741E-14
vt 156.1046 5.11811
vt 92.17069 -154.5488
vt 126.4266 -154.5488
vt 96.95397 -180.3171
vt 117.5075 -180.3171
vt -90.88866 29.52756
vt -90.88866 18.11024
vt -106.45 40.94488
vt -106.45 24.40945
vt -212.7623 25.19685
vt -212.7623 14.56693
vt -234.5497 5.11811
vt -234.5497 0
vt -126.4266 30.47803
vt -126.4266 64.63937
vt -92.17069 30.47803
vt -92.17069 64.63937
vt -51.57079 126.4266
vt -51.57079 92.17069
vt -81.49205 126.4266
vt -81.49205 92.17069
vt -21.28562 0
vt -21.28562 5.11811
vt 0.5017653 14.56693
vt 0.5017653 25.19685
vt 21.25583 14.56693
vt 21.25583 25.19685
vt 51.57079 24.40945
vt 51.57079 40.94488
vt 81.49205 40.94488
vt 81.49205 24.40945
vt -51.57079 24.40945
vt -81.49205 24.40945
vt -51.57079 40.94488
vt -81.49205 40.94488
vt -21.25583 25.19685
vt -21.25583 14.56693
vt -117.5075 3.514565
vt -126.4266 32.75437
vt -96.95397 3.514565
vt -92.17069 32.75437
vt 117.5075 2.106072E-10
vt 96.95397 2.106874E-10
vt 126.4266 25.76831
vt 92.17069 25.76831
vt 119.2699 18.11024
vt 103.7086 24.40945
vt 119.2699 29.52756
vt 103.7086 40.94488
vt -126.4266 -65.6337
vt -92.17069 -65.6337
vt -122.1446 -81.8664
vt -96.45268 -81.8664
vt -59.11895 18.11024
vt -59.11895 29.52756
vt -43.55759 24.40945
vt -43.55759 40.94488
vt 126.4266 24.71531
vt 92.17069 24.71531
vt 126.4266 56.58806
vt 92.17069 56.58806
vt 126.4266 -39.94204
vt 122.1446 -58.7616
vt 92.17069 -39.94204
vt 96.45268 -58.7616
vt 51.57079 126.4266
vt 81.49205 126.4266
vt 51.57079 92.17069
vt 81.49205 92.17069
vt -45.46647 3.560479E-14
vt -68.51772 14.56693
vt -45.46647 5.11811
vt -68.51772 25.19685
vt -92.17069 81.49205
vt -92.17069 51.57079
vt -126.4266 81.49205
vt -126.4266 51.57079
vt 92.17069 81.49205
vt 126.4266 81.49205
vt 92.17069 51.57079
vt 126.4266 51.57079
vt 39.11405 5.11811
vt 39.11405 -3.063021E-14
vt 16.06279 25.19685
vt 16.06279 14.56693
vt -92.17069 25.76831
vt -101.0898 -1.800595E-10
vt -126.4266 25.76831
vt -121.6433 -1.799552E-10
vt 92.17069 32.75437
vt 126.4266 32.75437
vt 101.0898 3.514565
vt 121.6433 3.514565
vt 26.70601 0
vt 26.70601 5.11811
vt 48.49339 14.56693
vt 48.49339 25.19685
vt 92.17069 -65.6337
vt 126.4266 -65.6337
vt 96.45268 -81.8664
vt 122.1446 -81.8664
vt 43.55759 24.40945
vt 43.55759 40.94488
vt 59.11895 18.11024
vt 59.11895 29.52756
vt -103.7086 40.94488
vt -103.7086 24.40945
vt -119.2699 29.52756
vt -119.2699 18.11024
vt -92.17069 -39.94204
vt -96.45268 -58.7616
vt -126.4266 -39.94204
vt -122.1446 -58.7616
vt 121.6433 0
vt 101.0898 0
vt 121.6433 5.11811
vt 101.0898 5.11811
vt 92.17069 64.63937
vt 126.4266 64.63937
vt 92.17069 30.47803
vt 126.4266 30.47803
vt -92.17069 56.58806
vt -92.17069 24.71531
vt -126.4266 56.58806
vt -126.4266 24.71531
vt -126.4266 -151.3252
vt -92.17069 -151.3252
vt -126.4266 -183.198
vt -92.17069 -183.198
vt -151.0397 18.11024
vt -166.601 24.40945
vt -151.0397 29.52756
vt -166.601 40.94488
vt 126.4266 -126.1546
vt 121.6433 -155.3944
vt 92.17069 -126.1546
vt 101.0898 -155.3944
vt 90.88866 18.11024
vt 90.88866 29.52756
vt 106.45 24.40945
vt 106.45 40.94488
vt -137.1052 126.4266
vt -137.1052 92.17069
vt -167.0265 126.4266
vt -167.0265 92.17069
vt -126.4266 -154.5488
vt -92.17069 -154.5488
vt -121.6433 -180.3171
vt -101.0898 -180.3171
vt -186.5581 0
vt -186.5581 5.11811
vt -164.7707 14.56693
vt -164.7707 25.19685
vt 126.4266 -129.345
vt 126.4266 -163.5064
vt 92.17069 -129.345
vt 92.17069 -163.5064
vt 122.1446 119.6006
vt 96.45268 119.6006
vt 126.4266 135.8333
vt 92.17069 135.8333
vt 137.1052 126.4266
vt 167.0265 126.4266
vt 137.1052 92.17069
vt 167.0265 92.17069
vt -96.45268 115.0126
vt -122.1446 115.0126
vt -92.17069 133.8322
vt -126.4266 133.8322
vt 240.6852 -2.837585E-15
vt 217.6339 14.56693
vt 240.6852 5.11811
vt 217.6339 25.19685

usemtl natureKit-leavesGreen
# usermap natureKit-leavesGreen

f 22/74/19 21/73/19 23/75/19
f 23/75/19 24/76/19 22/74/19
f 24/78/17 23/77/17 25/79/17
f 25/79/17 26/80/17 24/78/17
f 28/82/13 27/81/13 29/83/13
f 29/83/13 30/84/13 28/82/13
f 30/84/13 31/85/13 28/82/13
f 30/84/13 10/86/13 31/85/13
f 27/81/13 28/82/13 15/87/13
f 15/87/13 28/82/13 31/85/13
f 31/85/13 10/86/13 15/87/13
f 15/87/13 32/88/13 27/81/13
f 15/87/13 10/86/13 32/88/13
f 10/86/13 30/84/13 32/88/13
f 21/90/20 33/89/20 25/91/20
f 25/91/20 23/92/20 21/90/20
f 25/94/21 33/93/21 34/95/21
f 34/95/21 26/96/21 25/94/21
f 34/98/22 22/97/22 24/99/22
f 24/99/22 26/100/22 34/98/22
f 22/102/17 21/101/17 33/103/17
f 33/103/17 34/104/17 22/102/17
f 29/106/23 35/105/23 36/107/23
f 36/107/23 30/108/23 29/106/23
f 34/110/24 30/109/24 36/111/24
f 36/111/24 37/112/24 34/110/24
f 37/114/25 38/113/25 22/115/25
f 22/115/25 34/116/25 37/114/25
f 35/118/13 39/117/13 40/119/13
f 40/119/13 36/120/13 35/118/13
f 39/122/26 41/121/26 42/123/26
f 42/123/26 43/124/26 39/122/26
f 41/121/26 39/122/26 35/125/26
f 35/125/26 38/126/26 41/121/26
f 44/128/27 40/127/27 45/129/27
f 45/129/27 46/130/27 44/128/27
f 40/127/27 44/128/27 37/131/27
f 37/131/27 36/132/27 40/127/27
f 48/134/28 47/133/28 49/135/28
f 49/135/28 50/136/28 48/134/28
f 49/138/29 42/137/29 46/139/29
f 46/139/29 50/140/29 49/138/29
f 44/142/17 41/141/17 38/143/17
f 38/143/17 37/144/17 44/142/17
f 46/146/30 42/145/30 41/147/30
f 41/147/30 44/148/30 46/146/30
f 39/150/31 43/149/31 45/151/31
f 45/151/31 40/152/31 39/150/31
f 46/154/32 45/153/32 48/155/32
f 48/155/32 50/156/32 46/154/32
f 45/158/33 43/157/33 47/159/33
f 47/159/33 48/160/33 45/158/33
f 29/162/34 22/161/34 38/163/34
f 38/163/34 35/164/34 29/162/34
f 43/166/35 42/165/35 49/167/35
f 49/167/35 47/168/35 43/166/35
f 52/170/36 51/169/36 53/171/36
f 53/171/36 54/172/36 52/170/36
f 56/174/13 55/173/13 57/175/13
f 57/175/13 58/176/13 56/174/13
f 60/178/37 59/177/37 61/179/37
f 61/179/37 53/180/37 60/178/37
f 53/182/38 61/181/38 56/183/38
f 56/183/38 54/184/38 53/182/38
f 62/185/38 54/184/38 56/183/38
f 56/183/38 58/186/38 62/185/38
f 57/188/28 55/187/28 52/189/28
f 52/189/28 63/190/28 57/188/28
f 51/191/28 52/189/28 55/187/28
f 55/187/28 64/192/28 51/191/28
f 59/133/26 60/135/26 65/136/26
f 65/136/26 66/134/26 59/133/26
f 51/194/39 65/193/39 60/195/39
f 60/195/39 53/196/39 51/194/39
f 59/198/40 66/197/40 64/199/40
f 64/199/40 61/200/40 59/198/40
f 58/202/41 27/201/41 21/203/41
f 21/203/41 62/204/41 58/202/41
f 58/206/42 57/205/42 29/207/42
f 29/207/42 27/208/42 58/206/42
f 22/210/43 29/209/43 57/211/43
f 57/211/43 63/212/43 22/210/43
f 61/214/44 64/213/44 55/215/44
f 55/215/44 56/216/44 61/214/44
f 22/218/45 63/217/45 62/219/45
f 62/219/45 21/220/45 22/218/45
f 63/222/17 52/221/17 54/223/17
f 54/223/17 62/224/17 63/222/17
f 64/226/46 66/225/46 65/227/46
f 65/227/46 51/228/46 64/226/46
f 68/230/13 67/229/13 69/231/13
f 69/231/13 70/232/13 68/230/13
f 72/182/27 71/181/27 70/183/27
f 70/183/27 73/184/27 72/182/27
f 73/184/27 70/183/27 69/186/27
f 69/186/27 74/185/27 73/184/27
f 74/234/17 75/233/17 76/235/17
f 76/235/17 73/236/17 74/234/17
f 68/187/26 76/189/26 75/190/26
f 75/190/26 67/188/26 68/187/26
f 76/189/26 68/187/26 77/192/26
f 77/192/26 78/191/26 76/189/26
f 80/238/47 79/237/47 78/239/47
f 78/239/47 77/240/47 80/238/47
f 80/242/48 77/241/48 71/243/48
f 71/243/48 81/244/48 80/242/48
f 72/246/49 78/245/49 79/247/49
f 79/247/49 82/248/49 72/246/49
f 82/250/50 81/249/50 71/251/50
f 71/251/50 72/252/50 82/250/50
f 69/254/51 67/253/51 27/255/51
f 27/255/51 32/256/51 69/254/51
f 74/258/52 69/257/52 32/259/52
f 32/259/52 33/260/52 74/258/52
f 67/262/53 75/261/53 21/263/53
f 21/263/53 27/264/53 67/262/53
f 21/266/54 75/265/54 74/267/54
f 74/267/54 33/268/54 21/266/54
f 80/270/38 81/269/38 82/271/38
f 82/271/38 79/272/38 80/270/38
f 73/274/55 76/273/55 78/275/55
f 78/275/55 72/276/55 73/274/55
f 77/278/56 68/277/56 70/279/56
f 70/279/56 71/280/56 77/278/56
f 84/282/57 83/281/57 85/283/57
f 85/283/57 86/284/57 84/282/57
f 87/286/58 30/285/58 34/287/58
f 34/287/58 88/288/58 87/286/58
f 90/290/59 89/289/59 91/291/59
f 91/291/59 92/292/59 90/290/59
f 33/294/60 32/293/60 93/295/60
f 93/295/60 94/296/60 33/294/60
f 84/127/38 86/129/38 91/130/38
f 91/130/38 95/128/38 84/127/38
f 93/132/38 84/127/38 95/128/38
f 95/128/38 94/131/38 93/132/38
f 93/298/13 87/297/13 83/299/13
f 83/299/13 84/300/13 93/298/13
f 89/123/28 85/124/28 83/122/28
f 83/122/28 96/121/28 89/123/28
f 88/126/28 96/121/28 83/122/28
f 83/122/28 87/125/28 88/126/28
f 86/302/61 85/301/61 97/303/61
f 97/303/61 98/304/61 86/302/61
f 90/306/62 97/305/62 85/307/62
f 85/307/62 89/308/62 90/306/62
f 89/310/63 96/309/63 95/311/63
f 95/311/63 91/312/63 89/310/63
f 32/314/64 30/313/64 87/315/64
f 87/315/64 93/316/64 32/314/64
f 96/318/17 88/317/17 94/319/17
f 94/319/17 95/320/17 96/318/17
f 92/272/27 98/270/27 97/269/27
f 97/269/27 90/271/27 92/272/27
f 34/322/65 33/321/65 94/323/65
f 94/323/65 88/324/65 34/322/65
f 86/326/66 98/325/66 92/327/66
f 92/327/66 91/328/66 86/326/66
