# Exported using Kenney Suite 1.2 

mtllib palmDetailed_small.mtl 

g Group 145

v -0.6321979 0.3785522 -0.61304 
v 0.6321979 0.3785522 -0.61304 
v -0.4867911 2.023798 0.1323654 
v 0.4867911 2.023798 0.1323654 
v 0.4867911 2.023798 1.10595 
v 0.6321979 0.3785522 0.6513549 
v -0.6321979 0.3785522 0.6513549 
v -0.4867911 2.023798 1.10595 
v 1.135225 4.921178 0.9157937 
v 0.2809763 7.076014 0.2809764 
v 1.135225 4.921178 0.1953413 
v 0.2809763 7.076014 -0.2809764 
v 0.4147744 4.921178 0.9157937 
v 0.4147744 4.921178 0.1953413 
v -0.2809763 7.076014 0.2809764 
v -0.2809763 7.076014 -0.2809764 
v -0.5436897 0 -0.5245323 
v -0.5436897 0 0.5628473 
v 0.5436897 0 -0.5245323 
v 0.5436897 0 0.5628473 

vn 0 0.3255704 0.9455178
vn -0.9977518 0.06701714 0
vn 0 -0.2055117 -0.9786547
vn 0.9977518 0.06701714 0
vn -0.9574857 0.2884806 0
vn 0.9711873 -0.2383174 0
vn 0 0.2184875 -0.9758397
vn 0 0.04981709 -0.9987583
vn 0.9731579 0.2301383 0
vn 0 -0.1656734 0.9861807
vn 0 0.01651671 0.9998636
vn -0.9858415 -0.1676799 0
vn 0 -1 0
vn -0.984577 -0.1749518 0
vn 0 -0.1749518 -0.984577
vn 0.984577 -0.1749518 0
vn 0 1 0
vn 0 -0.1749518 0.984577

vt -7.910197E-16 -0.5504591
vt -25.98425 -0.5504591
vt -2.988189 46.50121
vt -22.99606 46.50121
vt -3.907845 53.06025
vt 16.10003 53.06025
vt 5.43441 8.471818
vt 31.41866 8.471818
vt 25.98425 8.90089
vt -3.227944E-17 8.90089
vt 22.99606 54.35941
vt 2.988189 54.35941
vt 3.907845 54.80164
vt -5.43441 10.21321
vt -16.10003 54.80164
vt -31.41866 10.21321
vt -8.867688E-15 116.9353
vt 13.04596 177.7902
vt 14.80583 116.9353
vt 24.59451 177.7902
vt 0 124.1091
vt -14.80583 124.1091
vt -13.04596 184.1055
vt -24.59451 184.1055
vt 36.32186 129.8558
vt 21.51604 129.8558
vt 18.7664 189.5662
vt 7.217854 189.5662
vt 22.99606 54.46178
vt 2.988189 54.46178
vt 36.32186 132.9056
vt 21.51604 132.9056
vt 3.907845 53.94319
vt -16.10003 53.94319
vt -6.200859E-16 134.4506
vt -14.80583 134.4506
vt -21.51604 133.6848
vt -36.32186 133.6848
vt -7.217854 192.7691
vt -18.7664 192.7691
vt -2.988189 54.45102
vt -22.99606 54.45102
vt -21.51604 132.8082
vt -36.32186 132.8082
vt -3.907845 57.80557
vt -1.395714E-15 137.2772
vt 16.10003 57.80557
vt 14.80583 137.2772
vt -1.818898 29.59976
vt -1.818898 7.253307
vt -24.16535 29.59976
vt -24.16535 7.253307
vt 5.43441 14.62434
vt 31.41866 14.62434
vt 7.253307 4.227771
vt 29.59976 4.227771
vt 24.16535 -1.268979
vt 1.818898 -1.268979
vt 25.98425 9.127588
vt 0 9.127588
vt -5.43441 10.07835
vt -7.253307 -0.3182193
vt -31.41866 10.07835
vt -29.59976 -0.3182193
vt 7.217854 13.04596
vt 7.217854 24.59451
vt 18.7664 13.04596
vt 18.7664 24.59451
vt -1.818898 5.178531
vt -24.16535 5.178531
vt -9.503379E-17 15.5751
vt -25.98425 15.5751

usemtl natureKit-wood
# usermap natureKit-wood

f 2/2/1 1/1/1 3/3/1
f 3/3/1 4/4/1 2/2/1
f 4/6/2 5/5/2 6/7/2
f 6/7/2 2/8/2 4/6/2
f 7/10/3 6/9/3 5/11/3
f 5/11/3 8/12/3 7/10/3
f 7/14/4 8/13/4 3/15/4
f 3/15/4 1/16/4 7/14/4
f 10/18/5 9/17/5 11/19/5
f 11/19/5 12/20/5 10/18/5
f 14/22/6 13/21/6 15/23/6
f 15/23/6 16/24/6 14/22/6
f 13/26/7 9/25/7 10/27/7
f 10/27/7 15/28/7 13/26/7
f 8/30/8 5/29/8 9/31/8
f 9/31/8 13/32/8 8/30/8
f 3/34/9 8/33/9 13/35/9
f 13/35/9 14/36/9 3/34/9
f 11/38/10 14/37/10 16/39/10
f 16/39/10 12/40/10 11/38/10
f 4/42/11 3/41/11 14/43/11
f 14/43/11 11/44/11 4/42/11
f 9/46/12 5/45/12 4/47/12
f 4/47/12 11/48/12 9/46/12
f 18/50/13 17/49/13 19/51/13
f 19/51/13 20/52/13 18/50/13
f 2/54/14 6/53/14 20/55/14
f 20/55/14 19/56/14 2/54/14
f 18/58/15 20/57/15 6/59/15
f 6/59/15 7/60/15 18/58/15
f 18/62/16 7/61/16 1/63/16
f 1/63/16 17/64/16 18/62/16
f 16/66/17 15/65/17 10/67/17
f 10/67/17 12/68/17 16/66/17
f 19/70/18 17/69/18 1/71/18
f 1/71/18 2/72/18 19/70/18
g Group 147

v 0.4536033 7.076015 0.453603 
v 0.4536033 7.385661 0.453603 
v 0.9818769 7.298445 0.6048039 
v 0.9818769 7.584303 0.6048039 
v 0.8278608 7.584303 0.5607221 
v -0.6048036 7.882327 2.038424 
v -0.6048036 7.298445 2.038424 
v -0.6048036 7.882327 1.460126 
v -0.6048036 7.584303 1.460126 
v -0.6048036 7.298445 0.9818769 
v -0.6048036 7.584303 0.9818769 
v -0.6048036 6.950896 3.108874 
v -0.6048036 7.326249 3.108874 
v -0.8278608 7.584303 0.5607221 
v -0.5607224 7.584303 0.8278614 
v -0.9818769 7.584303 0.6048039 
v -1.013722 7.584303 1.869045 
v -1.460125 7.584303 0.6048039 
v -1.869044 7.584303 1.013723 
v -1.121953 7.584303 0.2666309 
v -0.2666306 7.584303 1.121953 
v 0.5607224 7.584303 0.8278614 
v 0.6048036 7.584303 0.9818769 
v 0.6048036 7.584303 1.460126 
v 1.013722 7.584303 1.869045 
v 1.460125 7.584303 0.6048039 
v 1.869044 7.584303 1.013723 
v 0.2666306 7.584303 1.121953 
v 1.121953 7.584303 0.2666309 
v 1.121953 7.882327 0.2666309 
v 1.460125 7.882327 0.6048039 
v 1.121953 8.393563 0.2666309 
v 1.869044 8.393563 1.013723 
v 2.625966 7.622839 1.770645 
v 2.625966 7.1026 1.770645 
v 0 7.276013 0.6414914 
v 0.6414914 7.276013 0 
v 2.038424 7.298445 0.6048039 
v 2.038424 7.882327 0.6048039 
v 3.108873 7.326249 0.6048039 
v 3.108873 6.950896 0.6048039 
v -0.2666306 7.882327 1.121953 
v -1.013722 8.393563 1.869045 
v -1.770644 7.622839 2.625967 
v -1.770644 7.1026 2.625967 
v -0.2666306 8.393563 1.121953 
v 0.6048036 7.298445 0.9818769 
v 0.6414914 7.622559 0 
v 0.9818769 7.882327 0.1888961 
v 0.6414914 7.834788 0 
v 0 7.622559 -0.6414914 
v -0.1888967 7.882327 -0.9818771 
v 0.1888967 7.882327 -0.9818771 
v -0.9818769 7.298445 0.6048039 
v -2.038424 7.298445 0.6048039 
v -2.038424 7.882327 0.6048039 
v -1.460125 7.882327 0.6048039 
v -3.108873 7.326249 0.6048039 
v -3.108873 6.950896 0.6048039 
v 0.2666306 7.584303 -1.121953 
v 0.6048036 7.584303 -1.460126 
v 0.2666306 7.882327 -1.121953 
v 0.6048036 7.882327 -1.460126 
v 1.013722 8.393563 -1.869045 
v 0.2666306 8.393563 -1.121953 
v 1.013722 7.584303 -1.869045 
v 1.770644 7.622839 -2.625967 
v 1.770644 7.1026 -2.625967 
v 0.4536033 7.076015 -0.453603 
v 0.4536033 7.385661 -0.453603 
v 0.6048036 7.298445 -0.9818771 
v 0.5607224 7.584303 -0.8278611 
v 0.6048036 7.584303 -0.9818771 
v -0.6048036 7.882327 -2.038424 
v 0.6048036 7.882327 -2.038424 
v -0.6048036 7.882327 -1.460126 
v -0.2666306 7.882327 -1.121953 
v 0.8278608 7.584303 -0.5607221 
v 0.9818769 7.584303 -0.6048042 
v 1.460125 7.584303 -0.6048042 
v 1.869044 7.584303 -1.013723 
v 1.121953 7.584303 -0.2666309 
v 1.121953 7.882327 -0.2666309 
v 0.9818769 7.882327 -0.1888958 
v 1.121953 8.393563 -0.2666309 
v 1.460125 7.882327 -0.6048042 
v 2.038424 7.882327 -0.6048042 
v 1.869044 8.393563 -1.013723 
v 2.625966 7.1026 -1.770644 
v 2.625966 7.622839 -1.770644 
v 0.6048036 7.298445 -2.038424 
v 0.6048036 6.950896 -3.108874 
v 0.6048036 7.326249 -3.108874 
v 0 7.834788 -0.6414914 
v 0 7.276013 -0.6414914 
v -0.4536033 7.385661 -0.453603 
v -0.4536033 7.076015 -0.453603 
v -0.5607224 7.584303 -0.8278611 
v -0.6048036 7.298445 -0.9818771 
v -0.6048036 7.584303 -0.9818771 
v -2.038424 7.298445 -0.6048042 
v -0.9818769 7.298445 -0.6048042 
v -2.038424 7.882327 -0.6048042 
v -1.460125 7.584303 -0.6048042 
v -1.460125 7.882327 -0.6048042 
v -0.9818769 7.584303 -0.6048042 
v -3.108873 7.326249 -0.6048042 
v -3.108873 6.950896 -0.6048042 
v 0.2666306 7.882327 1.121953 
v 0.1888967 7.882327 0.9818769 
v 0 7.622559 0.6414914 
v 0.2666306 8.393563 1.121953 
v 0 7.834788 0.6414914 
v 0.6048036 7.882327 1.460126 
v 1.013722 8.393563 1.869045 
v 1.770644 7.622839 2.625967 
v 1.770644 7.1026 2.625967 
v -1.121953 7.584303 -0.2666309 
v -1.121953 7.882327 -0.2666309 
v -1.869044 7.584303 -1.013723 
v -1.869044 8.393563 -1.013723 
v -2.625966 7.622839 -1.770644 
v -2.625966 7.1026 -1.770644 
v -1.121953 8.393563 -0.2666309 
v -0.8278608 7.584303 -0.5607221 
v -0.4536033 7.076015 0.453603 
v -0.4536033 7.385661 0.453603 
v -0.2666306 7.584303 -1.121953 
v -0.2666306 8.393563 -1.121953 
v 0.6048036 7.882327 2.038424 
v -0.1888967 7.882327 0.9818769 
v -0.6414914 7.276013 0 
v -0.6414914 7.622559 0 
v -1.121953 7.882327 0.2666309 
v -0.9818769 7.882327 0.1888961 
v -1.121953 8.393563 0.2666309 
v -0.6414914 7.834788 0 
v -0.9818769 7.882327 -0.1888958 
v -1.869044 8.393563 1.013723 
v -2.625966 7.1026 1.770645 
v -2.625966 7.622839 1.770645 
v -1.013722 7.584303 -1.869045 
v -0.6048036 7.584303 -1.460126 
v -1.013722 8.393563 -1.869045 
v -1.770644 7.622839 -2.625967 
v -1.770644 7.1026 -2.625967 
v 0.6048036 7.298445 2.038424 
v 0.6048036 7.326249 3.108874 
v 0.6048036 6.950896 3.108874 
v -0.6048036 7.298445 -2.038424 
v -0.6048036 7.326249 -3.108874 
v -0.6048036 6.950896 -3.108874 
v 0.2898622 6.436525 -3.859437 
v 0.2898622 6.61725 -3.859437 
v -3.859437 6.436525 -0.289863 
v -3.859437 6.61725 -0.289863 
v -3.859437 6.436525 0.4359019 
v -0.4359007 6.61725 -3.859437 
v -0.2809763 7.076015 -0.2809766 
v 0.2809763 7.076015 -0.2809766 
v 0.2809763 7.076015 0.2809763 
v -0.2809763 7.076015 0.2809763 
v -0.4359007 6.436525 -3.859437 
v -3.859437 6.61725 0.4359019 
v 0.4359031 6.436525 3.859437 
v -0.2898622 6.436525 3.859437 
v 0.4359031 6.61725 3.859437 
v -0.2898622 6.61725 3.859437 
v 2.038424 7.298445 -0.6048042 
v 3.108873 6.950896 -0.6048042 
v 3.108873 7.326249 -0.6048042 
v 3.859437 6.61725 -0.4359022 
v 3.859437 6.61725 0.289863 
v 0.9818769 7.298445 -0.6048042 
v 3.859437 6.436525 -0.4359022 
v 3.859437 6.436525 0.289863 
v 2.420805 6.640166 -3.037263 
v 2.933998 6.640166 -2.524071 
v -3.037264 6.640166 -2.420805 
v -3.037264 6.389681 -2.420805 
v 2.420805 6.389681 -3.037263 
v 2.933998 6.389681 -2.524071 
v 0 8.12381 0.4490441 
v -0.4490447 8.12381 0 
v 0.4490447 8.12381 0 
v 0 8.12381 -0.4490441 
v -0.3973603 7.276013 0 
v 0 7.276013 -0.3973603 
v 0.3973603 7.276013 0 
v 0 7.276013 0.3973606 
v 2.524071 6.389681 2.933998 
v 3.037264 6.389681 2.420805 
v -2.933998 6.389681 2.52407 
v -2.420805 6.389681 3.037264 
v -2.524071 6.640166 -2.933998 
v -2.524071 6.389681 -2.933998 
v -2.420805 6.640166 3.037264 
v -2.933998 6.640166 2.52407 
v 2.524071 6.640166 2.933998 
v 3.037264 6.640166 2.420805 

vn 0.275168 0 -0.9613961
vn 1 0 0
vn -0.7071068 0 0.7071068
vn -0.3564025 -0.8636866 -0.3564025
vn 0 0 -1
vn -0.7071068 0 -0.7071068
vn -0.9613961 0 0.275168
vn -0.4852365 0 0.8743829
vn 0 0.7949513 -0.6066733
vn 0.7071068 0 0.7071068
vn -0.9613961 0 -0.275168
vn -0.4852365 0 -0.8743829
vn -1 0 0
vn 0.8743829 0 0.4852365
vn 0.9613961 0 -0.275168
vn 0 0 1
vn 0.8743829 0 -0.4852365
vn 0.7071068 0 -0.7071068
vn -0.275168 0 0.9613961
vn -0.275168 0 -0.9613961
vn -0.8743829 0 0.4852365
vn 0.4852365 0 0.8743829
vn 0.3564025 -0.8636866 0.3564025
vn 0.9613961 0 0.275168
vn 0.3564025 -0.8636866 -0.3564025
vn 0.4852365 0 -0.8743829
vn -0.8743829 0 -0.4852365
vn -0.3564025 -0.8636866 0.3564025
vn -0.9221116 0 0.3869239
vn 0.388057 -0.9216354 0
vn 0.3869239 0 0.9221116
vn 0.4609899 0.8874055 0
vn -0.6066733 0.7949513 0
vn -0.565304 -0.8248826 0
vn 0 0.7269484 0.6866919
vn 0 -0.9511248 -0.3088068
vn 0.9756026 0 0.2195435
vn 0.2195435 0 -0.9756026
vn 0 -0.8248826 -0.565304
vn 0.6866919 0.7269484 0
vn 0 0.8874055 0.4609899
vn 0 -0.9216354 0.388057
vn -0.3088068 -0.9511248 0
vn 0 -0.9216354 -0.388057
vn 0.3088068 -0.9511248 0
vn -0.6866919 0.7269484 0
vn 0.565304 -0.8248826 0
vn -0.3869239 0 -0.9221116
vn 0 -0.9511248 0.3088068
vn 0 0.7269484 -0.6866919
vn 0.275168 0 0.9613961
vn 0 0.7949513 0.6066733
vn -0.2195435 0 0.9756026
vn 0.6066733 0.7949513 0
vn -0.388057 -0.9216354 0
vn -0.4609899 0.8874055 0
vn -0.9756026 0 -0.2195435
vn 0 0.8874055 -0.4609899
vn 0.9221116 0 -0.3869239
vn 0 -0.8248826 0.565304
vn -0.561942 0.6069946 0.561942
vn 0.845096 0 -0.5346145
vn 0.4869779 -0.7250552 -0.4869779
vn 0.4131658 0.8115343 0.4131658
vn 0.639743 0.4259786 -0.639743
vn -0.639743 0.4259786 -0.639743
vn 0.513827 0.6869961 -0.513827
vn 0.639743 0.4259786 0.639743
vn 0.2901717 -0.9119215 -0.2901717
vn -0.4131658 0.8115343 0.4131658
vn 0.5346145 0 0.845096
vn -0.9256279 0 -0.3784349
vn -0.639743 0.4259786 0.639743
vn 0.4869779 -0.7250552 0.4869779
vn -0.4869779 -0.7250552 0.4869779
vn -0.2901717 -0.9119215 0.2901717
vn -0.513827 0.6869961 -0.513827
vn -0.3784349 0 0.9256279
vn 0.2901717 -0.9119215 0.2901717
vn 0.561942 0.6069946 0.561942
vn 0.561942 0.6069946 -0.561942
vn 0.3784349 0 -0.9256279
vn -0.4869779 -0.7250552 -0.4869779
vn -0.4131658 0.8115343 -0.4131658
vn -0.2901717 -0.9119215 -0.2901717
vn 0.9256279 0 0.3784349
vn -0.5346145 0 -0.845096
vn -0.845096 0 0.5346145
vn -0.513827 0.6869961 0.513827
vn 0.4131658 0.8115343 -0.4131658
vn -0.561942 0.6069946 -0.561942
vn 0.513827 0.6869961 0.513827

vt 50.54116 10.80839
vt 50.54116 15.68473
vt 59.19448 14.31125
vt 59.19448 18.81294
vt 56.67165 18.81294
vt -28.67737 23.50623
vt -28.67737 14.31125
vt -37.78443 23.50623
vt -37.78443 18.81294
vt -45.31591 14.31125
vt -45.31591 18.81294
vt -11.81989 8.83804
vt -11.81989 14.7491
vt -47.74136 51.94827
vt -51.25407 45.31591
vt -51.94827 47.74136
vt -51.25407 37.78443
vt -45.31591 51.25407
vt -44.8144 31.34476
vt -37.78443 51.25407
vt -31.34476 44.8144
vt -43.10999 56.57963
vt -56.57963 43.10999
vt -69.60881 47.74136
vt -70.30302 45.31591
vt -73.81573 51.94827
vt -70.30302 37.78443
vt -76.74268 31.34476
vt -76.24117 51.25407
vt -83.77265 51.25407
vt -90.21232 44.8144
vt -64.97746 43.10999
vt -78.44709 56.57963
vt -15.46263 18.81294
vt -22.99411 18.81294
vt -15.46263 23.50623
vt -22.99411 23.50623
vt -15.46263 31.55719
vt -32.10117 18.81294
vt -32.10117 31.55719
vt -48.95865 19.41981
vt -48.95865 11.22708
vt 76.42937 22.83714
vt 85.95384 16.63072
vt 78.81049 13.20485
vt 93.09719 13.20485
vt 88.92858 22.83714
vt 95.47831 22.83714
vt 82.9791 22.83714
vt 92.87971 14.31125
vt 76.24117 14.31125
vt 92.87971 23.50623
vt 83.77265 18.81294
vt 76.24117 18.81294
vt 83.77265 23.50623
vt 109.7372 14.7491
vt 109.7372 8.83804
vt 62.95973 23.50623
vt 70.49121 23.50623
vt 62.95973 18.81294
vt 70.49121 18.81294
vt 53.85266 31.55719
vt 53.85266 18.81294
vt 36.99519 19.41981
vt 36.99519 11.22708
vt 70.49121 31.55719
vt 24.22141 14.31125
vt 24.22141 18.81294
vt 32.87473 10.80839
vt 26.74424 18.81294
vt 32.87473 15.68473
vt -32.48497 13.95799
vt -41.13829 18.81294
vt -32.48497 19.4154
vt -41.13829 23.50623
vt -38.61546 23.50623
vt -32.48497 22.75759
vt -41.13829 31.55719
vt 60.77854 68.12556
vt 57.8038 74.86861
vt 63.75328 74.86861
vt 45.31591 14.31125
vt 28.67737 14.31125
vt 45.31591 18.81294
vt 37.78443 18.81294
vt 28.67737 23.50623
vt 37.78443 23.50623
vt 11.81989 14.7491
vt 11.81989 8.83804
vt -101.4165 18.81294
vt -108.948 18.81294
vt -101.4165 23.50623
vt -108.948 23.50623
vt -118.055 31.55719
vt -101.4165 31.55719
vt -118.055 18.81294
vt -134.9125 19.41981
vt -134.9125 11.22708
vt 83.98978 10.80839
vt 83.98978 15.68473
vt 92.64311 14.31125
vt 90.12028 18.81294
vt 92.64311 18.81294
vt 51.25407 92.87971
vt 70.30302 92.87971
vt 51.25407 83.77265
vt 56.57963 78.44709
vt 57.8038 76.24117
vt 63.75328 76.24117
vt 64.97746 78.44709
vt 70.30302 83.77265
vt -64.97746 78.44709
vt -69.60881 73.81573
vt -70.30302 83.77265
vt -70.30302 76.24117
vt -76.74268 90.21232
vt -73.81573 69.60881
vt -76.24117 70.30302
vt -83.77265 70.30302
vt -90.21232 76.74268
vt -78.44709 64.97746
vt 91.46891 13.95799
vt 91.46891 19.4154
vt 100.1222 18.81294
vt 100.1222 23.50623
vt 97.5994 23.50623
vt 100.1222 31.55719
vt 91.46891 22.75759
vt 76.24117 63.75328
vt 78.44709 64.97746
vt 76.24117 57.8038
vt 78.44709 56.57963
vt 83.77265 70.30302
vt 83.77265 51.25407
vt 92.87971 70.30302
vt 92.87971 51.25407
vt 108.948 18.81294
vt 108.948 23.50623
vt 118.055 18.81294
vt 118.055 31.55719
vt 101.4165 31.55719
vt 101.4165 23.50623
vt 101.4165 18.81294
vt 134.9125 11.22708
vt 134.9125 19.41981
vt -91.46891 22.75759
vt -91.46891 19.4154
vt -100.1222 31.55719
vt -97.5994 23.50623
vt -100.1222 23.50623
vt -100.1222 18.81294
vt -91.46891 13.95799
vt -50.54116 15.68473
vt -50.54116 10.80839
vt -56.67165 18.81294
vt -59.19448 14.31125
vt -59.19448 18.81294
vt -6.165207 23.50623
vt -6.165207 18.81294
vt -8.688038 23.50623
vt -14.81853 13.95799
vt -14.81853 19.4154
vt -6.165207 31.55719
vt -14.81853 22.75759
vt 22.99411 18.81294
vt 15.46263 18.81294
vt 22.99411 23.50623
vt 15.46263 23.50623
vt 32.10117 18.81294
vt 32.10117 31.55719
vt 15.46263 31.55719
vt 48.95865 19.41981
vt 48.95865 11.22708
vt -32.87473 10.80839
vt -32.87473 15.68473
vt -24.22141 14.31125
vt -24.22141 18.81294
vt -26.74424 18.81294
vt 66.32335 10.80839
vt 57.67003 14.31125
vt 66.32335 15.68473
vt 57.67003 18.81294
vt 60.19286 18.81294
vt 32.48497 13.95799
vt 32.48497 19.4154
vt 41.13829 18.81294
vt 38.61546 23.50623
vt 41.13829 23.50623
vt 41.13829 31.55719
vt 32.48497 22.75759
vt 51.25407 37.78443
vt 56.57963 43.10999
vt 51.25407 28.67737
vt 70.30302 28.67737
vt 57.8038 45.31591
vt 63.75328 45.31591
vt 64.97746 43.10999
vt 70.30302 37.78443
vt -73.80247 13.95799
vt -73.80247 19.4154
vt -65.14915 18.81294
vt -65.14915 23.50623
vt -67.67198 23.50623
vt -65.14915 31.55719
vt -73.80247 22.75759
vt -88.92858 22.83714
vt -85.95384 16.63072
vt -95.47831 22.83714
vt -93.09719 13.20485
vt -78.81049 13.20485
vt -82.9791 22.83714
vt -76.42937 22.83714
vt 28.67737 70.30302
vt 37.78443 70.30302
vt 28.67737 51.25407
vt 37.78443 51.25407
vt 43.10999 64.97746
vt 43.10999 56.57963
vt 45.31591 63.75328
vt 45.31591 57.8038
vt -62.95973 23.50623
vt -62.95973 18.81294
vt -70.49121 23.50623
vt -70.49121 18.81294
vt -70.49121 31.55719
vt -53.85266 18.81294
vt -53.85266 31.55719
vt -36.99519 11.22708
vt -36.99519 19.41981
vt -57.67003 14.31125
vt -66.32335 10.80839
vt -57.67003 18.81294
vt -60.19286 18.81294
vt -66.32335 15.68473
vt -31.34476 76.74268
vt -37.78443 70.30302
vt -44.8144 90.21232
vt -45.31591 70.30302
vt -51.25407 83.77265
vt -47.74136 69.60881
vt -51.25407 76.24117
vt -51.94827 73.81573
vt -56.57963 78.44709
vt -43.10999 64.97746
vt -9.524473 -51.40004
vt -2.97474 -51.40004
vt -7.143355 -61.03232
vt 2.60334E-10 -57.60646
vt 7.143355 -61.03232
vt 9.524473 -51.40004
vt 2.97474 -51.40004
vt 14.81853 13.95799
vt 6.165207 18.81294
vt 14.81853 19.4154
vt 6.165207 23.50623
vt 8.688038 23.50623
vt 14.81853 22.75759
vt 6.165207 31.55719
vt 65.14915 18.81294
vt 65.14915 23.50623
vt 73.80247 13.95799
vt 67.67198 23.50623
vt 73.80247 19.4154
vt 65.14915 31.55719
vt 73.80247 22.75759
vt 9.524473 97.07431
vt -1.967937E-10 90.8679
vt 2.97474 97.07431
vt 7.143355 87.44203
vt -7.143355 87.44203
vt -2.97474 97.07431
vt -9.524473 97.07431
vt -83.77265 23.50623
vt -83.77265 18.81294
vt -92.87971 23.50623
vt -92.87971 14.31125
vt -76.24117 18.81294
vt -76.24117 14.31125
vt -109.7372 14.7491
vt -109.7372 8.83804
vt 73.98802 8.83804
vt 73.98802 14.7491
vt 86.80631 0.7376953
vt 86.80631 3.583762
vt -70.30302 -36.21117
vt -51.25407 -36.21117
vt -67.9219 -45.23781
vt -53.63519 -45.23781
vt -25.28289 0.7376953
vt -38.10118 8.83804
vt -25.28289 3.583762
vt -38.10118 14.7491
vt -70.30302 17.28823
vt -70.30302 36.28459
vt -51.25407 17.28823
vt -51.25407 36.28459
vt 57.8038 -21.76334
vt 63.75328 -21.76334
vt 60.77854 -28.50639
vt -51.25407 28.67737
vt -70.30302 28.67737
vt 65.34332 0.4170221
vt 53.91394 0.4170221
vt 70.30302 14.74621
vt 51.25407 14.74621
vt -51.25407 -69.6452
vt -53.91394 -85.9048
vt -70.30302 -69.6452
vt -65.34332 -85.9048
vt 51.25407 -101.6445
vt 51.25407 -83.92079
vt 70.30302 -101.6445
vt 70.30302 -83.92079
vt -53.63519 53.63519
vt -56.35372 65.20337
vt -53.63519 67.9219
vt -67.9219 67.9219
vt -65.20337 65.20337
vt -65.20337 56.35372
vt -56.35372 56.35372
vt -67.9219 53.63519
vt -53.91394 0.7376953
vt -65.34332 0.7376953
vt -53.91394 3.583762
vt -65.34332 3.583762
vt -28.67737 70.30302
vt -28.67737 51.25407
vt -118.3124 14.7491
vt -118.3124 8.83804
vt -130.4279 3.583762
vt -130.4279 0.7376953
vt -11.83646 0.7376953
vt -11.83646 3.583762
vt 0.2790205 8.83804
vt 0.2790205 14.7491
vt 51.25407 -85.52412
vt 70.30302 -85.52412
vt 53.91394 -99.85331
vt 65.34332 -99.85331
vt -51.25407 92.87971
vt -70.30302 92.87971
vt -65.34332 2.460941
vt -70.30302 18.72054
vt -53.91394 2.460941
vt -51.25407 18.72054
vt -51.25407 -90.58219
vt -70.30302 -90.58219
vt -51.25407 -71.58583
vt -70.30302 -71.58583
vt -51.25407 75.82014
vt -53.63519 66.7935
vt -70.30302 75.82014
vt -67.9219 66.7935
vt 70.30302 13.97144
vt 51.25407 13.97144
vt 70.30302 31.69517
vt 51.25407 31.69517
vt 51.25407 -36.21117
vt 70.30302 -36.21117
vt 53.63519 -45.23781
vt 67.9219 -45.23781
vt 67.64314 0.7376953
vt 56.21377 0.7376953
vt 67.64314 3.583762
vt 56.21377 3.583762
vt -70.30302 -83.92079
vt -51.25407 -83.92079
vt -70.30302 -101.6445
vt -51.25407 -101.6445
vt 70.30302 -69.6452
vt 67.64314 -85.9048
vt 51.25407 -69.6452
vt 56.21377 -85.9048
vt -70.30302 -85.52412
vt -51.25407 -85.52412
vt -67.64314 -99.85331
vt -56.21377 -99.85331
vt 133.8397 0.7376953
vt 121.0214 8.83804
vt 133.8397 3.583762
vt 121.0214 14.7491
vt -51.25407 31.69517
vt -51.25407 13.97144
vt -70.30302 31.69517
vt -70.30302 13.97144
vt 51.25407 18.72054
vt 70.30302 18.72054
vt 56.21377 2.460941
vt 67.64314 2.460941
vt -92.87971 70.30302
vt -92.87971 51.25407
vt -83.98978 10.80839
vt -92.64311 14.31125
vt -83.98978 15.68473
vt -92.64311 18.81294
vt -90.12028 18.81294
vt -57.8038 -21.76334
vt -60.77854 -28.50639
vt -63.75328 -21.76334
vt -103.7408 0.7376953
vt -103.7408 3.583762
vt -91.62533 8.83804
vt -91.62533 14.7491
vt -60.77854 68.12556
vt -63.75328 74.86861
vt -57.8038 74.86861
vt 67.9219 66.7935
vt 53.63519 66.7935
vt 70.30302 75.82014
vt 51.25407 75.82014
vt 70.30302 -71.58583
vt 70.30302 -90.58219
vt 51.25407 -71.58583
vt 51.25407 -90.58219
vt 14.85062 0.7376953
vt 14.85062 3.583762
vt 26.96609 8.83804
vt 26.96609 14.7491
vt 51.25407 36.28459
vt 70.30302 36.28459
vt 51.25407 17.28823
vt 70.30302 17.28823
vt 21.75045 3.583762
vt 21.75045 0.7376953
vt 8.932162 14.7491
vt 8.932162 8.83804
vt -51.25407 14.74621
vt -56.21377 0.4170221
vt -70.30302 14.74621
vt -67.64314 0.4170221
vt 9.524473 -66.45812
vt 6.864597 -85.93094
vt -9.524473 -66.45812
vt -4.56477 -85.93094
vt -64.54376 19.41981
vt -64.54376 11.22708
vt -76.65924 3.944649
vt -76.65924 0
vt -9.524473 -90.08702
vt 9.524473 -90.08702
vt -6.864597 -106.3891
vt 4.56477 -106.3891
vt -76.42937 -28.38454
vt -95.47831 -28.38454
vt -76.42937 -7.612188
vt -95.47831 -7.612188
vt 7.143355 54.16113
vt -7.143355 54.16113
vt 5.000348 59.19191
vt -5.000348 59.19191
vt 78.81049 17.54663
vt 80.95349 22.57742
vt 93.09719 17.54663
vt 90.95419 22.57742
vt -7.143355 80.49447
vt -9.524473 92.6041
vt 7.143355 80.49447
vt 9.524473 92.6041
vt -78.81049 17.54663
vt -93.09719 17.54663
vt -80.95349 22.57742
vt -90.95419 22.57742
vt 6.864597 0
vt -4.56477 0
vt 6.864597 3.944649
vt -4.56477 3.944649
vt -50.67632 60.77854
vt -54.5209 60.77854
vt -60.77854 70.88077
vt -60.77854 67.03619
vt -70.88077 60.77854
vt -67.03619 60.77854
vt -60.77854 50.67632
vt -60.77854 54.5209
vt -9.524473 -99.93674
vt 9.524473 -99.93674
vt -9.524473 -118.4224
vt 9.524473 -118.4224
vt 9.524473 -77.36668
vt 9.524473 -98.13903
vt -9.524473 -77.36668
vt -9.524473 -98.13903
vt 76.74268 90.21232
vt 90.21232 76.74268
vt -141.6454 0
vt -141.6454 3.944649
vt -129.53 11.22708
vt -129.53 19.41981
vt 120.7191 11.22708
vt 120.7191 19.41981
vt 133.5374 1.4458E-14
vt 133.5374 3.944649
vt 50.67632 60.77854
vt 60.77854 70.88077
vt 60.77854 50.67632
vt 70.88077 60.77854
vt 53.70698 60.77854
vt 60.77854 67.85011
vt 60.77854 53.70698
vt 67.85011 60.77854
vt 7.143355 -19.06786
vt -7.143355 -19.06786
vt 5.000348 -14.03708
vt -5.000348 -14.03708
vt -76.42937 -27.76574
vt -81.38907 -44.0678
vt -95.47831 -27.76574
vt -92.81844 -44.0678
vt 4.56477 18.25348
vt -6.864597 18.25348
vt 9.524473 34.55554
vt -9.524473 34.55554
vt 9.524473 38.34391
vt -9.524473 38.34391
vt 9.524473 56.82957
vt -9.524473 56.82957
vt 76.42937 33.55415
vt 95.47831 33.55415
vt 78.81049 21.44451
vt 93.09719 21.44451
vt -79.08924 3.944649
vt -79.08924 0
vt -90.51861 3.944649
vt -90.51861 0
vt 21.02079 2.536405E-14
vt 8.202498 11.22708
vt 21.02079 3.944649
vt 8.202498 19.41981
vt -76.42937 -21.55358
vt -76.42937 -40.03925
vt -95.47831 -21.55358
vt -95.47831 -40.03925
vt -79.08924 -33.75742
vt -90.51861 -33.75742
vt -76.42937 -14.2846
vt -95.47831 -14.2846
vt 31.34476 44.8144
vt 44.8144 31.34476
vt 76.74268 31.34476
vt 90.21232 44.8144
vt -4.56477 18.41611
vt -9.524473 37.88892
vt 6.864597 18.41611
vt 9.524473 37.88892
vt 87.53598 -1.221751E-14
vt 74.71769 11.22708
vt 87.53598 3.944649
vt 74.71769 19.41981
vt 31.34476 76.74268
vt 44.8144 90.21232
vt 79.08924 -44.0678
vt 76.42937 -27.76574
vt 90.51861 -44.0678
vt 95.47831 -27.76574
vt 76.42937 -7.612188
vt 95.47831 -7.612188
vt 76.42937 -28.38454
vt 95.47831 -28.38454
vt 81.38907 0
vt 81.38907 3.944649
vt 92.81844 0
vt 92.81844 3.944649
vt 76.42937 -40.03925
vt 76.42937 -21.55358
vt 95.47831 -40.03925
vt 95.47831 -21.55358
vt -24.98065 3.944649
vt -24.98065 -1.311458E-15
vt -37.79894 19.41981
vt -37.79894 11.22708
vt 26.06816 0
vt 26.06816 3.944649
vt 38.18364 11.22708
vt 38.18364 19.41981
vt -38.91802 0
vt -38.91802 3.944649
vt -26.80254 11.22708
vt -26.80254 19.41981
vt 9.524473 -25.4958
vt 7.143355 -37.60544
vt -9.524473 -25.4958
vt -7.143355 -37.60544
vt -9.524473 41.36996
vt -9.524473 62.1423
vt 9.524473 41.36996
vt 9.524473 62.1423
vt 76.42937 -14.2846
vt 95.47831 -14.2846
vt 81.38907 -33.75742
vt 92.81844 -33.75742
vt -78.81049 21.44451
vt -93.09719 21.44451
vt -76.42937 33.55415
vt -95.47831 33.55415

usemtl natureKit-leavesGreen
# usermap natureKit-leavesGreen

f 22/74/19 21/73/19 23/75/19
f 23/75/19 24/76/19 22/74/19
f 24/76/19 25/77/19 22/74/19
f 27/79/20 26/78/20 28/80/20
f 28/80/20 29/81/20 27/79/20
f 29/81/20 30/82/20 27/79/20
f 29/81/20 31/83/20 30/82/20
f 26/78/20 27/79/20 32/84/20
f 32/84/20 33/85/20 26/78/20
f 31/87/13 34/86/13 35/88/13
f 34/86/13 31/87/13 29/89/13
f 29/89/13 31/87/13 35/88/13
f 36/90/13 34/86/13 29/89/13
f 36/90/13 29/89/13 37/91/13
f 38/92/13 36/90/13 37/91/13
f 37/91/13 39/93/13 38/92/13
f 36/90/13 38/92/13 40/94/13
f 40/94/13 34/86/13 36/90/13
f 35/88/13 41/95/13 29/89/13
f 43/97/13 42/96/13 25/98/13
f 25/98/13 44/99/13 43/97/13
f 42/96/13 43/97/13 44/99/13
f 25/98/13 45/100/13 44/99/13
f 25/98/13 24/101/13 45/100/13
f 24/101/13 46/102/13 45/100/13
f 46/102/13 47/103/13 45/100/13
f 44/99/13 48/104/13 42/96/13
f 24/101/13 25/98/13 49/105/13
f 49/105/13 46/102/13 24/101/13
f 46/107/21 49/106/21 50/108/21
f 50/108/21 51/109/21 46/107/21
f 51/109/21 50/108/21 52/110/21
f 47/111/21 46/107/21 51/109/21
f 51/109/21 53/112/21 47/111/21
f 51/109/21 52/110/21 53/112/21
f 47/111/21 53/112/21 54/113/21
f 54/113/21 55/114/21 47/111/21
f 22/116/22 48/115/22 56/117/22
f 56/117/22 57/118/22 22/116/22
f 57/118/22 25/119/22 22/116/22
f 57/118/22 49/120/22 25/119/22
f 48/115/22 22/116/22 42/121/22
f 42/121/22 22/116/22 25/119/22
f 23/123/23 58/122/23 59/124/23
f 59/124/23 46/125/23 23/123/23
f 46/125/23 24/126/23 23/123/23
f 59/124/23 51/127/23 46/125/23
f 60/128/23 59/124/23 58/122/23
f 58/122/23 61/129/23 60/128/23
f 62/131/24 28/130/24 29/132/24
f 29/132/24 41/133/24 62/131/24
f 29/132/24 28/130/24 63/134/24
f 63/134/24 37/135/24 29/132/24
f 37/135/24 63/134/24 64/136/24
f 64/136/24 65/137/24 37/135/24
f 66/138/24 63/134/24 28/130/24
f 28/130/24 62/131/24 66/138/24
f 43/140/25 67/139/25 21/141/25
f 21/141/25 42/142/25 43/140/25
f 21/141/25 22/143/25 42/142/25
f 49/145/26 57/144/26 68/146/26
f 68/146/26 50/147/26 49/145/26
f 68/146/26 69/148/26 50/147/26
f 69/148/26 68/146/26 70/149/26
f 70/149/26 52/150/26 69/148/26
f 52/150/26 50/147/26 69/148/26
f 72/152/27 71/151/27 73/153/27
f 75/155/23 74/154/23 36/156/23
f 36/156/23 38/157/23 75/155/23
f 38/157/23 76/158/23 75/155/23
f 38/157/23 77/159/23 76/158/23
f 75/155/23 76/158/23 78/160/23
f 78/160/23 79/161/23 75/155/23
f 81/163/28 80/162/28 82/164/28
f 82/164/28 83/165/28 81/163/28
f 84/166/28 83/165/28 82/164/28
f 84/166/28 81/163/28 83/165/28
f 82/164/28 85/167/28 84/166/28
f 84/166/28 86/168/28 81/163/28
f 86/168/28 84/166/28 87/169/28
f 87/169/28 88/170/28 86/168/28
f 90/172/29 89/171/29 91/173/29
f 91/173/29 92/174/29 90/172/29
f 91/173/29 93/175/29 92/174/29
f 95/177/17 94/176/17 96/178/17
f 96/178/17 97/179/17 95/177/17
f 97/179/17 72/180/17 95/177/17
f 72/180/17 73/181/17 95/177/17
f 73/181/17 82/182/17 95/177/17
f 82/182/17 83/183/17 95/177/17
f 92/185/13 80/184/13 81/186/13
f 81/186/13 93/187/13 92/185/13
f 93/187/13 81/186/13 86/188/13
f 86/188/13 98/189/13 93/187/13
f 92/185/13 93/187/13 98/189/13
f 86/188/13 99/190/13 98/189/13
f 86/188/13 100/191/13 99/190/13
f 86/188/13 101/192/13 100/191/13
f 102/193/13 98/189/13 99/190/13
f 99/190/13 100/191/13 102/193/13
f 68/195/30 57/194/30 102/196/30
f 102/196/30 103/197/30 68/195/30
f 103/197/30 104/198/30 68/195/30
f 104/198/30 103/197/30 105/199/30
f 70/200/30 68/195/30 104/198/30
f 104/198/30 105/199/30 70/200/30
f 103/202/17 104/201/17 69/203/17
f 69/203/17 50/204/17 103/202/17
f 50/204/17 106/205/17 103/202/17
f 50/204/17 51/206/17 106/205/17
f 51/206/17 107/207/17 106/205/17
f 51/206/17 59/208/17 107/207/17
f 106/210/24 100/209/24 101/211/24
f 106/210/24 101/211/24 108/212/24
f 106/210/24 108/212/24 105/213/24
f 105/213/24 103/214/24 106/210/24
f 100/209/24 106/210/24 103/214/24
f 103/214/24 102/215/24 100/209/24
f 108/212/24 101/211/24 109/216/24
f 109/216/24 110/217/24 108/212/24
f 93/126/31 91/123/31 111/122/31
f 111/122/31 81/125/31 93/126/31
f 111/122/31 83/127/31 81/125/31
f 111/122/31 95/124/31 83/127/31
f 95/124/31 111/122/31 112/129/31
f 112/129/31 113/128/31 95/124/31
f 71/219/32 114/218/32 85/220/32
f 85/220/32 73/221/32 71/219/32
f 85/220/32 82/222/32 73/221/32
f 71/219/32 73/221/32 80/223/32
f 73/221/32 82/222/32 80/223/32
f 80/223/32 115/224/32 71/219/32
f 117/226/33 116/225/33 118/227/33
f 118/227/33 119/228/33 117/226/33
f 118/227/33 120/229/33 119/228/33
f 122/82/34 121/79/34 123/78/34
f 123/78/34 124/81/34 122/82/34
f 123/78/34 125/80/34 124/81/34
f 122/82/34 124/81/34 126/83/34
f 127/85/34 123/78/34 121/79/34
f 121/79/34 128/84/34 127/85/34
f 48/231/35 129/230/35 130/232/35
f 130/232/35 56/233/35 48/231/35
f 130/232/35 131/234/35 56/233/35
f 130/232/35 129/230/35 132/235/35
f 132/235/35 133/236/35 130/232/35
f 133/236/35 131/234/35 130/232/35
f 48/238/36 44/237/36 134/239/36
f 134/239/36 129/240/36 48/238/36
f 134/239/36 44/237/36 45/241/36
f 45/241/36 135/242/36 134/239/36
f 135/242/36 129/240/36 134/239/36
f 135/242/36 132/243/36 129/240/36
f 136/244/36 135/242/36 45/241/36
f 45/241/36 137/245/36 136/244/36
f 125/109/36 124/107/36 138/106/36
f 138/106/36 139/108/36 125/109/36
f 140/111/36 124/107/36 125/109/36
f 125/109/36 141/112/36 140/111/36
f 125/109/36 139/108/36 141/112/36
f 140/111/36 141/112/36 142/113/36
f 142/113/36 143/114/36 140/111/36
f 139/108/36 144/110/36 141/112/36
f 116/247/37 117/246/37 122/248/37
f 122/248/37 126/249/37 116/247/37
f 126/249/37 145/250/37 116/247/37
f 74/252/38 146/251/38 147/253/38
f 147/253/38 36/254/38 74/252/38
f 147/253/38 34/255/38 36/254/38
f 71/257/39 115/256/39 148/258/39
f 148/258/39 72/259/39 71/257/39
f 148/258/39 97/260/39 72/259/39
f 71/257/39 72/259/39 149/261/39
f 72/259/39 97/260/39 149/261/39
f 149/261/39 114/262/39 71/257/39
f 62/264/17 28/263/17 26/265/17
f 26/265/17 150/266/17 62/264/17
f 150/266/17 151/267/17 62/264/17
f 150/266/17 130/268/17 151/267/17
f 150/266/17 129/269/17 130/268/17
f 150/266/17 134/270/17 129/269/17
f 153/272/40 152/271/40 40/273/40
f 40/273/40 154/274/40 153/272/40
f 154/274/40 155/275/40 153/272/40
f 155/275/40 154/274/40 156/276/40
f 157/277/40 153/272/40 155/275/40
f 155/275/40 156/276/40 157/277/40
f 116/279/41 118/278/41 148/280/41
f 116/279/41 148/280/41 115/281/41
f 116/279/41 115/281/41 152/282/41
f 145/283/41 116/279/41 152/282/41
f 145/283/41 118/278/41 116/279/41
f 152/282/41 138/284/41 145/283/41
f 125/286/17 123/285/17 76/287/17
f 76/287/17 77/288/17 125/286/17
f 77/288/17 139/289/17 125/286/17
f 77/288/17 154/290/17 139/289/17
f 154/290/17 158/291/17 139/289/17
f 154/290/17 155/292/17 158/291/17
f 38/294/28 77/293/28 154/295/28
f 154/295/28 40/296/28 38/294/28
f 156/297/28 154/295/28 77/293/28
f 156/297/28 77/293/28 39/298/28
f 39/298/28 77/293/28 38/294/28
f 39/298/28 159/299/28 156/297/28
f 159/299/28 39/298/28 160/300/28
f 160/300/28 161/301/28 159/299/28
f 146/303/42 30/302/42 31/304/42
f 31/304/42 35/305/42 146/303/42
f 35/305/42 147/306/42 146/303/42
f 124/308/13 140/307/13 162/309/13
f 162/309/13 126/310/13 124/308/13
f 162/309/13 163/311/13 126/310/13
f 163/311/13 145/312/13 126/310/13
f 163/311/13 120/313/13 145/312/13
f 120/313/13 118/314/13 145/312/13
f 120/313/13 163/311/13 148/315/13
f 148/315/13 118/314/13 120/313/13
f 138/316/13 124/308/13 126/310/13
f 126/310/13 145/312/13 138/316/13
f 34/318/43 40/317/43 152/319/43
f 152/319/43 147/320/43 34/318/43
f 152/319/43 56/321/43 147/320/43
f 56/321/43 41/322/43 147/320/43
f 35/323/43 147/320/43 41/322/43
f 35/323/43 34/318/43 147/320/43
f 148/238/21 163/237/21 96/239/21
f 96/239/21 97/240/21 148/238/21
f 96/239/21 163/237/21 162/241/21
f 162/241/21 164/242/21 96/239/21
f 149/243/21 97/240/21 96/239/21
f 96/239/21 164/242/21 149/243/21
f 165/244/21 164/242/21 162/241/21
f 162/241/21 166/245/21 165/244/21
f 138/325/44 152/324/44 153/326/44
f 153/326/44 139/327/44 138/325/44
f 153/326/44 158/328/44 139/327/44
f 158/328/44 153/326/44 157/329/44
f 157/329/44 144/330/44 158/328/44
f 144/330/44 139/327/44 158/328/44
f 150/158/31 167/155/31 67/154/31
f 67/154/31 44/157/31 150/158/31
f 44/157/31 134/159/31 150/158/31
f 67/154/31 43/156/31 44/157/31
f 167/155/31 150/158/31 168/160/31
f 168/160/31 169/161/31 167/155/31
f 62/332/45 41/331/45 56/333/45
f 56/333/45 151/334/45 62/332/45
f 56/333/45 131/335/45 151/334/45
f 66/336/45 62/332/45 151/334/45
f 151/334/45 133/337/45 66/336/45
f 151/334/45 131/335/45 133/337/45
f 90/339/46 80/338/46 92/340/46
f 115/341/46 80/338/46 90/339/46
f 90/339/46 57/342/46 115/341/46
f 90/339/46 98/343/46 57/342/46
f 90/339/46 92/340/46 98/343/46
f 98/343/46 102/344/46 57/342/46
f 163/346/20 96/345/20 94/347/20
f 163/346/20 94/347/20 170/348/20
f 120/349/20 163/346/20 170/348/20
f 170/348/20 119/350/20 120/349/20
f 170/348/20 94/347/20 171/351/20
f 171/351/20 172/352/20 170/348/20
f 113/354/47 112/353/47 173/355/47
f 173/355/47 174/356/47 113/354/47
f 74/358/48 122/357/48 117/359/48
f 117/359/48 146/360/48 74/358/48
f 128/362/49 175/361/49 176/363/49
f 176/363/49 127/364/49 128/362/49
f 123/366/50 127/365/50 78/367/50
f 78/367/50 76/368/50 123/366/50
f 158/370/51 155/369/51 153/371/51
f 27/372/13 30/87/13 67/97/13
f 67/97/13 167/373/13 27/372/13
f 177/375/52 175/374/52 128/376/52
f 128/376/52 79/377/52 177/375/52
f 178/379/53 171/378/53 113/380/53
f 113/380/53 174/381/53 178/379/53
f 170/383/54 172/382/54 112/384/54
f 112/384/54 111/385/54 170/383/54
f 179/387/13 146/386/13 117/388/13
f 117/388/13 89/389/13 179/387/13
f 89/389/13 180/390/13 179/387/13
f 89/389/13 181/391/13 180/390/13
f 146/386/13 179/387/13 182/392/13
f 182/392/13 179/387/13 180/390/13
f 180/390/13 181/391/13 182/392/13
f 182/392/13 21/393/13 146/386/13
f 182/392/13 181/391/13 21/393/13
f 181/391/13 89/389/13 21/393/13
f 173/395/34 183/394/34 178/396/34
f 178/396/34 174/397/34 173/395/34
f 75/399/13 121/398/13 122/310/13
f 122/310/13 74/90/13 75/399/13
f 172/401/55 171/400/55 178/402/55
f 178/402/55 183/403/55 172/401/55
f 184/405/56 177/404/56 79/406/56
f 79/406/56 78/407/56 184/405/56
f 112/409/57 172/408/57 183/410/57
f 183/410/57 173/411/57 112/409/57
f 119/313/13 170/412/13 111/413/13
f 111/413/13 91/187/13 119/313/13
f 127/415/58 176/414/58 184/416/58
f 184/416/58 78/417/58 127/415/58
f 113/419/59 171/418/59 94/420/59
f 94/420/59 95/421/59 113/419/59
f 177/394/20 184/396/20 176/397/20
f 176/397/20 175/395/20 177/394/20
f 117/423/60 119/422/60 91/424/60
f 91/424/60 89/425/60 117/423/60
f 79/427/61 128/426/61 121/428/61
f 121/428/61 75/429/61 79/427/61
f 67/431/62 30/430/62 146/432/62
f 146/432/62 21/433/62 67/431/62
f 186/435/23 185/434/23 187/436/23
f 187/436/23 188/437/23 186/435/23
f 58/439/63 189/438/63 190/440/63
f 190/440/63 61/441/63 58/439/63
f 192/443/64 191/442/64 60/444/64
f 60/444/64 193/445/64 192/443/64
f 191/351/34 190/352/34 189/348/34
f 189/348/34 107/347/34 191/351/34
f 100/346/34 107/347/34 189/348/34
f 99/349/34 100/346/34 189/348/34
f 189/348/34 194/350/34 99/349/34
f 100/346/34 106/345/34 107/347/34
f 61/447/65 190/446/65 195/448/65
f 195/448/65 196/449/65 61/447/65
f 61/451/66 196/450/66 193/452/66
f 193/452/66 60/453/66 61/451/66
f 32/455/67 27/454/67 167/456/67
f 167/456/67 169/457/67 32/455/67
f 168/459/68 33/458/68 188/460/68
f 188/460/68 187/461/68 168/459/68
f 23/101/13 194/190/13 189/462/13
f 189/462/13 58/463/13 23/101/13
f 194/465/69 89/464/69 90/466/69
f 90/466/69 99/467/69 194/465/69
f 90/466/69 98/468/69 99/467/69
f 131/470/70 151/469/70 130/471/70
f 192/473/71 195/472/71 190/474/71
f 190/474/71 191/475/71 192/473/71
f 104/477/72 68/476/72 69/478/72
f 21/480/73 89/479/73 194/481/73
f 194/481/73 23/482/73 21/480/73
f 191/484/74 107/483/74 59/485/74
f 59/485/74 60/486/74 191/484/74
f 187/488/75 185/487/75 169/489/75
f 169/489/75 168/490/75 187/488/75
f 193/437/31 196/435/31 195/434/31
f 195/434/31 192/436/31 193/437/31
f 150/492/76 26/491/76 33/493/76
f 33/493/76 168/494/76 150/492/76
f 186/496/77 188/495/77 33/497/77
f 33/497/77 32/498/77 186/496/77
f 186/500/78 32/499/78 169/501/78
f 169/501/78 185/502/78 186/500/78
f 197/504/79 87/503/79 110/505/79
f 110/505/79 198/506/79 197/504/79
f 143/508/80 142/507/80 199/509/80
f 199/509/80 200/510/80 143/508/80
f 109/512/81 88/511/81 201/513/81
f 201/513/81 202/514/81 109/512/81
f 165/516/82 142/515/82 141/517/82
f 141/517/82 164/518/82 165/516/82
f 157/520/83 133/519/83 203/521/83
f 203/521/83 204/522/83 157/520/83
f 203/524/84 133/523/84 70/525/84
f 70/525/84 205/526/84 203/524/84
f 85/528/85 114/527/85 70/529/85
f 70/529/85 105/530/85 85/528/85
f 114/532/86 157/531/86 204/533/86
f 204/533/86 206/534/86 114/532/86
f 202/536/21 201/535/21 197/537/21
f 197/537/21 198/538/21 202/536/21
f 207/540/13 152/539/13 115/541/13
f 115/541/13 208/542/13 207/540/13
f 115/541/13 57/543/13 208/542/13
f 57/543/13 209/544/13 208/542/13
f 56/545/13 152/539/13 207/540/13
f 209/544/13 57/543/13 56/545/13
f 207/540/13 210/546/13 56/545/13
f 210/546/13 209/544/13 56/545/13
f 210/546/13 207/540/13 208/542/13
f 208/542/13 209/544/13 210/546/13
f 101/548/87 86/547/87 88/549/87
f 88/549/87 109/550/87 101/548/87
f 87/552/88 84/551/88 108/553/88
f 108/553/88 110/554/88 87/552/88
f 84/555/17 85/182/17 105/202/17
f 105/202/17 108/556/17 84/555/17
f 197/558/89 201/557/89 88/559/89
f 88/559/89 87/560/89 197/558/89
f 110/562/90 109/561/90 202/563/90
f 202/563/90 198/564/90 110/562/90
f 114/566/17 157/565/17 133/567/17
f 133/567/17 70/568/17 114/566/17
f 206/570/17 204/569/17 203/571/17
f 203/571/17 205/572/17 206/570/17
f 70/574/91 114/573/91 206/575/91
f 206/575/91 205/576/91 70/574/91
f 211/578/92 137/577/92 55/579/92
f 55/579/92 212/580/92 211/578/92
f 214/582/93 213/581/93 160/583/93
f 160/583/93 65/584/93 214/582/93
f 65/586/94 160/585/94 39/587/94
f 39/587/94 37/588/94 65/586/94
f 149/590/95 144/589/95 157/591/95
f 157/591/95 114/592/95 149/590/95
f 200/594/28 199/593/28 215/595/28
f 215/595/28 216/596/28 200/594/28
f 166/598/96 216/597/96 215/599/96
f 215/599/96 165/600/96 166/598/96
f 137/602/97 45/601/97 47/603/97
f 47/603/97 55/604/97 137/602/97
f 215/606/98 199/605/98 142/607/98
f 142/607/98 165/608/98 215/606/98
f 213/536/36 214/535/36 217/537/36
f 217/537/36 218/538/36 213/536/36
f 156/290/17 159/609/17 63/610/17
f 63/610/17 66/264/17 156/290/17
f 52/204/17 132/269/17 135/611/17
f 135/611/17 53/612/17 52/204/17
f 161/614/99 218/613/99 217/615/99
f 217/615/99 64/616/99 161/614/99
f 137/618/100 211/617/100 219/619/100
f 219/619/100 136/620/100 137/618/100
f 164/622/17 141/621/17 144/289/17
f 144/289/17 149/179/17 164/622/17
f 143/624/101 200/623/101 216/625/101
f 216/625/101 166/626/101 143/624/101
f 53/628/102 135/627/102 136/629/102
f 136/629/102 54/630/102 53/628/102
f 219/632/24 211/631/24 212/633/24
f 212/633/24 220/634/24 219/632/24
f 140/636/103 143/635/103 166/637/103
f 166/637/103 162/638/103 140/636/103
f 213/640/104 218/639/104 161/641/104
f 161/641/104 160/642/104 213/640/104
f 217/644/105 214/643/105 65/645/105
f 65/645/105 64/646/105 217/644/105
f 220/648/106 212/647/106 55/649/106
f 55/649/106 54/650/106 220/648/106
f 157/652/107 156/651/107 66/653/107
f 66/653/107 133/654/107 157/652/107
f 159/656/108 161/655/108 64/657/108
f 64/657/108 63/658/108 159/656/108
f 54/660/109 136/659/109 219/661/109
f 219/661/109 220/662/109 54/660/109
f 70/664/110 133/663/110 132/665/110
f 132/665/110 52/666/110 70/664/110
