# Exported using Kenney Suite 1.2 

mtllib plant_bushSmall.mtl 

g plant_bushSmall

v -0.4125357 0.6725936 -0.94794 
v -1.914885 1.5355 -4.562191E-14 
v 0 0 -4.562191E-14 
v 0.4125357 0.6725936 -0.94794 
v 1.914885 1.5355 -4.562191E-14 
v 0.4125357 0.6725936 0.94794 
v -0.4125357 0.6725936 0.94794 
v 0.776999 0.9080012 0.3623014 
v 0 2.072925 1.681712 
v -0.776999 0.9080012 0.3623014 
v -0.776999 0.9080012 -0.3623014 
v 0 2.072925 -1.681712 
v 0.776999 0.9080012 -0.3623014 

vn 0.5917128 -0.7379112 0.3245967
vn -0.5917128 0.7379112 -0.3245967
vn -0.5917128 -0.7379112 0.3245967
vn 0.5917128 0.7379112 -0.3245967
vn -0.5917128 -0.7379112 -0.3245967
vn 0.5917128 0.7379112 0.3245967
vn 0.5917128 -0.7379112 -0.3245967
vn -0.5917128 0.7379112 0.3245967
vn -0.3123738 -0.5260181 -0.7910295
vn 0.3123738 0.5260181 0.7910295
vn 0.3123738 -0.5260181 -0.7910295
vn -0.3123738 0.5260181 0.7910295
vn 0.3123738 -0.5260181 0.7910295
vn -0.3123738 0.5260181 -0.7910295
vn -0.3123738 -0.5260181 0.7910295
vn 0.3123738 0.5260181 -0.7910295

vt -5.13746 10.60423
vt 9.799719 24.20897
vt -3.351904E-13 1.596052E-13
vt 5.13746 10.60423
vt 3.625296E-13 1.228298E-13
vt -9.799719 24.20897
vt 3.351904E-13 -1.596052E-13
vt -3.625296E-13 -1.228298E-13
vt 6.529228 11.36031
vt 1.197125E-13 -2.001665E-13
vt -5.387286 25.93507
vt -1.725829E-13 -1.891841E-13
vt -6.529228 11.36031
vt 5.387286 25.93507
vt -1.197125E-13 2.001665E-13
vt 1.725829E-13 1.891841E-13

usemtl natureKit-leavesGreen
# usermap natureKit-leavesGreen

f 2/2/1 1/1/1 3/3/1
f 2/2/2 3/3/2 1/1/2
f 3/5/3 4/4/3 5/6/3
f 3/5/4 5/6/4 4/4/4
f 6/1/5 3/7/5 5/2/5
f 6/1/6 5/2/6 3/7/6
f 7/4/7 2/6/7 3/8/7
f 7/4/8 3/8/8 2/6/8
f 3/10/9 8/9/9 9/11/9
f 3/10/10 9/11/10 8/9/10
f 10/13/11 3/12/11 9/14/11
f 10/13/12 9/14/12 3/12/12
f 3/15/13 11/9/13 12/11/13
f 3/15/14 12/11/14 11/9/14
f 13/13/15 3/16/15 12/14/15
f 13/13/16 12/14/16 3/16/16
