# Exported using Kenney Suite 1.2 

mtllib rock_small5.mtl 

g rock_small5

v 0.9019995 0 1.56231 
v -0.9019995 0 1.56231 
v 0.7035589 1.76792 1.218602 
v -0.8403683 0.5490832 1.45556 
v -0.3875995 1.76792 1.218602 
v 1.803999 0 0 
v 1.219008 1.76792 0.3258205 
v 1.540031 1.175856 0 
v -0.294435 1.76792 -0.5111444 
v 0.516758 1.76792 -0.5111444 
v -0.1849222 2.56168 -0.3214658 
v 0.4292774 2.401995 -0.3596244 
v -0.02625227 2.56168 -0.3214658 
v -1.803999 0 0 
v -0.9056473 1.76792 0.8685771 
v -1.40712 1.76792 0 
v 0.516758 1.76792 0.8938825 
v 0.4894972 1.96552 0.8466636 
v 0.9223557 1.76792 0.191369 
v 0.5552912 2.56168 0.4477864 
v 0.7033324 2.56168 0.191369 
v 0.9019995 0 -1.56231 
v 1.261497 1.76792 -0.2522277 
v 0.7035589 1.76792 -1.218602 
v -0.9019995 0 -1.56231 
v -0.7397604 1.4454 -1.281304 
v 0.1315427 1.76792 -1.218602 
v -0.294435 1.76792 0.8938825 
v -0.1849222 2.56168 0.7042038 
v 0.1111627 2.56168 0.7042038 
v -0.9056473 1.76792 -0.8685771 
v -0.4810095 2.56168 0.191369 
v -0.7000303 1.76792 0.191369 
v 0.6239963 2.56168 0.05395535 

vn 0 0.1908407 -0.981621
vn -0.8501087 0.1908407 -0.4908105
vn 0 0.2324184 0.9726159
vn 0.8501087 0.1908407 -0.4908105
vn -0.8423101 0.2324184 -0.4863079
vn -0.8501087 0.1908407 0.4908105
vn 0 0.1908407 0.981621
vn 0 0.2324184 -0.9726159
vn 0 -1 0
vn 0.8501087 0.1908407 0.4908105
vn 0.8423101 0.2324184 0.4863079
vn 0.8423101 0.2324184 -0.4863079
vn 0.2207371 0.7234959 0.6540862
vn 0.5252212 0.346234 -0.7773446
vn -0.4428343 0.4643177 -0.7670116
vn -0.8423101 0.2324184 0.4863079
vn -0.2610821 0.8528449 0.4522074
vn -0.8918734 0.447509 -0.06555623
vn 0 1 0

vt 9.84252 -3.253404
vt -9.84252 -3.253404
vt 7.677166 16.39913
vt -9.170001 2.850308
vt -4.229435 16.39913
vt -7.677166 16.39913
vt 3.57184 16.39913
vt 8.402328 9.817632
vt 3.212832 17.46674
vt -5.638808 17.46674
vt 2.01786 26.37202
vt -4.684236 24.5805
vt 0.2864538 26.37202
vt 9.170001 2.850308
vt 3.26687 16.39913
vt -5.627757 16.49458
vt -5.330279 18.71148
vt 3.223883 16.49458
vt -1.201937 25.39986
vt 2.028912 25.39986
vt -8.402328 9.817632
vt -4.499107 16.39913
vt 8.072189 12.81393
vt -1.435384 16.39913
vt 5.638808 16.49607
vt -3.212832 16.49607
vt 5.341331 18.71296
vt -2.01786 25.40135
vt 1.212988 25.40135
vt 19.68504 0
vt 9.84252 -17.04774
vt 9.84252 17.04774
vt -9.84252 17.04774
vt -9.84252 -17.04774
vt -19.68504 0
vt -3.26687 16.39913
vt -8.072189 12.81393
vt 4.432786 26.3735
vt 5.627757 17.46822
vt -2.028912 26.3735
vt -3.223883 17.46822
vt 6.840745 16.98289
vt -2.010895 16.98289
vt 5.645774 25.88817
vt -0.8159232 25.88817
vt 6.332897 4.534009
vt 3.177741 -0.5639997
vt -5.611905 4.534009
vt 3.939958 13.46349
vt 1.293814 -0.7131652
vt -2.882289 13.46349
vt 2.804377 21.38538
vt 0.006380386 14.04038
vt -2.791617 21.38538
vt -6.840745 16.97992
vt -5.645774 25.8852
vt 2.010895 16.97992
vt -3.914367 25.8852
vt 1.056322 24.09368
vt 2.001975 12.12727
vt -2.094577 8.790273
vt -6.191129 12.12727
vt 1.231885 3.974323
vt -2.570656 11.19861
vt 3.753956 11.19861
vt -5.248709 -2.088197
vt -2.01786 3.507797
vt -2.01786 -7.684191
vt 1.212988 -7.684191
vt -0.2864538 3.507797
vt 6.808982 -0.5887545
vt 6.059261 -4.886194
vt 7.674685 -2.088197
vt -15.35433 0
vt -9.882313 9.477813
vt -9.882313 -9.477813
vt -7.638652 -2.088197
vt -4.229435 -13.29724
vt -3.212832 -9.753942
vt 7.677166 -13.29724
vt 5.638808 -9.753942
vt 10.06463 -2.088197
vt 13.30167 -3.555316
vt -3.212832 5.577549
vt 1.435384 13.29724
vt 5.638808 5.577549
vt 7.677166 13.29724
vt 13.7653 2.75228

usemtl natureKit-wood
# usermap natureKit-wood

f 2/2/1 1/1/1 3/3/1
f 3/3/1 4/4/1 2/2/1
f 3/3/1 5/5/1 4/4/1
f 3/6/2 1/2/2 6/1/2
f 6/1/2 7/7/2 3/6/2
f 6/1/2 8/8/2 7/7/2
f 10/10/3 9/9/3 11/11/3
f 11/11/3 12/12/3 10/10/3
f 11/11/3 13/13/3 12/12/3
f 14/2/4 2/1/4 4/14/4
f 4/14/4 15/15/4 14/2/4
f 15/15/4 16/6/4 14/2/4
f 18/17/5 17/16/5 19/18/5
f 19/18/5 20/19/5 18/17/5
f 19/18/5 21/20/5 20/19/5
f 8/21/6 6/2/6 22/1/6
f 22/1/6 23/22/6 8/21/6
f 22/1/6 24/3/6 23/22/6
f 22/2/7 25/1/7 26/23/7
f 26/23/7 24/6/7 22/2/7
f 26/23/7 27/24/7 24/6/7
f 28/26/8 17/25/8 18/27/8
f 18/27/8 29/28/8 28/26/8
f 18/27/8 30/29/8 29/28/8
f 2/31/9 14/30/9 25/32/9
f 25/32/9 22/33/9 2/31/9
f 22/33/9 1/34/9 2/31/9
f 22/33/9 6/35/9 1/34/9
f 14/1/10 16/3/10 31/36/10
f 31/36/10 25/2/10 14/1/10
f 31/36/10 26/37/10 25/2/10
f 33/39/11 32/38/11 11/40/11
f 11/40/11 9/41/11 33/39/11
f 33/43/12 28/42/12 29/44/12
f 29/44/12 32/45/12 33/43/12
f 26/47/13 31/46/13 27/48/13
f 4/50/14 5/49/14 15/51/14
f 18/53/15 20/52/15 30/54/15
f 21/56/16 19/55/16 10/57/16
f 10/57/16 34/58/16 21/56/16
f 10/57/16 12/59/16 34/58/16
f 12/61/17 13/60/17 34/62/17
f 7/64/18 8/63/18 23/65/18

usemtl natureKit-leavesGreen
# usermap natureKit-leavesGreen

f 11/67/19 32/66/19 29/68/19
f 29/68/19 30/69/19 11/67/19
f 30/69/19 13/70/19 11/67/19
f 30/69/19 34/71/19 13/70/19
f 30/69/19 20/72/19 34/71/19
f 20/72/19 21/73/19 34/71/19
f 31/75/19 16/74/19 15/76/19
f 15/76/19 33/77/19 31/75/19
f 15/76/19 5/78/19 33/77/19
f 5/78/19 28/79/19 33/77/19
f 5/78/19 3/80/19 28/79/19
f 3/80/19 17/81/19 28/79/19
f 3/80/19 19/82/19 17/81/19
f 3/80/19 7/83/19 19/82/19
f 31/75/19 33/77/19 9/84/19
f 9/84/19 27/85/19 31/75/19
f 9/84/19 10/86/19 27/85/19
f 10/86/19 24/87/19 27/85/19
f 10/86/19 19/82/19 24/87/19
f 19/82/19 23/88/19 24/87/19
f 19/82/19 7/83/19 23/88/19
