# Exported using Kenney Suite 1.2 

mtllib rock_tall6.mtl 

g rock_tall6

v -2.21848 0 -1.28084 
v 0 0 -2.56168 
v -2.004156 1.031749 -1.1571 
v 0 2.66992 -1.92126 
v -1.143179 2.66992 -1.261246 
v 1.663859 2.66992 1.173106E-14 
v 1.642957 2.837427 0.007905487 
v -0.359087 2.66992 -0.6626697 
v -0.2764988 5.73672 -0.3655178 
v 0.8634615 5.73672 0.007905487 
v 1.663859 2.66992 0.9606301 
v 1.281173 5.73672 0.884423 
v 1.281173 5.73672 0.58429 
v -1.663859 2.66992 9.023893E-16 
v -1.281173 5.73672 0.1447379 
v -1.663859 2.66992 0.9606301 
v -1.281173 5.73672 0.884423 
v 0 2.66992 1.92126 
v 0 5.73672 1.624108 
v -2.21848 0 1.28084 
v -1.663859 2.66992 -0.3593981 
v 2.21848 0 1.28084 
v 0 0 2.56168 
v 2.21848 0 -1.28084 
v 1.663859 2.66992 -0.9606301 

vn 0.4895492 0.2033872 0.8479241
vn -0.310215 0.08340367 0.9470008
vn -0.986213 0.165481 0
vn -0.9923041 0.1238237 0
vn -0.9841163 0.1775251 0
vn 0.4506419 0.09810901 0.8872973
vn 0.986213 0.165481 0
vn 0.9841163 0.1775251 0
vn 0.9923041 0.1238237 0
vn -0.4945098 0.1477837 -0.8565162
vn -0.4945793 0.1468514 -0.8566364
vn -0.4982489 0.08361806 -0.8629925
vn 0.4945793 0.1468514 -0.8566364
vn 0.4945098 0.1477837 -0.8565162
vn 0.4982489 0.08361806 -0.8629925
vn 0.9790983 0.2033872 0
vn -0.4895492 0.2033872 -0.8479241
vn -0.9790983 0.2033872 0
vn 0 1 0
vn 0.4895492 0.2033872 -0.8479241
vn -0.4895492 0.2033872 0.8479241
vn -0.7911904 0.2127176 0.5733836
vn 0.7974966 0.3898703 0.4604349

vt 5.042677 -1.776419
vt -5.042677 -1.776419
vt 4.555511 2.372299
vt -3.782008 8.959475
vt 1.414953 8.959475
vt -6.225141 10.3048
vt -6.156627 10.96658
vt 2.155647 10.3048
vt 1.482459 22.42103
vt -3.240227 22.42103
vt -3.782008 9.619478
vt -3.48198 21.78713
vt -5.361783E-14 9.619478
vt -2.300354 21.78713
vt -0.03112396 10.28407
vt 5.840533 10.16976
vt 0.07908584 10.16976
vt 4.755246 22.30231
vt 0.3189321 22.30231
vt 3.782008 9.619478
vt 3.71989E-15 9.619478
vt 3.48198 21.78713
vt 0.5698342 21.78713
vt 3.782008 9.926932
vt -3.782008 9.926932
vt 2.627229 22.04338
vt -3.197063 22.04338
vt 3.197063 22.04338
vt -2.627229 22.04338
vt 3.782008 8.959475
vt 4.649607E-15 8.959475
vt -1.414953 8.959475
vt -4.555511 2.372299
vt -4.6214E-14 8.959475
vt -8.734173 -5.042677
vt -8.734173 5.042677
vt -2.842171E-14 -10.08535
vt -2.842171E-14 10.08535
vt 8.734173 -5.042677
vt 8.734173 5.042677
vt -3.82091 9.805074
vt -4.822526 21.48697
vt -2.020046 21.48697
vt 2.04993 7.192155
vt -4.041212E-14 0.1884576
vt -2.04993 7.192155
vt -5.043985 -3.48198
vt -5.043985 -0.5698342
vt 2.878276E-14 -6.394126
vt -1.088573 1.439046
vt 3.399451 -0.03112396
vt 5.043985 -3.48198
vt 5.043985 -2.300354
vt -6.55063 -4.117095E-15
vt -6.55063 1.414953
vt -1.413732 2.608936
vt -4.5007 4.965535
vt -2.868296E-14 7.564016
vt 6.55063 -4.674966E-14
vt 6.55063 3.782008

usemtl natureKit-wood
# usermap natureKit-wood

f 2/2/1 1/1/1 3/3/1
f 3/3/1 4/4/1 2/2/1
f 3/3/1 5/5/1 4/4/1
f 7/7/2 6/6/2 8/8/2
f 8/8/2 9/9/2 7/7/2
f 9/9/2 10/10/2 7/7/2
f 12/12/4 11/11/3 6/13/5
f 6/13/5 13/14/4 12/12/4
f 6/13/5 7/15/4 13/14/4
f 8/17/6 14/16/6 15/18/6
f 15/18/6 9/19/6 8/17/6
f 14/21/8 16/20/7 17/22/9
f 17/22/9 15/23/9 14/21/8
f 18/25/11 11/24/10 12/26/12
f 12/26/12 19/27/12 18/25/11
f 16/25/14 18/24/13 19/28/15
f 19/28/15 17/29/15 16/25/14
f 1/2/16 20/1/16 16/30/7
f 16/30/7 14/31/8 1/2/16
f 14/31/8 21/32/16 1/2/16
f 21/32/16 3/33/16 1/2/16
f 23/2/17 22/1/17 11/30/10
f 11/30/10 18/4/11 23/2/17
f 11/4/3 22/2/18 24/1/18
f 24/1/18 6/34/5 11/4/3
f 24/1/18 25/30/18 6/34/5
f 1/36/19 20/35/19 23/37/19
f 23/37/19 2/38/19 1/36/19
f 23/37/19 22/39/19 2/38/19
f 22/39/19 24/40/19 2/38/19
f 20/2/20 23/1/20 18/30/13
f 18/30/13 16/4/14 20/2/20
f 24/2/21 2/1/21 4/30/21
f 4/30/21 25/4/21 24/2/21
f 13/42/22 7/41/22 10/43/22
f 3/45/23 21/44/23 5/46/23

usemtl natureKit-leavesGreen
# usermap natureKit-leavesGreen

f 15/48/19 17/47/19 19/49/19
f 19/49/19 9/50/19 15/48/19
f 19/49/19 10/51/19 9/50/19
f 19/49/19 12/52/19 10/51/19
f 12/52/19 13/53/19 10/51/19
f 21/55/19 14/54/19 8/56/19
f 8/56/19 5/57/19 21/55/19
f 8/56/19 4/58/19 5/57/19
f 8/56/19 6/59/19 4/58/19
f 6/59/19 25/60/19 4/58/19
