# Exported using Kenney Suite 1.2 

mtllib rock_tall9.mtl 

g rock_tall9

v 1.437013 6.20576 0.8681414 
v 1.152475 8.118 0.7340627 
v 1.437013 6.20576 0.03848173 
v 1.152475 8.118 0.1035215 
v 2.280972 0 1.378002 
v 0.6463432 0 2.321756 
v 0.4071951 6.20576 1.462706 
v 0.3698134 8.118 1.185932 
v -1.482761 0 1.83885 
v -0.9341383 6.20576 1.158475 
v -2.280972 0 -1.255838 
v -0.4347491 0 -2.321756 
v -1.437013 6.20576 -0.7911779 
v -0.2738905 6.20576 -1.462706 
v -0.6496 8.118 0.9547166 
v -2.280972 0 1.378002 
v -1.788504 3.621192 1.080488 
v -1.155443 6.20576 1.030706 
v 2.280972 0 0.0610821 
v -1.437013 6.20576 -0.05701281 
v 0.43154 6.20576 -0.8437445 
v 0.1596498 8.118 -0.2317245 
v 0.4099274 7.16188 -0.7053575 
v 0.7703948 8.118 -0.2317245 

vn -0.9900562 0.1406733 0
vn -0.98911 0.147178 0
vn -0.9900225 0.1409096 0
vn -0.4952285 0.1378222 -0.857761
vn -0.4953565 0.1359693 -0.8579826
vn -0.4953599 0.1359203 -0.8579885
vn -0.4954971 0.1339045 -0.8582262
vn 0.2194455 0.1254753 -0.9675224
vn 0.3650708 0.1332915 -0.9213884
vn 0.2193069 0.1303335 -0.9669114
vn 0.3146901 0.1340876 -0.9396758
vn 0.4956458 0.1316854 0.8584837
vn 0.2191516 0.1355657 -0.9662269
vn 0.4952285 0.1378222 -0.857761
vn -0.9908789 0.1347558 0
vn 0.9908789 0.1347558 0
vn 0.9885068 0.148 -0.03082578
vn 0.9803057 0.1742345 -0.09296858
vn 0.8244972 0.06276003 0.5623748
vn 0 -1 0
vn 0 0.4438913 0.8960806
vn 0.9409405 0.2351646 -0.2435748
vn -0.6570563 0.08662998 0.7488473
vn -0.6559858 0.1036151 0.7476273
vn -0.6563424 0.09828625 0.7480337
vn -0.6545466 0.1227683 0.7459871
vn 0 1 0

vt -9.473058 64.67128
vt -8.010008 85.76715
vt -0.4199082 64.67128
vt -1.129615 85.76715
vt 14.03682 -3.509909
vt -6.559441 -3.509909
vt 8.843196 64.85907
vt -4.132447 64.85907
vt 8.843196 64.95831
vt -4.132447 64.95831
vt 6.885843 86.01408
vt -2.975646 86.01408
vt 12.48201 -2.904397
vt -11.34062 -2.904397
vt 7.863663 65.35159
vt -7.144592 65.35159
vt 14.70334 -3.2016
vt -8.559003 -3.2016
vt 9.263103 65.10983
vt -5.392172 65.10983
vt 7.863663 65.11449
vt -7.144592 65.11449
vt 6.797823 86.17505
vt -4.608451 86.17505
vt -3.979387 -3.509909
vt -14.03682 -3.509909
vt -2.507014 64.85907
vt -11.00623 36.38484
vt -5.295422 64.85907
vt -15.0366 -3.354031
vt -9.473058 64.98584
vt -0.6665209 -3.354031
vt -0.4199082 64.98584
vt 15.0366 -3.354031
vt -13.70356 -3.354031
vt 11.79016 36.52373
vt -0.6221172 64.98584
vt -8.633242 64.98584
vt 16.18691 67.50159
vt -10.25941 67.50159
vt 12.60057 88.40895
vt -3.070534 88.40895
vt -8.879021 77.95527
vt 24.88971 -15.0366
vt 16.17972 -20.06532
vt 24.88971 13.70356
vt 4.743927 25.33473
vt -7.052823 -25.33473
vt -24.88971 -0.6665209
vt -24.88971 -15.0366
vt -1.742073 78.25482
vt -4.473073 66.61182
vt -8.406454 78.25482
vt 7.728442 62.28429
vt 6.52318 33.26804
vt -4.531846 62.28429
vt 20.27504 -1.378685
vt -19.14852 -1.378685
vt 12.77328 66.59338
vt -12.06357 66.59338
vt 2.532686 66.59338
vt 2.532686 65.97338
vt -12.06357 65.97338
vt 1.714013 76.48598
vt -10.19781 86.99857
vt -4.651237 86.99857
vt -15.68052 0.6221172
vt -15.68052 8.633242
vt -12.60805 -11.24694
vt -2.988674 15.96088
vt -10.19322 -12.64115
vt 4.708904 9.206842
vt -7.088372 -10.41776
vt 1.742073 2.528551
vt 4.035367 -12.94075
vt 8.406454 2.528551
vt 12.57567 -8.010008
vt 12.57567 -1.129615

usemtl natureKit-wood
# usermap natureKit-wood

f 2/2/2 1/1/1 3/3/3
f 3/3/3 4/4/2 2/2/2
f 6/6/4 5/5/4 1/7/5
f 1/7/5 7/8/6 6/6/4
f 7/10/6 1/9/5 2/11/7
f 2/11/7 8/12/7 7/10/6
f 9/14/9 6/13/8 7/15/10
f 7/15/10 10/16/11 9/14/9
f 12/18/12 11/17/12 13/19/12
f 13/19/12 14/20/12 12/18/12
f 10/22/11 7/21/10 8/23/13
f 8/23/13 15/24/13 10/22/11
f 16/26/14 9/25/9 10/27/11
f 10/27/11 17/28/14 16/26/14
f 10/27/11 18/29/14 17/28/14
f 1/31/1 5/30/15 19/32/15
f 19/32/15 3/33/3 1/31/1
f 11/35/16 16/34/16 17/36/17
f 17/36/17 20/37/18 11/35/16
f 20/37/18 13/38/16 11/35/16
f 21/40/19 10/39/19 15/41/19
f 15/41/19 22/42/19 21/40/19
f 22/42/19 23/43/19 21/40/19
f 9/45/20 16/44/20 11/46/20
f 11/46/20 12/47/20 9/45/20
f 12/47/20 6/48/20 9/45/20
f 12/47/20 19/49/20 6/48/20
f 19/49/20 5/50/20 6/48/20
f 23/52/21 22/51/21 24/53/21
f 17/55/17 18/54/22 20/56/18
f 19/58/23 12/57/23 14/59/23
f 14/59/23 3/60/24 19/58/23
f 14/59/23 21/61/25 3/60/24
f 3/63/24 21/62/25 23/64/26
f 23/64/26 4/65/26 3/63/24
f 23/64/26 24/66/26 4/65/26

usemtl natureKit-leavesGreen
# usermap natureKit-leavesGreen

f 13/68/27 20/67/27 18/69/27
f 18/69/27 14/70/27 13/68/27
f 18/69/27 10/71/27 14/70/27
f 10/71/27 21/72/27 14/70/27
f 22/74/27 15/73/27 8/75/27
f 8/75/27 24/76/27 22/74/27
f 8/75/27 2/77/27 24/76/27
f 2/77/27 4/78/27 24/76/27
