# Exported using Kenney Suite 1.2 

mtllib rock_large4.mtl 

g rock_large4

v -0.9215569 5.6826 -2.772842 
v -1.400621 5.6826 -1.519964 
v -1.927297 4.01841 -3.189778 
v -1.033542 5.860477E-15 4.176551 
v -2.913547 5.860477E-15 3.691703 
v -1.301889 2.35422 5.151414 
v -3.651893 2.35422 4.545354 
v 1.545105 8.790715E-15 -2.93972 
v 3.561084 1.172095E-14 -1.813728 
v -0.5508137 1.473907 -4.745438 
v 4.441395 2.35422 -2.336435 
v -0.598557 2.35422 -5.151414 
v 3.514321 2.35422 4.728769 
v 2.871544 4.01841 3.90521 
v -0.8054471 5.6826 3.347918 
v 0.711658 5.6826 3.214784 
v 5.343885 2.35422 1.04496 
v 2.906184 5.6826 1.717672 
v 3.381391 5.6826 0.760851 
v -0.3623486 5.6826 -3.142865 
v 2.812822 5.6826 -1.369428 
v -5.343885 2.35422 2.336957 
v -2.28595 5.6826 2.966099 
v -3.668368 5.6826 1.161762 
v -5.343885 3.121913 1.561489 
v 4.283078 0 0.8913875 
v -1.891091 0 -3.125971 
v -1.687543 5.860477E-15 -0.8837991 
v -1.101027 6.023268E-15 -3.648749 
v -4.668996 5.860477E-15 1.400481 
v 1.180477 5.860477E-15 3.98226 
v 3.551252 2.930238E-15 2.364911 
v 3.166873 1.17711 4.283602 
v -2.373827 2.35422 -3.976738 
v -1.320474 5.6826 -0.6371084 
v -2.119391 2.35422 -1.174023 
v -4.897313 2.35422 0.9543193 
v -5.076461 0.8148628 1.49769 

vn 0.7817272 0.5473172 0.2989088
vn 0.06817149 -0.3883206 -0.9189993
vn 0.2294629 -0.3945912 -0.8897441
vn 0.0826521 -0.3893059 -0.9173927
vn -0.456403 -0.3520927 0.8171457
vn -0.07734497 0.466041 -0.881376
vn 0.07997108 0.4840793 -0.8713621
vn 0.06286641 0.4827007 -0.8735261
vn -0.7794185 0.492607 -0.3870983
vn -0.4374962 0.4416403 0.783295
vn 0.676361 0.5234514 -0.5182031
vn -0.8912646 -0.3860851 0.2378776
vn 0 -1 0
vn -0.08109508 -0.3734227 -0.9241099
vn 0.5097612 -0.3829316 0.770394
vn -0.8474134 0.4803499 0.2261738
vn 0.9717256 0.2190147 -0.0882152
vn 0.5865551 0.2642899 0.7655743
vn -0.3840051 0.7319119 -0.5628899
vn -0.2005946 -0.6319147 0.7486292
vn 0.4850593 0.4767987 0.7330624
vn 0.2177082 0.4898865 -0.844165
vn -0.8220097 -0.3970277 -0.4082512
vn 0.5952668 -0.2049734 0.7769449
vn 0.7185492 -0.42498 -0.5505261
vn 0.9815678 -0.169069 -0.08910868
vn -0.3675146 -0.7581006 -0.5387175
vn 0.9088039 -0.2965042 0.2935313
vn 0.9515933 0.00225505 0.3073517
vn 0 1 0

vt -24.66989 40.84069
vt -10.0333 40.84069
vt -24.99984 19.14288
vt 0.4604773 18.52467
vt -20.72513 18.52467
vt 0.2815727 46.48221
vt -26.20044 46.48221
vt 0.9224303 12.75528
vt -24.27442 12.75528
vt 30.49759 29.93872
vt -29.87952 40.20179
vt 33.1126 40.20179
vt 33.69027 -2.789214
vt -19.06563 -2.789214
vt 27.4888 17.73543
vt -11.9489 38.26007
vt 4.669213 38.26007
vt -29.15642 -5.869252
vt -24.2277 14.99764
vt 15.72547 -5.869252
vt -2.680862 35.86452
vt 8.976619 35.86452
vt 33.1126 2.780737
vt -29.87952 2.780737
vt 20.17496 43.26136
vt -19.51008 43.26136
vt 15.13577 -10.45922
vt -15.22175 -10.45922
vt 10.52144 32.16581
vt -14.28171 32.16581
vt -21.93873 -0.6277289
vt -26.05385 44.31382
vt 12.13513 44.31382
vt -21.44978 16.46558
vt 9.101398 16.46558
vt 20.63538 34.11023
vt 18.41428 9.643913
vt 12.01427 39.81472
vt 11.27789 -45.57404
vt 31.79227 -40.28344
vt 50.94754 -15.28189
vt -16.86 32.07788
vt -12.88123 -43.45396
vt -38.75085 -25.80564
vt -38.85815 19.79119
vt -46.73645 -9.726717
vt 9.033219 16.58507
vt -15.21875 16.58507
vt 30.33812 30.43117
vt -19.06563 44.27727
vt 33.69027 44.27727
vt -1.613701 15.25358
vt -11.95124 15.25358
vt -2.34361 43.06222
vt -23.56187 32.66374
vt -25.57196 43.06222
vt -26.05385 -3.119145
vt -17.53633 38.28988
vt 12.13513 -3.119145
vt 6.522728 38.28988
vt -8.226289 57.49725
vt -14.84922 20.27465
vt -17.89952 57.49725
vt -45.55788 20.27465
vt -36.56531 38.88595
vt 48.753 18.37068
vt 10.56655 18.37068
vt 56.65056 27.0565
vt 7.209636 56.02857
vt 39.48473 56.02857
vt 1.869508 -8.810759
vt -13.35415 17.83947
vt 15.63389 17.83947
vt 21.9097 22.33727
vt -7.983143 22.33727
vt 19.20769 43.08864
vt -2.34361 -1.489059
vt -25.57196 -1.489059
vt -1.668444 19.16986
vt -15.62714 39.82878
vt -8.310206 39.82878
vt 0.2815727 -6.00748
vt -26.20044 -6.00748
vt 0.6125463 35.65284
vt -16.07112 35.65284
vt -29.15642 46.3262
vt 15.72547 46.3262
vt -26.49224 32.33143
vt -5.875313 18.33667
vt 12.07744 18.33667
vt 49.73626 3.864676
vt 8.752004 3.864676
vt 53.91078 12.94925
vt 10.56655 30.11093
vt 48.753 30.11093
vt 15.13577 49.51616
vt 12.64154 21.13691
vt -15.22175 49.51616
vt -18.85452 21.13691
vt -20.71662 30.95978
vt -11.26926 2.953121
vt -35.83619 2.953121
vt -14.84922 29.01731
vt -45.55788 29.01731
vt -13.84772 32.71635
vt 2.204746 52.41233
vt 17.46842 32.71635
vt 34.13633 47.43411
vt 42.18856 38.6627
vt 26.33395 38.6627
vt 42.18856 25.58145
vt 32.57698 8.784124
vt 26.33395 25.58145
vt -40.0288 -12.67701
vt -14.40885 6.952053
vt -24.94402 -32.36573
vt -8.788951 -36.53209
vt -10.05593 30.25693
vt -3.953898 34.29458
vt 7.765539 -35.07935
vt 30.69318 14.94304
vt 31.71196 -18.74304
vt 36.89735 -8.302319
vt -15.28341 16.58567

usemtl natureKit-wood
# usermap natureKit-wood

f 2/2/1 1/1/1 3/3/1
f 5/5/3 4/4/2 6/6/4
f 6/6/4 7/7/3 5/5/3
f 9/9/5 8/8/5 10/10/5
f 10/10/5 11/11/5 9/9/5
f 10/10/5 12/12/5 11/11/5
f 6/14/7 13/13/6 14/15/6
f 14/15/6 15/16/8 6/14/7
f 14/15/6 16/17/6 15/16/8
f 14/19/9 13/18/9 17/20/9
f 17/20/9 18/21/9 14/19/9
f 17/20/9 19/22/9 18/21/9
f 11/24/10 12/23/10 20/25/10
f 20/25/10 21/26/10 11/24/10
f 22/28/11 7/27/11 23/29/11
f 23/29/11 24/30/11 22/28/11
f 24/30/11 25/31/11 22/28/11
f 11/33/12 17/32/12 26/34/12
f 26/34/12 9/35/12 11/33/12
f 28/37/13 27/36/13 29/38/13
f 28/37/13 29/38/13 4/39/13
f 28/37/13 4/39/13 5/40/13
f 5/40/13 30/41/13 28/37/13
f 29/38/13 8/42/13 4/39/13
f 8/42/13 31/43/13 4/39/13
f 8/42/13 32/44/13 31/43/13
f 8/42/13 9/45/13 32/44/13
f 9/45/13 26/46/13 32/44/13
f 4/48/2 31/47/14 33/49/14
f 33/49/14 6/50/4 4/48/2
f 33/49/14 13/51/14 6/50/4
f 29/53/15 27/52/15 34/54/15
f 34/54/15 10/55/15 29/53/15
f 34/54/15 12/56/15 10/55/15
f 19/58/16 17/57/16 11/59/16
f 11/59/16 21/60/16 19/58/16
f 36/62/17 35/61/17 2/63/17
f 2/63/17 34/64/17 36/62/17
f 2/63/17 3/65/17 34/64/17
f 36/67/18 37/66/18 25/68/18
f 25/68/18 35/69/18 36/67/18
f 25/68/18 24/70/18 35/69/18
f 16/72/19 14/71/19 18/73/19
f 8/75/20 29/74/20 10/76/20
f 12/78/21 34/77/21 3/79/21
f 3/79/21 20/80/21 12/78/21
f 3/79/21 1/81/21 20/80/21
f 7/83/22 6/82/7 15/84/8
f 15/84/8 23/85/22 7/83/22
f 17/87/23 13/86/23 33/88/23
f 33/88/23 32/89/23 17/87/23
f 32/89/23 26/90/23 17/87/23
f 28/92/24 30/91/24 38/93/24
f 38/93/24 36/94/24 28/92/24
f 38/93/24 37/95/24 36/94/24
f 5/97/25 7/96/25 22/98/25
f 22/98/25 30/99/25 5/97/25
f 22/98/25 38/100/25 30/99/25
f 27/102/26 28/101/26 36/103/26
f 36/103/26 34/104/26 27/102/26
f 33/106/27 31/105/27 32/107/27
f 22/109/28 25/108/28 37/110/28
f 38/112/29 22/111/29 37/113/29

usemtl natureKit-leavesGreen
# usermap natureKit-leavesGreen

f 35/115/30 24/114/30 23/116/30
f 23/116/30 15/117/30 35/115/30
f 15/117/30 1/118/30 35/115/30
f 15/117/30 20/119/30 1/118/30
f 15/117/30 16/120/30 20/119/30
f 16/120/30 21/121/30 20/119/30
f 16/120/30 18/122/30 21/121/30
f 18/122/30 19/123/30 21/121/30
f 2/124/30 35/115/30 1/118/30

usemtl natureKit-_defaultMat
# usermap natureKit-_defaultMat

f 37/106/30 22/105/30 7/107/30
f 7/106/30 36/105/30 37/107/30
f 7/106/30 6/105/30 36/107/30
f 12/106/30 34/105/30 36/107/30
f 36/106/30 6/105/30 12/107/30
f 6/106/30 13/105/30 12/107/30
f 13/106/30 11/105/30 12/107/30
f 13/106/30 17/105/30 11/107/30
