# Exported using Kenney Suite 1.2 

mtllib rock_tall7.mtl 

g rock_tall7

v -2.124741 0 -1.22672 
v -2.124741 0 1.22672 
v 0 0 -2.45344 
v 0 0 2.45344 
v 2.124741 0 -1.22672 
v 2.124741 0 1.22672 
v -1.827278 3.82448 1.054979 
v -1.827278 3.82448 5.209313E-15 
v -1.57146 5.339839 1.012689 
v -1.57146 5.339839 0.5664245 
v -1.773722 4.141719 0.02206684 
v 0 3.82448 2.109958 
v 0 5.339839 1.919971 
v -0.7067585 5.339839 1.511924 
v 1.827278 3.82448 1.054979 
v 1.57146 5.339839 1.012689 
v -0.1762581 3.82448 -0.6041445 
v -0.1515818 5.339839 -0.4141572 
v -1.138515 5.339839 -0.05301619 
v 1.827278 3.82448 5.209313E-15 
v 1.57146 5.339839 0.105407 
v -0.5131102 7.829359 1.382891 
v -0.0523138 7.829359 -0.2157564 
v 1.377811 7.829359 0.215482 
v 1.377811 7.829359 0.9685261 
v -1.827278 3.82448 -1.054979 
v 0 1.91224 -2.281699 
v -0.4805613 3.82448 -1.832506 
v 1.827278 3.82448 -1.054979 
v 0.8033323 3.82448 -1.646154 
v 0.01279593 5.773283 1.885428 
v -0.2512145 7.829359 1.534097 
v 0.5207634 7.829359 1.463342 

vn 0 -1 0
vn 0.9926394 0.1211079 0
vn 0.9943231 0.1064031 0
vn 0.9860479 0.1664619 0
vn 0.4978687 0.09223408 -0.8623339
vn 0.497885 0.09188169 -0.8623621
vn 0.4976899 0.09601521 -0.8620242
vn 0.4970785 0.1079429 -0.8609653
vn 0.4974966 0.09994157 -0.8616894
vn -0.497885 0.09188169 -0.8623621
vn -0.4978687 0.09223408 -0.8623339
vn -0.4982885 0.08267087 -0.8630608
vn -0.4983087 0.0821811 -0.863096
vn 0.3410539 0.1224076 0.9320401
vn -0.2867985 0.1145751 0.9511147
vn -0.287514 0.09053846 0.9534876
vn -0.2874965 0.09120274 0.9534296
vn 0.9591324 0.06027742 0.2764626
vn -0.2880957 0.06465374 0.9554166
vn -0.9924355 0.1227673 0
vn -0.9969884 0.07755122 0
vn -0.9923184 0.1237107 0
vn 0.4984944 0.07754468 0.8634177
vn 0.996989 0.07754469 0
vn -0.4984944 0.07754468 0.8634177
vn -0.4984944 0.07754468 -0.8634177
vn -0.996989 0.07754469 0
vn -0.9926394 0.1211079 0
vn -0.9943231 0.1064031 0
vn 0.4984944 0.07754468 -0.8634177
vn -0.1387248 0.259375 0.9557615
vn 0.7613758 0.3703094 0.5321445
vn 0.4982544 0.08348671 -0.863002
vn -0.4992657 0.05417597 -0.8647536
vn -0.08979795 0.1789453 -0.9797524
vn 0 1 0
vn -0.9860479 -0.1664619 0
vn -0.9943231 -0.1064031 0
vn -0.9926394 -0.1211079 0
vn -0.4976899 -0.09601521 0.8620242
vn -0.497885 -0.09188169 0.8623621
vn -0.4978687 -0.09223408 0.8623339
vn -0.4970785 -0.1079429 0.8609653
vn -0.4974966 -0.09994157 0.8616894
vn 0.4982885 -0.08267087 0.8630608
vn 0.4978687 -0.09223408 0.8623339
vn 0.497885 -0.09188169 0.8623621
vn 0.4983087 -0.0821811 0.863096
vn -0.3410539 -0.1224076 -0.9320401
vn 0.287514 -0.09053846 -0.9534876
vn 0.2867985 -0.1145751 -0.9511147
vn 0.2874965 -0.09120274 -0.9534296
vn -0.9591324 -0.06027742 -0.2764626
vn 0.2880957 -0.06465374 -0.9554166
vn 0.9923184 -0.1237107 0
vn 0.9969884 -0.07755122 0
vn 0.9924355 -0.1227673 0
vn -0.4984944 -0.07754468 -0.8634177
vn -0.996989 -0.07754469 0
vn 0.4984944 -0.07754468 -0.8634177
vn 0.4984944 -0.07754468 0.8634177
vn 0.996989 -0.07754469 0
vn 0.9926394 -0.1211079 0
vn 0.9943231 -0.1064031 0
vn -0.4984944 -0.07754468 0.8634177
vn -0.4982544 -0.08348671 0.863002
vn 0.4992657 -0.05417597 0.8647536

vt 23.18493 13.38583
vt 23.18493 -13.38583
vt 0 26.77165
vt 0 -26.77165
vt -23.18493 13.38583
vt -23.18493 -13.38583
vt 11.51181 37.83094
vt 2.823619E-14 37.83094
vt 11.05035 54.60034
vt 6.180759 54.60034
vt 0.2407909 41.3416
vt 11.51181 39.33617
vt -11.51181 39.33617
vt 10.47525 55.96878
vt -9.325063 55.96878
vt 1.570114 55.96878
vt 9.325063 55.96878
vt -10.47525 55.96878
vt 18.7248 40.57974
vt -0.4592102 40.57974
vt 18.25874 44.06765
vt 0.0003277826 57.24046
vt 11.468 57.24046
vt 3.744614 40.79792
vt -19.09003 40.79792
vt 2.888309 57.44297
vt -16.74949 57.44297
vt 17.98851 57.99052
vt -3.88433 57.99052
vt 16.05036 85.20536
vt -2.104106 85.20536
vt 2.888309 57.89693
vt -16.74949 57.89693
vt 1.226215 85.11925
vt -15.07316 85.11925
vt -11.05035 56.76242
vt -10.56845 84.00983
vt -1.150189 56.76242
vt -2.351314 84.00983
vt 13.38583 -1.797868
vt -13.38583 -1.797868
vt 11.51181 40.06046
vt -12.44882 19.13129
vt -5.456755 40.06046
vt 8.125382E-14 40.06046
vt -11.51181 40.06046
vt 12.44882 19.13129
vt 1.389854 40.06046
vt -5.686621E-14 40.06046
vt -11.51181 37.83094
vt -11.05035 54.60034
vt -5.698727E-14 37.83094
vt -1.150189 54.60034
vt 8.061706 35.36673
vt 3.576314 13.76118
vt -6.094803 35.36673
vt 14.88938 50.23188
vt 11.28508 36.15756
vt 6.642808 50.23188
vt 10.47525 56.54954
vt 1.570114 56.54954
vt 10.40772 61.2958
vt 2.696091 83.81007
vt 5.995979 83.81007
vt 9.325063 57.1992
vt -10.47525 57.1992
vt 7.736041 84.4045
vt -10.16586 61.93583
vt -3.062711 84.4045
vt 4.201392 81.11584
vt -1.73872 58.3121
vt -4.257646 81.11584
vt -1.923298 6.592355
vt -19.93904 11.51181
vt -19.93904 -5.684342E-14
vt -5.243832 19.99609
vt 8.765872 17.96264
vt 19.93904 -5.684342E-14
vt 19.93904 11.51181
vt -7.712075 -16.49793
vt -17.14758 -6.180759
vt -17.14758 -11.05035
vt -12.42336 0.5785066
vt -1.654037 4.519236
vt -2.741219 -16.73989
vt -0.5708327 2.354308
vt -5.599005 -15.08994
vt 5.682512 -15.96782
vt 15.03451 -2.351314
vt 15.03451 -10.56845

usemtl natureKit-wood
# usermap natureKit-wood

f 2/2/1 1/1/1 3/3/1
f 3/3/1 4/4/1 2/2/1
f 3/3/1 5/5/1 4/4/1
f 5/5/1 6/6/1 4/4/1
f 8/8/3 7/7/2 9/9/4
f 9/9/4 10/10/4 8/8/3
f 10/10/4 11/11/4 8/8/3
f 7/13/6 12/12/5 13/14/7
f 13/14/7 9/15/8 7/13/6
f 13/14/7 14/16/9 9/15/8
f 12/13/11 15/12/10 16/17/12
f 16/17/12 13/18/13 12/13/11
f 17/20/14 8/19/14 11/21/14
f 11/21/14 18/22/14 17/20/14
f 11/21/14 19/23/14 18/22/14
f 20/25/15 17/24/15 18/26/16
f 18/26/16 21/27/17 20/25/15
f 18/29/18 14/28/18 22/30/18
f 22/30/18 23/31/18 18/29/18
f 21/33/17 18/32/16 23/34/19
f 23/34/19 24/35/19 21/33/17
f 25/37/21 16/36/20 21/38/22
f 21/38/22 24/39/21 25/37/21
f 3/41/23 1/40/23 26/42/23
f 26/42/23 27/43/23 3/41/23
f 26/42/23 28/44/23 27/43/23
f 1/41/24 2/40/24 7/42/2
f 7/42/2 8/45/3 1/41/24
f 8/45/3 26/46/24 1/41/24
f 5/41/25 3/40/25 27/47/25
f 27/47/25 29/46/25 5/41/25
f 27/47/25 30/48/25 29/46/25
f 4/41/26 6/40/26 15/42/10
f 15/42/10 12/46/11 4/41/26
f 15/46/28 6/41/27 5/40/27
f 5/40/27 20/49/29 15/46/28
f 5/40/27 29/42/27 20/49/29
f 16/51/20 15/50/28 20/52/29
f 20/52/29 21/53/22 16/51/20
f 2/41/30 4/40/30 12/42/5
f 12/42/5 7/46/6 2/41/30
f 27/55/31 28/54/31 30/56/31
f 11/58/32 10/57/32 19/59/32
f 14/61/9 13/60/7 31/62/33
f 31/62/33 22/63/33 14/61/9
f 31/62/33 32/64/33 22/63/33
f 13/66/13 16/65/12 25/67/34
f 25/67/34 31/68/34 13/66/13
f 25/67/34 33/69/34 31/68/34
f 31/71/35 33/70/35 32/72/35

usemtl natureKit-stone
# usermap natureKit-stone

f 2/2/36 3/3/36 1/1/36
f 3/3/36 2/2/36 4/4/36
f 3/3/36 4/4/36 5/5/36
f 5/5/36 4/4/36 6/6/36
f 8/8/38 9/9/37 7/7/39
f 9/9/37 8/8/38 10/10/37
f 10/10/37 8/8/38 11/11/37
f 7/13/41 13/14/40 12/12/42
f 13/14/40 7/13/41 9/15/43
f 13/14/40 9/15/43 14/16/44
f 12/13/46 16/17/45 15/12/47
f 16/17/45 12/13/46 13/18/48
f 17/20/49 11/21/49 8/19/49
f 11/21/49 17/20/49 18/22/49
f 11/21/49 18/22/49 19/23/49
f 20/25/51 18/26/50 17/24/51
f 18/26/50 20/25/51 21/27/52
f 18/29/53 22/30/53 14/28/53
f 22/30/53 18/29/53 23/31/53
f 21/33/52 23/34/54 18/32/50
f 23/34/54 21/33/52 24/35/54
f 25/37/56 21/38/55 16/36/57
f 21/38/55 25/37/56 24/39/56
f 3/41/58 26/42/58 1/40/58
f 26/42/58 3/41/58 27/43/58
f 26/42/58 27/43/58 28/44/58
f 1/41/59 7/42/39 2/40/59
f 7/42/39 1/41/59 8/45/38
f 8/45/38 1/41/59 26/46/59
f 5/41/60 27/47/60 3/40/60
f 27/47/60 5/41/60 29/46/60
f 27/47/60 29/46/60 30/48/60
f 4/41/61 15/42/47 6/40/61
f 15/42/47 4/41/61 12/46/46
f 15/46/63 5/40/62 6/41/62
f 5/40/62 15/46/63 20/49/64
f 5/40/62 20/49/64 29/42/62
f 26/74/1 17/73/1 8/75/1
f 17/73/1 26/74/1 28/76/1
f 17/73/1 28/76/1 30/77/1
f 17/73/1 30/77/1 20/78/1
f 20/78/1 30/77/1 29/79/1
f 10/81/1 14/80/1 9/82/1
f 14/80/1 10/81/1 19/83/1
f 14/80/1 19/83/1 18/84/1
f 16/51/57 20/52/64 15/50/63
f 20/52/64 16/51/57 21/53/55
f 2/41/65 12/42/42 4/40/65
f 12/42/42 2/41/65 7/46/41
f 23/86/1 32/85/1 22/87/1
f 32/85/1 23/86/1 33/88/1
f 33/88/1 23/86/1 24/89/1
f 33/88/1 24/89/1 25/90/1
f 14/61/44 31/62/66 13/60/40
f 31/62/66 14/61/44 22/63/66
f 31/62/66 22/63/66 32/64/66
f 13/66/48 25/67/67 16/65/45
f 25/67/67 13/66/48 31/68/67
f 25/67/67 31/68/67 33/69/67

usemtl natureKit-leavesGreen
# usermap natureKit-leavesGreen

f 26/74/36 8/75/36 17/73/36
f 17/73/36 28/76/36 26/74/36
f 17/73/36 30/77/36 28/76/36
f 17/73/36 20/78/36 30/77/36
f 20/78/36 29/79/36 30/77/36
f 10/81/36 9/82/36 14/80/36
f 14/80/36 19/83/36 10/81/36
f 14/80/36 18/84/36 19/83/36
f 23/86/36 22/87/36 32/85/36
f 32/85/36 33/88/36 23/86/36
f 33/88/36 24/89/36 23/86/36
f 33/88/36 25/90/36 24/89/36
