# Exported using Kenney Suite 1.2 

mtllib rock_tall3.mtl 

g rock_tall3

v 0.4228687 0 2.182538 
v -2.280972 0 -0.5010927 
v 0.2537203 6.45832 1.309523 
v -1.368582 6.45832 -0.3006557 
v -0.5574322 6.45832 0.5044336 
v -2.280972 0 -1.524078 
v -1.140487 0 -2.182538 
v -1.368582 6.45832 -0.914447 
v -0.6842923 6.45832 -1.309523 
v 2.280972 0 1.109762 
v 1.368582 6.45832 0.665857 
v 2.280972 0 -1.524078 
v 1.368582 6.45832 -0.914447 
v 0.342145 6.45832 -1.111985 
v 0.3624439 7.829359 -0.7245437 
v 1.060421 7.829359 -0.5902179 
v 1.060421 7.829359 0.4843888 
v 0.3023148 7.829359 0.9220817 
v -0.249269 7.829359 0.374621 

vn 0.7023437 0.07726076 -0.7076328
vn 0.6972597 0.1425052 -0.7025106
vn 0.6990771 0.1232646 -0.7043417
vn 0.4942939 0.1506459 0.8561421
vn -0.9901679 0.1398844 0
vn -0.9841744 0.1772025 0
vn -0.9844781 0.1755075 0
vn -0.1876496 0.11855 0.9750557
vn -0.1857049 0.1854265 0.9649512
vn -0.1863487 0.1663611 0.9682965
vn 0.9901679 0.1398844 0
vn -0.4958175 0.1290731 -0.8587812
vn -0.4925253 0.1722659 -0.8530787
vn -0.4925316 0.1721932 -0.8530897
vn 0 -1 0
vn -0.1822317 0.264887 0.9469036
vn -0.9756588 0.2192943 0
vn 0.6871886 0.2200105 -0.6923636
vn -0.4875943 0.2213757 -0.844538
vn 0.8640849 0.1486853 0.4808846
vn 0 1 0

vt 20.0519 -1.054818
vt -21.51741 -1.054818
vt 12.03114 69.62891
vt -12.91045 69.62891
vt -0.4396531 69.62891
vt 13.23983 -4.044443
vt -1.130244 -4.044443
vt 7.943901 67.24153
vt -0.6781465 67.24153
vt -12.10959 -3.481682
vt -7.265754 67.69054
vt 16.63057 -3.481682
vt 9.97834 67.69054
vt 16.72133 -2.493653
vt -21.29832 -2.493653
vt 10.0328 68.47929
vt -12.77899 68.47929
vt -1.373098 68.47929
vt -3.28072 67.69054
vt -5.467866 -3.481682
vt -9.97834 67.69054
vt -16.63057 -3.481682
vt 15.50032 -2.959913
vt -7.911709 -2.959913
vt 9.300194 68.10699
vt -4.747025 68.10699
vt 24.88971 16.63057
vt 24.88971 5.467866
vt 12.44485 23.81561
vt -4.614292 -23.81561
vt -24.88971 16.63057
vt -24.88971 -12.10959
vt -1.373098 64.61205
vt -12.77899 64.61205
vt -2.389556 80.12688
vt -10.14557 80.12688
vt -7.265754 65.48215
vt -5.285595 80.81602
vt 9.97834 65.48215
vt 6.44039 80.81602
vt 12.03114 66.94345
vt -0.4396531 66.94345
vt 9.429276 82.27986
vt 0.949136 82.27986
vt 9.300194 65.67796
vt -4.747025 65.67796
vt 7.378149 81.01923
vt -2.17396 81.01923
vt 7.767582 69.29684
vt -12.41807 69.29684
vt 4.894633 84.42563
vt -8.831612 84.42563
vt -2.719993 -4.087821
vt 3.954942 7.906137
vt 3.298823 -10.06165
vt 11.57119 -5.285595
vt 11.57119 6.44039
vt -14.93382 3.28072
vt -14.93382 9.97834
vt -6.082624 -5.504322
vt -7.466912 14.28936
vt 3.733456 12.13385

usemtl natureKit-wood
# usermap natureKit-wood

f 2/2/1 1/1/1 3/3/2
f 3/3/2 4/4/1 2/2/1
f 3/3/2 5/5/3 4/4/1
f 7/7/4 6/6/4 8/8/4
f 8/8/4 9/9/4 7/7/4
f 11/11/6 10/10/5 12/12/5
f 12/12/5 13/13/7 11/11/6
f 12/15/8 7/14/8 9/16/8
f 9/16/8 13/17/9 12/15/8
f 9/16/8 14/18/10 13/17/9
f 2/20/11 4/19/11 8/21/11
f 8/21/11 6/22/11 2/20/11
f 1/24/12 10/23/12 11/25/13
f 11/25/13 3/26/14 1/24/12
f 2/28/15 6/27/15 7/29/15
f 7/29/15 1/30/15 2/28/15
f 7/29/15 12/31/15 1/30/15
f 12/31/15 10/32/15 1/30/15
f 13/34/9 14/33/10 15/35/16
f 15/35/16 16/36/16 13/34/9
f 17/38/17 11/37/6 13/39/7
f 13/39/7 16/40/17 17/38/17
f 5/42/3 3/41/2 18/43/18
f 18/43/18 19/44/18 5/42/3
f 3/46/14 11/45/13 17/47/19
f 17/47/19 18/48/19 3/46/14
f 14/50/20 5/49/20 19/51/20
f 19/51/20 15/52/20 14/50/20

usemtl natureKit-leavesGreen
# usermap natureKit-leavesGreen

f 15/54/21 19/53/21 18/55/21
f 18/55/21 17/56/21 15/54/21
f 17/56/21 16/57/21 15/54/21
f 8/59/21 4/58/21 5/60/21
f 5/60/21 9/61/21 8/59/21
f 5/60/21 14/62/21 9/61/21
