# Exported using Kenney Suite 1.2 

mtllib stone_large4.mtl 

g stone_large4

v -0.9215569 5.6826 -2.772842 
v -1.400621 5.6826 -1.519964 
v -1.927297 4.01841 -3.189778 
v -1.033542 5.860477E-15 4.176551 
v -2.913547 5.860477E-15 3.691703 
v -1.301889 2.35422 5.151414 
v -3.651893 2.35422 4.545354 
v 1.545105 8.790715E-15 -2.93972 
v 3.561084 1.172095E-14 -1.813728 
v -0.5508137 1.473907 -4.745438 
v 4.441395 2.35422 -2.336435 
v -0.598557 2.35422 -5.151414 
v 3.514321 2.35422 4.728769 
v 2.871544 4.01841 3.90521 
v -0.8054471 5.6826 3.347918 
v 0.711658 5.6826 3.214784 
v 5.343885 2.35422 1.04496 
v 2.906184 5.6826 1.717672 
v 3.381391 5.6826 0.760851 
v -3.668368 5.6826 1.161762 
v -1.320474 5.6826 -0.6371084 
v -2.28595 5.6826 2.966099 
v -0.3623486 5.6826 -3.142865 
v 2.812822 5.6826 -1.369428 
v -5.343885 2.35422 2.336957 
v -5.343885 3.121913 1.561489 
v 4.283078 0 0.8913875 
v -1.891091 0 -3.125971 
v -1.687543 5.860477E-15 -0.8837991 
v -1.101027 6.023268E-15 -3.648749 
v -4.668996 5.860477E-15 1.400481 
v 1.180477 5.860477E-15 3.98226 
v 3.551252 2.930238E-15 2.364911 
v 3.166873 1.17711 4.283602 
v -2.373827 2.35422 -3.976738 
v -2.119391 2.35422 -1.174023 
v -4.897313 2.35422 0.9543193 
v -5.076461 0.8148628 1.49769 

vn 0.7817272 0.5473172 0.2989088
vn 0.06817149 -0.3883206 -0.9189993
vn 0.2294629 -0.3945912 -0.8897441
vn 0.0826521 -0.3893059 -0.9173927
vn -0.456403 -0.3520927 0.8171457
vn -0.07734497 0.466041 -0.881376
vn 0.07997108 0.4840793 -0.8713621
vn 0.06286641 0.4827007 -0.8735261
vn -0.7794185 0.492607 -0.3870983
vn 0 1 0
vn -0.4374962 0.4416403 0.783295
vn 0.676361 0.5234514 -0.5182031
vn -0.8912646 -0.3860851 0.2378776
vn 0 -1 0
vn -0.08109508 -0.3734227 -0.9241099
vn 0.5097612 -0.3829316 0.770394
vn -0.8474134 0.4803499 0.2261738
vn 0.9717256 0.2190147 -0.0882152
vn 0.5865551 0.2642899 0.7655743
vn -0.3840051 0.7319119 -0.5628899
vn -0.2005946 -0.6319147 0.7486292
vn 0.4850593 0.4767987 0.7330624
vn 0.2177082 0.4898865 -0.844165
vn -0.8220097 -0.3970277 -0.4082512
vn 0.5952668 -0.2049734 0.7769449
vn 0.7185492 -0.42498 -0.5505261
vn 0.9815678 -0.169069 -0.08910868
vn -0.3675146 -0.7581006 -0.5387175
vn 0.9088039 -0.2965042 0.2935313
vn 0.9515933 0.00225505 0.3073517

vt -24.66989 40.84069
vt -10.0333 40.84069
vt -24.99984 19.14288
vt 0.4604773 18.52467
vt -20.72513 18.52467
vt 0.2815727 46.48221
vt -26.20044 46.48221
vt 0.9224303 12.75528
vt -24.27442 12.75528
vt 30.49759 29.93872
vt -29.87952 40.20179
vt 33.1126 40.20179
vt 33.69027 -2.789214
vt -19.06563 -2.789214
vt 27.4888 17.73543
vt -11.9489 38.26007
vt 4.669213 38.26007
vt -29.15642 -5.869252
vt -24.2277 14.99764
vt 15.72547 -5.869252
vt -2.680862 35.86452
vt 8.976619 35.86452
vt -40.0288 -12.67701
vt -14.40885 6.952053
vt -24.94402 -32.36573
vt -8.788951 -36.53209
vt -10.05593 30.25693
vt -3.953898 34.29458
vt 7.765539 -35.07935
vt 30.69318 14.94304
vt 31.71196 -18.74304
vt 36.89735 -8.302319
vt -15.28341 16.58567
vt 33.1126 2.780737
vt -29.87952 2.780737
vt 20.17496 43.26136
vt -19.51008 43.26136
vt 15.13577 -10.45922
vt -15.22175 -10.45922
vt 10.52144 32.16581
vt -14.28171 32.16581
vt -21.93873 -0.6277289
vt -26.05385 44.31382
vt 12.13513 44.31382
vt -21.44978 16.46558
vt 9.101398 16.46558
vt 20.63538 34.11023
vt 18.41428 9.643913
vt 12.01427 39.81472
vt 11.27789 -45.57404
vt 31.79227 -40.28344
vt 50.94754 -15.28189
vt -16.86 32.07788
vt -12.88123 -43.45396
vt -38.75085 -25.80564
vt -38.85815 19.79119
vt -46.73645 -9.726717
vt 9.033219 16.58507
vt -15.21875 16.58507
vt 30.33812 30.43117
vt -19.06563 44.27727
vt 33.69027 44.27727
vt -1.613701 15.25358
vt -11.95124 15.25358
vt -2.34361 43.06222
vt -23.56187 32.66374
vt -25.57196 43.06222
vt -26.05385 -3.119145
vt -17.53633 38.28988
vt 12.13513 -3.119145
vt 6.522728 38.28988
vt -8.226289 57.49725
vt -14.84922 20.27465
vt -17.89952 57.49725
vt -45.55788 20.27465
vt -36.56531 38.88595
vt 48.753 18.37068
vt 10.56655 18.37068
vt 56.65056 27.0565
vt 7.209636 56.02857
vt 39.48473 56.02857
vt 1.869508 -8.810759
vt -13.35415 17.83947
vt 15.63389 17.83947
vt 21.9097 22.33727
vt -7.983143 22.33727
vt 19.20769 43.08864
vt -2.34361 -1.489059
vt -25.57196 -1.489059
vt -1.668444 19.16986
vt -15.62714 39.82878
vt -8.310206 39.82878
vt 0.2815727 -6.00748
vt -26.20044 -6.00748
vt 0.6125463 35.65284
vt -16.07112 35.65284
vt -29.15642 46.3262
vt 15.72547 46.3262
vt -26.49224 32.33143
vt -5.875313 18.33667
vt 12.07744 18.33667
vt 49.73626 3.864676
vt 8.752004 3.864676
vt 53.91078 12.94925
vt 10.56655 30.11093
vt 48.753 30.11093
vt 15.13577 49.51616
vt 12.64154 21.13691
vt -15.22175 49.51616
vt -18.85452 21.13691
vt -20.71662 30.95978
vt -11.26926 2.953121
vt -35.83619 2.953121
vt -14.84922 29.01731
vt -45.55788 29.01731
vt -13.84772 32.71635
vt 2.204746 52.41233
vt 17.46842 32.71635
vt -58.31187 -25.5006
vt -53.43891 -10.41342
vt -39.84903 -49.59838
vt -23.12654 12.81081
vt -14.20606 -56.21164
vt -6.531377 56.21164
vt -25.90292 43.39371
vt 38.34787 -51.59978
vt 48.46399 25.49491
vt 58.31187 -11.40248
vt 34.13633 47.43411
vt 42.18856 38.6627
vt 26.33395 38.6627
vt 42.18856 25.58145
vt 32.57698 8.784124
vt 26.33395 25.58145

usemtl natureKit-stone
# usermap natureKit-stone

f 2/2/1 1/1/1 3/3/1
f 5/5/3 4/4/2 6/6/4
f 6/6/4 7/7/3 5/5/3
f 9/9/5 8/8/5 10/10/5
f 10/10/5 11/11/5 9/9/5
f 10/10/5 12/12/5 11/11/5
f 6/14/7 13/13/6 14/15/6
f 14/15/6 15/16/8 6/14/7
f 14/15/6 16/17/6 15/16/8
f 14/19/9 13/18/9 17/20/9
f 17/20/9 18/21/9 14/19/9
f 17/20/9 19/22/9 18/21/9
f 21/24/10 20/23/10 22/25/10
f 22/25/10 15/26/10 21/24/10
f 15/26/10 1/27/10 21/24/10
f 15/26/10 23/28/10 1/27/10
f 15/26/10 16/29/10 23/28/10
f 16/29/10 24/30/10 23/28/10
f 16/29/10 18/31/10 24/30/10
f 18/31/10 19/32/10 24/30/10
f 2/33/10 21/24/10 1/27/10
f 11/35/11 12/34/11 23/36/11
f 23/36/11 24/37/11 11/35/11
f 25/39/12 7/38/12 22/40/12
f 22/40/12 20/41/12 25/39/12
f 20/41/12 26/42/12 25/39/12
f 11/44/13 17/43/13 27/45/13
f 27/45/13 9/46/13 11/44/13
f 29/48/14 28/47/14 30/49/14
f 29/48/14 30/49/14 4/50/14
f 29/48/14 4/50/14 5/51/14
f 5/51/14 31/52/14 29/48/14
f 30/49/14 8/53/14 4/50/14
f 8/53/14 32/54/14 4/50/14
f 8/53/14 33/55/14 32/54/14
f 8/53/14 9/56/14 33/55/14
f 9/56/14 27/57/14 33/55/14
f 4/59/2 32/58/15 34/60/15
f 34/60/15 6/61/4 4/59/2
f 34/60/15 13/62/15 6/61/4
f 30/64/16 28/63/16 35/65/16
f 35/65/16 10/66/16 30/64/16
f 35/65/16 12/67/16 10/66/16
f 19/69/17 17/68/17 11/70/17
f 11/70/17 24/71/17 19/69/17
f 36/73/18 21/72/18 2/74/18
f 2/74/18 35/75/18 36/73/18
f 2/74/18 3/76/18 35/75/18
f 36/78/19 37/77/19 26/79/19
f 26/79/19 21/80/19 36/78/19
f 26/79/19 20/81/19 21/80/19
f 16/83/20 14/82/20 18/84/20
f 8/86/21 30/85/21 10/87/21
f 12/89/22 35/88/22 3/90/22
f 3/90/22 23/91/22 12/89/22
f 3/90/22 1/92/22 23/91/22
f 7/94/23 6/93/7 15/95/8
f 15/95/8 22/96/23 7/94/23
f 17/98/24 13/97/24 34/99/24
f 34/99/24 33/100/24 17/98/24
f 33/100/24 27/101/24 17/98/24
f 29/103/25 31/102/25 38/104/25
f 38/104/25 36/105/25 29/103/25
f 38/104/25 37/106/25 36/105/25
f 5/108/26 7/107/26 25/109/26
f 25/109/26 31/110/26 5/108/26
f 25/109/26 38/111/26 31/110/26
f 28/113/27 29/112/27 36/114/27
f 36/114/27 35/115/27 28/113/27
f 34/117/28 32/116/28 33/118/28
f 37/120/10 25/119/10 7/121/10
f 7/121/10 36/122/10 37/120/10
f 7/121/10 6/123/10 36/122/10
f 36/122/10 6/123/10 12/124/10
f 12/124/10 35/125/10 36/122/10
f 6/123/10 13/126/10 12/124/10
f 13/126/10 11/127/10 12/124/10
f 13/126/10 17/128/10 11/127/10
f 25/130/29 26/129/29 37/131/29
f 38/133/30 25/132/30 37/134/30
