# Exported using Kenney Suite 1.2 

mtllib stone_tall1.mtl 

g stone_tall1

v 2.826877 2.311707 -0.8327517 
v 2.051158 3.917159E-17 -1.473209 
v 3.218279 2.311707 -1.224154 
v 3.111346 7.834319E-17 -2.533396 
v -3.39293 3.229055 0.953608 
v -3.39293 3.229055 0.5082331 
v -2.040694 3.229055 1.734321 
v -2.144878 3.229055 0.5082331 
v -1.783385 3.229055 -0.2132942 
v -2.238588 3.229055 -0.003017875 
v -1.783385 3.229055 1.585763 
v 2.998025 3.917159E-17 1.074604 
v 4.254527 7.834319E-17 1.074604 
v 4.915345 7.834319E-17 -1.238939 
v 2.998025 0 1.968525 
v 0.4908299 0 3.416054 
v 0.4908299 0 -2.374064 
v 0.1274586 0 -2.164271 
v -0.9424114 0 2.588572 
v -2.040694 0 3.222666 
v -2.040694 0 -3.416054 
v -4.915345 0 1.562986 
v -4.915345 0 -1.756374 
v -0.1146412 9.959259 2.152806 
v 0.429101 9.959259 0.2664027 
v 0.5775595 9.959259 2.552448 
v 2.116647 9.959259 0.7752639 
v 2.116647 9.959259 1.663856 
v -1.665356 4.864892 0.5209952 
v -1.665356 4.864892 -0.7238802 
v 0.2828479 4.864892 -0.1918953 
v 0.4908299 4.864892 -1.968756 
v 2.647018 4.864892 0.5209952 
v 2.647018 4.864892 -0.7238802 
v 2.345152 6.79249 1.715968 
v 2.345152 6.79249 0.6453754 
v 2.647018 4.864892 1.765871 
v 0.4908299 4.864892 3.010746 
v -0.3431463 6.79249 2.305065 
v 0.3119636 6.79249 0.03228961 
v 2.831233 2.311707 0.07321612 
v 2.831233 2.311707 -0.8302369 
v -1.363492 6.79249 0.6453754 
v -1.363492 6.79249 1.715968 
v 0.4908299 6.79249 2.786561 
v -1.665356 4.864892 1.765871 
v 3.758886 2.311707 -0.8362428 
v 3.499117 2.311707 0.07321612 
v -1.451113 0.9179041 2.218399 
v -2.040694 0.9179041 2.558794 
v -1.85148 2.285268 1.873329 
v -1.907561 1.507985 -0.48698 
v -1.907561 1.507985 -0.8637171 
v -1.730499 1.507985 2.007934 
v -0.7526183 1.507985 -1.530524 
v -0.3812432 0.9179041 -1.794098 
v -4.340415 0.9179041 -1.424438 
v -2.040694 0.9179041 -2.752182 
v -4.340415 0.9179041 1.23105 
v -4.340415 0.9179041 0.4736093 
v -0.8908343 0.9179041 -2.08831 
v -3.972459 1.507985 0.4354705 
v -2.189527 1.507985 0.4354705 
v -2.040694 1.507985 2.187025 
v -3.972459 1.507985 1.07172 
v -2.323401 1.507985 -0.2948881 
v -2.217877 0.9179041 0.4736093 
v -2.536621 0.9179041 -1.26534 
v -2.457273 1.507985 -1.025247 
v -1.074812 1.507985 -1.716542 

vn 0.6707768 0.3164124 0.6707768
vn 0 1 0
vn 0 -1 0
vn -0.9961229 0.08797266 0
vn -0.9984601 0.0554755 0
vn -0.9960794 0.08846357 0
vn -0.4992302 0.05547081 -0.864692
vn -0.4989114 0.06595416 -0.8641399
vn -0.4989054 0.06613331 -0.8641295
vn -0.9961986 0.08711131 0
vn -0.997072 0.07646829 0
vn 0.959987 0.04309366 0.2767089
vn -0.9984603 0.05547081 0
vn 0.3423123 0.08775659 0.935479
vn -0.4991333 0.05885454 -0.8645242
vn -0.4991409 0.05859598 -0.8645374
vn -0.287725 0.08210377 0.9541873
vn -0.2880959 0.0646371 0.9554175
vn -0.2880894 0.06498675 0.9553959
vn 0.4989054 0.06613331 -0.8641295
vn 0.4989114 0.06595416 -0.8641399
vn 0.4988192 0.06868362 -0.8639804
vn 0.498503 0.07732303 -0.8634325
vn 0.498719 0.07153694 -0.8638066
vn 0.9961986 0.08711131 0
vn 0.997072 0.07646829 0
vn 0.9928081 0.1197165 0
vn -0.2883911 0.04622859 0.9563962
vn -0.4996249 0.03872496 -0.8653758
vn 0.4991072 0.05973542 -0.8644789
vn -0.5530387 0.3164124 0.7707342
vn -0.9121427 0.3164124 -0.2605357
vn -0.4503584 0.4344068 -0.7800435
vn -0.4552219 0.4136329 -0.7884674
vn -0.4550324 0.4144661 -0.7881392
vn 0 0.3164124 -0.9486217
vn -0.4992302 0.05547081 0.864692
vn 0.9984603 0.05547081 0
vn 0.4992302 0.05547081 -0.864692
vn 0.4992302 0.05547081 0.864692
vn 0.4503584 0.4344068 0.7800435
vn 0.4503584 0.4344068 -0.7800435
vn 0.4550324 0.4144661 -0.7881392
vn 0.4549138 0.4149863 -0.7879339
vn 0.9007168 0.4344068 0
vn 0.9010436 0.4337284 0
vn 0.9009734 0.4338744 0
vn -0.4503584 0.4344068 0.7800435
vn -0.4470288 0.4479518 0.7742767
vn -0.445934 0.4522958 0.7723804
vn 0 -0.01723827 0.9998515
vn 0 -0.007842666 0.9999692
vn 0 0.03253649 0.9994705
vn 0.4781527 0.29237 -0.8281847
vn 0.4773483 0.2975811 -0.8267915
vn 0.4924815 0.1727654 -0.8530029
vn -0.4787546 0.2884024 -0.8292274
vn -0.4781527 0.29237 -0.8281847
vn -0.4924815 0.1727654 -0.8530029
vn 0.9367097 0.3501072 0
vn 0.9392895 0.343126 0
vn 0.9679922 0.2509803 0
vn 0.9835195 0.01377834 -0.1802762
vn 0.9831824 0.02958171 -0.1802144
vn 0.9829956 0.03542267 -0.1801801
vn 0.4156176 0.1332579 0.8997247
vn 0.9826026 0.04531296 -0.1801081
vn 0.4251562 0.3103981 0.8502324
vn 0 -0.04970604 0.9987639
vn -0.4399224 0.4752614 0.7619679

vt -28.23721 35.94515
vt -27.19354 1.411002
vt -34.27723 35.94515
vt -43.55407 1.411002
vt -37.02326 -10.40566
vt -37.02326 -5.545781
vt -22.26782 -18.92472
vt -23.40466 -5.545781
vt -19.46009 2.327442
vt -24.42722 0.03293071
vt -19.46009 -17.30367
vt -22.38199 16.07548
vt -32.7141 -11.72596
vt -33.95063 27.64412
vt -46.4249 -11.72596
vt -53.63567 13.51916
vt -32.7141 -21.48031
vt -5.355884 -37.27559
vt -5.355884 25.90551
vt -1.390807 23.61627
vt 10.28349 -28.24619
vt 22.26782 -35.16536
vt 22.26782 37.27559
vt 53.63567 -17.05512
vt 53.63567 19.16535
vt -1.250942 -23.49117
vt 4.682301 -2.906955
vt 6.302264 -27.85202
vt 23.0966 -8.45959
vt 23.0966 -18.1558
vt -18.17219 -5.68504
vt -18.17219 7.898898
vt 3.086391 2.093939
vt 5.355884 21.48283
vt 28.88395 -5.68504
vt 28.88395 7.898898
vt -18.72445 94.69041
vt -18.1558 139.6368
vt -7.042262 94.69041
vt -8.45959 139.6368
vt 17.59109 -1.939234
vt -13.99946 -1.939234
vt 15.37975 67.10881
vt -11.78813 67.10881
vt -19.26898 64.98803
vt -18.72445 92.50244
vt -5.68504 64.98803
vt -7.042262 92.50244
vt 25.20569 96.31401
vt -0.6042694 96.31401
vt 22.91866 141.2329
vt 1.496395 141.2329
vt -21.48031 -1.814678
vt -19.26898 67.23337
vt -11.72596 -1.814678
vt -5.68504 67.23337
vt -0.7989259 30.99568
vt 7.898898 67.23337
vt 9.059449 30.99568
vt 19.01913 68.59626
vt -3.617994 68.59626
vt 16.39219 96.01859
vt -3.075739 96.01859
vt -14.87826 -18.72445
vt -14.87826 -7.042262
vt -3.744365 -25.1526
vt 3.40412 -0.3523405
vt 15.37975 66.32831
vt -11.78813 66.32831
vt 12.79939 93.72687
vt -10.56499 93.72687
vt -2.350452 68.47121
vt -29.29533 68.47121
vt -3.360893 95.88029
vt -26.53349 95.88029
vt 21.06479 66.74244
vt -6.103086 66.74244
vt 19.84165 94.14101
vt -3.522724 94.14101
vt 9.333586 94.14101
vt 19.26898 66.2704
vt 5.68504 66.2704
vt 18.72445 93.78482
vt 7.042262 93.78482
vt -3.360893 96.12552
vt -26.53349 96.12552
vt -5.322164 141.0507
vt -24.55542 141.0507
vt 12.79939 95.06262
vt -10.56499 95.06262
vt 10.92434 139.9735
vt -8.468088 139.9735
vt 19.84165 94.67333
vt 9.333586 94.67333
vt 19.38393 139.6308
vt 10.66224 139.6308
vt -11.46784 -13.36943
vt -35.69624 -13.36943
vt -20.74469 21.16472
vt -28.00524 21.16472
vt 30.89409 -0.7989259
vt 30.89409 9.059449
vt 38.18196 -0.7989259
vt 35.11749 13.35783
vt 41.01653 9.124985
vt 30.84656 9.08689
vt 1.475403 -15.14354
vt 9.718342 19.39061
vt 27.73014 -15.14354
vt 20.03914 19.39061
vt -23.02886 -8.392817
vt -36.86718 -8.392817
vt -25.81644 6.048874
vt -33.24513 6.048874
vt 32.7141 -3.710238
vt 30.89409 30.82391
vt 46.4249 -3.710238
vt 38.18196 30.82391
vt 8.314425 -1.393026
vt -11.34563 -1.393026
vt 6.103086 67.65502
vt -22.17046 31.41733
vt -22.22534 31.41733
vt -21.06479 67.65502
vt 20.44155 31.21462
vt 17.30367 44.60992
vt 19.26898 67.82756
vt 5.68504 67.82756
vt -2.327442 44.60992
vt -7.898898 67.82756
vt -5.31387 20.18254
vt -9.424781 20.18254
vt 23.27613 -1.642139
vt 5.217336 -1.642139
vt 21.06479 67.40591
vt -1.609525 11.38579
vt -5.397996 19.76089
vt -7.275655 30.79297
vt -6.103086 67.40591
vt 13.31401 20.3071
vt -1.238224 20.3071
vt 11.78813 67.95212
vt -15.37975 67.95212
vt -6.18575 11.932
vt -17.59109 -1.095931
vt -13.01261 -1.095931
vt 36.86718 -18.86
vt 0.6467056 -18.86
vt 33.24513 -4.418307
vt 4.268753 -4.418307
vt -1.701824 -18.06611
vt -37.92229 -18.06611
vt -5.323871 -3.624421
vt -34.30025 -3.624421
vt 17.05512 -23.2997
vt -19.16535 -23.2997
vt 13.43307 -8.858011
vt 5.16797 -8.858011
vt -15.54331 -8.858011
vt 37.92229 -9.186705
vt 10.60366 -9.186705
vt 34.30025 5.254988
vt 19.81206 5.254988
vt 13.39124 5.254988
vt 43.34702 21.51337
vt 23.89187 21.51337
vt 37.02326 45.91605
vt 23.40466 45.91605
vt -7.352217 15.55458
vt -31.69238 15.55458
vt -9.822144 40.3167
vt -26.86025 40.3167
vt -27.30834 19.40169
vt -31.21678 19.40169
vt -27.7172 30.58495
vt -28.74686 44.1638
vt -25.50476 44.1638
vt 11.69449 9.806825
vt 4.751803 9.806825
vt 10.40566 35.00306
vt 5.545781 35.00306
vt 1.235198 45.42453
vt 0.3663902 21.03245
vt -4.436455 45.42453
vt -7.735972 21.03245
vt 16.66797 19.37344
vt 16.69025 43.98269
vt 21.66629 19.37344
vt 22.16174 43.98269
vt -47.3621 -5.16797
vt -47.3621 15.54331
vt -24.20122 -5.16797
vt -27.67932 13.80724
vt -22.26782 30.0315
vt -9.720684 22.7874
vt 0.7199644 11.87363
vt -18.57137 11.87363
vt 0.3663902 20.24444
vt -7.735972 20.24444
vt -15.83833 20.24444
vt -5.323871 -1.685969
vt -34.30025 -1.685969
vt -7.352217 7.384259
vt -31.69238 7.384259
vt -33.24513 6.939095
vt -31.21678 16.00932
vt -25.81644 6.939095
vt -27.30834 16.00932
vt 18.58142 4.689587
vt -1.497323 4.689587
vt 18.97873 13.48629
vt 2.112588 13.48629
vt 47.3621 12.73492
vt 24.20122 12.73492
vt 43.34702 21.10747
vt 23.89187 21.10747
vt -11.72823 18.73071
vt -20.81509 9.424781
vt -26.81348 11.18737
vt -25.35268 3.217785
vt -20.81509 5.31387
vt -8.21249 16.7009
vt 19.81206 4.375812
vt 13.39124 4.375812
vt 19.5223 13.87999
vt 15.46267 13.87999
vt 13.43307 -8.773915
vt 5.16797 -8.773915
vt 11.69449 0.5022571
vt 4.751803 0.5022571

usemtl natureKit-stone
# usermap natureKit-stone

f 2/2/1 1/1/1 3/3/1
f 3/3/1 4/4/1 2/2/1
f 6/6/2 5/5/2 7/7/2
f 7/7/2 8/8/2 6/6/2
f 8/8/2 7/7/2 9/9/2
f 9/9/2 10/10/2 8/8/2
f 7/7/2 11/11/2 9/9/2
f 12/13/3 2/12/3 4/14/3
f 4/14/3 13/15/3 12/13/3
f 4/14/3 14/16/3 13/15/3
f 2/12/3 12/13/3 15/17/3
f 2/12/3 15/17/3 16/18/3
f 17/19/3 2/12/3 16/18/3
f 18/20/3 17/19/3 16/18/3
f 18/20/3 16/18/3 19/21/3
f 18/20/3 19/21/3 20/22/3
f 21/23/3 18/20/3 20/22/3
f 21/23/3 20/22/3 22/24/3
f 22/24/3 23/25/3 21/23/3
f 25/27/2 24/26/2 26/28/2
f 26/28/2 27/29/2 25/27/2
f 26/28/2 28/30/2 27/29/2
f 30/32/2 29/31/2 31/33/2
f 31/33/2 32/34/2 30/32/2
f 31/33/2 33/35/2 32/34/2
f 33/35/2 34/36/2 32/34/2
f 28/38/5 35/37/4 36/39/6
f 36/39/6 27/40/5 28/38/5
f 16/42/7 15/41/7 37/43/8
f 37/43/8 38/44/9 16/42/7
f 35/46/4 37/45/10 33/47/11
f 33/47/11 36/48/6 35/46/4
f 40/50/12 39/49/12 24/51/12
f 24/51/12 25/52/12 40/50/12
f 37/54/10 15/53/13 12/55/13
f 12/55/13 33/56/11 37/54/10
f 12/55/13 41/57/13 33/56/11
f 41/57/13 34/58/13 33/56/11
f 41/57/13 42/59/13 34/58/13
f 31/61/14 29/60/14 43/62/14
f 43/62/14 40/63/14 31/61/14
f 43/65/2 44/64/2 39/66/2
f 39/66/2 40/67/2 43/65/2
f 38/69/9 37/68/8 35/70/15
f 35/70/15 45/71/16 38/69/9
f 33/73/17 31/72/17 40/74/18
f 40/74/18 36/75/19 33/73/17
f 46/77/21 38/76/20 45/78/22
f 45/78/22 44/79/23 46/77/21
f 45/78/22 39/80/24 44/79/23
f 29/82/26 46/81/25 44/83/27
f 44/83/27 43/84/27 29/82/26
f 36/86/19 40/85/18 25/87/28
f 25/87/28 27/88/28 36/86/19
f 45/90/16 35/89/15 28/91/29
f 28/91/29 26/92/29 45/90/16
f 39/94/24 45/93/22 26/95/30
f 26/95/30 24/96/30 39/94/24
f 14/98/31 4/97/31 3/99/31
f 3/99/31 47/100/31 14/98/31
f 42/102/2 41/101/2 48/103/2
f 48/103/2 3/104/2 42/102/2
f 48/103/2 47/105/2 3/104/2
f 1/106/2 42/102/2 3/104/2
f 48/108/32 13/107/32 14/109/32
f 14/109/32 47/110/32 48/108/32
f 20/112/33 19/111/33 49/113/34
f 49/113/34 50/114/35 20/112/33
f 41/116/36 12/115/36 13/117/36
f 13/117/36 48/118/36 41/116/36
f 2/120/37 17/119/37 32/121/37
f 32/121/37 1/122/37 2/120/37
f 32/121/37 42/123/37 1/122/37
f 32/121/37 34/124/37 42/123/37
f 11/126/38 51/125/38 46/127/25
f 46/127/25 29/128/26 11/126/38
f 29/128/26 9/129/38 11/126/38
f 29/128/26 30/130/38 9/129/38
f 30/130/38 52/131/38 9/129/38
f 30/130/38 53/132/38 52/131/38
f 19/134/39 16/133/39 38/135/20
f 38/135/20 49/136/39 19/134/39
f 38/135/20 54/137/39 49/136/39
f 38/135/20 51/138/39 54/137/39
f 38/135/20 46/139/21 51/138/39
f 55/141/40 53/140/40 30/142/40
f 55/141/40 30/142/40 32/143/40
f 56/144/40 55/141/40 32/143/40
f 56/144/40 32/143/40 17/145/40
f 17/145/40 18/146/40 56/144/40
f 21/148/41 23/147/41 57/149/41
f 57/149/41 58/150/41 21/148/41
f 22/152/42 20/151/42 50/153/43
f 50/153/43 59/154/44 22/152/42
f 23/156/45 22/155/45 59/157/46
f 59/157/46 60/158/47 23/156/45
f 60/158/47 57/159/45 23/156/45
f 18/161/48 21/160/48 58/162/48
f 58/162/48 61/163/49 18/161/48
f 61/163/49 56/164/50 18/161/48
f 63/166/52 62/165/51 6/167/53
f 6/167/53 8/168/53 63/166/52
f 65/170/55 64/169/54 7/171/56
f 7/171/56 5/172/56 65/170/55
f 64/174/58 54/173/57 51/175/59
f 51/175/59 7/176/59 64/174/58
f 51/175/59 11/177/59 7/176/59
f 62/179/61 65/178/60 5/180/62
f 5/180/62 6/181/62 62/179/61
f 63/183/64 8/182/63 10/184/63
f 10/184/63 66/185/65 63/183/64
f 9/187/66 52/186/66 66/188/66
f 66/188/66 10/189/66 9/187/66
f 57/191/2 60/190/2 67/192/2
f 67/192/2 68/193/2 57/191/2
f 58/194/2 57/191/2 68/193/2
f 68/193/2 61/195/2 58/194/2
f 68/197/67 67/196/67 63/198/64
f 63/198/64 66/199/65 68/197/67
f 66/199/65 69/200/67 68/197/67
f 59/202/44 50/201/43 64/203/54
f 64/203/54 65/204/55 59/202/44
f 64/206/58 50/205/35 49/207/34
f 49/207/34 54/208/57 64/206/58
f 61/210/68 68/209/68 69/211/68
f 69/211/68 70/212/68 61/210/68
f 67/214/69 60/213/69 62/215/51
f 62/215/51 63/216/52 67/214/69
f 53/218/2 70/217/2 69/219/2
f 69/219/2 66/220/2 53/218/2
f 66/220/2 52/221/2 53/218/2
f 53/218/2 55/222/2 70/217/2
f 56/224/50 61/223/49 70/225/70
f 70/225/70 55/226/70 56/224/50
f 60/228/47 59/227/46 65/229/60
f 65/229/60 62/230/61 60/228/47
