# Exported using Kenney Suite 1.2 

mtllib stone_large6.mtl 

g stone_large6

v 3.707707 5.860477E-15 -2.536923 
v 3.707707 5.860477E-15 -0.7244709 
v 4.929564 1.05534 -1.993647 
v -4.381835 5.860477E-15 0.4342762 
v -0.8401585 1.139537E-14 3.57504 
v -3.898675 5.860477E-15 -1.032415 
v -1.448996 5.860477E-15 -2.814284 
v 0.5175233 5.860477E-15 -3.12946 
v 2.217586 0 2.525759 
v 2.591593 5.860477E-15 -3.78393 
v 3.033578 5.860477E-15 0.3347941 
v 0.6469035 2.11068 -3.885714 
v 2.5775 2.11068 -4.494911 
v 0.3986216 4.78962 -2.434463 
v 3.017828 2.588291 -4.389089 
v 1.996174 4.78962 -2.938568 
v -3.002954 4.78962 -0.8192142 
v -3.450098 3.45015 -2.523353 
v -1.11609 4.78962 -2.191698 
v 2.771983 2.11068 3.18331 
v -1.050196 2.11068 4.494911 
v 1.708095 4.78962 1.921469 
v -0.64713 4.78962 2.729678 
v 3.017828 1.388561 -4.389089 
v -5.477295 2.11068 0.5689567 
v -3.375108 4.78962 0.310505 
v 3.791974 2.11068 0.4446039 
v 2.336614 4.78962 0.2338789 
v 5.477295 2.11068 -2.203558 
v 2.855861 4.78962 -0.5820199 
v 4.4262 3.45015 -1.800738 
v -4.269395 2.11068 -3.097773 
v -3.842454 1.05534 -2.79844 
v 4.050212 2.11068 -3.798002 
v 2.730124 4.78962 -2.118545 

vn -0.6536551 -0.7567926 0
vn 0 -1 0
vn 0.2135036 0.4499687 0.8671472
vn 0.2703613 0.4390926 0.8567978
vn 0.1978193 0.4526733 0.8694564
vn 0.3719444 0.7747171 0.5113422
vn -0.2814481 0.4980931 -0.820177
vn 0.2126052 -0.3180144 0.9239405
vn 0.2863349 -0.3075753 0.9074193
vn 0.2242675 -0.3164972 0.9217015
vn 0.5707366 0.5099521 -0.6435904
vn -0.7902605 0.461065 -0.4036179
vn -0.7971202 0.4634855 -0.3870149
vn -0.7544114 0.4476069 -0.4801161
vn 0.8585953 -0.4275697 0.2828398
vn 0.6177046 -0.3650397 -0.6965537
vn -0.8831547 -0.3344411 -0.3289177
vn -0.8434935 -0.325315 -0.4274211
vn -0.8490906 -0.326686 -0.4151164
vn -0.8257621 0.4727943 -0.3075427
vn -0.6612604 -0.4609205 0.5918505
vn -0.586036 0.617607 0.5245221
vn 0 1 0
vn -0.6248483 0.7790701 0.05113298
vn 0.1403902 0.4615153 0.8759533
vn 0.3548771 -0.7975191 0.4878784
vn -0.3034167 -0.3551545 -0.8841966
vn -0.8008935 -0.3142889 -0.5096979
vn 0.1496412 -0.3253615 0.9336742
vn 0.7725712 0.5816897 0.2545016
vn -0.4199045 -0.190522 0.8873453
vn -0.4242585 0.1273182 0.8965461

vt 27.68261 30.61837
vt 7.905342 30.61837
vt 21.75445 48.23584
vt 47.81408 -4.738772
vt 9.1677 -39.01042
vt 42.54189 11.2656
vt 15.81128 30.70914
vt -5.647151 34.14831
vt -24.19805 -27.56079
vt -28.27916 41.28981
vt -33.10206 -3.653234
vt -40.45807 27.68261
vt -40.45807 7.905342
vt -19.491 3.870403
vt -41.58136 3.870403
vt -12.14198 36.40705
vt -45.81598 9.671156
vt -30.42157 36.40705
vt 21.2408 12.51356
vt 14.24815 -10.60198
vt -4.219157 12.51356
vt 17.33548 -1.283942
vt -26.75901 -1.283942
vt 10.82409 32.42785
vt -16.34693 32.42785
vt -15.66139 9.49366
vt -39.39342 9.49366
vt -19.491 33.69852
vt -45.81598 25.4174
vt -41.58136 33.69852
vt -40.59798 -2.77926
vt -25.3067 31.20375
vt 23.96895 -2.77926
vt 14.47945 31.20375
vt 18.12289 3.804528
vt 11.53634 36.49441
vt 52.37486 3.804528
vt 22.08938 36.49441
vt 42.50863 20.14947
vt 24.59688 44.26127
vt 19.46101 18.78346
vt -17.5291 44.26127
vt 2.610618 18.78346
vt -15.88444 31.52237
vt -32.62962 12.87483
vt -40.59798 37.61349
vt 19.02392 12.87483
vt 23.96895 37.61349
vt -21.99476 35.23972
vt 9.895007 35.23972
vt -17.3822 10.80096
vt 8.129611 10.80096
vt -21.99476 1.161281
vt -13.14326 34.33557
vt 9.895007 1.161281
vt 6.507212 34.33557
vt -19.66415 35.38105
vt -21.94342 48.3574
vt -6.355028 22.4047
vt 1.406015 48.3574
vt 11.90645 22.4047
vt 13.72501 39.47829
vt 9.366052 17.87324
vt 13.72501 -12.66846
vt -2.64257 17.87324
vt -17.56951 -0.710847
vt 1.406015 -19.29494
vt -21.94342 -19.29494
vt -36.82879 -3.388195
vt -32.76789 8.939171
vt -7.061421 -29.78593
vt -12.17864 23.91556
vt 4.349718 26.56458
vt 18.63855 -20.96685
vt 21.78202 32.06532
vt 25.49686 -2.552059
vt 29.79079 23.11732
vt 31.16283 6.350934
vt 3.788135 8.165407
vt 20.61057 8.165407
vt 15.64479 -15.14817
vt 40.65078 1.62566
vt -13.67993 1.62566
vt 32.81528 18.10138
vt -8.498797 34.5771
vt 8.240494 34.5771
vt 15.94474 46.3114
vt 27.77648 27.22327
vt -5.277677 27.22327
vt 13.94236 12.04782
vt -21.33323 12.04782
vt 17.33548 36.6855
vt -26.75901 36.6855
vt 18.12289 33.65425
vt 52.37486 33.65425
vt 14.69061 9.393392
vt 28.3914 9.393392
vt 47.23352 21.52382
vt 10.75226 10.67977
vt -10.98002 10.67977
vt 36.56766 22.85815
vt -13.67993 35.03653
vt 40.65078 35.03653
vt 24.59688 -13.15665
vt -17.5291 -13.15665
vt 14.74115 22.78125
vt 1.76213 22.78125
vt -14.37299 4.812302
vt -59.7676 -6.208389
vt -46.58714 33.80254
vt -11.45962 -49.04795
vt 7.058939 42.40046
vt 30.24756 -34.73591
vt 28.12538 49.04795
vt 44.19545 41.44336
vt 41.37757 -4.851467
vt 59.7676 24.04497
vt -4.442848 33.34837
vt -22.2214 33.34837
vt -9.279844 38.65725
vt -9.279844 7.723454
vt -22.2214 15.66779
vt -4.442848 15.66779

usemtl natureKit-stone
# usermap natureKit-stone

f 2/2/1 1/1/1 3/3/1
f 5/5/2 4/4/2 6/6/2
f 6/6/2 7/7/2 5/5/2
f 7/7/2 8/8/2 5/5/2
f 8/8/2 9/9/2 5/5/2
f 8/8/2 10/10/2 9/9/2
f 10/10/2 11/11/2 9/9/2
f 10/10/2 1/12/2 11/11/2
f 1/12/2 2/13/2 11/11/2
f 13/15/4 12/14/3 14/16/5
f 14/16/5 15/17/4 13/15/4
f 14/16/5 16/18/4 15/17/4
f 18/20/6 17/19/6 19/21/6
f 21/23/7 20/22/7 22/24/7
f 22/24/7 23/25/7 21/23/7
f 10/27/9 8/26/8 12/28/10
f 12/28/10 24/29/9 10/27/9
f 12/28/10 13/30/9 24/29/9
f 26/32/11 25/31/11 21/33/11
f 21/33/11 23/34/11 26/32/11
f 28/36/13 27/35/12 29/37/14
f 29/37/14 30/38/14 28/36/13
f 29/37/14 31/39/14 30/38/14
f 4/41/15 25/40/15 32/42/15
f 32/42/15 6/43/15 4/41/15
f 32/42/15 33/44/15 6/43/15
f 25/46/16 4/45/16 5/47/16
f 5/47/16 21/48/16 25/46/16
f 27/50/18 20/49/17 9/51/17
f 9/51/17 11/52/19 27/50/18
f 22/54/20 20/53/20 27/55/12
f 27/55/12 28/56/13 22/54/20
f 29/58/21 3/57/21 1/59/21
f 1/59/21 34/60/21 29/58/21
f 1/59/21 10/61/21 34/60/21
f 10/61/21 24/62/21 34/60/21
f 15/64/22 16/63/22 35/65/22
f 35/65/22 31/66/22 15/64/22
f 31/66/22 34/67/22 15/64/22
f 31/66/22 29/68/22 34/67/22
f 17/70/23 26/69/23 23/71/23
f 23/71/23 19/72/23 17/70/23
f 23/71/23 14/73/23 19/72/23
f 23/71/23 22/74/23 14/73/23
f 22/74/23 16/75/23 14/73/23
f 22/74/23 28/76/23 16/75/23
f 28/76/23 35/77/23 16/75/23
f 28/76/23 30/78/23 35/77/23
f 35/80/24 30/79/24 31/81/24
f 12/83/3 32/82/25 18/84/25
f 18/84/25 14/85/5 12/83/3
f 18/84/25 19/86/25 14/85/5
f 6/88/26 33/87/26 7/89/26
f 5/91/27 9/90/27 20/92/27
f 20/92/27 21/93/27 5/91/27
f 29/95/28 27/94/18 11/96/19
f 11/96/19 2/97/28 29/95/28
f 2/97/28 3/98/28 29/95/28
f 8/100/8 7/99/29 33/101/29
f 33/101/29 12/102/10 8/100/8
f 33/101/29 32/103/29 12/102/10
f 32/105/30 25/104/30 26/106/30
f 26/106/30 17/107/30 32/105/30
f 17/107/30 18/108/30 32/105/30
f 32/110/23 25/109/23 21/111/23
f 21/111/23 12/112/23 32/110/23
f 21/111/23 20/113/23 12/112/23
f 20/113/23 13/114/23 12/112/23
f 20/113/23 34/115/23 13/114/23
f 20/113/23 27/116/23 34/115/23
f 27/116/23 29/117/23 34/115/23
f 34/119/31 13/118/31 15/120/31
f 34/122/32 24/121/32 13/123/32
