# Exported using Kenney Suite 1.2 

mtllib stone_tall5.mtl 

g stone_tall5

v 1.437013 3.82448 4.16745E-14 
v 0.7185054 3.82448 -1.244489 
v 2.280972 0 0 
v 1.140487 0 -1.97538 
v 2.280972 0 1.31692 
v 1.437013 3.82448 0.8296596 
v 0 0 2.63384 
v 0 3.82448 1.659319 
v 0.895021 3.82448 1.142578 
v -2.280972 0 1.31692 
v -1.437013 3.82448 0.8296596 
v -2.280972 0 -1.31692 
v -1.437013 3.82448 -0.8296596 
v 0.6268382 4.43784 0.9111779 
v -0.4728174 3.82448 -1.386338 
v -0.4263973 4.43784 -1.036087 
v -0.06232977 4.43784 1.309069 
v -1.168828 4.43784 -0.6074451 
v 0 0 -2.63384 
v 0 3.82448 -1.659319 
v -1.168828 4.43784 0.6702307 

vn -0.8506312 0.1877114 0.4911122
vn -0.9765063 0.2154886 0
vn -0.4882531 0.2154886 -0.8456793
vn -0.4705941 0.3378829 -0.8150929
vn -0.4770627 0.2994073 -0.8262969
vn 0.4882531 0.2154886 -0.8456793
vn 0.4773862 0.2973375 -0.8268572
vn 0.4767841 0.3011771 -0.8258144
vn 0.9765063 0.2154886 0
vn 0.9543995 0.2985327 0
vn 0.9553553 0.2954592 0
vn -0.8616451 0.2009199 0.4660462
vn -0.4389687 0.4787753 -0.7603161
vn 0.4713629 0.3335681 0.8164246
vn 0.4776842 0.2954168 0.8273734
vn 0.4413526 0.4699271 0.7644451
vn 0.4882531 0.2154886 0.8456793
vn -0.4882531 0.2154886 0.8456793
vn 0.9162456 0.4006169 0
vn 0.4570282 0.4055871 -0.7915961
vn 0 -1 0
vn 0 1 0

vt -7.840258 38.44139
vt 7.840258 38.44139
vt -12.44485 -4.046141
vt 12.44485 -4.046141
vt -14.37008 -5.36345
vt -9.053149 37.37287
vt 0 -5.36345
vt -4.547474E-13 37.37287
vt 14.37008 -5.36345
vt 9.053149 37.37287
vt 2.224088 37.37287
vt -15.61267 40.34705
vt -11.9995 47.17929
vt 15.76046 40.34705
vt 12.15782 47.17929
vt 2.224088 29.13089
vt -9.053149 29.13089
vt 0.9522636 36.75434
vt -7.731209 36.75434
vt 9.053149 29.46861
vt -3.095671 29.46861
vt 7.731209 37.05088
vt -1.623383 37.05088
vt -3.095671 37.37287
vt -7.993606E-14 -5.36345
vt -1.039169E-13 37.37287
vt 9.053149 31.95514
vt -9.053149 31.95514
vt 7.31348 39.25986
vt -6.62837 39.25986
vt 9.053149 31.78585
vt -9.053149 31.78585
vt 6.553196 39.10806
vt -7.388654 39.10806
vt 24.88971 -14.37008
vt 0 -28.74016
vt 24.88971 14.37008
vt 0 28.74016
vt -12.44485 21.55512
vt -24.88971 -14.37008
vt -24.88971 0
vt -12.75412 -7.31348
vt -12.75412 6.62837
vt -0.6801262 -14.28441
vt -4.652809 11.30567
vt 6.839982 -9.942669
vt -5.159328 15.12756
vt 0 18.1063
vt 9.766375 -12.46768
vt 7.840258 13.57972
vt 15.68052 -4.547474E-13
vt 15.68052 -9.053149

usemtl natureKit-stone
# usermap natureKit-stone

f 2/2/1 1/1/1 3/3/1
f 3/3/1 4/4/1 2/2/1
f 6/6/2 5/5/2 3/7/2
f 3/7/2 1/8/2 6/6/2
f 7/5/3 5/9/3 6/10/3
f 6/10/3 8/6/4 7/5/3
f 6/10/3 9/11/5 8/6/4
f 10/5/6 7/9/6 8/10/7
f 8/10/7 11/6/8 10/5/6
f 12/5/9 10/9/9 11/10/10
f 11/10/10 13/6/11 12/5/9
f 14/13/12 9/12/12 15/14/12
f 15/14/12 16/15/12 14/13/12
f 8/17/4 9/16/5 14/18/13
f 14/18/13 17/19/13 8/17/4
f 15/21/15 13/20/14 18/22/16
f 18/22/16 16/23/16 15/21/15
f 19/5/17 12/9/17 13/10/14
f 13/10/14 20/6/17 19/5/17
f 13/10/14 15/24/15 20/6/17
f 4/25/18 19/9/18 20/10/18
f 20/10/18 2/26/18 4/25/18
f 13/28/11 11/27/10 21/29/19
f 21/29/19 18/30/19 13/28/11
f 11/32/8 8/31/7 17/33/20
f 17/33/20 21/34/20 11/32/8
f 7/36/21 10/35/21 12/37/21
f 12/37/21 19/38/21 7/36/21
f 19/38/21 4/39/21 7/36/21
f 4/39/21 5/40/21 7/36/21
f 4/39/21 3/41/21 5/40/21
f 18/43/22 21/42/22 17/44/22
f 17/44/22 16/45/22 18/43/22
f 17/44/22 14/46/22 16/45/22
f 20/48/22 15/47/22 9/49/22
f 9/49/22 2/50/22 20/48/22
f 9/49/22 1/51/22 2/50/22
f 9/49/22 6/52/22 1/51/22
