# Exported using Kenney Suite 1.2 

mtllib stone_small4.mtl 

g stone_small4

v 1.06436 0 1.843525 
v 0.8371425 1.369299 1.449972 
v 2.12872 0 0 
v 0.921526 2.30912 0.7635823 
v 1.362381 2.30912 1.041863E-14 
v -1.230748 2.30912 0.2279942 
v -1.147969 2.30912 -0.3713728 
v -0.6811905 2.30912 1.179856 
v -0.6811905 2.30912 -1.179856 
v 0 2.30912 1.179856 
v -0.4526663 2.30912 -1.179856 
v 1.248119 2.30912 -0.1979069 
v -2.008057 0.3635793 0 
v -2.12872 0 0 
v -1.06436 0 -1.843525 
v -1.06436 0 1.843525 
v 1.06436 0 -1.843525 
v 0.7322764 2.001253 -1.268341 

vn -0.8323299 0.2762295 -0.4805458
vn 0 1 0
vn 0.8323299 0.2762295 0.4805458
vn 0 0.2762295 -0.9610917
vn 0 0.2762295 0.9610917
vn -0.8323299 0.2762295 0.4805458
vn 0 -1 0
vn 0.8323299 0.2762295 -0.4805458
vn -0.3485266 0.5322019 -0.7715506
vn -0.2089975 0.9084493 0.3619943
vn 0.9159687 0.3807853 0.1265062

vt -11.61417 -5.556726
vt -9.134795 9.9898
vt 11.61417 -5.556726
vt -2.188035 20.66018
vt 7.433071 20.66018
vt -13.42978 -2.487846
vt -12.5265 4.052377
vt -7.433071 -12.87446
vt -7.433071 12.87446
vt 0 -12.87446
vt -4.939452 12.87446
vt 13.61933 2.159538
vt 10.05559 -8.332123
vt 14.86614 -1.136868E-13
vt 10.95584 -1.428779
vt 2.753789 20.66018
vt -7.433071 20.66018
vt 9.134795 9.9898
vt 6.340405E-15 20.66018
vt -7.990522 17.16477
vt 4.939452 20.66018
vt -4.939452 20.66018
vt 7.990522 17.16477
vt 23.22835 0
vt 11.61417 -20.11634
vt 11.61417 20.11634
vt -11.61417 20.11634
vt -11.61417 -20.11634
vt -23.22835 0
vt -4.560354 20.66018
vt -10.95584 -1.428779
vt 5.733911 15.08781
vt 1.811435 2.97465
vt -5.300022 15.08781
vt 10.71492 2.646928
vt 1.225686E-13 -5.390026
vt -10.71492 2.646928
vt 4.301824 18.36244
vt 2.997808 -4.596741
vt -2.300481 18.36244

usemtl natureKit-stone
# usermap natureKit-stone

f 2/2/1 1/1/1 3/3/1
f 3/3/1 4/4/1 2/2/1
f 3/3/1 5/5/1 4/4/1
f 7/7/2 6/6/2 8/8/2
f 8/8/2 9/9/2 7/7/2
f 8/8/2 10/10/2 9/9/2
f 10/10/2 11/11/2 9/9/2
f 10/10/2 12/12/2 11/11/2
f 10/10/2 4/13/2 12/12/2
f 4/13/2 5/14/2 12/12/2
f 14/3/3 13/15/3 7/16/3
f 7/16/3 15/1/3 14/3/3
f 7/16/3 9/17/3 15/1/3
f 16/1/4 1/3/4 2/18/4
f 2/18/4 8/17/4 16/1/4
f 2/18/4 10/19/4 8/17/4
f 17/1/5 15/3/5 9/5/5
f 9/5/5 18/20/5 17/1/5
f 9/5/5 11/21/5 18/20/5
f 12/22/6 5/17/6 3/1/6
f 3/1/6 17/3/6 12/22/6
f 17/3/6 18/23/6 12/22/6
f 16/25/7 14/24/7 15/26/7
f 15/26/7 17/27/7 16/25/7
f 17/27/7 1/28/7 16/25/7
f 17/27/7 3/29/7 1/28/7
f 14/1/8 16/3/8 8/5/8
f 8/5/8 6/30/8 14/1/8
f 6/30/8 13/31/8 14/1/8
f 2/33/9 4/32/9 10/34/9
f 18/36/10 11/35/10 12/37/10
f 13/39/11 6/38/11 7/40/11
