# Exported using Kenney Suite 1.2 

mtllib stone_small2.mtl 

g stone_small2

v -1.803999 0 1.155822 
v -1.803999 0 5.209313E-15 
v -0.8488917 1.76792 0.437578 
v -0.8488917 1.76792 0.2203913 
v 0.4396844 0 1.804 
v 0.5748796 1.76792 0.848892 
v 0.8488917 1.76792 0.3204944 
v -0.03548384 1.76792 -0.848892 
v 1.803999 0 5.209313E-15 
v 0.4396844 0 -1.804 
v -0.3276634 1.76792 -0.848892 
v 0.8488917 1.76792 0.848892 
v -0.9246302 0 -1.804 
v 1.803999 0 1.804 

vn 0.8798157 0.475315 0
vn 0.1230313 0.4789704 -0.8691666
vn 0.2441847 0.475315 -0.8452511
vn -0.7017342 0.475315 0.5307022
vn 0 1 0
vn 0.7908595 0.4753151 0.3855085
vn 0 0.475315 0.8798157
vn -0.8798157 0.475315 0
vn 0 0.475315 -0.8798157
vn 0 -1 0

vt 12.61219 -9.356595
vt 5.80119E-14 -9.356595
vt 4.774801 12.56997
vt 2.404884 12.56997
vt 10.0727 -8.35609
vt -15.41129 -8.35609
vt 8.597454 13.57048
vt -7.573902 13.57048
vt -8.37676 14.46382
vt 7.621654 14.46382
vt -11.87396 -7.462747
vt 12.80662 -7.462747
vt -9.263012 -4.774801
vt -9.263012 -2.404884
vt 6.273034 -9.263012
vt -3.575437 9.263012
vt -0.3871832 9.263012
vt 9.263012 -3.497198
vt 9.263012 -9.263012
vt 6.220502 13.516
vt 8.625386 -8.410571
vt -6.759802 13.516
vt -13.27383 -8.410571
vt 10.08947 -9.356595
vt -4.797786 -9.356595
vt 3.575437 12.56997
vt 0.3871832 12.56997
vt -19.68504 -9.356595
vt -9.263012 12.56997
vt -5.684342E-14 -9.356595
vt -3.497198 12.56997
vt 19.68504 -9.356595
vt 4.797786 -9.356595
vt 9.263012 12.56997
vt 6.273034 12.56997
vt 19.68504 -5.684342E-14
vt 19.68504 -12.61219
vt 10.08947 19.68504
vt -4.797786 -19.68504
vt -4.797786 19.68504
vt -19.68504 -5.684342E-14
vt -19.68504 -19.68504

usemtl natureKit-stone
# usermap natureKit-stone

f 2/2/1 1/1/1 3/3/1
f 3/3/1 4/4/1 2/2/1
f 1/6/3 5/5/2 6/7/2
f 6/7/2 3/8/3 1/6/3
f 8/10/4 7/9/4 9/11/4
f 9/11/4 10/12/4 8/10/4
f 4/14/5 3/13/5 6/15/5
f 6/15/5 11/16/5 4/14/5
f 6/15/5 8/17/5 11/16/5
f 6/15/5 7/18/5 8/17/5
f 6/15/5 12/19/5 7/18/5
f 2/21/6 4/20/6 11/22/6
f 11/22/6 13/23/6 2/21/6
f 10/25/7 13/24/7 11/26/7
f 11/26/7 8/27/7 10/25/7
f 12/29/8 14/28/8 9/30/8
f 9/30/8 7/31/8 12/29/8
f 5/33/2 14/32/9 12/34/9
f 12/34/9 6/35/2 5/33/2
f 1/37/10 2/36/10 13/38/10
f 13/38/10 5/39/10 1/37/10
f 13/38/10 10/40/10 5/39/10
f 10/40/10 9/41/10 5/39/10
f 9/41/10 14/42/10 5/39/10
