# Exported using Kenney Suite 1.2 

mtllib stone_small8.mtl 

g stone_small8

v 1.524019 0 0 
v 2.30912 1.29888 0 
v 1.077645 0 -1.077644 
v 1.632795 1.29888 -1.632794 
v -2.30912 1.29888 0 
v -1.524019 0 0 
v -1.632795 1.29888 -1.632794 
v -1.077645 0 -1.077644 
v 0 0 -1.524019 
v 0 1.29888 -2.30912 
v -1.632795 1.29888 1.632794 
v -1.077645 0 1.077644 
v 0 0 1.524019 
v 0 1.29888 2.30912 
v 0 2.73896 2.30912 
v -1.632795 2.73896 1.632794 
v -2.30912 2.73896 0 
v 1.632795 2.73896 1.632794 
v 0.9960055 4.07392 0.9960046 
v 2.30912 2.73896 0 
v 1.408563 4.07392 -1.041863E-14 
v 1.632795 1.29888 1.632794 
v 0 2.73896 -2.30912 
v 1.632795 2.73896 -1.632794 
v -0.9960055 4.07392 0.9960046 
v -1.408563 4.07392 -1.041863E-14 
v -1.632795 2.73896 -1.632794 
v -0.9960055 4.07392 -0.9960046 
v 0.9960055 4.07392 -0.9960046 
v 0 4.07392 -1.408563 
v 1.077645 0 1.077644 
v 0 4.07392 1.408563 

vn -0.8066284 -0.4875621 0.3341164
vn 0.8066284 -0.4875621 0.3341164
vn 0.3341164 -0.4875621 0.8066284
vn 0.8066284 -0.4875621 -0.3341164
vn 0.3341164 -0.4875621 -0.8066284
vn 0.3826834 0 -0.9238795
vn -0.3341164 -0.4875621 0.8066284
vn 0.9238795 0 -0.3826834
vn -0.7840664 0.528927 -0.3247709
vn -0.9238795 0 -0.3826834
vn -0.3826834 0 0.9238795
vn 0.7840664 0.528927 -0.3247709
vn 0.7840664 0.528927 0.3247709
vn -0.7840664 0.528927 0.3247709
vn 0.9238795 0 0.3826834
vn 0.3826834 0 0.9238795
vn -0.3247709 0.528927 0.7840664
vn -0.3341164 -0.4875621 -0.8066284
vn 0 -1 0
vn 0.3247709 0.528927 -0.7840664
vn -0.8066284 -0.4875621 -0.3341164
vn -0.3826834 0 -0.9238795
vn -0.9238795 0 0.3826834
vn 0 1 0
vn 0.3247709 0.528927 0.7840664
vn -0.3247709 0.528927 -0.7840664

vt -6.363996 7.490925
vt -9.642417 23.72437
vt 6.363996 7.490925
vt 9.642417 23.72437
vt 9.642417 14.17323
vt -9.642417 14.17323
vt 9.642417 29.88721
vt -9.642417 29.88721
vt -9.642417 13.05149
vt -5.881875 30.21597
vt 9.642417 13.05149
vt 5.881875 30.21597
vt 16.62992 0
vt 11.75913 -11.75913
vt 11.75913 11.75913
vt 0 16.62992
vt 0 -16.62992
vt -11.75913 11.75913
vt -11.75913 -11.75913
vt -16.62992 0
vt -15.37008 1.136868E-13
vt -10.86829 10.86829
vt -10.86829 -10.86829
vt 0 -15.37008
vt 0 15.37008
vt 10.86829 -10.86829
vt 10.86829 10.86829
vt 15.37008 1.136868E-13

usemtl natureKit-stone
# usermap natureKit-stone

f 2/2/1 1/1/1 3/3/1
f 3/3/1 4/4/1 2/2/1
f 6/3/2 5/4/2 7/2/2
f 7/2/2 8/1/2 6/3/2
f 9/1/3 8/3/3 7/4/3
f 7/4/3 10/2/3 9/1/3
f 12/3/4 11/4/4 5/2/4
f 5/2/4 6/1/4 12/3/4
f 12/1/5 13/3/5 14/4/5
f 14/4/5 11/2/5 12/1/5
f 11/6/6 14/5/6 15/7/6
f 15/7/6 16/8/6 11/6/6
f 3/1/7 9/3/7 10/4/7
f 10/4/7 4/2/7 3/1/7
f 11/5/8 16/7/8 17/8/8
f 17/8/8 5/6/8 11/5/8
f 19/10/9 18/9/9 20/11/9
f 20/11/9 21/12/9 19/10/9
f 18/8/10 22/6/10 2/5/10
f 2/5/10 20/7/10 18/8/10
f 4/6/11 10/5/11 23/7/11
f 23/7/11 24/8/11 4/6/11
f 17/9/12 16/11/12 25/12/12
f 25/12/12 26/10/12 17/9/12
f 27/9/13 17/11/13 26/12/13
f 26/12/13 28/10/13 27/9/13
f 21/10/14 20/9/14 24/11/14
f 24/11/14 29/12/14 21/10/14
f 5/5/15 17/7/15 27/8/15
f 27/8/15 7/6/15 5/5/15
f 10/6/16 7/5/16 27/7/16
f 27/7/16 23/8/16 10/6/16
f 24/9/17 23/11/17 30/12/17
f 30/12/17 29/10/17 24/9/17
f 13/1/18 31/3/18 22/4/18
f 22/4/18 14/2/18 13/1/18
f 12/14/19 6/13/19 8/15/19
f 8/15/19 9/16/19 12/14/19
f 9/16/19 13/17/19 12/14/19
f 9/16/19 3/18/19 13/17/19
f 3/18/19 31/19/19 13/17/19
f 3/18/19 1/20/19 31/19/19
f 16/9/20 15/11/20 32/12/20
f 32/12/20 25/10/20 16/9/20
f 2/4/21 22/2/21 31/1/21
f 31/1/21 1/3/21 2/4/21
f 14/6/22 22/5/22 18/7/22
f 18/7/22 15/8/22 14/6/22
f 20/8/23 2/6/23 4/5/23
f 4/5/23 24/7/23 20/8/23
f 28/22/24 26/21/24 25/23/24
f 25/23/24 32/24/24 28/22/24
f 32/24/24 30/25/24 28/22/24
f 32/24/24 19/26/24 30/25/24
f 19/26/24 29/27/24 30/25/24
f 19/26/24 21/28/24 29/27/24
f 23/9/25 27/11/25 28/12/25
f 28/12/25 30/10/25 23/9/25
f 15/9/26 18/11/26 19/12/26
f 19/12/26 32/10/26 15/9/26
