# Exported using Kenney Suite 1.2 

mtllib stone_smallFlat2.mtl 

g stone_smallFlat2

v -2.147541 0 -1.80525 
v -1.200318 0 1.111603 
v -0.3759241 0 -2.011766 
v 1.389799 0 2.011766 
v 2.147541 0 0.6167576 
v -1.782458 0.64944 -1.498358 
v -0.312016 0.64944 -1.669766 
v -0.9962654 0.64944 0.9226307 
v 1.153533 0.64944 1.669766 
v 1.782458 0.64944 0.5119089 

vn 0 -1 0
vn 0 1 0
vn 0.3070721 0.35358 -0.8835655
vn 0.1021157 0.4713615 0.8760084
vn 0.8864893 0.3623015 -0.2878792
vn -0.6921393 0.281809 0.6644749
vn -0.7630833 0.4958837 -0.4144916

vt 23.43371 19.69868
vt 13.09774 -12.12969
vt 4.102036 21.95216
vt -15.16533 -21.95216
vt -23.43371 -6.729988
vt -19.44998 16.34991
vt -3.404689 18.22029
vt -10.87112 -10.06764
vt 12.58722 -18.22029
vt 19.44998 -5.58589
vt 21.53128 -5.571419
vt -8.389977 -5.571419
vt 17.87096 2.004572
vt -6.963681 2.004572
vt 20.99528 -10.50168
vt 1.532709 -10.50168
vt 17.42608 -2.466429
vt 1.272149 -2.466429
vt 7.491217 -5.870645
vt -25.97335 -5.870645
vt 6.21771 1.732521
vt -21.55788 1.732521
vt -21.08371 -3.450388
vt -17.49948 3.935575
vt 18.67661 -3.450388
vt 15.50158 3.935575
vt -12.05154 -11.80417
vt -10.00278 -3.643521
vt 5.271293 -11.80417
vt 4.375173 -3.643521

usemtl natureKit-stone
# usermap natureKit-stone

f 2/2/1 1/1/1 3/3/1
f 3/3/1 4/4/1 2/2/1
f 3/3/1 5/5/1 4/4/1
f 7/7/2 6/6/2 8/8/2
f 8/8/2 9/9/2 7/7/2
f 9/9/2 10/10/2 7/7/2
f 2/12/3 4/11/3 9/13/3
f 9/13/3 8/14/3 2/12/3
f 3/16/4 1/15/4 6/17/4
f 6/17/4 7/18/4 3/16/4
f 1/20/5 2/19/5 8/21/5
f 8/21/5 6/22/5 1/20/5
f 10/24/6 5/23/6 3/25/6
f 3/25/6 7/26/6 10/24/6
f 9/28/7 4/27/7 5/29/7
f 5/29/7 10/30/7 9/28/7
