# Exported using Kenney Suite 1.2 

mtllib stone_small6.mtl 

g stone_small6

v -1.171439 1.15456 0.4207115 
v -1.00903 1.15456 0 
v -0.7071686 1.15456 1.224851 
v -0.5045152 1.15456 0.8738451 
v 0.2620196 1.15456 1.224851 
v 0.5045152 1.15456 0.8738451 
v 0.9297419 1.15456 0.8393416 
v 1.00903 1.15456 0 
v 1.414337 1.15456 0 
v -0.7071686 1.15456 -1.224851 
v -1.244617 1.15456 -0.2939646 
v -0.5045152 1.15456 -0.8738451 
v 0.2620196 1.15456 -1.224851 
v 0.5045152 1.15456 -0.8738451 
v 0.849359 1.15456 -0.9785708 
v -1.767919 0 0 
v -0.8839607 0 1.531064 
v -0.8839607 0 -1.531064 
v 0.8839607 0 1.531064 
v 0.8839607 0 -1.531064 
v 1.767919 0 0 
v -1.61304 0.5057315 0 
v 0.849359 0.2259728 1.471131 
v 0.7670951 0.7631969 -1.328648 
v -0.6293321 2.45344 -5.209313E-15 
v -0.4260874 2.45344 -0.352028 
v -0.3146648 2.45344 0.5450172 
v 0.0719595 2.45344 -0.5450172 
v 0.3146648 2.45344 0.5450172 
v 0.3146648 2.45344 -0.5450172 
v 0.6293321 2.45344 -5.209313E-15 
v -0.4423165 1.580105 -0.7661129 

vn 0 1 0
vn 0 -1 0
vn 0.8370847 0.2563572 0.483291
vn -0.8370847 0.2563572 -0.483291
vn 0.8370847 0.2563572 -0.483291
vn -0.8370847 0.2563572 0.483291
vn 0 0.2563572 0.9665821
vn 0 0.2563572 -0.9665821
vn 0.8395396 0.2454202 0.4847084
vn -0.8395396 0.2454202 -0.4847084
vn 0 0.2454202 -0.9694168
vn 0.8395396 0.2454202 -0.4847084
vn 0 0.2454202 0.9694168
vn -0.8395396 0.2454202 0.4847084
vn 0.3296343 0.4094729 0.8506898
vn 0.8488758 0.5213972 -0.08691838
vn -0.4388581 0.4791811 -0.7601244
vn -0.3103017 0.596729 0.7400185

vt -12.7826 -4.590755
vt -11.01041 0
vt -7.716536 -13.36543
vt -5.505206 -9.535296
vt 2.859134 -13.36543
vt 5.505206 -9.535296
vt 10.14524 -9.158798
vt 11.01041 0
vt 15.43307 0
vt -7.716536 13.36543
vt -13.5811 3.207708
vt -5.505206 9.535296
vt 2.859134 13.36543
vt 5.505206 9.535296
vt 9.268095 10.67805
vt 19.29134 0
vt 9.645669 -16.70679
vt 9.645669 16.70679
vt -9.645669 -16.70679
vt -9.645669 16.70679
vt -19.29134 0
vt 8.800652 1.42637
vt 9.645669 -4.282906
vt 4.012593 8.751088
vt -9.645669 -4.282906
vt -7.716536 8.751088
vt -9.268095 -1.731866
vt -2.859134 8.751088
vt 7.716536 8.751088
vt -2.415587 8.751088
vt -8.800652 1.42637
vt 4.613416 8.751088
vt 8.370458 4.332933
vt -8.370458 4.332933
vt -6.867194 5.684342E-14
vt -4.649426 3.841288
vt -3.433597 -5.947165
vt 0.7852259 5.947165
vt 3.433597 -5.947165
vt 3.433597 5.947165
vt 6.867194 5.684342E-14
vt 9.268095 -1.731866
vt 2.859134 8.751088
vt 5.505206 9.872972
vt -5.505206 9.872972
vt 3.433597 24.49334
vt -1.001941 24.49334
vt -4.826496 14.66296
vt -3.433597 24.49334
vt 4.826496 14.66296
vt -0.7852259 24.49334
vt 2.947422 22.26986
vt 1.479954 11.82428
vt -2.88097 22.26986
vt 3.264846 3.876456
vt -1.792865 -4.420538
vt -4.574392 3.876456
vt 4.206633 4.826392
vt -1.065814E-14 -6.717929
vt -4.206633 4.826392
vt 2.531649 2.094663
vt -2.112951 -3.227223
vt -4.417941 2.094663

usemtl natureKit-stone
# usermap natureKit-stone

f 2/2/1 1/1/1 3/3/1
f 3/3/1 4/4/1 2/2/1
f 3/3/1 5/5/1 4/4/1
f 5/5/1 6/6/1 4/4/1
f 5/5/1 7/7/1 6/6/1
f 7/7/1 8/8/1 6/6/1
f 7/7/1 9/9/1 8/8/1
f 1/1/1 2/2/1 10/10/1
f 10/10/1 11/11/1 1/1/1
f 2/2/1 12/12/1 10/10/1
f 12/12/1 13/13/1 10/10/1
f 12/12/1 14/14/1 13/13/1
f 14/14/1 15/15/1 13/13/1
f 14/14/1 8/8/1 15/15/1
f 8/8/1 9/9/1 15/15/1
f 17/17/2 16/16/2 18/18/2
f 18/18/2 19/19/2 17/17/2
f 18/18/2 20/20/2 19/19/2
f 20/20/2 21/21/2 19/19/2
f 16/23/3 22/22/3 11/24/3
f 11/24/3 18/25/3 16/23/3
f 11/24/3 10/26/3 18/25/3
f 23/27/4 19/25/4 21/23/4
f 21/23/4 7/28/4 23/27/4
f 21/23/4 9/29/4 7/28/4
f 16/25/5 17/23/5 3/29/5
f 3/29/5 1/30/5 16/25/5
f 1/30/5 22/31/5 16/25/5
f 9/26/6 21/25/6 20/23/6
f 20/23/6 15/32/6 9/26/6
f 20/23/6 24/33/6 15/32/6
f 20/25/7 18/23/7 10/29/7
f 10/29/7 24/34/7 20/25/7
f 10/29/7 13/28/7 24/34/7
f 26/36/1 25/35/1 27/37/1
f 27/37/1 28/38/1 26/36/1
f 27/37/1 29/39/1 28/38/1
f 29/39/1 30/40/1 28/38/1
f 29/39/1 31/41/1 30/40/1
f 17/25/8 19/23/8 23/42/8
f 23/42/8 3/26/8 17/25/8
f 23/42/8 5/43/8 3/26/8
f 12/45/9 2/44/9 25/46/9
f 25/46/9 26/47/9 12/45/9
f 26/47/9 32/48/9 12/45/9
f 29/49/10 6/45/10 8/44/10
f 8/44/10 31/46/10 29/49/10
f 4/45/11 6/44/11 29/46/11
f 29/46/11 27/49/11 4/45/11
f 2/45/12 4/44/12 27/46/12
f 27/46/12 25/49/12 2/45/12
f 14/45/13 12/44/13 32/50/13
f 32/50/13 30/49/13 14/45/13
f 32/50/13 28/51/13 30/49/13
f 31/49/14 8/45/14 14/44/14
f 14/44/14 30/46/14 31/49/14
f 32/53/15 26/52/15 28/54/15
f 22/56/16 1/55/16 11/57/16
f 23/59/17 7/58/17 5/60/17
f 24/62/18 13/61/18 15/63/18
