# Exported using Kenney Suite 1.2 

mtllib tent_smallOpen.mtl 

g tent_smallOpen

v -0.1420808 5.611308 -2.45184 
v -0.1420808 4.9688 -2.45184 
v -0.1420808 5.611308 -2.736 
v -0.1420808 4.9688 -2.736 
v -0.1420808 0 -2.45184 
v -0.1420808 0 -2.736 
v 0 5.18 -2.736 
v 0.1420808 5.611308 -2.736 
v 0.1420808 4.9688 -2.736 
v 0.1420808 0 -2.736 
v 0.1420808 0 -2.45184 
v 0.1420808 5.611308 -2.45184 
v 0.1420808 4.9688 -2.45184 
v 0 5.18 -2.45184 
v -0.1420808 2.707168E-15 2.76368 
v 0.1420808 2.707168E-15 2.76368 
v -0.1420808 4.9688 2.76368 
v 0.1420808 4.9688 2.76368 
v 0 5.18 2.76368 
v -0.1420808 5.611308 2.76368 
v 0.1420808 5.611308 2.76368 
v 0.1420808 4.9688 3.04784 
v 0 5.18 3.04784 
v 0.1420808 5.611308 3.04784 
v -0.1420808 5.611308 3.04784 
v -0.1420808 4.9688 3.04784 
v -0.1420808 2.707168E-15 3.04784 
v 0.1420808 2.707168E-15 3.04784 
v -1.001594 3.691145 0.8808821 
v -1.572263 2.842852 1.048304 
v -1.121745 3.512542 -0.4336097 
v -1.523421 2.915456 -0.6358658 
v -2.102349 2.054885 -0.489406 
v -1.475687 2.986411 -1.594057 
v -1.845961 2.436003 -1.653261 
v -2.378335 1.644636 0.1942662 
v -2.737999 1.11 3.332 
v 0 5.18 3.332 
v -2.737999 1.11 -3.032 
v -2.39131 1.625351 -0.471328 
v -1.893694 2.365048 -0.6950694 
v 0 5.18 -3.032 
v -2.089376 2.074171 0.1761883 
v -1.692414 2.664249 -0.2661881 
v 2.737999 1.11 -3.032 
v 1.60713 2.791022 0.2397707 
v 1.894836 2.363351 0.2912183 
v 1.851761 2.427382 1.064377 
v 2.183895 1.933668 1.260895 
v 2.253368 1.830399 2.289392 
v 2.737999 1.11 3.332 
v 1.843309 2.439947 2.378293 
v 1.564054 2.855053 1.012929 
v 1.773837 2.543216 1.349796 
v 2.737999 2.671072E-15 3.332 
v -2.737999 2.671072E-15 3.332 
v 0.6472135 1.945 3.332 
v 0.6472135 2.745 3.332 
v -0.6472135 2.745 3.332 
v -0.6472135 1.945 3.332 
v -2.737999 2.671072E-15 -3.032 
v 2.737999 2.671072E-15 -3.032 
v -2.053499 1.335536E-15 -3.032 
v 0 4.441358 -3.032 
v 2.053499 3.33884E-15 -3.032 
v 1.368999 4.006609E-15 -3.032 
v -1.368999 0 -3.032 
v -1.368999 0 -3.332 
v 1.368999 4.006609E-15 -3.332 

vn 1 0 0
vn 0 0 1
vn 0 -1 0
vn 0 1 0
vn 0 0 -1
vn -1 0 0
vn 0.8297222 0.5581767 0
vn -0.8297222 -0.5581767 0
vn -0.8297222 0.5581767 0
vn 0.8297222 -0.5581767 0
vn 0.9556321 -0.2945631 0
vn -0.3946754 0.1824815 0.9005176
vn -0.9556321 -0.2945631 0
vn 0.3946754 0.1824815 0.9005176

vt -9.652913 22.09176
vt -9.652913 19.5622
vt -10.77165 22.09176
vt -10.77165 19.5622
vt -9.652913 0
vt -10.77165 0
vt 0.5593701 19.5622
vt 2.842171E-14 20.3937
vt 0.5593701 22.09176
vt -0.5593701 22.09176
vt -0.5593701 19.5622
vt -0.5593701 0
vt 0.5593701 0
vt 0.5593701 10.77165
vt 0.5593701 9.652913
vt -0.5593701 10.77165
vt -0.5593701 9.652913
vt -2.842171E-14 20.3937
vt 9.652913 0
vt 9.652913 19.5622
vt 10.77165 0
vt 10.77165 19.5622
vt 9.652913 22.09176
vt 10.77165 22.09176
vt 0.5593701 4.180274E-14
vt -0.5593701 4.180274E-14
vt 8.526513E-14 20.3937
vt -8.526513E-14 20.3937
vt -0.5593701 1.065814E-14
vt 0.5593701 1.065814E-14
vt -0.5593701 -11.99937
vt -0.5593701 -10.88063
vt 0.5593701 -11.99937
vt 0.5593701 -10.88063
vt -11.99937 1.065814E-14
vt -11.99937 19.5622
vt -10.88063 1.065814E-14
vt -10.88063 19.5622
vt -11.99937 22.09176
vt -10.88063 22.09176
vt 11.99937 22.09176
vt 11.99937 19.5622
vt 10.88063 22.09176
vt 10.88063 19.5622
vt 11.99937 1.065814E-14
vt 10.88063 1.065814E-14
vt 10.88063 16.9211
vt 10.88063 15.91897
vt -9.652913 16.9211
vt 3.46804 9.856531
vt 4.12718 5.831403
vt -1.707125 9.009065
vt -2.503409 6.175906
vt -1.926795 2.092524
vt -6.275816 6.512584
vt -6.508901 3.900918
vt 0.7648277 0.1459047
vt 11.99937 15.91897
vt 13.11811 -2.39093
vt 11.99937 16.9211
vt 13.11811 16.9211
vt -11.93701 -2.39093
vt -1.855622 0.05439661
vt -2.736494 3.564239
vt -9.652913 15.91897
vt -10.77165 15.91897
vt -11.93701 16.9211
vt -10.77165 16.9211
vt 0.6936547 2.184032
vt -1.047985 4.983937
vt 9.652913 15.91897
vt 9.652913 16.9211
vt 10.77165 15.91897
vt 10.77165 16.9211
vt 11.93701 -2.39093
vt -0.9439793 5.585472
vt -1.146529 3.556185
vt -4.190459 3.86001
vt -4.964153 1.517352
vt -9.013352 1.027345
vt -13.11811 -2.39093
vt -13.11811 16.9211
vt -11.99937 15.91897
vt -10.88063 15.91897
vt -9.363358 3.91963
vt -10.88063 16.9211
vt 11.93701 16.9211
vt -3.987909 5.889296
vt -5.314158 4.409637
vt -11.99937 16.9211
vt 10.77953 1.051603E-14
vt -10.77953 1.051603E-14
vt 10.77953 4.370079
vt -10.77953 4.370079
vt 2.548085 7.65748
vt 2.548085 10.80709
vt -1.421085E-13 20.3937
vt -2.548085 10.80709
vt -2.548085 7.65748
vt 13.11811 4.370079
vt 13.11811 1.051603E-14
vt -11.93701 4.370079
vt -11.93701 1.051603E-14
vt -13.11811 1.051603E-14
vt -13.11811 4.370079
vt 11.93701 1.051603E-14
vt 11.93701 4.370079
vt 8.084645 5.258016E-15
vt 2.842171E-14 17.48566
vt -8.084645 1.314504E-14
vt -5.389764 1.577405E-14
vt 5.389764 0
vt 5.389764 13.11811
vt 8.084645 11.93701
vt 5.389764 11.93701
vt -5.389764 13.11811
vt -5.389764 11.93701
vt -8.084645 11.93701
vt -11.93701 16.70986
vt -11.93701 -1.587626
vt -13.11811 -1.587626
vt 0.3293476 -2.587289
vt -2.612997 -2.587289
vt 4.791698 15.19698
vt 11.93701 -1.587626
vt 11.93701 16.70986
vt 13.11811 -1.587626
vt 2.612997 -2.587289
vt -0.3293476 -2.587289
vt -4.791698 15.19698

usemtl natureKit-wood
# usermap natureKit-wood

f 2/2/1 1/1/1 3/3/1
f 3/3/1 4/4/1 2/2/1
f 5/5/1 2/2/1 4/4/1
f 4/4/1 6/6/1 5/5/1
f 7/8/2 4/7/2 3/9/2
f 7/8/2 3/9/2 8/10/2
f 8/10/2 9/11/2 7/8/2
f 4/7/2 7/8/2 9/11/2
f 4/7/2 9/11/2 10/12/2
f 10/12/2 6/13/2 4/7/2
f 5/15/3 6/14/3 10/16/3
f 10/16/3 11/17/3 5/15/3
f 3/16/4 1/17/4 12/15/4
f 12/15/4 8/14/4 3/16/4
f 5/12/5 11/13/5 13/7/5
f 13/7/5 2/11/5 5/12/5
f 13/7/5 14/18/5 2/11/5
f 14/18/5 13/7/5 12/9/5
f 1/10/5 2/11/5 14/18/5
f 14/18/5 12/9/5 1/10/5
f 13/20/6 11/19/6 10/21/6
f 10/21/6 9/22/6 13/20/6
f 12/23/6 13/20/6 9/22/6
f 9/22/6 8/24/6 12/23/6
f 16/26/2 15/25/2 17/7/2
f 17/7/2 18/11/2 16/26/2
f 17/7/2 19/27/2 18/11/2
f 19/27/2 17/7/2 20/9/2
f 21/10/2 18/11/2 19/27/2
f 19/27/2 20/9/2 21/10/2
f 23/28/5 22/7/5 24/9/5
f 23/28/5 24/9/5 25/10/5
f 25/10/5 26/11/5 23/28/5
f 22/7/5 23/28/5 26/11/5
f 22/7/5 26/11/5 27/29/5
f 27/29/5 28/30/5 22/7/5
f 20/32/4 25/31/4 24/33/4
f 24/33/4 21/34/4 20/32/4
f 27/33/3 15/34/3 16/32/3
f 16/32/3 28/31/3 27/33/3
f 22/36/6 28/35/6 16/37/6
f 16/37/6 18/38/6 22/36/6
f 24/39/6 22/36/6 18/38/6
f 18/38/6 21/40/6 24/39/6
f 26/42/1 25/41/1 20/43/1
f 20/43/1 17/44/1 26/42/1
f 27/45/1 26/42/1 17/44/1
f 17/44/1 15/46/1 27/45/1

usemtl natureKit-mushroom
# usermap natureKit-mushroom

f 17/48/7 19/47/7 14/49/7
f 14/49/7 29/50/7 17/48/7
f 29/50/7 30/51/7 17/48/7
f 14/49/7 31/52/7 29/50/7
f 14/49/7 32/53/7 31/52/7
f 32/53/7 33/54/7 31/52/7
f 14/49/7 34/55/7 32/53/7
f 14/49/7 35/56/7 34/55/7
f 17/48/7 30/51/7 36/57/7
f 26/58/7 17/48/7 36/57/7
f 26/58/7 36/57/7 37/59/7
f 23/60/7 26/58/7 37/59/7
f 37/59/7 38/61/7 23/60/7
f 36/57/7 39/62/7 37/59/7
f 36/57/7 40/63/7 39/62/7
f 40/63/7 33/54/7 39/62/7
f 33/54/7 41/64/7 39/62/7
f 33/54/7 32/53/7 41/64/7
f 41/64/7 35/56/7 39/62/7
f 35/56/7 2/65/7 39/62/7
f 35/56/7 14/49/7 2/65/7
f 2/65/7 4/66/7 39/62/7
f 4/66/7 42/67/7 39/62/7
f 4/66/7 7/68/7 42/67/7
f 2/65/7 14/49/7 7/68/7
f 7/68/7 4/66/7 2/65/7
f 43/69/7 36/57/7 30/51/7
f 30/51/7 44/70/7 43/69/7
f 44/70/7 33/54/7 43/69/7
f 44/70/7 31/52/7 33/54/7
f 17/48/8 14/49/8 19/47/8
f 14/49/8 17/48/8 29/50/8
f 29/50/8 17/48/8 30/51/8
f 14/49/8 29/50/8 31/52/8
f 14/49/8 31/52/8 32/53/8
f 32/53/8 31/52/8 33/54/8
f 14/49/8 32/53/8 34/55/8
f 14/49/8 34/55/8 35/56/8
f 17/48/8 36/57/8 30/51/8
f 26/58/8 36/57/8 17/48/8
f 26/58/8 37/59/8 36/57/8
f 23/60/8 37/59/8 26/58/8
f 37/59/8 23/60/8 38/61/8
f 36/57/8 37/59/8 39/62/8
f 36/57/8 39/62/8 40/63/8
f 40/63/8 39/62/8 33/54/8
f 33/54/8 39/62/8 41/64/8
f 33/54/8 41/64/8 32/53/8
f 41/64/8 39/62/8 35/56/8
f 41/64/8 34/55/8 32/53/8
f 34/55/8 41/64/8 35/56/8
f 35/56/8 39/62/8 2/65/8
f 35/56/8 2/65/8 14/49/8
f 2/65/8 39/62/8 4/66/8
f 4/66/8 39/62/8 42/67/8
f 4/66/8 42/67/8 7/68/8
f 2/65/8 7/68/8 14/49/8
f 7/68/8 2/65/8 4/66/8
f 40/63/8 43/69/8 36/57/8
f 43/69/8 30/51/8 36/57/8
f 30/51/8 43/69/8 44/70/8
f 44/70/8 43/69/8 33/54/8
f 43/69/8 40/63/8 33/54/8
f 44/70/8 33/54/8 31/52/8
f 44/70/8 29/50/8 30/51/8
f 29/50/8 44/70/8 31/52/8
f 14/72/9 13/71/9 9/73/9
f 9/73/9 7/74/9 14/72/9
f 45/75/9 9/73/9 13/71/9
f 45/75/9 7/74/9 9/73/9
f 45/75/9 13/71/9 46/76/9
f 46/76/9 13/71/9 14/72/9
f 45/75/9 46/76/9 47/77/9
f 45/75/9 47/77/9 48/78/9
f 45/75/9 48/78/9 49/79/9
f 45/75/9 49/79/9 50/80/9
f 51/81/9 45/75/9 50/80/9
f 50/80/9 38/82/9 51/81/9
f 50/80/9 22/83/9 38/82/9
f 50/80/9 18/84/9 22/83/9
f 50/80/9 52/85/9 18/84/9
f 52/85/9 19/86/9 18/84/9
f 14/72/9 19/86/9 52/85/9
f 45/75/9 42/87/9 7/74/9
f 52/85/9 53/88/9 14/72/9
f 49/79/9 48/78/9 53/88/9
f 53/88/9 46/76/9 14/72/9
f 52/85/9 54/89/9 53/88/9
f 54/89/9 49/79/9 53/88/9
f 38/82/9 22/83/9 23/90/9
f 14/72/10 9/73/10 13/71/10
f 9/73/10 14/72/10 7/74/10
f 45/75/10 13/71/10 9/73/10
f 45/75/10 9/73/10 7/74/10
f 45/75/10 46/76/10 13/71/10
f 46/76/10 14/72/10 13/71/10
f 45/75/10 47/77/10 46/76/10
f 47/77/10 53/88/10 46/76/10
f 53/88/10 14/72/10 46/76/10
f 53/88/10 47/77/10 48/78/10
f 45/75/10 48/78/10 47/77/10
f 45/75/10 49/79/10 48/78/10
f 49/79/10 53/88/10 48/78/10
f 45/75/10 50/80/10 49/79/10
f 50/80/10 54/89/10 49/79/10
f 54/89/10 53/88/10 49/79/10
f 54/89/10 50/80/10 52/85/10
f 52/85/10 14/72/10 53/88/10
f 52/85/10 53/88/10 54/89/10
f 51/81/10 50/80/10 45/75/10
f 50/80/10 51/81/10 38/82/10
f 50/80/10 38/82/10 22/83/10
f 50/80/10 22/83/10 18/84/10
f 50/80/10 18/84/10 52/85/10
f 52/85/10 18/84/10 19/86/10
f 45/75/10 7/74/10 42/87/10
f 14/72/10 52/85/10 19/86/10
f 38/82/10 23/90/10 22/83/10
f 56/92/5 55/91/5 51/93/5
f 51/93/5 37/94/5 56/92/5
f 51/93/5 57/95/5 37/94/5
f 51/93/5 58/96/5 57/95/5
f 51/93/5 38/97/5 58/96/5
f 38/97/5 59/98/5 58/96/5
f 59/98/5 38/97/5 37/94/5
f 37/94/5 60/99/5 59/98/5
f 37/94/5 57/95/5 60/99/5
f 56/92/2 51/93/2 55/91/2
f 51/93/2 56/92/2 37/94/2
f 51/93/2 37/94/2 57/95/2
f 51/93/2 57/95/2 58/96/2
f 51/93/2 58/96/2 38/97/2
f 38/97/2 58/96/2 59/98/2
f 59/98/2 37/94/2 38/97/2
f 37/94/2 59/98/2 60/99/2
f 37/94/2 60/99/2 57/95/2
f 56/101/1 37/100/1 39/102/1
f 39/102/1 61/103/1 56/101/1
f 56/101/6 39/102/6 37/100/6
f 39/102/6 56/101/6 61/103/6
f 51/105/6 55/104/6 62/106/6
f 62/106/6 45/107/6 51/105/6
f 51/105/1 62/106/1 55/104/1
f 62/106/1 51/105/1 45/107/1
f 64/109/2 63/108/2 61/91/2
f 61/91/2 39/93/2 64/109/2
f 39/93/2 42/8/2 64/109/2
f 64/109/2 42/8/2 45/94/2
f 65/110/2 64/109/2 45/94/2
f 45/94/2 62/92/2 65/110/2
f 65/110/2 66/111/2 64/109/2
f 67/112/2 63/108/2 64/109/2
f 64/109/5 61/91/5 63/108/5
f 61/91/5 64/109/5 39/93/5
f 39/93/5 64/109/5 42/8/5
f 64/109/5 45/94/5 42/8/5
f 65/110/5 45/94/5 64/109/5
f 45/94/5 65/110/5 62/92/5
f 65/110/5 64/109/5 66/111/5
f 67/112/5 64/109/5 63/108/5
f 63/114/3 68/113/3 67/115/3
f 66/117/3 69/116/3 65/118/3
f 66/120/11 64/119/11 69/121/11
f 65/123/12 69/122/12 64/124/12
f 64/126/13 67/125/13 68/127/13
f 68/129/14 63/128/14 64/130/14

usemtl natureKit-mushroomDark
# usermap natureKit-mushroomDark

f 40/63/7 36/57/7 43/69/7
f 43/69/7 33/54/7 40/63/7
f 41/64/7 32/53/7 34/55/7
f 34/55/7 35/56/7 41/64/7
f 44/70/7 30/51/7 29/50/7
f 29/50/7 31/52/7 44/70/7
f 54/89/9 52/85/9 50/80/9
f 50/80/9 49/79/9 54/89/9
f 53/88/9 48/78/9 47/77/9
f 47/77/9 46/76/9 53/88/9
