# Exported using Kenney Suite 1.2 

mtllib tree_pineSmall_round1.mtl 

g tree_pineSmall_round1

v -0.05474567 10.42465 0.1608832 
v -0.05474567 10.43431 -0.006494861 
v 0.09013653 10.41001 0.2441368 
v 0.09013653 10.42935 -0.09061939 
v 0.2350211 10.40505 0.1600122 
v 0.2350211 10.41471 -0.007365839 
v 0.945251 6.860361 0.5181985 
v -0.09013653 6.895857 1.11938 
v -1.125526 7.000432 0.5244228 
v -1.125526 7.069509 -0.6717159 
v -0.9233618 7.047864 -0.5343237 
v -0.09013653 7.034011 -1.272897 
v -0.9396124 6.995325 0.3945368 
v -0.1344705 7.021914 -1.011377 
v 0.7440662 6.93691 -0.5710911 
v 0.945251 6.929438 -0.6779402 
v 0.7941008 6.874588 0.4493393 
v -0.1067877 6.907592 0.9357255 
v -1.951535 2.141321 1.019397 
v -1.951535 2.283285 -1.140346 
v -1.142254 4.229198 0.7312158 
v -1.229115 4.101013 -0.6968886 
v 1.786335 1.843845 1.004351 
v 1.116486 4.522041 0.6595595 
v 1.786335 1.985809 -1.155392 
v 1.161237 4.426357 -0.5837855 
v -0.08260012 2.205529 -2.22774 
v 0.04396439 4.215224 -1.359448 
v -1.295609 4.225749 0.9371758 
v -1.295609 4.089219 -0.7336038 
v -2.401922 0 -1.38675 
v -2.401922 0 1.38675 
v 0 0 -2.7735 
v 0 0 2.7735 
v 2.401922 0 -1.38675 
v 2.401922 0 1.38675 
v 0.1454282 4.210545 -1.580915 
v 1.586463 4.468399 -0.7574459 
v -1.444058 2.222609 -0.833728 
v -1.490457 2.114948 0.8605158 
v 0 2.164021 -1.696611 
v 1.545272 1.987755 -0.8921635 
v 1.598523 1.864195 0.9229073 
v -0.08260012 1.921601 2.091746 
v 0 1.933436 1.811358 
v 0.1454282 4.483604 1.760644 
v 0.06822109 4.436189 1.305347 
v 1.586463 4.604929 0.9133338 

vn -0.05930638 0.9969614 -0.05050389
vn -0.4956224 0.2102832 -0.8426977
vn 0.9411432 0.3375752 -0.01710082
vn 0.4622214 0.2671168 -0.8455768
vn 0.05930638 -0.9969614 0.05050389
vn 0.9130588 0.4071517 -0.02347622
vn -0.9609317 0.2763269 -0.0159329
vn -0.492434 0.3558581 0.7942756
vn -0.9745443 0.2239082 -0.0113427
vn 0.9897074 0.1427402 0.01023175
vn 0 -1 0
vn 0.5095606 0.1382961 0.8492481
vn 0.4622214 0.3512002 0.8142542
vn -0.4507329 0.2491216 0.8571921
vn 0.06975647 -0.9959099 0.0574238
vn 0.4487647 0.4409544 -0.7772834
vn -0.4956224 0.2943666 0.8171332
vn -0.1149372 -0.9908305 -0.07102364
vn -0.450733 0.368835 -0.8128964
vn 0.4487647 0.4409544 0.7772834
vn -0.9308797 0.364391 0.02611988
vn 0.5095606 0.2580096 -0.8208405
vn 0.4445612 0.4212705 0.7905039
vn 0.4445612 0.3276204 -0.8336847
vn -0.492434 0.262208 -0.8299131
vn -0.4487647 0.4409544 -0.7772834
vn -0.4487647 0.4409544 0.7772834
vn -0.8975295 0.4409544 0
vn 0.8975295 0.4409544 0

vt -2.892927 11.90046
vt -0.5594209 13.89367
vt -2.333507 8.882977
vt 2.333507 12.86941
vt 0.5594209 7.858709
vt 2.892927 9.851923
vt 10.10941 104.1679
vt -11.81421 104.7511
vt 2.224173 162.4079
vt -0.8436429 162.4895
vt 9.227037 98.83091
vt -12.67264 100.0097
vt 2.927341 157.2637
vt -0.1371249 157.4286
vt 8.383421 101.7266
vt -13.47858 103.4697
vt 3.592602 160.3024
vt 0.5334086 160.5463
vt 20.67381 18.19595
vt 3.513113 27.97692
vt 3.997806 32.44012
vt -16.676 25.12036
vt 16.65577 17.14286
vt -12.50368 22.62599
vt -16.79565 5.097393
vt -20.67381 3.556431
vt -3.163292 -7.754014
vt 16.676 -3.367972
vt 14.31327 -0.9480779
vt -3.997806 -10.68773
vt 17.74217 16.67525
vt -21.79325 19.17192
vt 12.84773 53.39383
vt -13.33548 51.13948
vt -17.84652 19.34237
vt -11.73703 64.10474
vt 21.69653 21.7151
vt 11.04114 62.50552
vt -16.65296 17.27719
vt -12.43975 59.22531
vt 22.78079 21.05374
vt 12.43297 55.59635
vt -9.286987 103.499
vt -2.879806 161.9201
vt 12.61482 104.6375
vt 0.1849581 162.0794
vt 17.40559 63.82161
vt -13.18753 61.60586
vt 7.402107 108.7692
vt -9.609042 109.6218
vt 43.98318 25.3937
vt 43.98318 -25.3937
vt 0 50.7874
vt 0 -50.7874
vt -43.98318 25.3937
vt -43.98318 -25.3937
vt 13.43208 61.77225
vt -17.178 63.73999
vt 9.464561 109.7577
vt -7.417177 109.3368
vt -10.07143 98.38398
vt -2.254601 156.6332
vt 11.85149 98.99295
vt 0.8131169 156.7184
vt 11.11609 58.80911
vt -19.25756 63.08583
vt 10.79875 105.4379
vt -7.192503 104.028
vt 37.12401 18.76954
vt 5.019228 33.22104
vt 6.590465 44.0081
vt -30.53355 30.18456
vt 29.51173 14.0809
vt -23.98598 22.80526
vt -37.12401 -8.877554
vt -30.5971 -8.531586
vt -5.556108 -30.49826
vt 30.53355 -20.29257
vt 25.60823 -18.18856
vt -6.590465 -34.11612
vt 25.3937 -19.39457
vt -25.3937 -19.39457
vt 16.58449 15.20764
vt -15.75748 18.45612
vt -8.361588 100.608
vt -3.609728 159.187
vt 13.49924 102.3656
vt -0.550698 159.4329
vt -27.07026 -1.887883
vt -0.9755177 -16.71737
vt -1.043651 -18.11946
vt 26.02661 -3.69554
vt 21.60002 -3.139193
vt 20.27186 21.96176
vt 27.07026 26.95995
vt -22.38575 -1.477796
vt -26.02661 28.76761
vt -19.67738 23.13059
vt 0.472854 33.33725
vt 1.043651 43.19153
vt -13.30509 56.0658
vt -10.01917 97.95543
vt 17.29642 58.16245
vt 8.727177 97.38506
vt 15.26695 20.38291
vt -15.53389 19.33438
vt -17.53291 58.47198
vt -8.632771 97.62083
vt 13.04981 56.117
vt 10.07135 98.69582
vt -11.10554 58.58916
vt -10.8078 104.6355
vt 19.26665 62.8762
vt 7.375755 103.1769
vt -18.67783 16.8388
vt -12.90411 52.43281
vt 20.91239 18.21595
vt 13.36242 50.41
vt 16.68822 17.85671
vt -22.74944 21.59221
vt 12.34942 60.60764
vt -12.15616 57.08857
vt 18.74647 20.05716
vt -20.84655 21.35143
vt 11.41943 64.63642
vt -11.12311 63.20739
vt 16.89997 13.96846
vt -16.58449 15.20764
vt 15.53389 19.33438
vt -16.337 16.17978
vt -16.89997 13.96846
vt 16.337 16.17978
vt 15.75748 18.45612
vt -15.26695 20.38291

usemtl natureKit-leaves
# usermap natureKit-leaves

f 2/2/1 1/1/1 3/3/1
f 3/3/1 4/4/1 2/2/1
f 3/3/1 5/5/1 4/4/1
f 5/5/1 6/6/1 4/4/1
f 8/8/2 7/7/2 5/9/2
f 5/9/2 3/10/2 8/8/2
f 10/12/3 9/11/3 1/13/3
f 1/13/3 2/14/3 10/12/3
f 9/16/4 8/15/4 3/17/4
f 3/17/4 1/18/4 9/16/4
f 11/20/5 9/19/5 10/21/5
f 10/21/5 12/22/5 11/20/5
f 11/20/5 13/23/5 9/19/5
f 12/22/5 14/24/5 11/20/5
f 12/22/5 15/25/5 14/24/5
f 12/22/5 16/26/5 15/25/5
f 16/26/5 17/27/5 15/25/5
f 8/28/5 9/19/5 13/23/5
f 13/23/5 18/29/5 8/28/5
f 18/29/5 17/27/5 8/28/5
f 17/27/5 7/30/5 8/28/5
f 17/27/5 16/26/5 7/30/5
f 20/32/6 19/31/6 21/33/6
f 21/33/6 22/34/6 20/32/6
f 24/36/7 23/35/7 25/37/7
f 25/37/7 26/38/7 24/36/7
f 26/40/8 25/39/8 27/41/8
f 27/41/8 28/42/8 26/40/8
f 5/44/9 7/43/9 16/45/9
f 16/45/9 6/46/9 5/44/9
f 30/48/10 29/47/10 13/49/10
f 13/49/10 11/50/10 30/48/10
f 32/52/11 31/51/11 33/53/11
f 33/53/11 34/54/11 32/52/11
f 33/53/11 35/55/11 34/54/11
f 35/55/11 36/56/11 34/54/11
f 37/58/12 30/57/12 11/59/12
f 11/59/12 14/60/12 37/58/12
f 4/62/13 12/61/13 10/63/13
f 10/63/13 2/64/13 4/62/13
f 38/66/14 37/65/14 14/67/14
f 14/67/14 15/68/14 38/66/14
f 39/70/15 19/69/15 20/71/15
f 20/71/15 27/72/15 39/70/15
f 39/70/15 40/73/15 19/69/15
f 27/72/15 41/74/15 39/70/15
f 27/72/15 25/75/15 41/74/15
f 25/75/15 42/76/15 41/74/15
f 25/75/15 43/77/15 42/76/15
f 44/78/15 19/69/15 40/73/15
f 40/73/15 45/79/15 44/78/15
f 45/79/15 23/80/15 44/78/15
f 45/79/15 43/77/15 23/80/15
f 43/77/15 25/75/15 23/80/15
f 32/82/16 34/81/16 45/83/16
f 45/83/16 40/84/16 32/82/16
f 6/86/17 16/85/17 12/87/17
f 12/87/17 4/88/17 6/86/17
f 22/90/18 29/89/18 30/91/18
f 30/91/18 37/92/18 22/90/18
f 37/92/18 28/93/18 22/90/18
f 37/92/18 26/94/18 28/93/18
f 37/92/18 38/95/18 26/94/18
f 29/89/18 22/90/18 21/96/18
f 21/96/18 46/97/18 29/89/18
f 21/96/18 47/98/18 46/97/18
f 47/98/18 24/99/18 46/97/18
f 24/99/18 48/100/18 46/97/18
f 24/99/18 26/94/18 48/100/18
f 26/94/18 38/95/18 48/100/18
f 18/102/19 46/101/19 48/103/19
f 48/103/19 17/104/19 18/102/19
f 33/82/20 31/81/20 39/105/20
f 39/105/20 41/106/20 33/82/20
f 17/108/21 48/107/21 38/109/21
f 38/109/21 15/110/21 17/108/21
f 13/112/22 29/111/22 46/113/22
f 46/113/22 18/114/22 13/112/22
f 28/116/23 27/115/23 20/117/23
f 20/117/23 22/118/23 28/116/23
f 19/120/24 44/119/24 47/121/24
f 47/121/24 21/122/24 19/120/24
f 44/124/25 23/123/25 24/125/25
f 24/125/25 47/126/25 44/124/25
f 34/82/26 36/81/26 43/127/26
f 43/127/26 45/128/26 34/82/26
f 35/82/27 33/81/27 41/129/27
f 41/129/27 42/130/27 35/82/27
f 43/131/28 36/82/28 35/81/28
f 35/81/28 42/132/28 43/131/28
f 31/82/29 32/81/29 40/133/29
f 40/133/29 39/134/29 31/82/29
