# Exported using Kenney Suite 1.2 

mtllib tree_pineSmall_round5.mtl 

g tree_pineSmall_round5

v 0.3580904 7.456123 0.3663307 
v 0.3343606 8.234007 0.3425987 
v 0.3560734 7.522296 -0.3439908 
v 0.3336811 8.256262 -0.3215986 
v 0.4948783 2.972585 0.5031167 
v 0.4608607 4.08757 0.4691002 
v 0.4933167 3.023763 -0.4812342 
v 0.4626179 4.030019 -0.4505349 
v -0.2512097 10.83348 0.2632928 
v -0.2525997 10.78795 -0.2443607 
v -0.2349591 11.36614 0.2470422 
v -0.2340198 11.39698 -0.22578 
v 0.2552629 10.82663 0.2635019 
v 0.2396059 11.33979 0.2478461 
v 0.2566552 10.78102 -0.2445721 
v 0.2386594 11.37084 -0.2265775 
v 0.4229689 5.329565 0.4312088 
v 0.3945422 6.261362 0.4027811 
v 0.4245806 5.276765 -0.4124985 
v 0.3923154 6.334307 -0.3802345 
v -0.2999067 9.237364 -0.2916667 
v 0.3026819 9.272361 -0.290599 
v -0.2773905 9.97537 -0.2691512 
v 0.2814651 9.967765 -0.2693832 
v -0.629344 0.826152 0.2889109 
v -1.256728 1.024309 0.1662607 
v -0.563612 1.438008 0.223178 
v -1.219919 1.366948 0.1294503 
v -0.491035 2.972585 0.5031167 
v -0.4560113 4.120598 0.4680926 
v 0.8960271 0 0.9042651 
v -0.8921838 0 0.9042651 
v 0.6691647 0.49128 0.6774027 
v -0.6653214 0.49128 0.6774027 
v -0.8921838 0 -0.883944 
v 0.8960271 0 -0.883944 
v -0.6653214 0.49128 -0.6570817 
v 0.6691647 0.49128 -0.6570817 
v 0.5436373 1.659704 0.5518765 
v -0.539794 1.659704 0.5518765 
v -0.3005266 9.217046 0.3126077 
v -0.275867 10.02534 0.287948 
v 0.303297 9.252186 0.3115356 
v 0.2799392 10.01781 0.2881775 
v -1.256728 1.024309 -0.1459396 
v -1.219919 1.366948 -0.1091292 
v 0.5376196 1.715721 -0.5255374 
v -0.629344 0.826152 -0.2685897 
v -0.5337763 1.715721 -0.5255374 
v -0.563612 1.438008 -0.2028568 
v -0.3519344 7.532004 -0.3436946 
v -0.3310156 8.217658 -0.3227763 
v -0.4894733 3.023763 -0.4812342 
v -0.4577589 4.0633 -0.4495195 
v -0.4182029 5.359867 0.4302844 
v -0.3903699 6.272186 0.4024509 
v -0.3539491 7.465943 0.3660312 
v -0.3316998 8.195247 0.3437813 
v -0.419805 5.307299 -0.411567 
v -0.3881478 6.345007 -0.3799081 
v -1.504476 2.949759 0.9421529 
v -1.504476 3.040063 -0.7947398 
v 0.001921654 2.904607 1.810599 
v 1.508319 2.949759 0.9421529 
v 0.001921654 3.085215 -1.663186 
v 1.508319 3.040063 -0.7947398 
v 2.661052 1.608694 1.533003 
v 2.661052 1.768101 -1.533003 
v 0.9596086 9.298905 0.05636379 
v 0.4638672 9.298905 -0.8022828 
v 1.780891 8.328923 0.02023461 
v 0.9057975 8.328923 -1.49547 
v -1.160541 10.05876 0.5266488 
v -0.9755492 9.946493 -0.696558 
v -0.647347 10.83794 0.2530494 
v -0.5425477 10.77434 -0.4398973 
v 0.001921654 1.52899 3.066007 
v -2.657208 1.608694 1.533003 
v -1.019728 9.183905 0.05427217 
v -1.713085 8.125921 0.01654243 
v -0.5258012 9.241405 -0.8033287 
v -0.8411884 8.227423 -1.497316 
v -0.8379912 8.125921 1.532247 
v -0.5239892 9.183905 0.9129189 
v 0.9089947 8.227423 1.534093 
v 0.4656792 9.241405 0.9139646 
v 0.1809978 9.890362 -1.147239 
v 1.152554 9.946493 -0.374713 
v 0.9675598 10.05876 0.8484938 
v -0.1889873 10.11489 1.299175 
v -0.09696245 10.86973 0.6906852 
v 0.1126361 10.74254 -0.6952081 
v 0.5582213 10.83794 0.4353746 
v 0.6630206 10.77434 -0.2575721 
v -2.657208 1.768101 -1.533003 
v 0.001921654 1.847804 -3.066007 
v 0.3145361 6.099403 2.153869 
v -1.740208 6.202954 1.345253 
v 0.192802 7.368708 1.32949 
v -0.97121 7.42737 0.8714094 
v 2.047863 6.202954 0.7858794 
v 1.174731 7.42737 0.5545243 
v 1.726451 6.410058 -1.390726 
v 0.992651 7.544694 -0.6785229 
v 1.299891 4.175643 2.362406 
v 0.7751346 5.370453 1.288613 
v 2.616491 3.985572 0.08199104 
v 1.520987 5.262777 -0.00324262 
v -0.1713586 7.603356 -1.136604 
v -1.15329 7.544694 -0.3616377 
v -2.06162 6.410058 -0.8313529 
v -0.3282905 6.513609 -2.199342 
v -0.7197285 5.424291 1.286789 
v 0.7719755 5.208941 -1.296921 
v -0.7228875 5.262777 -1.298745 
v -1.46874 5.370453 -0.006889285 
v -2.661052 4.175643 0.07555385 
v -1.344454 3.985572 -2.204861 
v 1.294317 3.890536 -2.201643 
v -1.33888 4.270679 2.359188 
v -0.8317304 11.43324 -0.2737246 
v -0.6781292 11.36895 0.5798254 
v -0.1683283 11.43324 -0.8363295 
v 0.6486726 11.36895 -0.5453843 
v 0.1388717 11.30466 0.8707705 
v 0.8022738 11.30466 0.3081656 
v 0.3943872 11.92275 -0.2622297 
v -0.06844282 11.95916 -0.4270501 
v 0.4814029 11.88633 0.2213064 
v -0.3572464 11.92275 0.3752017 
v -0.4442596 11.95916 -0.1083344 
v 0.1055861 11.88633 0.540022 

vn -0.9995714 0.02927559 0
vn 0.9995714 -0.02927559 0
vn 0.9995714 0.02927559 0
vn -0.9995714 -0.02927559 0
vn 0 0.02927559 0.9995714
vn 0 -0.02927559 -0.9995714
vn 0.1533262 0.1170115 -0.9812233
vn -0.1533262 -0.1170115 0.9812233
vn 0 0.02927559 -0.9995714
vn 0 -0.02927559 0.9995714
vn 0 0.4052699 -0.914197
vn 0 0.2788354 -0.9603389
vn 0 -0.2788354 0.9603389
vn 0 -0.4052699 0.914197
vn 0 0.4052699 0.914197
vn 0 0.2788354 0.9603389
vn 0 -0.2788354 -0.9603389
vn 0 -0.4052699 -0.914197
vn 0 0.1025906 -0.9947237
vn 0 -0.1025906 0.9947237
vn 0 -1 0
vn 0 1 0
vn 0.914197 0.4052699 0
vn 0.9603389 0.2788354 0
vn -0.9603389 -0.2788354 0
vn -0.914197 -0.4052699 0
vn 0.9947237 0.1025906 0
vn -0.9947237 -0.1025906 0
vn -0.9603389 0.2788354 0
vn -0.9947237 0.1025906 0
vn 0.9603389 -0.2788354 0
vn 0.9947237 -0.1025906 0
vn 0.3125264 -0.9499091 0
vn -0.3125264 0.9499091 0
vn 0.1533262 0.1170115 0.9812233
vn -0.1533262 -0.1170115 -0.9812233
vn -0.914197 0.4052699 0
vn 0.914197 -0.4052699 0
vn 0.1120727 0.9937 0
vn -0.1120727 -0.9937 0
vn 0 0.1025906 0.9947237
vn 0 -0.1025906 -0.9947237
vn 0 0.9985367 -0.05407881
vn -0.7635324 0.6448247 -0.03492245
vn -0.7022058 0.5852715 0.4054187
vn 0.8577433 0.4830475 0.1759022
vn 0.3817662 0.6090657 -0.6951932
vn 0.7668095 0.4963644 0.4069711
vn 0.03274997 0.5556358 0.8307806
vn 0.03095748 0.4963645 -0.8675621
vn -0.3817662 0.6090657 -0.6951932
vn 0.01407252 -0.995562 -0.0930502
vn 0.5381916 0.5543115 -0.6348926
vn 0.06041088 0.9975641 -0.03487824
vn 0.3127238 0.4117836 0.8559428
vn -0.8713993 0.4830475 -0.08560608
vn 0 -0.9985367 0.05407881
vn -0.3817662 0.6805837 0.6253483
vn 0.7659133 0.4667288 -0.4422002
vn -0.7031021 0.5556357 -0.4437526
vn -0.01407252 0.995562 0.0930502
vn -0.3263798 0.5543115 -0.7656468
vn -0.5518475 0.4117835 0.7251887
vn 0.3817662 0.6805837 0.6253483
vn -0.06041088 -0.9975641 0.03487824
vn 0.7635324 0.6448247 -0.03492245
vn 0.2980528 0.4851219 -0.8220835
vn -0.8289461 0.5552559 0.06737442
vn -0.7097355 0.6072876 -0.3570398
vn -0.0142552 0.9952273 -0.09653606
vn 0.5070335 0.6253898 0.5931312
vn 0.0142552 -0.9952273 0.09653606
vn -0.03748936 0.9971851 0.06493348
vn 0.6640732 0.6072876 0.436129
vn 0.8130397 0.5552558 -0.1750929
vn -0.02186432 0.5557843 0.831039
vn -0.5229401 0.485122 -0.7008498
vn -0.7087687 0.5557843 0.4344546
vn 0.6631065 0.6587908 -0.3553653
vn -0.02379786 0.6587908 -0.7519497
vn -0.3139593 0.6253897 0.714365
vn 0.03748936 -0.9971851 -0.06493348
vn 0.05749592 -0.9960411 0.06779686
vn -0.3229896 0.5279226 0.7854778
vn -0.8841614 0.4504891 0.1237667
vn 0.8276832 0.5279226 -0.1903636
vn 0.2665113 0.450489 -0.8520747
vn 0.5329327 0.5666394 0.6284127
vn -0.589411 0.4117723 -0.6950096
vn -0.05749592 0.9960411 -0.06779686

vt -6.482009 137.1845
vt -6.062084 151.5284
vt 6.086717 138.4047
vt 5.6905 151.9387
vt -8.902357 54.50991
vt -8.300455 75.06979
vt 8.515159 55.45362
vt 7.971952 74.00855
vt 4.658812 199.4636
vt -4.32382 198.624
vt 4.371267 209.2856
vt -3.995046 209.8543
vt -4.662512 199.3352
vt -4.385492 208.7977
vt 4.327561 198.4942
vt 4.009158 209.3703
vt -7.629989 97.97166
vt -7.126977 115.1536
vt 7.298921 96.99805
vt 6.728029 116.4987
vt 5.306659 170.0361
vt -5.355763 170.6814
vt 4.908261 183.6447
vt -4.980363 183.5044
vt -10.21313 14.3306
vt -21.51629 18.00823
vt -9.243542 25.68614
vt -20.97332 24.36733
vt 8.75657 54.50565
vt -8.688574 54.50565
vt 8.154668 75.06551
vt -8.068842 75.67454
vt 15.85466 -6.484499
vt -15.78666 -6.484499
vt 11.84046 3.420496
vt -11.77246 3.420496
vt 15.78666 -6.338777
vt -15.85466 -6.338777
vt 11.77246 3.56622
vt -11.84046 3.56622
vt 11.84046 7.777664
vt -11.77246 7.777664
vt 9.619348 29.42793
vt -9.551352 29.42793
vt 15.78666 15.64087
vt 15.78666 -16.00044
vt -15.85466 15.64087
vt -15.85466 -16.00044
vt 5.531411 169.6572
vt -5.160872 170.0318
vt 5.095072 184.5617
vt -4.762474 183.6404
vt 16.00044 -6.39786
vt -15.64087 -6.39786
vt 11.98625 3.507136
vt -11.62668 3.507136
vt -5.512442 170.3032
vt -5.099133 184.421
vt 5.14198 170.6752
vt 4.766579 183.4982
vt 2.941887 16.49881
vt -2.582316 16.49881
vt 2.290548 22.84773
vt -1.930977 22.84773
vt -11.98625 7.792621
vt -9.765135 29.44288
vt 11.62668 7.792621
vt 9.299079 30.48084
vt -2.582316 27.02363
vt 2.941887 27.02363
vt -4.752539 15.33704
vt 5.11211 15.33704
vt 5.11211 14.00459
vt 3.949004 25.34195
vt 9.765135 29.44986
vt -9.299079 30.48782
vt -3.589433 25.34195
vt -4.752539 14.00459
vt 11.98625 7.799596
vt -11.62668 7.799596
vt 10.26865 14.37217
vt 9.299055 25.72771
vt 21.5718 18.0498
vt 21.02883 24.4089
vt -16.00044 -6.425416
vt -11.98625 3.479579
vt 15.64087 -6.425416
vt 11.62668 3.479579
vt 2.290548 -18.62607
vt -1.930977 -18.62607
vt 3.949004 -6.939479
vt -3.589433 -6.939479
vt 11.77246 7.814553
vt -11.84046 7.814553
vt 9.444866 30.50277
vt -9.512863 30.50277
vt -5.317627 169.6509
vt -4.881289 184.5555
vt 5.366654 170.2989
vt 4.953345 184.4168
vt -6.3005 138.411
vt -5.904284 151.945
vt 6.227263 138.59
vt 5.857126 151.2332
vt 8.902357 54.5119
vt -8.515159 55.45561
vt 8.282625 75.6808
vt -7.953986 74.62424
vt 7.484201 97.96739
vt -7.399848 98.52613
vt 6.98119 115.1493
vt -6.907351 115.3489
vt 8.660946 55.45987
vt -8.728942 55.45987
vt 8.099773 74.6285
vt -8.185736 74.01481
vt -4.541345 198.5005
vt -4.222941 209.3765
vt 4.469607 198.6283
vt 4.140833 209.8586
vt 6.336222 137.1803
vt -6.262925 137.3613
vt 5.916297 151.5241
vt -5.869226 150.8094
vt 4.516725 199.3309
vt -4.445028 199.4573
vt 4.239705 208.7934
vt -4.157484 209.2793
vt -7.512705 97.0043
vt -6.941813 116.5049
vt 7.428226 97.56733
vt 6.868039 116.7023
vt 7.613631 98.53239
vt -7.282438 97.56306
vt 7.121134 115.3552
vt -6.722252 116.698
vt 6.476708 137.3676
vt -6.081476 138.5857
vt 6.083009 150.8156
vt -5.711339 151.2289
vt -26.62083 -13.70624
vt -26.62083 17.07211
vt 0.0339981 -29.09541
vt -8.688574 -5.926365
vt 8.75657 -5.926365
vt 26.68883 -13.70624
vt -8.660946 11.51668
vt 0.0339981 32.46128
vt 8.728942 11.51668
vt 26.68883 17.07211
vt -24.94591 -8.466421
vt -15.43402 23.8731
vt 29.24863 -4.622351
vt 15.26719 26.05077
vt -9.35356 130.6586
vt 8.190097 130.6586
vt -16.06598 108.6093
vt 14.90252 108.6093
vt 13.25415 153.5221
vt -8.606119 151.1589
vt 6.687408 169.9242
vt -5.696434 168.5854
vt 26.14348 -6.601215
vt -28.15565 -4.748948
vt 15.45097 25.36738
vt -15.30949 26.41669
vt 9.307029 139.2623
vt 14.4688 116.7994
vt -8.194098 140.4832
vt -16.42463 118.9544
vt 13.82919 111.0464
vt -17.05745 113.2965
vt 8.736602 133.5251
vt -8.760684 134.7998
vt -13.85151 116.3099
vt -8.689736 138.7728
vt 17.04192 118.4649
vt 8.811392 139.9937
vt -26.08388 -6.62115
vt -15.39137 25.34745
vt 28.21525 -4.768882
vt 15.36909 26.39676
vt -18.91072 7.690201
vt -5.565233 13.3457
vt 0.1311274 -3.303618
vt 4.211594 11.85633
vt 19.17298 7.690201
vt 19.17298 29.67784
vt -4.064512 23.13181
vt 0.1311274 40.67166
vt -18.91072 29.67784
vt 5.660152 21.65866
vt -9.63862 143.0093
vt -5.842234 160.2644
vt 12.31385 144.2524
vt 6.593842 160.9686
vt 9.35356 -4.259044
vt 2.131529 4.497675
vt 18.12539 10.93421
vt 7.457242 13.78264
vt -8.190097 26.12746
vt 9.35356 26.12746
vt -7.122776 9.866393
vt -16.96193 10.93421
vt -8.190097 -4.259044
vt -1.775203 19.1134
vt -9.974418 158.7241
vt -6.093414 175.9604
vt 11.98389 159.8595
vt 6.345966 176.6035
vt -13.26783 153.3956
vt -6.701085 169.7977
vt 8.592443 151.0324
vt 5.682758 168.4589
vt 47.01778 28.84829
vt 47.01778 -25.48242
vt -0.0339981 56.01364
vt 9.444866 10.99564
vt 9.551352 -8.096512
vt -9.512863 10.99564
vt -47.08577 28.84829
vt -9.619348 -8.096512
vt -0.0339981 -52.64777
vt -47.08577 -25.48242
vt 15.30535 24.55665
vt 28.23918 -6.572711
vt -15.45203 23.42077
vt -26.05451 -8.577801
vt 16.06598 120.1402
vt -14.90252 120.1402
vt 9.35356 142.1895
vt -8.190097 142.1895
vt -14.37079 110.4742
vt -9.278193 132.9529
vt 16.51586 112.7244
vt 8.219093 134.2277
vt 10.65608 24.91202
vt 10.65608 12.45602
vt -0.1311274 31.14002
vt 3.698393 24.03921
vt 5.065917 15.12167
vt -5.163151 22.69681
vt -10.91834 24.91202
vt -3.84316 13.76449
vt -0.1311274 6.228023
vt -10.91834 12.45602
vt 9.861779 142.933
vt -12.09069 144.176
vt 6.065392 160.188
vt -6.370683 160.8922
vt 9.744316 158.6723
vt -12.21399 159.8077
vt 5.863313 175.9086
vt -6.576067 176.5517
vt 25.99648 -8.553687
vt -28.29722 -6.548597
vt 15.39399 23.44488
vt -15.36339 24.58076
vt 14.90252 -15.8853
vt -16.06598 -15.8853
vt 30.38677 10.93421
vt 7.874728 8.354334
vt 14.90252 37.75372
vt -2.333428 2.432256
vt 1.975976 18.55444
vt -8.208068 12.67423
vt -31.55024 10.93421
vt -16.06598 37.75372
vt 24.94902 -8.422621
vt -29.24553 -4.578551
vt 15.43713 23.9169
vt -15.26409 26.09457
vt 18.22244 81.84596
vt -20.83473 84.02863
vt 11.22551 108.6005
vt -10.90038 109.837
vt -16.79543 75.65819
vt -11.46363 102.7937
vt 22.05248 80.24801
vt 10.54371 105.3938
vt -27.00592 37.26025
vt -14.2053 64.9794
vt 19.50994 32.85067
vt 12.14594 62.48137
vt -19.25311 0.6765785
vt -7.141876 7.962265
vt -0.06162689 -10.40363
vt 5.321337 6.107648
vt 19.12985 0.6765785
vt 19.12985 22.83699
vt -5.272059 20.44007
vt -0.06162689 33.91719
vt -19.25311 22.83699
vt 7.122077 18.60641
vt 18.17005 70.37569
vt -20.87152 72.82168
vt 11.35368 97.17683
vt -10.76336 98.56248
vt 33.9389 31.31584
vt 33.9389 -7.802272
vt 0.06162689 50.87489
vt 5.812354 19.02916
vt 7.873528 5.274374
vt -7.850194 17.00784
vt -33.81565 31.31584
vt -5.865168 3.229956
vt 0.06162689 -27.36133
vt -33.81565 -7.802272
vt 10.07425 4.749238
vt 2.60164 17.6718
vt -0.3554916 33.50898
vt -23.27864 20.27429
vt -10.2965 10.22297
vt -2.856733 -2.75663
vt -0.3554916 -19.42978
vt -23.27864 -6.19509
vt 22.56766 -6.19509
vt 22.56766 20.27429
vt 26.96506 37.69131
vt -19.55081 33.28173
vt 14.16444 65.41045
vt -12.1868 62.91243
vt 16.78736 75.5899
vt -22.06054 80.17972
vt 11.45556 102.7254
vt -10.55178 105.3255
vt -21.86969 37.63485
vt -13.0514 66.86573
vt 24.80718 39.74192
vt 13.39105 68.05939
vt -18.33093 81.87434
vt -11.334 108.6289
vt 20.72624 84.05701
vt 10.79188 109.8654
vt -25.43205 39.55341
vt -14.01592 67.87088
vt 21.24483 37.44634
vt 12.42653 66.67722
vt 25.60348 32.47346
vt -21.06288 30.14513
vt 14.05324 60.73649
vt -12.38326 59.41749
vt 21.66705 29.89822
vt -24.99931 32.22655
vt 12.98743 59.17058
vt -13.44906 60.48958
vt -18.06566 70.41669
vt -11.2493 97.21783
vt 20.9759 72.86266
vt 10.86775 98.60347
vt -40.10904 30.4018
vt 0.3554916 53.76401
vt -40.10904 -16.32261
vt -10.9916 2.784939
vt 0.3554916 -39.68481
vt 3.103079 -5.396404
vt -2.846509 16.87044
vt 40.82002 30.4018
vt 11.21238 8.751271
vt 40.82002 -16.32261
vt 8.091514 31.89342
vt 15.78719 18.56413
vt -7.299833 31.89342
vt 0.5741275 24.37611
vt 5.998072 17.98084
vt -5.813786 18.95581
vt -14.99551 18.56413
vt -0.3969971 12.51714
vt 8.091514 5.234829
vt -7.299833 5.234829
vt -6.945416 170.9521
vt -4.689498 182.9708
vt 8.382567 172.3473
vt 3.993805 183.7612
vt -7.368123 180.0309
vt -5.058949 192.0395
vt 7.965894 181.3581
vt 3.627772 192.7913
vt 7.309103 170.5809
vt -8.018881 171.976
vt 5.053185 182.5996
vt -3.630118 183.3899
vt 6.94472 179.7295
vt -8.389297 181.0567
vt 4.635546 191.7381
vt -4.051175 192.49
vt -7.299833 166.1506
vt -3.963759 177.9154
vt 8.091514 166.1506
vt 4.755439 177.9154
vt 7.299833 184.3862
vt -8.091514 184.3862
vt 3.963759 196.1509
vt -4.755439 196.1509
vt -4.755439 26.11517
vt 3.963759 26.11517
vt -9.115038 18.56413
vt -4.755439 11.01308
vt 8.323358 18.56413
vt 3.963759 11.01308

usemtl natureKit-wood
# usermap natureKit-wood

f 2/2/1 1/1/1 3/3/1
f 3/3/1 4/4/1 2/2/1
f 2/2/2 3/3/2 1/1/2
f 3/3/2 2/2/2 4/4/2
f 6/6/1 5/5/1 7/7/1
f 7/7/1 8/8/1 6/6/1
f 6/6/2 7/7/2 5/5/2
f 7/7/2 6/6/2 8/8/2
f 10/10/3 9/9/3 11/11/3
f 11/11/3 12/12/3 10/10/3
f 10/10/4 11/11/4 9/9/4
f 11/11/4 10/10/4 12/12/4
f 14/14/1 13/13/1 15/15/1
f 15/15/1 16/16/1 14/14/1
f 14/14/2 15/15/2 13/13/2
f 15/15/2 14/14/2 16/16/2
f 18/18/1 17/17/1 19/19/1
f 19/19/1 20/20/1 18/18/1
f 18/18/2 19/19/2 17/17/2
f 19/19/2 18/18/2 20/20/2
f 22/22/5 21/21/5 23/23/5
f 23/23/5 24/24/5 22/22/5
f 22/22/6 23/23/6 21/21/6
f 23/23/6 22/22/6 24/24/6
f 26/26/7 25/25/7 27/27/7
f 27/27/7 28/28/7 26/26/7
f 26/26/8 27/27/8 25/25/8
f 27/27/8 26/26/8 28/28/8
f 29/30/9 5/29/9 6/31/9
f 6/31/9 30/32/9 29/30/9
f 29/30/10 6/31/10 5/29/10
f 6/31/10 29/30/10 30/32/10
f 32/34/11 31/33/11 33/35/12
f 33/35/12 34/36/12 32/34/11
f 32/34/14 33/35/13 31/33/14
f 33/35/13 32/34/14 34/36/13
f 36/38/15 35/37/15 37/39/16
f 37/39/16 38/40/16 36/38/15
f 36/38/18 37/39/17 35/37/18
f 37/39/17 36/38/18 38/40/17
f 34/42/12 33/41/12 39/43/19
f 39/43/19 40/44/19 34/42/12
f 34/42/13 39/43/20 33/41/13
f 39/43/20 34/42/13 40/44/20
f 32/46/21 35/45/21 36/47/21
f 36/47/21 31/48/21 32/46/21
f 32/46/22 36/47/22 35/45/22
f 36/47/22 32/46/22 31/48/22
f 21/50/3 41/49/3 42/51/3
f 42/51/3 23/52/3 21/50/3
f 21/50/4 42/51/4 41/49/4
f 42/51/4 21/50/4 23/52/4
f 35/54/23 32/53/23 34/55/24
f 34/55/24 37/56/24 35/54/23
f 35/54/26 34/55/25 32/53/26
f 34/55/25 35/54/26 37/56/25
f 44/58/1 43/57/1 22/59/1
f 22/59/1 24/60/1 44/58/1
f 44/58/2 22/59/2 43/57/2
f 22/59/2 44/58/2 24/60/2
f 45/62/27 26/61/27 28/63/27
f 28/63/27 46/64/27 45/62/27
f 45/62/28 28/63/28 26/61/28
f 28/63/28 45/62/28 46/64/28
f 39/66/30 33/65/29 38/67/29
f 38/67/29 47/68/30 39/66/30
f 39/66/32 38/67/31 33/65/31
f 38/67/31 39/66/32 47/68/32
f 26/70/33 45/69/33 48/71/33
f 48/71/33 25/72/33 26/70/33
f 26/70/34 48/71/34 45/69/34
f 48/71/34 26/70/34 25/72/34
f 27/74/27 25/73/27 40/75/27
f 40/75/27 49/76/27 27/74/27
f 49/76/27 50/77/27 27/74/27
f 49/76/27 48/78/27 50/77/27
f 34/79/24 40/75/27 25/73/27
f 25/73/27 37/80/24 34/79/24
f 25/73/27 48/78/27 37/80/24
f 48/78/27 49/76/27 37/80/24
f 27/74/28 40/75/28 25/73/28
f 40/75/28 27/74/28 49/76/28
f 49/76/28 27/74/28 50/77/28
f 49/76/28 50/77/28 48/78/28
f 34/79/25 25/73/28 40/75/28
f 25/73/28 34/79/25 37/80/25
f 25/73/28 37/80/25 48/78/28
f 48/78/28 37/80/25 49/76/28
f 50/82/35 48/81/35 45/83/35
f 45/83/35 46/84/35 50/82/35
f 50/82/36 45/83/36 48/81/36
f 45/83/36 50/82/36 46/84/36
f 33/86/29 31/85/37 36/87/37
f 36/87/37 38/88/29 33/86/29
f 33/86/31 36/87/38 31/85/38
f 36/87/38 33/86/31 38/88/31
f 46/90/39 28/89/39 27/91/39
f 27/91/39 50/92/39 46/90/39
f 46/90/40 27/91/40 28/89/40
f 27/91/40 46/90/40 50/92/40
f 38/94/16 37/93/16 49/95/41
f 49/95/41 47/96/41 38/94/16
f 38/94/17 49/95/42 37/93/17
f 49/95/42 38/94/17 47/96/42
f 42/98/9 41/97/9 43/99/9
f 43/99/9 44/100/9 42/98/9
f 42/98/10 43/99/10 41/97/10
f 43/99/10 42/98/10 44/100/10
f 4/102/5 3/101/5 51/103/5
f 51/103/5 52/104/5 4/102/5
f 4/102/6 51/103/6 3/101/6
f 51/103/6 4/102/6 52/104/6
f 53/106/3 29/105/3 30/107/3
f 30/107/3 54/108/3 53/106/3
f 53/106/4 30/107/4 29/105/4
f 30/107/4 53/106/4 54/108/4
f 55/110/9 17/109/9 18/111/9
f 18/111/9 56/112/9 55/110/9
f 55/110/10 18/111/10 17/109/10
f 18/111/10 55/110/10 56/112/10
f 7/114/5 53/113/5 54/115/5
f 54/115/5 8/116/5 7/114/5
f 7/114/6 54/115/6 53/113/6
f 54/115/6 7/114/6 8/116/6
f 16/118/5 15/117/5 10/119/5
f 10/119/5 12/120/5 16/118/5
f 16/118/6 10/119/6 15/117/6
f 10/119/6 16/118/6 12/120/6
f 57/122/9 1/121/9 2/123/9
f 2/123/9 58/124/9 57/122/9
f 57/122/10 2/123/10 1/121/10
f 2/123/10 57/122/10 58/124/10
f 9/126/9 13/125/9 14/127/9
f 14/127/9 11/128/9 9/126/9
f 9/126/10 14/127/10 13/125/10
f 14/127/10 9/126/10 11/128/10
f 20/130/5 19/129/5 59/131/5
f 59/131/5 60/132/5 20/130/5
f 20/130/6 59/131/6 19/129/6
f 59/131/6 20/130/6 60/132/6
f 59/134/3 55/133/3 56/135/3
f 56/135/3 60/136/3 59/134/3
f 59/134/4 56/135/4 55/133/4
f 56/135/4 59/134/4 60/136/4
f 51/138/3 57/137/3 58/139/3
f 58/139/3 52/140/3 51/138/3
f 51/138/4 58/139/4 57/137/4
f 58/139/4 51/138/4 52/140/4

usemtl natureKit-leaves
# usermap natureKit-leaves

f 62/142/43 61/141/43 63/143/43
f 63/143/43 29/144/43 62/142/43
f 63/143/43 5/145/43 29/144/43
f 63/143/43 64/146/43 5/145/43
f 62/142/43 29/144/43 53/147/43
f 53/147/43 65/148/43 62/142/43
f 53/147/43 7/149/43 65/148/43
f 7/149/43 66/150/43 65/148/43
f 7/149/43 5/145/43 66/150/43
f 5/145/43 64/146/43 66/150/43
f 64/152/44 67/151/44 68/153/44
f 68/153/44 66/154/44 64/152/44
f 70/156/45 69/155/45 71/157/45
f 71/157/45 72/158/45 70/156/45
f 74/160/46 73/159/46 75/161/46
f 75/161/46 76/162/46 74/160/46
f 78/164/47 77/163/47 63/165/47
f 63/165/47 61/166/47 78/164/47
f 80/168/48 79/167/48 81/169/48
f 81/169/48 82/170/48 80/168/48
f 72/172/49 82/171/49 81/173/49
f 81/173/49 70/174/49 72/172/49
f 84/176/50 83/175/50 85/177/50
f 85/177/50 86/178/50 84/176/50
f 63/180/51 77/179/51 67/181/51
f 67/181/51 64/182/51 63/180/51
f 23/184/52 74/183/52 87/185/52
f 87/185/52 24/186/52 23/184/52
f 87/185/52 88/187/52 24/186/52
f 88/187/52 89/188/52 24/186/52
f 74/183/52 23/184/52 42/189/52
f 74/183/52 42/189/52 90/190/52
f 90/190/52 73/191/52 74/183/52
f 42/189/52 44/192/52 90/190/52
f 44/192/52 89/188/52 90/190/52
f 44/192/52 24/186/52 89/188/52
f 75/194/53 73/193/53 90/195/53
f 90/195/53 91/196/53 75/194/53
f 41/198/54 84/197/54 86/199/54
f 86/199/54 43/200/54 41/198/54
f 86/199/54 70/201/54 43/200/54
f 86/199/54 69/202/54 70/201/54
f 84/197/54 41/198/54 21/203/54
f 84/197/54 21/203/54 81/204/54
f 21/203/54 70/201/54 81/204/54
f 81/204/54 79/205/54 84/197/54
f 21/203/54 22/206/54 70/201/54
f 22/206/54 43/200/54 70/201/54
f 92/208/55 87/207/55 74/209/55
f 74/209/55 76/210/55 92/208/55
f 93/212/56 89/211/56 88/213/56
f 88/213/56 94/214/56 93/212/56
f 78/216/57 95/215/57 96/217/57
f 96/217/57 49/218/57 78/216/57
f 49/218/57 40/219/57 78/216/57
f 96/217/57 47/220/57 49/218/57
f 96/217/57 68/221/57 47/220/57
f 68/221/57 39/222/57 47/220/57
f 77/223/57 78/216/57 40/219/57
f 40/219/57 39/222/57 77/223/57
f 39/222/57 67/224/57 77/223/57
f 39/222/57 68/221/57 67/224/57
f 96/226/58 65/225/58 66/227/58
f 66/227/58 68/228/58 96/226/58
f 80/230/59 83/229/59 84/231/59
f 84/231/59 79/232/59 80/230/59
f 86/234/60 85/233/60 71/235/60
f 71/235/60 69/236/60 86/234/60
f 76/238/61 75/237/61 91/239/61
f 91/239/61 9/240/61 76/238/61
f 9/240/61 10/241/61 76/238/61
f 91/239/61 13/242/61 9/240/61
f 91/239/61 93/243/61 13/242/61
f 93/243/61 15/244/61 13/242/61
f 92/245/61 76/238/61 10/241/61
f 10/241/61 15/244/61 92/245/61
f 15/244/61 94/246/61 92/245/61
f 15/244/61 93/243/61 94/246/61
f 90/248/62 89/247/62 93/249/62
f 93/249/62 91/250/62 90/248/62
f 88/252/63 87/251/63 92/253/63
f 92/253/63 94/254/63 88/252/63
f 96/256/64 95/255/64 62/257/64
f 62/257/64 65/258/64 96/256/64
f 83/260/65 80/259/65 82/261/65
f 82/261/65 52/262/65 83/260/65
f 82/261/65 72/263/65 52/262/65
f 52/262/65 58/264/65 83/260/65
f 72/263/65 4/265/65 52/262/65
f 72/263/65 2/266/65 4/265/65
f 85/267/65 83/260/65 58/264/65
f 58/264/65 2/266/65 85/267/65
f 2/266/65 72/263/65 85/267/65
f 72/263/65 71/268/65 85/267/65
f 95/270/66 78/269/66 61/271/66
f 61/271/66 62/272/66 95/270/66
f 98/274/67 97/273/67 99/275/67
f 99/275/67 100/276/67 98/274/67
f 102/278/68 101/277/68 103/279/68
f 103/279/68 104/280/68 102/278/68
f 106/282/69 105/281/69 107/283/69
f 107/283/69 108/284/69 106/282/69
f 57/286/70 100/285/70 99/287/70
f 99/287/70 1/288/70 57/286/70
f 99/287/70 102/289/70 1/288/70
f 102/289/70 104/290/70 1/288/70
f 100/285/70 57/286/70 51/291/70
f 100/285/70 51/291/70 109/292/70
f 109/292/70 110/293/70 100/285/70
f 51/291/70 3/294/70 109/292/70
f 3/294/70 104/290/70 109/292/70
f 3/294/70 1/288/70 104/290/70
f 112/296/71 111/295/71 110/297/71
f 110/297/71 109/298/71 112/296/71
f 98/300/72 111/299/72 112/301/72
f 112/301/72 60/302/72 98/300/72
f 60/302/72 56/303/72 98/300/72
f 112/301/72 20/304/72 60/302/72
f 112/301/72 103/305/72 20/304/72
f 103/305/72 18/306/72 20/304/72
f 97/307/72 98/300/72 56/303/72
f 56/303/72 18/306/72 97/307/72
f 18/306/72 101/308/72 97/307/72
f 18/306/72 103/305/72 101/308/72
f 55/310/73 59/309/73 113/311/73
f 113/311/73 106/312/73 55/310/73
f 106/312/73 17/313/73 55/310/73
f 106/312/73 19/314/73 17/313/73
f 106/312/73 114/315/73 19/314/73
f 59/309/73 19/314/73 114/315/73
f 106/312/73 108/316/73 114/315/73
f 113/311/73 59/309/73 115/317/73
f 59/309/73 114/315/73 115/317/73
f 115/317/73 116/318/73 113/311/73
f 118/320/74 117/319/74 116/321/74
f 116/321/74 115/322/74 118/320/74
f 111/324/75 98/323/75 100/325/75
f 100/325/75 110/326/75 111/324/75
f 114/328/76 119/327/76 118/329/76
f 118/329/76 115/330/76 114/328/76
f 99/332/77 97/331/77 101/333/77
f 101/333/77 102/334/77 99/332/77
f 108/336/78 107/335/78 119/337/78
f 119/337/78 114/338/78 108/336/78
f 117/340/79 120/339/79 113/341/79
f 113/341/79 116/342/79 117/340/79
f 120/344/80 105/343/80 106/345/80
f 106/345/80 113/346/80 120/344/80
f 104/348/81 103/347/81 112/349/81
f 112/349/81 109/350/81 104/348/81
f 120/352/82 117/351/82 118/353/82
f 118/353/82 54/354/82 120/352/82
f 118/353/82 119/355/82 54/354/82
f 119/355/82 8/356/82 54/354/82
f 120/352/82 54/354/82 30/357/82
f 30/357/82 105/358/82 120/352/82
f 8/356/82 119/355/82 105/358/82
f 30/357/82 6/359/82 105/358/82
f 6/359/82 8/356/82 105/358/82
f 119/355/82 107/360/82 105/358/82
f 122/362/83 121/361/83 123/363/83
f 123/363/83 12/364/83 122/362/83
f 12/364/83 11/365/83 122/362/83
f 123/363/83 16/366/83 12/364/83
f 123/363/83 124/367/83 16/366/83
f 124/367/83 14/368/83 16/366/83
f 125/369/83 122/362/83 11/365/83
f 11/365/83 14/368/83 125/369/83
f 14/368/83 126/370/83 125/369/83
f 14/368/83 124/367/83 126/370/83
f 127/372/84 124/371/84 123/373/84
f 123/373/84 128/374/84 127/372/84
f 129/376/85 126/375/85 124/377/85
f 124/377/85 127/378/85 129/376/85
f 121/380/86 122/379/86 130/381/86
f 130/381/86 131/382/86 121/380/86
f 122/384/87 125/383/87 132/385/87
f 132/385/87 130/386/87 122/384/87
f 128/388/88 123/387/88 121/389/88
f 121/389/88 131/390/88 128/388/88
f 125/392/89 126/391/89 129/393/89
f 129/393/89 132/394/89 125/392/89
f 128/396/90 131/395/90 130/397/90
f 130/397/90 132/398/90 128/396/90
f 132/398/90 127/399/90 128/396/90
f 132/398/90 129/400/90 127/399/90
