# Exported using Kenney Suite 1.2 

mtllib tree_default_dark.mtl 

g tree_default_dark

v -0.4370284 8.003875 0.4370287 
v -0.5793357 3.469682 0.3604403 
v -0.4370284 8.003875 -0.4370287 
v -0.5793357 3.469682 -0.2395597 
v -0.5981588 2.869978 -0.2395597 
v -0.5981588 2.869978 0.3604403 
v -0.6882334 0 0.6882341 
v -0.6882334 0 -0.6882341 
v 0.6882334 0 -0.6882341 
v -0.2201104 1.925518 -0.6278008 
v -0.2201104 2.475248 -0.6105472 
v 0.3298903 2.475248 -0.6105472 
v 0.3298903 1.925518 -0.6278008 
v 0.4370284 8.003875 -0.4370287 
v 0.2941942 5.362354 0.5199341 
v 0.6882334 0 0.6882341 
v 0.4370284 8.003875 0.4370287 
v 0.2941942 5.937071 0.5018963 
v -0.280807 5.937071 0.5018963 
v -0.280807 5.362354 0.5199341 
v 0.4739094 6.828755 0.2721268 
v 0.4739094 6.828755 -0.2028732 
v 0.4590106 7.303521 -0.2028732 
v 0.4590106 7.303521 0.2721268 
v -1.432023 3.397396 0.2614403 
v -1.444635 2.995593 0.2614403 
v -1.432023 3.397396 -0.1405597 
v -1.444635 2.995593 -0.1405597 
v 0.2165675 5.466606 1.36708 
v -0.2031803 5.466606 1.36708 
v 0.2165675 5.886149 1.353913 
v -0.2031803 5.886149 1.353913 
v 1.221828 6.906881 0.2175018 
v 1.210353 7.272451 0.2175018 
v 1.221828 6.906881 -0.1482482 
v 1.210353 7.272451 -0.1482482 
v -0.1293588 2.038967 -1.349597 
v 0.239141 2.038967 -1.349597 
v -0.1293588 2.407286 -1.338037 
v 0.239141 2.407286 -1.338037 
v 1.8875 9.553875 3.269246 
v -1.8875 9.553875 3.269246 
v 1.453376 15.00387 2.517319 
v -1.453376 15.00387 2.517319 
v -3.775001 9.553875 0 
v -2.906749 15.00387 0 
v 3.775001 9.553875 0 
v 2.906749 15.00387 0 
v 1.8875 9.553875 -3.269246 
v 1.453376 15.00387 -2.517319 
v -1.453376 15.00387 -2.517319 
v -1.8875 9.553875 -3.269246 
v -2.9445 8.003875 0 
v -1.472249 8.003875 2.550012 
v -1.472249 8.003875 -2.550012 
v 1.472249 8.003875 -2.550012 
v 1.472249 8.003875 2.550012 
v 2.9445 8.003875 0 
v 0 17.07887 0 

vn 0.9995079 0.03137003 0
vn 0 0.03137003 0.9995079
vn 0 0.03137003 -0.9995079
vn 0 -1 0
vn -0.9995079 0.03137003 0
vn 0.1156316 0.003629154 -0.9932855
vn 0.146791 -0.9891676 0
vn 0.1156316 0.003629154 0.9932855
vn 0.08447222 0.9964258 0
vn 0.9958559 0.00285295 -0.09090031
vn 0 -0.9925128 -0.1221403
vn 0 0.9982187 -0.05966028
vn -0.9958559 0.00285295 -0.09090031
vn -0.07260517 0.002278748 -0.9973581
vn -0.1038923 -0.9945886 0
vn -0.07260517 0.002278748 0.9973581
vn -0.04131801 0.9991461 0
vn 0.9922568 0.003896258 0.124142
vn 0 0.9956648 0.09301493
vn -0.9922568 0.003896258 0.124142
vn 0 -0.9878722 0.1552692
vn 0 0.1366735 -0.9906161
vn 0.8578988 0.1366735 -0.4953081
vn -0.8578988 0.1366735 0.4953081
vn 0.8578988 0.1366735 0.4953081
vn 0 0.1366735 0.9906161
vn -0.8578988 0.1366735 -0.4953081
vn -0.5508413 0.7716423 -0.3180284
vn 0.7855719 -0.4209145 0.4535502
vn 0.7855719 -0.4209145 -0.4535502
vn -0.7855719 -0.4209145 -0.4535502
vn 0.5508413 0.7716423 -0.3180284
vn -0.7855719 -0.4209145 0.4535502
vn 0 -0.4209145 -0.9071003
vn 0.5508413 0.7716423 0.3180284
vn 0 0.7716423 -0.6360567
vn 0 -0.4209145 0.9071003
vn 0 0.7716423 0.6360567
vn -0.5508413 0.7716423 0.3180284

vt 6.882341 125.7673
vt 5.676225 54.32757
vt -6.882341 125.7673
vt -3.772594 54.32757
vt -3.772594 44.87875
vt 5.676225 44.87875
vt 10.83833 -0.3399988
vt -10.83833 -0.3399988
vt 3.466288 29.99806
vt 3.466288 38.65947
vt -5.195129 38.65947
vt -5.195129 29.99806
vt 4.632971 84.14812
vt 4.632971 93.20323
vt -4.422147 93.20323
vt -4.422147 84.14812
vt 10.83833 10.83833
vt 10.83833 -10.83833
vt -10.83833 10.83833
vt -10.83833 -10.83833
vt -4.285461 107.2524
vt 3.194854 107.2524
vt 3.194854 114.7327
vt -4.285461 114.7327
vt 4.11717 52.76852
vt 4.11717 46.43781
vt -2.213539 52.76852
vt -2.213539 46.43781
vt 3.41053 85.37056
vt -3.199706 85.37056
vt 3.41053 91.9808
vt -3.199706 91.9808
vt -8.700276 45.17178
vt -22.12147 47.15
vt -8.405854 54.61602
vt -21.9242 53.47763
vt -2.213539 29.42853
vt 4.11717 29.42853
vt -3.772594 15.95222
vt 5.676225 15.95222
vt 8.920398 45.17865
vt 8.625976 54.62288
vt 22.34159 47.15686
vt 22.14433 53.4845
vt 4.11717 -17.9515
vt -2.213539 -17.9515
vt 5.676225 -4.475183
vt -3.772594 -4.475183
vt 21.14884 86.07327
vt 7.752063 84.4315
vt 20.94234 92.68027
vt 7.46918 93.4822
vt -4.422147 18.44096
vt -3.199706 31.88249
vt 4.632971 18.44096
vt 3.41053 31.88249
vt -4.422147 -2.31173
vt 4.632971 -2.31173
vt -3.199706 -15.75326
vt 3.41053 -15.75326
vt -21.12968 86.07266
vt -20.92317 92.67967
vt -7.732899 84.4309
vt -7.450016 93.48161
vt -3.425225 108.1126
vt -3.425225 113.8725
vt 2.334617 108.1126
vt 2.334617 113.8725
vt 7.132311 107.5282
vt 6.898273 115.0049
vt 18.94191 108.7585
vt 18.7617 114.5155
vt 3.194854 18.59529
vt -4.285461 18.59529
vt 2.334617 30.4376
vt -3.425225 30.4376
vt -7.211495 107.5307
vt -19.02109 108.761
vt -6.977456 115.0073
vt -18.84088 114.518
vt -4.285461 -2.470089
vt 3.194854 -2.470089
vt -3.425225 -14.3124
vt 2.334617 -14.3124
vt 2.037154 31.42719
vt -3.765996 31.42719
vt 2.037154 37.23034
vt -3.765996 37.23034
vt -9.110225 38.96193
vt -9.379832 30.30471
vt -20.65555 37.89165
vt -20.83619 32.09132
vt 3.466288 -5.947487
vt 2.037154 -17.45391
vt -5.195129 -5.947487
vt -3.765996 -17.45391
vt 8.895601 38.95525
vt 20.44093 37.88497
vt 9.165208 30.29803
vt 20.62157 32.08463
vt 3.466288 14.47497
vt -5.195129 14.47497
vt 2.037154 25.98139
vt -3.765996 25.98139
vt 29.72441 142.0064
vt -29.72441 142.0064
vt 22.88779 228.6461
vt -22.88779 228.6461
vt 46.37008 0
vt 23.18504 -40.15767
vt 23.18504 40.15767
vt 6.882341 6.882341
vt -23.18504 40.15767
vt -6.882341 6.882341
vt -6.882341 -6.882341
vt 6.882341 -6.882341
vt -23.18504 -40.15767
vt -46.37008 0
vt -22.88779 119.6983
vt -7.105427E-15 171.073
vt 22.88779 119.6983
vt 29.72441 158.148
vt 23.18504 131.2386
vt -29.72441 158.148
vt -23.18504 131.2386
vt 7.105427E-15 171.073
vt -1.421085E-14 171.073
vt -2.524355E-29 171.073
vt 0 171.073

usemtl natureKit-wood
# usermap natureKit-wood

f 2/2/1 1/1/1 3/3/1
f 3/3/1 4/4/1 2/2/1
f 3/3/1 5/5/1 4/4/1
f 1/1/1 2/2/1 6/6/1
f 7/7/1 1/1/1 6/6/1
f 6/6/1 8/8/1 7/7/1
f 6/6/1 5/5/1 8/8/1
f 5/5/1 3/3/1 8/8/1
f 10/9/2 9/8/2 8/7/2
f 8/7/2 3/1/2 10/9/2
f 3/1/2 11/10/2 10/9/2
f 3/1/2 12/11/2 11/10/2
f 9/8/2 10/9/2 13/12/2
f 13/12/2 14/3/2 9/8/2
f 13/12/2 12/11/2 14/3/2
f 12/11/2 3/1/2 14/3/2
f 15/13/3 7/8/3 16/7/3
f 16/7/3 17/1/3 15/13/3
f 17/1/3 18/14/3 15/13/3
f 17/1/3 19/15/3 18/14/3
f 7/8/3 15/13/3 20/16/3
f 20/16/3 1/3/3 7/8/3
f 20/16/3 19/15/3 1/3/3
f 19/15/3 17/1/3 1/3/3
f 7/18/4 8/17/4 9/19/4
f 9/19/4 16/20/4 7/18/4
f 21/21/5 17/3/5 16/8/5
f 16/8/5 9/7/5 21/21/5
f 9/7/5 22/22/5 21/21/5
f 9/7/5 23/23/5 22/22/5
f 9/7/5 14/1/5 23/23/5
f 24/24/5 14/1/5 17/3/5
f 17/3/5 21/21/5 24/24/5
f 24/24/5 23/23/5 14/1/5
f 26/26/1 25/25/1 27/27/1
f 27/27/1 28/28/1 26/26/1
f 30/30/3 29/29/3 31/31/3
f 31/31/3 32/32/3 30/30/3
f 26/34/6 6/33/6 2/35/6
f 2/35/6 25/36/6 26/34/6
f 26/38/7 28/37/7 5/39/7
f 5/39/7 6/40/7 26/38/7
f 4/42/8 5/41/8 28/43/8
f 28/43/8 27/44/8 4/42/8
f 27/46/9 25/45/9 2/47/9
f 2/47/9 4/48/9 27/46/9
f 20/50/10 30/49/10 32/51/10
f 32/51/10 19/52/10 20/50/10
f 30/54/11 20/53/11 15/55/11
f 15/55/11 29/56/11 30/54/11
f 18/58/12 19/57/12 32/59/12
f 32/59/12 31/60/12 18/58/12
f 31/62/13 29/61/13 15/63/13
f 15/63/13 18/64/13 31/62/13
f 34/66/5 33/65/5 35/67/5
f 35/67/5 36/68/5 34/66/5
f 24/70/14 21/69/14 33/71/14
f 33/71/14 34/72/14 24/70/14
f 21/74/15 22/73/15 35/75/15
f 35/75/15 33/76/15 21/74/15
f 35/78/16 22/77/16 23/79/16
f 23/79/16 36/80/16 35/78/16
f 23/82/17 24/81/17 34/83/17
f 34/83/17 36/84/17 23/82/17
f 38/86/2 37/85/2 39/87/2
f 39/87/2 40/88/2 38/86/2
f 10/90/18 11/89/18 39/91/18
f 39/91/18 37/92/18 10/90/18
f 39/94/19 11/93/19 12/95/19
f 12/95/19 40/96/19 39/94/19
f 40/98/20 12/97/20 13/99/20
f 13/99/20 38/100/20 40/98/20
f 13/102/21 10/101/21 37/103/21
f 37/103/21 38/104/21 13/102/21

usemtl natureKit-leaves
# usermap natureKit-leaves

f 42/106/22 41/105/22 43/107/22
f 43/107/22 44/108/22 42/106/22
f 45/106/23 42/105/23 44/107/23
f 44/107/23 46/108/23 45/106/23
f 48/108/24 47/106/24 49/105/24
f 49/105/24 50/107/24 48/108/24
f 45/105/25 46/107/25 51/108/25
f 51/108/25 52/106/25 45/105/25
f 49/106/26 52/105/26 51/107/26
f 51/107/26 50/108/26 49/106/26
f 43/108/27 41/106/27 47/105/27
f 47/105/27 48/107/27 43/108/27
f 54/110/4 53/109/4 55/111/4
f 55/111/4 3/112/4 54/110/4
f 55/111/4 56/113/4 3/112/4
f 56/113/4 14/114/4 3/112/4
f 56/113/4 17/115/4 14/114/4
f 54/110/4 3/112/4 1/116/4
f 1/116/4 57/117/4 54/110/4
f 1/116/4 17/115/4 57/117/4
f 17/115/4 56/113/4 57/117/4
f 56/113/4 58/118/4 57/117/4
f 59/120/28 43/119/28 48/121/28
f 53/123/29 45/122/29 52/124/29
f 52/124/29 55/125/29 53/123/29
f 54/123/30 42/122/30 45/124/30
f 45/124/30 53/125/30 54/123/30
f 47/122/31 41/124/31 57/125/31
f 57/125/31 58/123/31 47/122/31
f 46/119/32 44/121/32 59/126/32
f 47/124/33 58/125/33 56/123/33
f 56/123/33 49/122/33 47/124/33
f 54/125/34 57/123/34 41/122/34
f 41/122/34 42/124/34 54/125/34
f 51/119/35 46/121/35 59/127/35
f 59/128/36 44/119/36 43/121/36
f 56/125/37 55/123/37 52/122/37
f 52/122/37 49/124/37 56/125/37
f 51/121/38 59/129/38 50/119/38
f 50/121/39 59/129/39 48/119/39
