# Exported using Kenney Suite 1.2 

mtllib tree_pine_tallSquare_detailed.mtl 

g tree_pine_tallSquare_detailed

v -0.3241396 0.35 0.4843249 
v 0.3453851 3.881463 0.4096112 
v 0.6032801 0.35 0.4843249 
v 0.3846192 10.68531 0.2656649 
v 0.3453851 4.356356 0.399564 
v -0.05461454 4.356356 0.399564 
v -0.05461454 3.881463 0.4096112 
v -0.1054788 10.68531 0.2656649 
v 0.3644371 10.68531 0.2656649 
v 0.4739738 6.461861 0.21971 
v 0.6032801 0.35 -0.4430951 
v 0.4739738 6.461861 -0.15529 
v 0.4633975 6.961749 -0.15529 
v 0.3846192 10.68531 -0.2244351 
v 0.4633975 6.961749 0.21971 
v 0.03338575 3.992285 0.7073337 
v 0.2573848 3.992285 0.7073337 
v 0.8221507 6.551746 0.157835 
v 0.8150649 6.886671 0.157835 
v 0.8221507 6.551746 -0.09341497 
v 0.8150649 6.886671 -0.09341497 
v 0.03338575 4.258225 0.7017073 
v 0.2573848 4.258225 0.7017073 
v -0.01381159 4.686489 -0.3513497 
v -0.3241396 0.35 -0.4430951 
v -0.1054788 10.68531 -0.2244351 
v -0.01381159 5.136389 -0.3418314 
v 0.3361893 5.136389 -0.3418314 
v 0.3361893 4.686489 -0.3513497 
v -0.08529663 10.68531 -0.2244351 
v -0.4632521 0 -0.5822081 
v -0.4632521 0 0.6234379 
v 0.7423925 0 -0.5822081 
v 0.7423925 0 0.6234379 
v -0.1552391 8.333405 0.1855849 
v -0.1552391 8.333405 -0.1394151 
v -0.1663613 7.807662 -0.1394151 
v -0.1663613 7.807662 0.1855849 
v 0.1395702 10.68531 0.0206149 
v 0.03168821 4.755552 -0.8500004 
v 0.2906895 4.755552 -0.8500004 
v 0.03168821 5.088478 -0.8429569 
v 0.2906895 5.088478 -0.8429569 
v -0.5068278 8.261947 0.1368349 
v -0.5146146 7.893927 0.1368349 
v -0.5068278 8.261947 -0.09066514 
v -0.5146146 7.893927 -0.09066514 
v 1.931365 10.68531 1.659168 
v 1.395938 12.44063 1.424325 
v 1.931365 10.68531 -1.653225 
v 1.395938 12.44063 -1.074325 
v -1.10271 12.44063 -1.074325 
v -1.638136 10.68531 -1.576708 
v -1.365731 10.68531 -1.95975 
v -0.5291009 19.69606 0.09899029 
v -0.5060387 19.69606 0.2713217 
v -0.5291009 19.69606 0.248261 
v -0.502131 19.69606 0.07867832 
v -0.3514218 19.69606 0.2713217 
v -0.3345847 19.69606 0.07867832 
v -0.3109169 19.69606 0.248261 
v -0.3109169 19.69606 0.1023452 
v -1.50526 12.44063 -1.359885 
v 1.492283 12.44063 -1.359885 
v -0.9278059 14.61442 -0.8994195 
v 1.221035 14.61442 -0.8994195 
v -0.803802 14.61442 -1.145001 
v 1.492283 14.61442 -1.145001 
v -1.10271 12.44063 1.424325 
v -1.625116 12.44063 1.709885 
v -1.931365 12.44063 1.403636 
v -1.931365 12.44063 -1.013868 
v 1.492283 12.44063 1.709885 
v 1.681499 12.44063 -1.013868 
v 1.681499 12.44063 1.520669 
v -0.9278059 14.61442 1.249419 
v 1.630783 10.68531 1.95975 
v -1.196196 10.68531 1.95975 
v -1.638136 10.68531 1.517812 
v 1.624839 10.68531 -1.95975 
v 1.816616 14.61442 -0.8206686 
v 1.221035 14.61442 1.249419 
v 1.816616 14.61442 1.178975 
v 1.261549 14.61442 1.495001 
v -0.8573604 14.61442 1.495001 
v -1.173387 14.61442 1.178975 
v -1.173387 14.61442 -0.8666439 

vn 0 0.02115187 -0.9997763
vn -0.9997763 0.02115187 0
vn 0 -0.9371789 -0.348849
vn -0.1740473 0.003682249 -0.9847304
vn -0.1740473 0.003682249 0.9847304
vn 0.959569 0.005953691 -0.2814106
vn -0.959569 0.005953691 -0.2814106
vn -0.2499631 -0.9682553 0
vn -0.2087878 0.977961 0
vn 0 0.9510946 -0.3088996
vn 0 0.02115187 0.9997763
vn 0 -1 0
vn -0.9292865 0.3693595 0
vn 0.9997763 0.02115187 0
vn 0.9292865 0.3693595 0
vn 0 0.3693595 0.9292865
vn 0 0.3693595 -0.9292865
vn 0.1379231 0.002917983 0.9904386
vn 0.24044 -0.9706641 0
vn 0.1379231 0.002917983 -0.9904386
vn 0.1991713 0.9799647 0
vn 0 0.9954608 0.09517277
vn 0 -0.9905448 0.1371899
vn -0.9958851 0.001916899 0.09060527
vn 0.9958851 0.001916899 0.09060527
vn -0.9564921 0.2917582 0
vn 0.9564921 -0.2917582 0
vn 0.7528391 0.3828701 0.5353912
vn 0 1 0
vn 0 0.2072278 0.9782928
vn 0 -0.2072278 -0.9782928
vn 0 0.2341122 0.9722096
vn 0 -0.2341122 -0.9722096
vn 0.9079162 0.4191515 0
vn -0.9079162 -0.4191515 0
vn 0 0.2917582 -0.9564921
vn 0 -0.2917582 0.9564921
vn -0.6753426 0.2963528 -0.6753426
vn 0.685451 0.245589 -0.685451
vn -0.6508936 0.3907366 0.6508936
vn -0.6878899 0.2315489 -0.6878899
vn -0.4645857 0.3439604 -0.8159972
vn 0 0.2341122 -0.9722096
vn 0 -0.2341122 0.9722096
vn -0.9782928 0.2072278 0
vn 0.9782928 -0.2072278 0
vn 0.5982904 0.3149989 0.7367662
vn -0.9224193 0.38619 0
vn 0.9224193 -0.38619 0
vn 0.9564921 0.2917582 0
vn -0.9564921 -0.2917582 0
vn -0.6450936 0.4095222 0.6450936
vn 0.6907133 0.2140794 -0.6907133
vn 0.9920581 0.1257802 0
vn -0.9920581 -0.1257802 0
vn 0.5865536 0.2223563 0.7787892
vn -0.8584616 0.2065603 0.4694426
vn 0 0.2072278 -0.9782928
vn 0 -0.2072278 0.9782928
vn 0.6617339 0.3524439 -0.6617339
vn 0 0.45037 0.8928421
vn 0 -0.45037 -0.8928421

vt -5.104562 5.349249
vt 5.43914 60.97528
vt 9.500477 5.349249
vt 6.057013 168.1465
vt 5.43914 68.45559
vt -0.8600726 68.45559
vt -0.8600726 60.97528
vt -1.661098 168.1465
vt 5.739155 168.1465
vt -4.183699 168.1068
vt -3.460001 101.5809
vt -7.627164 5.309625
vt 6.977876 5.309625
vt 2.445511 101.5809
vt 2.445511 109.455
vt 3.534411 168.1068
vt -3.460001 109.455
vt -0.8600726 27.36887
vt 0.5257542 32.3717
vt 5.43914 27.36887
vt 4.053313 32.3717
vt 6.748026 101.7436
vt 6.584018 109.6159
vt 12.31703 103.1591
vt 12.20714 108.4335
vt -6.924596 101.7473
vt -12.4936 103.1628
vt -6.760589 109.6196
vt -12.38371 108.4372
vt 10.83689 62.85385
vt 5.947838 61.10859
vt 10.75187 67.04197
vt 5.79601 68.58736
vt -9.548271 62.82769
vt -9.463247 67.01581
vt -4.659217 61.08243
vt -4.507389 68.5612
vt 2.445511 32.66386
vt -3.460001 32.66386
vt 1.471102 38.32673
vt -2.485591 38.32673
vt -3.460001 15.75344
vt 2.445511 15.75344
vt -2.485591 10.09057
vt 1.471102 10.09057
vt -0.8600726 15.20714
vt 5.43914 15.20714
vt 0.5257542 10.20432
vt 4.053313 10.20432
vt -9.500477 5.362983
vt 0.2174921 73.66943
vt 5.104562 5.362983
vt 1.661098 168.1602
vt 0.2174921 80.75605
vt -5.294319 80.75605
vt -5.294319 73.66943
vt -6.057013 168.1602
vt 1.343241 168.1602
vt 7.295318 9.168632
vt 7.295318 -9.81792
vt -11.69123 9.168632
vt -11.69123 -9.81792
vt -9.81792 -4.318268
vt -7.627164 1.61296
vt 9.168632 -4.318268
vt 6.977876 1.61296
vt 4.183699 168.1998
vt 2.922596 131.1537
vt -3.534411 168.1998
vt -2.195514 131.1537
vt -2.195514 122.8724
vt 2.922596 122.8724
vt 7.627164 5.402607
vt -6.977876 5.402607
vt 9.81792 -2.694596
vt -9.168632 -2.694596
vt 7.627164 3.236633
vt -6.977876 3.236633
vt 7.295318 -3.386522
vt -11.69123 -3.386522
vt 5.104562 2.544707
vt -9.500477 2.544707
vt 11.69123 -3.626342
vt -7.295318 -3.626342
vt 9.500477 2.304886
vt -5.104562 2.304886
vt 1.343241 3.534411
vt 1.661098 3.534411
vt -2.197957 -0.324644
vt -6.057013 3.534411
vt -6.057013 -4.183699
vt -0.4990433 74.59069
vt -4.577784 74.59069
vt -0.4990433 79.83479
vt -4.577784 79.83479
vt 2.15488 129.9115
vt 2.15488 124.1146
vt -1.427797 129.9115
vt -1.427797 124.1146
vt 5.104562 6.977876
vt 5.104562 -7.627164
vt -9.500477 6.977876
vt -9.500477 -7.627164
vt 2.292006 122.9474
vt 2.118515 131.2269
vt 7.829781 124.3059
vt 7.708338 130.1015
vt -1.427797 37.75643
vt 2.15488 37.75643
vt -2.195514 32.10637
vt 2.922596 32.10637
vt -2.191724 122.9453
vt -7.729499 124.3038
vt -2.018234 131.2247
vt -7.608056 130.0994
vt 2.15488 18.09243
vt -1.427797 18.09243
vt 2.922596 23.74248
vt -2.195514 23.74248
vt 0.2174921 2.339599
vt -0.4990433 -5.588127
vt -5.294319 2.339599
vt -4.577784 -5.588127
vt 0.2174921 15.60577
vt -5.294319 15.60577
vt -0.4990433 23.5335
vt -4.577784 23.5335
vt 4.881336 80.87682
vt 12.80554 80.12231
vt 5.030614 73.79178
vt 12.91601 74.87938
vt -5.341324 80.88651
vt -5.490602 73.80147
vt -13.26553 80.132
vt -13.37599 74.88908
vt -2.485591 102.8802
vt -2.485591 108.1557
vt 1.471102 102.8802
vt 1.471102 108.1557
vt 4.053313 62.62095
vt 0.5257542 62.62095
vt 4.053313 66.80992
vt 0.5257542 66.80992
vt -26.12863 152.0775
vt -22.43032 180.9778
vt 26.03503 152.0775
vt 16.9185 180.9778
vt -3.72327 171.8148
vt -5.283956 141.8918
vt -12.68595 141.8918
vt 8.332289 -1.558902
vt 7.969128 -4.272782
vt 8.332289 -3.909622
vt 7.90758 -1.239029
vt 5.534187 -4.272782
vt 5.269039 -1.239029
vt 4.896333 -3.909622
vt 4.896333 -1.611735
vt 23.7049 187.2248
vt -23.50052 187.2248
vt 14.6111 222.2173
vt -19.22888 222.2173
vt 12.65829 219.5311
vt -23.50052 219.5311
vt 7.90758 301.8444
vt 5.269039 301.8444
vt 23.7049 21.41551
vt 17.36552 16.9185
vt -23.50052 21.41551
vt -21.9833 16.9185
vt -21.9833 -22.43032
vt 17.36552 -22.43032
vt 25.59237 -26.92732
vt 30.41519 -22.10451
vt 30.41519 15.96643
vt -23.50052 -26.92732
vt -26.48031 15.96643
vt -26.48031 -23.94754
vt 22.10451 165.1263
vt -15.96643 165.1263
vt 19.6759 202.8312
vt -14.16409 202.8312
vt 25.68162 151.9471
vt -18.83775 151.9471
vt 21.9833 180.8474
vt -17.36552 180.8474
vt 3.031055 148.8646
vt -3.66323 148.8646
vt -0.3160873 177.8077
vt 8.502574 154.4883
vt -1.33987 154.4883
vt 3.581352 183.0045
vt -5.739155 -4.183699
vt 1.661098 -4.183699
vt 18.83775 -30.86221
vt 21.50757 30.86221
vt 25.79741 -23.90255
vt 25.79741 24.83005
vt -25.58802 30.86221
vt -25.68162 -30.86221
vt -30.41519 26.03503
vt -30.41519 -26.12863
vt -3.867172 200.3772
vt -11.09041 200.3772
vt 2.849648 287.3142
vt 2.322562 287.3142
vt 1.79094 182.3346
vt -2.423115 182.3346
vt -0.3160873 217.5239
vt 15.67481 205.6874
vt 5.616117 205.6874
vt -6.189399 290.9133
vt -6.923391 290.9133
vt 19.8669 218.2407
vt -13.50174 218.2407
vt -5.534187 300.554
vt -7.969128 300.554
vt -23.94754 186.1752
vt -19.6759 221.1678
vt 15.96643 186.1752
vt 14.16409 221.1678
vt 13.54592 175.998
vt 4.901816 175.998
vt 2.4136 212.0672
vt -18.56654 201.2452
vt -3.909622 288.0016
vt 12.92391 201.2452
vt -1.611735 288.0016
vt 23.90255 153.4248
vt -24.83005 153.4248
vt 22.43032 182.3251
vt -16.9185 182.3251
vt -3.097238 137.1685
vt -3.581352 167.4687
vt 3.729413 137.1685
vt 7.100471 219.2049
vt 0.06223153 219.2049
vt -2.613711 301.13
vt -3.127298 301.13
vt 18.56654 225.9964
vt -13.64794 225.9964
vt 3.909622 306.6628
vt 1.558902 306.6628
vt 6.549597 219.4908
vt -0.7367559 219.4908
vt 7.593577 301.5714
vt 7.061885 301.5714
vt 18.47853 -18.56654
vt 14.6111 14.16409
vt 18.47853 13.64794
vt 12.65829 18.03151
vt -19.22888 14.16409
vt -23.50052 18.03151
vt -19.22888 -19.6759
vt -19.8669 -23.54332
vt -28.60812 -18.56654
vt -28.60812 12.92391
vt 14.6111 -19.6759
vt 13.50174 -23.54332
vt 1.303696 185.3089
vt 3.201512 220.2964
vt 7.514303 185.3089
vt 23.50052 186.0826
vt -25.59237 186.0826
vt 19.22888 221.0751
vt -14.6111 221.0751
vt 0.9439512 170.2554
vt -5.87654 170.2554
vt 3.581352 206.8356
vt 21.50757 136.3414
vt -25.58802 136.3414
vt 17.36552 167.302
vt -21.9833 167.302

usemtl natureKit-wood
# usermap natureKit-wood

f 2/2/1 1/1/1 3/3/1
f 3/3/1 4/4/1 2/2/1
f 4/4/1 5/5/1 2/2/1
f 4/4/1 6/6/1 5/5/1
f 1/1/1 2/2/1 7/7/1
f 7/7/1 8/8/1 1/1/1
f 7/7/1 6/6/1 8/8/1
f 6/6/1 4/4/1 8/8/1
f 4/4/1 9/9/1 8/8/1
f 10/11/2 4/10/2 3/12/2
f 3/12/2 11/13/2 10/11/2
f 11/13/2 12/14/2 10/11/2
f 11/13/2 13/15/2 12/14/2
f 11/13/2 14/16/2 13/15/2
f 15/17/2 14/16/2 4/10/2
f 4/10/2 10/11/2 15/17/2
f 15/17/2 13/15/2 14/16/2
f 16/19/3 7/18/3 2/20/3
f 2/20/3 17/21/3 16/19/3
f 15/23/4 10/22/4 18/24/4
f 18/24/4 19/25/4 15/23/4
f 20/27/5 12/26/5 13/28/5
f 13/28/5 21/29/5 20/27/5
f 7/31/6 16/30/6 22/32/6
f 22/32/6 6/33/6 7/31/6
f 23/35/7 17/34/7 2/36/7
f 2/36/7 5/37/7 23/35/7
f 10/39/8 12/38/8 20/40/8
f 20/40/8 18/41/8 10/39/8
f 13/43/9 15/42/9 19/44/9
f 19/44/9 21/45/9 13/43/9
f 5/47/10 6/46/10 22/48/10
f 22/48/10 23/49/10 5/47/10
f 24/51/11 11/50/11 25/52/11
f 25/52/11 26/53/11 24/51/11
f 26/53/11 27/54/11 24/51/11
f 26/53/11 28/55/11 27/54/11
f 11/50/11 24/51/11 29/56/11
f 29/56/11 14/57/11 11/50/11
f 29/56/11 28/55/11 14/57/11
f 28/55/11 26/53/11 14/57/11
f 26/53/11 30/58/11 14/57/11
f 32/60/12 31/59/12 33/61/12
f 33/61/12 34/62/12 32/60/12
f 3/64/13 34/63/13 33/65/13
f 33/65/13 11/66/13 3/64/13
f 35/68/14 8/67/14 26/69/14
f 26/69/14 36/70/14 35/68/14
f 26/69/14 37/71/14 36/70/14
f 8/67/14 35/68/14 38/72/14
f 1/73/14 8/67/14 38/72/14
f 38/72/14 25/74/14 1/73/14
f 38/72/14 37/71/14 25/74/14
f 37/71/14 26/69/14 25/74/14
f 31/76/15 32/75/15 1/77/15
f 1/77/15 25/78/15 31/76/15
f 33/80/16 31/79/16 25/81/16
f 25/81/16 11/82/16 33/80/16
f 32/84/17 34/83/17 3/85/17
f 3/85/17 1/86/17 32/84/17
f 26/88/12 30/87/12 39/89/12
f 39/89/12 30/87/12 14/90/12
f 14/90/12 4/91/12 39/89/12
f 41/93/11 40/92/11 42/94/11
f 42/94/11 43/95/11 41/93/11
f 45/97/14 44/96/14 46/98/14
f 46/98/14 47/99/14 45/97/14
f 1/101/12 25/100/12 11/102/12
f 11/102/12 3/103/12 1/101/12
f 36/105/18 37/104/18 47/106/18
f 47/106/18 46/107/18 36/105/18
f 45/109/19 47/108/19 37/110/19
f 37/110/19 38/111/19 45/109/19
f 45/113/20 38/112/20 35/114/20
f 35/114/20 44/115/20 45/113/20
f 46/117/21 44/116/21 35/118/21
f 35/118/21 36/119/21 46/117/21
f 42/121/22 27/120/22 28/122/22
f 28/122/22 43/123/22 42/121/22
f 29/125/23 24/124/23 40/126/23
f 40/126/23 41/127/23 29/125/23
f 43/129/24 28/128/24 29/130/24
f 29/130/24 41/131/24 43/129/24
f 24/133/25 27/132/25 42/134/25
f 42/134/25 40/135/25 24/133/25
f 19/137/2 18/136/2 20/138/2
f 20/138/2 21/139/2 19/137/2
f 16/141/1 17/140/1 23/142/1
f 23/142/1 22/143/1 16/141/1

usemtl natureKit-leaves
# usermap natureKit-leaves

f 49/145/26 48/144/26 50/146/26
f 50/146/26 51/147/26 49/145/26
f 49/145/27 50/146/27 48/144/27
f 50/146/27 49/145/27 51/147/27
f 53/149/28 52/148/28 54/150/28
f 56/152/29 55/151/29 57/153/29
f 55/151/29 56/152/29 58/154/29
f 58/154/29 56/152/29 59/155/29
f 58/154/29 59/155/29 60/156/29
f 60/156/29 59/155/29 61/157/29
f 60/156/29 61/157/29 62/158/29
f 64/160/30 63/159/30 65/161/30
f 65/161/30 66/162/30 64/160/30
f 64/160/31 65/161/31 63/159/31
f 65/161/31 64/160/31 66/162/31
f 68/164/32 67/163/32 58/165/32
f 58/165/32 60/166/32 68/164/32
f 68/164/33 58/165/33 67/163/33
f 58/165/33 68/164/33 60/166/33
f 52/168/12 63/167/12 64/169/12
f 64/169/12 51/170/12 52/168/12
f 64/169/12 49/171/12 51/170/12
f 63/167/12 52/168/12 69/172/12
f 63/167/12 69/172/12 70/173/12
f 63/167/12 70/173/12 71/174/12
f 71/174/12 72/175/12 63/167/12
f 69/172/12 73/176/12 70/173/12
f 69/172/12 49/171/12 73/176/12
f 49/171/12 64/169/12 73/176/12
f 64/169/12 74/177/12 73/176/12
f 74/177/12 75/178/12 73/176/12
f 52/168/29 64/169/29 63/167/29
f 64/169/29 52/168/29 51/170/29
f 64/169/29 51/170/29 49/171/29
f 63/167/29 69/172/29 52/168/29
f 63/167/29 70/173/29 69/172/29
f 63/167/29 71/174/29 70/173/29
f 71/174/29 63/167/29 72/175/29
f 69/172/29 70/173/29 73/176/29
f 69/172/29 73/176/29 49/171/29
f 49/171/29 73/176/29 64/169/29
f 64/169/29 73/176/29 74/177/29
f 74/177/29 73/176/29 75/178/29
f 72/180/34 71/179/34 76/181/34
f 76/181/34 65/182/34 72/180/34
f 72/180/35 76/181/35 71/179/35
f 76/181/35 72/180/35 65/182/35
f 78/184/36 77/183/36 49/185/36
f 49/185/36 69/186/36 78/184/36
f 78/184/37 49/185/37 77/183/37
f 49/185/37 78/184/37 69/186/37
f 77/188/38 48/187/38 49/189/38
f 79/191/39 78/190/39 69/192/39
f 9/193/12 39/89/12 4/91/12
f 39/89/12 9/193/12 8/194/12
f 8/194/12 26/88/12 39/89/12
f 78/195/12 26/88/12 8/194/12
f 54/196/12 26/88/12 78/195/12
f 54/196/12 78/195/12 79/197/12
f 79/197/12 53/198/12 54/196/12
f 54/196/12 80/199/12 26/88/12
f 80/199/12 30/87/12 26/88/12
f 80/199/12 14/90/12 30/87/12
f 80/199/12 4/91/12 14/90/12
f 8/194/12 77/200/12 78/195/12
f 8/194/12 9/193/12 77/200/12
f 9/193/12 4/91/12 77/200/12
f 4/91/12 80/199/12 77/200/12
f 80/199/12 50/201/12 77/200/12
f 50/201/12 48/202/12 77/200/12
f 9/193/29 4/91/29 39/89/29
f 39/89/29 8/194/29 9/193/29
f 8/194/29 39/89/29 26/88/29
f 78/195/29 8/194/29 26/88/29
f 54/196/29 78/195/29 26/88/29
f 54/196/29 79/197/29 78/195/29
f 79/197/29 54/196/29 53/198/29
f 54/196/29 26/88/29 80/199/29
f 80/199/29 26/88/29 30/87/29
f 80/199/29 30/87/29 14/90/29
f 80/199/29 14/90/29 4/91/29
f 8/194/29 78/195/29 77/200/29
f 8/194/29 77/200/29 9/193/29
f 9/193/29 77/200/29 4/91/29
f 4/91/29 77/200/29 80/199/29
f 80/199/29 77/200/29 50/201/29
f 50/201/29 77/200/29 48/202/29
f 81/204/40 68/203/40 60/205/40
f 60/205/40 62/206/40 81/204/40
f 73/208/41 75/207/41 82/209/41
f 84/211/42 83/210/42 61/212/42
f 61/212/42 59/213/42 84/211/42
f 85/215/43 84/214/43 59/216/43
f 59/216/43 56/217/43 85/215/43
f 85/215/44 59/216/44 84/214/44
f 59/216/44 85/215/44 56/217/44
f 82/219/45 75/218/45 74/220/45
f 74/220/45 66/221/45 82/219/45
f 82/219/46 74/220/46 75/218/46
f 74/220/46 82/219/46 66/221/46
f 63/223/47 72/222/47 65/224/47
f 61/226/48 83/225/48 81/227/48
f 81/227/48 62/228/48 61/226/48
f 61/226/49 81/227/49 83/225/49
f 81/227/49 61/226/49 62/228/49
f 53/230/50 79/229/50 69/231/50
f 69/231/50 52/232/50 53/230/50
f 53/230/51 69/231/51 79/229/51
f 69/231/51 53/230/51 52/232/51
f 51/234/52 50/233/52 80/235/52
f 86/237/53 85/236/53 56/238/53
f 56/238/53 57/239/53 86/237/53
f 87/241/54 86/240/54 57/242/54
f 57/242/54 55/243/54 87/241/54
f 87/241/55 57/242/55 86/240/55
f 57/242/55 87/241/55 55/243/55
f 67/245/56 87/244/56 55/246/56
f 55/246/56 58/247/56 67/245/56
f 65/249/12 86/248/12 87/250/12
f 87/250/12 67/251/12 65/249/12
f 67/251/12 66/252/12 65/249/12
f 67/251/12 68/253/12 66/252/12
f 68/253/12 82/254/12 66/252/12
f 68/253/12 84/255/12 82/254/12
f 68/253/12 83/256/12 84/255/12
f 68/253/12 81/257/12 83/256/12
f 86/248/12 65/249/12 76/258/12
f 76/258/12 85/259/12 86/248/12
f 76/258/12 82/254/12 85/259/12
f 82/254/12 84/255/12 85/259/12
f 65/249/29 87/250/29 86/248/29
f 87/250/29 65/249/29 67/251/29
f 67/251/29 65/249/29 66/252/29
f 67/251/29 66/252/29 68/253/29
f 68/253/29 66/252/29 82/254/29
f 68/253/29 82/254/29 84/255/29
f 68/253/29 84/255/29 83/256/29
f 68/253/29 83/256/29 81/257/29
f 86/248/29 76/258/29 65/249/29
f 76/258/29 86/248/29 85/259/29
f 76/258/29 85/259/29 82/254/29
f 82/254/29 85/259/29 84/255/29
f 66/261/57 74/260/57 64/262/57
f 70/264/58 73/263/58 82/265/58
f 82/265/58 76/266/58 70/264/58
f 70/264/59 82/265/59 73/263/59
f 82/265/59 70/264/59 76/266/59
f 71/268/60 70/267/60 76/269/60
f 80/271/61 54/270/61 52/272/61
f 52/272/61 51/273/61 80/271/61
f 80/271/62 52/272/62 54/270/62
f 52/272/62 80/271/62 51/273/62

usemtl natureKit-_defaultMat
# usermap natureKit-_defaultMat

f 56/152/12 57/153/12 55/151/12
f 55/151/12 58/154/12 56/152/12
f 58/154/12 59/155/12 56/152/12
f 58/154/12 60/156/12 59/155/12
f 60/156/12 61/157/12 59/155/12
f 60/156/12 62/158/12 61/157/12
