# Exported using Kenney Suite 1.2 

mtllib tree_short.mtl 

g tree_short

v -0.6882334 0 0.6882341 
v -0.6882334 0 -0.6882341 
v -0.4370284 2.428875 0.4370287 
v -0.4370284 2.428875 -0.4370287 
v 0.6882334 0 -0.6882341 
v 0.4370284 2.428875 -0.4370287 
v 0.6882334 0 0.6882341 
v 0.4370284 2.428875 0.4370287 
v 1.8875 3.978875 3.269246 
v -1.8875 3.978875 3.269246 
v 1.453376 9.428875 2.517319 
v -1.453376 9.428875 2.517319 
v -3.775001 3.978875 0 
v -2.906749 9.428875 0 
v 3.775001 3.978875 0 
v 2.906749 9.428875 0 
v 1.8875 3.978875 -3.269246 
v 1.453376 9.428875 -2.517319 
v -1.453376 9.428875 -2.517319 
v -1.8875 3.978875 -3.269246 
v -2.9445 2.428875 0 
v -1.472249 2.428875 2.550012 
v -1.472249 2.428875 -2.550012 
v 1.472249 2.428875 -2.550012 
v 1.472249 2.428875 2.550012 
v 2.9445 2.428875 0 
v 0 11.50388 0 

vn 0.9946942 0.1028759 0
vn 0 0.1028759 0.9946942
vn 0 0.1028759 -0.9946942
vn 0 -1 0
vn -0.9946942 0.1028759 0
vn 0 0.1366735 -0.9906161
vn 0.8578988 0.1366735 -0.4953081
vn -0.8578988 0.1366735 0.4953081
vn 0.8578988 0.1366735 0.4953081
vn 0 0.1366735 0.9906161
vn -0.8578988 0.1366735 -0.4953081
vn -0.5508413 0.7716423 -0.3180284
vn 0.7855719 -0.4209145 0.4535502
vn 0.7855719 -0.4209145 -0.4535502
vn -0.7855719 -0.4209145 -0.4535502
vn 0.5508413 0.7716423 -0.3180284
vn -0.7855719 -0.4209145 0.4535502
vn 0 -0.4209145 -0.9071003
vn 0.5508413 0.7716423 0.3180284
vn 0 0.7716423 -0.6360567
vn 0 -0.4209145 0.9071003
vn 0 0.7716423 0.6360567
vn -0.5508413 0.7716423 0.3180284

vt 10.83833 -1.115003
vt -10.83833 -1.115003
vt 6.882341 37.33903
vt -6.882341 37.33903
vt 10.83833 10.83833
vt 10.83833 -10.83833
vt -10.83833 10.83833
vt -10.83833 -10.83833
vt 29.72441 55.03494
vt -29.72441 55.03494
vt 22.88779 141.6747
vt -22.88779 141.6747
vt 46.37008 0
vt 23.18504 -40.15767
vt 23.18504 40.15767
vt 6.882341 6.882341
vt -23.18504 40.15767
vt -6.882341 6.882341
vt -6.882341 -6.882341
vt 6.882341 -6.882341
vt -23.18504 -40.15767
vt -46.37008 0
vt -22.88779 63.85558
vt -7.105427E-15 115.2302
vt 22.88779 63.85558
vt 29.72441 78.50885
vt 23.18504 51.59953
vt -29.72441 78.50885
vt -23.18504 51.59953
vt 0 115.2302
vt 6.310887E-30 115.2302

usemtl natureKit-wood
# usermap natureKit-wood

f 2/2/1 1/1/1 3/3/1
f 3/3/1 4/4/1 2/2/1
f 5/2/2 2/1/2 4/3/2
f 4/3/2 6/4/2 5/2/2
f 1/2/3 7/1/3 8/3/3
f 8/3/3 3/4/3 1/2/3
f 1/6/4 2/5/4 5/7/4
f 5/7/4 7/8/4 1/6/4
f 8/4/5 7/2/5 5/1/5
f 5/1/5 6/3/5 8/4/5

usemtl natureKit-leavesGreen
# usermap natureKit-leavesGreen

f 10/10/6 9/9/6 11/11/6
f 11/11/6 12/12/6 10/10/6
f 13/10/7 10/9/7 12/11/7
f 12/11/7 14/12/7 13/10/7
f 16/12/8 15/10/8 17/9/8
f 17/9/8 18/11/8 16/12/8
f 13/9/9 14/11/9 19/12/9
f 19/12/9 20/10/9 13/9/9
f 17/10/10 20/9/10 19/11/10
f 19/11/10 18/12/10 17/10/10
f 11/12/11 9/10/11 15/9/11
f 15/9/11 16/11/11 11/12/11
f 22/14/4 21/13/4 23/15/4
f 23/15/4 4/16/4 22/14/4
f 23/15/4 24/17/4 4/16/4
f 24/17/4 6/18/4 4/16/4
f 24/17/4 8/19/4 6/18/4
f 22/14/4 4/16/4 3/20/4
f 3/20/4 25/21/4 22/14/4
f 3/20/4 8/19/4 25/21/4
f 8/19/4 24/17/4 25/21/4
f 24/17/4 26/22/4 25/21/4
f 27/24/12 11/23/12 16/25/12
f 21/27/13 13/26/13 20/28/13
f 20/28/13 23/29/13 21/27/13
f 22/27/14 10/26/14 13/28/14
f 13/28/14 21/29/14 22/27/14
f 15/26/15 9/28/15 25/29/15
f 25/29/15 26/27/15 15/26/15
f 14/23/16 12/25/16 27/24/16
f 15/28/17 26/29/17 24/27/17
f 24/27/17 17/26/17 15/28/17
f 22/29/18 25/27/18 9/26/18
f 9/26/18 10/28/18 22/29/18
f 19/23/19 14/25/19 27/30/19
f 27/31/20 12/23/20 11/25/20
f 24/29/21 23/27/21 20/26/21
f 20/26/21 17/28/21 24/29/21
f 19/25/22 27/30/22 18/23/22
f 18/25/23 27/30/23 16/23/23
