# Exported using Kenney Suite 1.2 

mtllib tree_blocks.mtl 

g tree_blocks

v 3.824999 9.75 -6 
v 5.999999 9.75 -6 
v 3.824999 11.85 -6 
v 5.999999 11.85 -6 
v 3.824999 9.75 -5.5 
v 5.5 9.75 -5.5 
v 5.5 9.75 -3.8 
v 5.999999 9.75 -3.8 
v 3.824999 11.85 -3.8 
v 5.999999 11.85 -3.8 
v 3.824999 11.35 -3.8 
v 3.824999 11.35 -5.5 
v 5.999999 8.349999 -2.887646E-14 
v 5.999999 11.85 -2.887646E-14 
v 5.999999 8.349999 -3.538278 
v 5.999999 11.85 -3.538278 
v 5.5 8.349999 -3.538278 
v 5.5 8.349999 -0.5 
v 2.143369 8.349999 -2.887646E-14 
v 2.143369 8.349999 -0.5 
v 2.143369 11.35 -3.538278 
v 5.5 11.35 -3.538278 
v 2.143369 11.85 -3.538278 
v 0 8.013607 0 
v 0 5.85 0 
v 0 8.013607 -2.175 
v 0 5.85 -2.175 
v 2.175 5.85 -2.175 
v 0.4999995 6.35 -2.175 
v 0.4999995 8.013607 -2.175 
v 2.175 6.35 -2.175 
v 0 5.85 -6 
v 0 5.85 -2.446492 
v 3.553424 5.85 -6 
v 2.550001 5.85 -3.45 
v 3.45 5.85 -3.45 
v 3.45 5.85 -2.55 
v 2.550001 5.85 -2.55 
v 3.553424 5.85 -2.446492 
v 3.553424 6.35 -2.446492 
v 0.4999995 6.35 -2.446492 
v 0 9.4 -2.446492 
v 0.4999995 9.4 -2.446492 
v 3.553424 6.35 -5.5 
v 3.553424 9.4 -5.5 
v 3.553424 9.4 -6 
v 0.4999995 8.013607 -0.5 
v 0.4999995 11.35 -0.5 
v 0.4999995 11.35 -5.5 
v 0.4999995 9.4 -5.5 
v 5.5 11.35 -3.8 
v 5.5 6.35 -5.5 
v 5.5 6.35 -0.5 
v 2.175 6.35 -0.5 
v 2.175 8.013607 -0.5 
v 2.143369 11.35 -0.5 
v 2.175 8.013607 0 
v 2.175 5.85 0 
v 2.143369 11.85 -2.887646E-14 
v 0 9.4 -6 
v 3.45 3.1 -2.55 
v 3.45 3.1 -3.45 
v 2.302499 -8.014827E-31 -3.6975 
v 2.302499 -8.014827E-31 -2.3025 
v 3.6975 -8.014827E-31 -3.6975 
v 3.6975 -8.014827E-31 -2.3025 
v 2.550001 3.1 -2.55 
v 2.550001 3.1 -3.45 

vn 0 0 1
vn 0 -1 0
vn 0 1 0
vn 1 0 0
vn -1 0 0
vn 0 0 -1
vn -0.9991671 0.04080622 0
vn 0 0.04080622 -0.9991671
vn 0 0.04080622 0.9991671
vn 0.9991671 0.04080622 0
vn 0 0.07958546 -0.996828
vn 0.996828 0.07958546 0
vn -0.996828 0.07958546 0
vn 0 0.07958546 0.996828

vt -30.11811 76.77165
vt -47.24409 76.77165
vt -30.11811 93.30708
vt -47.24409 93.30708
vt -30.11811 47.24409
vt -30.11811 43.30709
vt -47.24409 47.24409
vt -43.30709 43.30709
vt -43.30709 29.92126
vt -47.24409 29.92126
vt 30.11811 29.92126
vt 30.11811 47.24409
vt 47.24409 29.92126
vt 47.24409 47.24409
vt -29.92126 93.30708
vt -29.92126 89.37008
vt -43.30709 89.37008
vt -43.30709 76.77165
vt 2.273737E-13 65.74803
vt 2.273737E-13 93.30708
vt 27.86046 65.74803
vt 27.86046 93.30708
vt -43.30709 27.86046
vt -43.30709 3.937008
vt -47.24409 27.86046
vt -47.24409 2.298257E-13
vt -16.87691 2.298257E-13
vt -16.87691 3.937008
vt -16.87691 89.37008
vt -16.87691 93.30708
vt -47.24409 65.74803
vt -43.30709 65.74803
vt 29.92126 76.77165
vt 29.92126 93.30708
vt 47.24409 76.77165
vt 47.24409 93.30708
vt 0 63.09927
vt 0 46.06299
vt -17.12598 63.09927
vt -17.12598 46.06299
vt -3.937008 50
vt 5.518859E-14 46.06299
vt 5.518859E-14 63.09927
vt -3.937008 63.09927
vt -17.12598 50
vt 0 47.24409
vt 0 19.26372
vt -27.97971 47.24409
vt -20.07874 27.16535
vt -27.16535 27.16535
vt -27.16535 20.07874
vt -20.07874 20.07874
vt -27.97971 19.26372
vt 27.97971 46.06299
vt 27.97971 50
vt 3.937008 50
vt 0 74.01575
vt 3.937008 74.01575
vt 19.26372 46.06299
vt 19.26372 50
vt 47.24409 46.06299
vt 43.30709 50
vt 43.30709 74.01575
vt 47.24409 74.01575
vt -19.26372 74.01575
vt -3.937008 89.37008
vt -43.30709 74.01575
vt -19.26372 50
vt 43.30709 76.77165
vt 43.30709 89.37008
vt 30.11811 93.30708
vt 30.11811 89.37008
vt -3.937008 74.01575
vt -27.97971 74.01575
vt -30.11811 89.37008
vt -43.30709 50
vt -27.97971 50
vt 3.937008 65.74803
vt 27.86046 89.37008
vt 29.92126 89.37008
vt 17.12598 50
vt 43.30709 65.74803
vt 17.12598 63.09927
vt 3.937008 63.09927
vt 16.87691 65.74803
vt 3.937008 89.37008
vt 16.87691 89.37008
vt -27.97971 43.30709
vt -17.12598 3.937008
vt -17.12598 17.12598
vt -3.937008 17.12598
vt -3.937008 19.26372
vt 16.87691 27.86046
vt 43.30709 27.86046
vt 43.30709 29.92126
vt 30.11811 43.30709
vt 3.937008 43.30709
vt 16.87691 3.937008
vt 3.937008 3.937008
vt 17.12598 46.06299
vt 0 17.12598
vt 0 0
vt -17.12598 0
vt 47.24409 65.74803
vt 16.87691 93.30708
vt -2.273737E-13 65.74803
vt -2.273737E-13 93.30708
vt -27.86046 93.30708
vt -27.86046 89.37008
vt -3.937008 65.74803
vt 16.87691 2.273737E-13
vt 47.24409 2.273737E-13
vt 47.24409 27.86046
vt 3.601452E-15 17.12598
vt 3.601452E-15 3.18031E-15
vt 17.12598 3.18031E-15
vt 17.12598 3.937008
vt 3.937008 17.12598
vt 5.764585E-15 19.26372
vt 5.764585E-15 47.24409
vt 3.937008 19.26372
vt 27.97971 47.24409
vt 27.97971 43.30709
vt -19.26372 46.06299
vt -47.24409 74.01575
vt -47.24409 46.06299
vt -27.97971 46.06299
vt 20.07874 24.40945
vt 20.07874 46.06299
vt 27.16535 24.40945
vt 27.16535 46.06299
vt -18.12992 29.11417
vt -18.12992 18.12992
vt -29.11417 29.11417
vt -29.11417 18.12992
vt -20.07874 24.40945
vt -27.16535 24.40945
vt -20.07874 46.06299
vt -27.16535 46.06299
vt 29.11417 1.442878
vt 18.12992 1.442878
vt 27.16535 25.93
vt 20.07874 25.93
vt -18.12992 1.442878
vt -29.11417 1.442878
vt -20.07874 25.93
vt -27.16535 25.93
vt 18.12992 -2.317065
vt 20.07874 22.17006
vt 29.11417 -2.317065
vt 27.16535 22.17006
vt -18.12992 -2.317065
vt -29.11417 -2.317065
vt -20.07874 22.17006
vt -27.16535 22.17006

usemtl natureKit-leavesGreen
# usermap natureKit-leavesGreen

f 2/2/1 1/1/1 3/3/1
f 3/3/1 4/4/1 2/2/1
f 5/6/2 1/5/2 2/7/2
f 2/7/2 6/8/2 5/6/2
f 2/7/2 7/9/2 6/8/2
f 2/7/2 8/10/2 7/9/2
f 3/12/3 9/11/3 10/13/3
f 10/13/3 4/14/3 3/12/3
f 11/16/4 9/15/4 3/4/4
f 3/4/4 12/17/4 11/16/4
f 12/17/4 3/4/4 1/2/4
f 1/2/4 5/18/4 12/17/4
f 14/20/5 13/19/5 15/21/5
f 15/21/5 16/22/5 14/20/5
f 18/24/2 17/23/2 15/25/2
f 18/24/2 15/25/2 13/26/2
f 18/24/2 13/26/2 19/27/2
f 19/27/2 20/28/2 18/24/2
f 22/17/1 21/29/1 23/30/1
f 22/17/1 23/30/1 16/4/1
f 22/17/1 16/4/1 15/31/1
f 15/31/1 17/32/1 22/17/1
f 10/34/5 8/33/5 2/35/5
f 2/35/5 4/36/5 10/34/5
f 25/38/4 24/37/4 26/39/4
f 26/39/4 27/40/4 25/38/4
f 29/41/1 28/40/1 27/42/1
f 27/42/1 26/43/1 29/41/1
f 26/43/1 30/44/1 29/41/1
f 28/40/1 29/41/1 31/45/1
f 33/47/2 32/46/2 34/48/2
f 34/48/2 35/49/2 33/47/2
f 34/48/2 36/50/2 35/49/2
f 34/48/2 37/51/2 36/50/2
f 33/47/2 35/49/2 38/52/2
f 38/52/2 39/53/2 33/47/2
f 38/52/2 37/51/2 39/53/2
f 37/51/2 34/48/2 39/53/2
f 33/38/6 39/54/6 40/55/6
f 40/55/6 41/56/6 33/38/6
f 41/56/6 42/57/6 33/38/6
f 41/56/6 43/58/6 42/57/6
f 40/60/5 39/59/5 34/61/5
f 34/61/5 44/62/5 40/60/5
f 34/61/5 45/63/5 44/62/5
f 34/61/5 46/64/5 45/63/5
f 43/65/4 47/44/4 48/66/4
f 48/66/4 49/17/4 43/65/4
f 43/65/4 30/39/4 47/44/4
f 43/65/4 29/45/4 30/39/4
f 49/17/4 50/67/4 43/65/4
f 29/45/4 43/65/4 41/68/4
f 7/69/6 8/35/6 10/36/6
f 10/36/6 51/70/6 7/69/6
f 51/70/6 10/36/6 9/71/6
f 9/71/6 11/72/6 51/70/6
f 45/74/1 50/73/1 49/66/1
f 49/66/1 5/1/1 45/74/1
f 49/66/1 12/75/1 5/1/1
f 45/74/1 5/1/1 6/18/1
f 45/74/1 6/18/1 52/76/1
f 52/76/1 44/77/1 45/74/1
f 18/78/5 53/56/5 52/62/5
f 52/62/5 17/21/5 18/78/5
f 52/62/5 7/33/5 17/21/5
f 7/33/5 22/79/5 17/21/5
f 52/62/5 6/69/5 7/33/5
f 22/79/5 7/33/5 51/80/5
f 54/81/6 53/62/6 18/82/6
f 18/82/6 55/83/6 54/81/6
f 18/82/6 47/84/6 55/83/6
f 18/82/6 20/85/6 47/84/6
f 20/85/6 48/86/6 47/84/6
f 20/85/6 56/87/6 48/86/6
f 40/53/2 44/88/2 52/8/2
f 40/53/2 52/8/2 53/24/2
f 40/53/2 53/24/2 54/89/2
f 40/53/2 54/89/2 31/90/2
f 40/53/2 31/90/2 29/91/2
f 29/91/2 41/92/2 40/53/2
f 11/11/3 21/93/3 22/94/3
f 22/94/3 51/95/3 11/11/3
f 21/93/3 11/11/3 12/96/3
f 21/93/3 12/96/3 49/97/3
f 56/98/3 21/93/3 49/97/3
f 49/97/3 48/99/3 56/98/3
f 54/56/5 57/37/5 58/38/5
f 58/38/5 28/100/5 54/56/5
f 28/100/5 31/81/5 54/56/5
f 57/37/5 54/56/5 55/84/5
f 25/102/2 27/101/2 28/90/2
f 28/90/2 58/103/2 25/102/2
f 19/85/6 13/104/6 14/36/6
f 14/36/6 59/105/6 19/85/6
f 56/66/4 19/106/4 59/107/4
f 59/107/4 23/108/4 56/66/4
f 23/108/4 21/109/4 56/66/4
f 19/106/4 56/66/4 20/110/4
f 23/93/3 59/111/3 14/112/3
f 14/112/3 16/113/3 23/93/3
f 47/99/3 26/114/3 24/115/3
f 24/115/3 57/116/3 47/99/3
f 57/116/3 55/117/3 47/99/3
f 26/114/3 47/99/3 30/118/3
f 25/38/6 58/100/6 57/83/6
f 57/83/6 24/37/6 25/38/6
f 60/120/3 42/119/3 43/121/3
f 43/121/3 50/97/3 60/120/3
f 50/97/3 46/122/3 60/120/3
f 50/97/3 45/123/3 46/122/3
f 33/124/4 42/65/4 60/125/4
f 60/125/4 32/126/4 33/124/4
f 34/127/1 32/38/1 60/57/1
f 60/57/1 46/74/1 34/127/1

usemtl natureKit-wood
# usermap natureKit-wood

f 37/129/5 61/128/7 62/130/7
f 62/130/7 36/131/5 37/129/5
f 64/133/2 63/132/2 65/134/2
f 65/134/2 66/135/2 64/133/2
f 67/128/8 61/130/8 37/131/6
f 37/131/6 38/129/6 67/128/8
f 62/137/9 68/136/9 35/138/1
f 35/138/1 36/139/1 62/137/9
f 67/136/10 38/138/4 35/139/4
f 35/139/4 68/137/10 67/136/10
f 64/141/11 66/140/11 61/142/8
f 61/142/8 67/143/8 64/141/11
f 63/145/12 64/144/12 67/146/10
f 67/146/10 68/147/10 63/145/12
f 61/149/7 66/148/13 65/150/13
f 65/150/13 62/151/7 61/149/7
f 65/153/14 63/152/14 68/154/9
f 68/154/9 62/155/9 65/153/14
