# Exported using Kenney Suite 1.2 

mtllib tree_pineSmall_square3.mtl 

g tree_pineSmall_square3

v 0.8206725 0 0.6804066 
v -0.6058764 0 0.6804066 
v 0.6396914 0.2980225 0.4994266 
v -0.4248953 0.2980225 0.4994266 
v -0.4248953 0.2980225 -0.5651622 
v 0.6396914 0.2980225 -0.5651622 
v -0.3150582 1.075472 -0.4553236 
v 0.5298543 1.075472 -0.4553236 
v 0.8206725 0 -0.7461423 
v -0.3150582 1.075472 0.389588 
v -0.6058764 0 -0.7461423 
v 0.5298543 1.075472 0.389588 
v -1.365731 1.075472 -1.95975 
v 1.624839 1.075472 -1.95975 
v -1.10271 2.830795 -1.074325 
v 1.395938 2.830795 -1.074325 
v -1.50526 2.830795 -1.359885 
v 1.492283 2.830795 -1.359885 
v -0.9278059 5.004587 -0.8994195 
v 1.221035 5.004587 -0.8994195 
v 1.492283 2.830795 1.709885 
v -1.625116 2.830795 1.709885 
v 1.221035 5.004587 1.249419 
v -0.9278059 5.004587 1.249419 
v -1.931365 2.830795 -1.013868 
v -1.638136 1.075472 -1.576708 
v -1.638136 1.075472 1.517812 
v -1.196196 1.075472 1.95975 
v 1.630783 1.075472 1.95975 
v 1.931365 1.075472 -1.653225 
v 1.931365 1.075472 1.659168 
v -1.931365 2.830795 1.403636 
v -1.173387 5.004587 1.178975 
v -1.173387 5.004587 -0.8666439 
v -0.5291009 10.08622 0.248261 
v -0.5291009 10.08622 0.09899029 
v 1.681499 2.830795 -1.013868 
v -0.803802 5.004587 -1.145001 
v 1.492283 5.004587 -1.145001 
v -0.502131 10.08622 0.07867832 
v -0.3345847 10.08622 0.07867832 
v -1.10271 2.830795 1.424325 
v -0.5060387 10.08622 0.2713217 
v -0.3514218 10.08622 0.2713217 
v -0.3109169 10.08622 0.248261 
v -0.3109169 10.08622 0.1023452 
v 1.395938 2.830795 1.424325 
v 1.681499 2.830795 1.520669 
v 1.261549 5.004587 1.495001 
v -0.8573604 5.004587 1.495001 
v 1.816616 5.004587 1.178975 
v 1.816616 5.004587 -0.8206686 

vn 0 0.5190575 -0.8547394
vn 0 -0.5190575 0.8547394
vn 0 0.1398913 0.9901669
vn 0 -0.1398913 -0.9901669
vn -0.8547394 0.5190575 0
vn 0.8547394 -0.5190575 0
vn 0.9901669 0.1398913 0
vn -0.9901669 -0.1398913 0
vn 0 0.5190575 0.8547394
vn 0 -0.5190575 -0.8547394
vn 0 0.1398913 -0.9901669
vn 0 -0.1398913 0.9901669
vn 0 -1 0
vn 0 1 0
vn -0.9901669 0.1398913 0
vn 0.9901669 -0.1398913 0
vn 0.8547394 0.5190575 0
vn -0.8547394 -0.5190575 0
vn 0 0.45037 0.8928421
vn 0 -0.45037 -0.8928421
vn 0 0.2072278 0.9782928
vn 0 -0.2072278 -0.9782928
vn 0 0.2072278 -0.9782928
vn 0 -0.2072278 0.9782928
vn 0.5982904 0.3149989 0.7367662
vn 0.9079162 0.4191515 0
vn -0.9079162 -0.4191515 0
vn 0.9920581 0.1257802 0
vn -0.9920581 -0.1257802 0
vn -0.8584616 0.2065603 0.4694426
vn 0 0.2341122 0.9722096
vn 0 -0.2341122 -0.9722096
vn 0.9564921 0.2917582 0
vn -0.9564921 -0.2917582 0
vn -0.6450936 0.4095222 0.6450936
vn -0.6753426 0.2963528 -0.6753426
vn 0.6617339 0.3524439 -0.6617339
vn 0 0.2917582 -0.9564921
vn 0 -0.2917582 0.9564921
vn -0.9782928 0.2072278 0
vn 0.9782928 -0.2072278 0
vn -0.9564921 0.2917582 0
vn 0.9564921 -0.2917582 0
vn 0 0.2341122 -0.9722096
vn 0 -0.2341122 0.9722096
vn -0.4645857 0.3439604 -0.8159972
vn 0.5865536 0.2223563 0.7787892
vn 0.685451 0.245589 -0.685451
vn -0.9224193 0.38619 0
vn 0.9224193 -0.38619 0
vn -0.6508936 0.3907366 0.6508936
vn -0.6878899 0.2315489 -0.6878899
vn 0.6907133 0.2140794 -0.6907133
vn 0.7528391 0.3828701 0.5353912

vt 12.92398 -5.561735
vt -9.541359 -5.561735
vt 10.0739 -0.0708586
vt -6.691279 -0.0708586
vt 6.691279 3.402059
vt -10.0739 3.402059
vt 4.961539 15.76695
vt -8.344157 15.76695
vt -10.71507 -6.708287
vt -7.864985 -1.217411
vt 11.75027 -6.708287
vt 8.900191 -1.217411
vt 7.864985 3.711067
vt -8.900191 3.711067
vt 6.135245 16.07596
vt -7.170451 16.07596
vt 9.541359 -6.099066
vt -12.92398 -6.099066
vt 6.691279 -0.6081901
vt -10.0739 -0.6081901
vt 10.0739 3.546875
vt -6.691279 3.546875
vt 8.344157 15.91177
vt -4.961539 15.91177
vt 9.541359 11.75027
vt 9.541359 -10.71507
vt -12.92398 11.75027
vt -12.92398 -10.71507
vt -7.864985 3.237868
vt -6.135245 15.60276
vt 8.900191 3.237868
vt 7.170451 15.60276
vt 10.71507 -4.952514
vt -11.75027 -4.952514
vt 7.864985 0.5383623
vt -8.900191 0.5383623
vt 21.50757 1.222276
vt -25.58802 1.222276
vt 17.36552 32.18282
vt -21.9833 32.18282
vt 23.7049 39.17387
vt -23.50052 39.17387
vt 14.6111 74.1664
vt -19.22888 74.1664
vt 23.50052 38.03167
vt -25.59237 38.03167
vt 19.22888 73.0242
vt -14.6111 73.0242
vt 13.54592 32.36622
vt 4.901816 32.36622
vt 2.4136 68.43536
vt 25.79741 24.83005
vt 25.79741 -23.90255
vt 21.50757 30.86221
vt 18.83775 -30.86221
vt 4.961539 7.170451
vt -25.58802 30.86221
vt -8.344157 7.170451
vt -8.344157 -6.135245
vt 4.961539 -6.135245
vt -25.68162 -30.86221
vt -30.41519 26.03503
vt -30.41519 -26.12863
vt 22.10451 27.72584
vt -15.96643 27.72584
vt 19.6759 65.43079
vt -14.16409 65.43079
vt 18.56654 75.86224
vt -13.64794 75.86224
vt 3.909622 156.5287
vt 1.558902 156.5287
vt 1.303696 37.23659
vt 3.201512 72.22408
vt 7.514303 37.23659
vt 12.65829 72.40077
vt -23.50052 72.40077
vt 7.90758 154.7141
vt 5.269039 154.7141
vt 23.90255 8.673095
vt -24.83005 8.673095
vt 22.43032 37.57336
vt -16.9185 37.57336
vt -3.097238 -0.8953868
vt -3.581352 29.40482
vt 3.729413 -0.8953868
vt 8.332289 -1.558902
vt 7.969128 -4.272782
vt 8.332289 -3.909622
vt 7.90758 -1.239029
vt 5.534187 -4.272782
vt 5.269039 -1.239029
vt 4.896333 -3.909622
vt 4.896333 -1.611735
vt 3.031055 4.32683
vt -3.66323 4.32683
vt -0.3160873 33.26987
vt 23.7049 21.41551
vt 17.36552 16.9185
vt -23.50052 21.41551
vt -21.9833 16.9185
vt -21.9833 -22.43032
vt 17.36552 -22.43032
vt 25.59237 -26.92732
vt 30.41519 -22.10451
vt 30.41519 15.96643
vt -23.50052 -26.92732
vt -26.48031 15.96643
vt -26.48031 -23.94754
vt 0.9439512 28.6302
vt -5.87654 28.6302
vt 3.581352 65.21038
vt 25.68162 7.195399
vt -18.83775 7.195399
vt 21.9833 36.09567
vt -17.36552 36.09567
vt -23.94754 38.1243
vt -19.6759 73.11684
vt 15.96643 38.1243
vt 14.16409 73.11684
vt -26.12863 7.32582
vt -22.43032 36.22609
vt 26.03503 7.32582
vt 16.9185 36.22609
vt 19.8669 71.11039
vt -13.50174 71.11039
vt -5.534187 153.4237
vt -7.969128 153.4237
vt 15.67481 63.58527
vt 5.616117 63.58527
vt -6.189399 148.8112
vt -6.923391 148.8112
vt 6.549597 71.94336
vt -0.7367559 71.94336
vt 7.593577 154.024
vt 7.061885 154.024
vt 8.502574 7.787096
vt -1.33987 7.787096
vt 3.581352 36.30331
vt 18.47853 -18.56654
vt 14.6111 14.16409
vt 18.47853 13.64794
vt 12.65829 18.03151
vt -19.22888 14.16409
vt -23.50052 18.03151
vt -19.22888 -19.6759
vt -19.8669 -23.54332
vt -28.60812 -18.56654
vt -28.60812 12.92391
vt 14.6111 -19.6759
vt 13.50174 -23.54332
vt -18.56654 61.6499
vt -3.909622 148.4063
vt 12.92391 61.6499
vt -1.611735 148.4063
vt -3.867172 61.07202
vt -11.09041 61.07202
vt 2.849648 148.0091
vt 2.322562 148.0091
vt 1.79094 35.11139
vt -2.423115 35.11139
vt -0.3160873 70.30066
vt 7.100471 71.37746
vt 0.06223153 71.37746
vt -2.613711 153.3026
vt -3.127298 153.3026
vt -3.72327 32.01021
vt -5.283956 2.087266
vt -12.68595 2.087266

usemtl natureKit-wood
# usermap natureKit-wood

f 2/2/1 1/1/1 3/3/1
f 3/3/1 4/4/1 2/2/1
f 2/2/2 3/3/2 1/1/2
f 3/3/2 2/2/2 4/4/2
f 6/6/3 5/5/3 7/7/3
f 7/7/3 8/8/3 6/6/3
f 6/6/4 7/7/4 5/5/4
f 7/7/4 6/6/4 8/8/4
f 3/10/5 1/9/5 9/11/5
f 9/11/5 6/12/5 3/10/5
f 3/10/6 9/11/6 1/9/6
f 9/11/6 3/10/6 6/12/6
f 5/14/7 4/13/7 10/15/7
f 10/15/7 7/16/7 5/14/7
f 5/14/8 10/15/8 4/13/8
f 10/15/8 5/14/8 7/16/8
f 9/18/9 11/17/9 5/19/9
f 5/19/9 6/20/9 9/18/9
f 9/18/10 5/19/10 11/17/10
f 5/19/10 9/18/10 6/20/10
f 4/22/11 3/21/11 12/23/11
f 12/23/11 10/24/11 4/22/11
f 4/22/12 12/23/12 3/21/12
f 12/23/12 4/22/12 10/24/12
f 2/26/13 11/25/13 9/27/13
f 9/27/13 1/28/13 2/26/13
f 2/26/14 9/27/14 11/25/14
f 9/27/14 2/26/14 1/28/14
f 12/30/15 3/29/15 6/31/15
f 6/31/15 8/32/15 12/30/15
f 12/30/16 6/31/16 3/29/16
f 6/31/16 12/30/16 8/32/16
f 11/34/17 2/33/17 4/35/17
f 4/35/17 5/36/17 11/34/17
f 11/34/18 4/35/18 2/33/18
f 4/35/18 11/34/18 5/36/18

usemtl natureKit-leaves
# usermap natureKit-leaves

f 14/38/19 13/37/19 15/39/19
f 15/39/19 16/40/19 14/38/19
f 14/38/20 15/39/20 13/37/20
f 15/39/20 14/38/20 16/40/20
f 18/42/21 17/41/21 19/43/21
f 19/43/21 20/44/21 18/42/21
f 18/42/22 19/43/22 17/41/22
f 19/43/22 18/42/22 20/44/22
f 22/46/23 21/45/23 23/47/23
f 23/47/23 24/48/23 22/46/23
f 22/46/24 23/47/24 21/45/24
f 23/47/24 22/46/24 24/48/24
f 17/50/25 25/49/25 19/51/25
f 27/53/13 26/52/13 13/54/13
f 13/54/13 28/55/13 27/53/13
f 13/54/13 7/56/13 28/55/13
f 13/54/13 14/57/13 7/56/13
f 14/57/13 8/58/13 7/56/13
f 14/57/13 12/59/13 8/58/13
f 28/55/13 7/56/13 10/60/13
f 10/60/13 29/61/13 28/55/13
f 10/60/13 12/59/13 29/61/13
f 12/59/13 14/57/13 29/61/13
f 14/57/13 30/62/13 29/61/13
f 30/62/13 31/63/13 29/61/13
f 27/53/14 13/54/14 26/52/14
f 13/54/14 27/53/14 28/55/14
f 13/54/14 28/55/14 7/56/14
f 13/54/14 7/56/14 14/57/14
f 14/57/14 7/56/14 8/58/14
f 14/57/14 8/58/14 12/59/14
f 28/55/14 10/60/14 7/56/14
f 10/60/14 28/55/14 29/61/14
f 10/60/14 29/61/14 12/59/14
f 12/59/14 29/61/14 14/57/14
f 14/57/14 29/61/14 30/62/14
f 30/62/14 29/61/14 31/63/14
f 25/65/26 32/64/26 24/66/26
f 24/66/26 19/67/26 25/65/26
f 25/65/27 24/66/27 32/64/27
f 24/66/27 25/65/27 19/67/27
f 34/69/28 33/68/28 35/70/28
f 35/70/28 36/71/28 34/69/28
f 34/69/29 35/70/29 33/68/29
f 35/70/29 34/69/29 36/71/29
f 20/73/30 37/72/30 18/74/30
f 39/76/31 38/75/31 40/77/31
f 40/77/31 41/78/31 39/76/31
f 39/76/32 40/77/32 38/75/32
f 40/77/32 39/76/32 41/78/32
f 26/80/33 27/79/33 42/81/33
f 42/81/33 15/82/33 26/80/33
f 26/80/34 42/81/34 27/79/34
f 42/81/34 26/80/34 15/82/34
f 16/84/35 30/83/35 14/85/35
f 43/87/14 36/86/14 35/88/14
f 36/86/14 43/87/14 40/89/14
f 40/89/14 43/87/14 44/90/14
f 40/89/14 44/90/14 41/91/14
f 41/91/14 44/90/14 45/92/14
f 41/91/14 45/92/14 46/93/14
f 29/95/36 31/94/36 47/96/36
f 15/98/13 17/97/13 18/99/13
f 18/99/13 16/100/13 15/98/13
f 18/99/13 47/101/13 16/100/13
f 17/97/13 15/98/13 42/102/13
f 17/97/13 42/102/13 22/103/13
f 17/97/13 22/103/13 32/104/13
f 32/104/13 25/105/13 17/97/13
f 42/102/13 21/106/13 22/103/13
f 42/102/13 47/101/13 21/106/13
f 47/101/13 18/99/13 21/106/13
f 18/99/13 37/107/13 21/106/13
f 37/107/13 48/108/13 21/106/13
f 15/98/14 18/99/14 17/97/14
f 18/99/14 15/98/14 16/100/14
f 18/99/14 16/100/14 47/101/14
f 17/97/14 42/102/14 15/98/14
f 17/97/14 22/103/14 42/102/14
f 17/97/14 32/104/14 22/103/14
f 32/104/14 17/97/14 25/105/14
f 42/102/14 22/103/14 21/106/14
f 42/102/14 21/106/14 47/101/14
f 47/101/14 21/106/14 18/99/14
f 18/99/14 21/106/14 37/107/14
f 37/107/14 21/106/14 48/108/14
f 32/110/37 22/109/37 24/111/37
f 28/113/38 29/112/38 47/114/38
f 47/114/38 42/115/38 28/113/38
f 28/113/39 47/114/39 29/112/39
f 47/114/39 28/113/39 42/115/39
f 23/117/40 48/116/40 37/118/40
f 37/118/40 20/119/40 23/117/40
f 23/117/41 37/118/41 48/116/41
f 37/118/41 23/117/41 20/119/41
f 47/121/42 31/120/42 30/122/42
f 30/122/42 16/123/42 47/121/42
f 47/121/43 30/122/43 31/120/43
f 30/122/43 47/121/43 16/123/43
f 50/125/44 49/124/44 44/126/44
f 44/126/44 43/127/44 50/125/44
f 50/125/45 44/126/45 49/124/45
f 44/126/45 50/125/45 43/127/45
f 49/129/46 51/128/46 45/130/46
f 45/130/46 44/131/46 49/129/46
f 38/133/47 34/132/47 36/134/47
f 36/134/47 40/135/47 38/133/47
f 27/137/48 28/136/48 42/138/48
f 19/140/13 33/139/13 34/141/13
f 34/141/13 38/142/13 19/140/13
f 38/142/13 20/143/13 19/140/13
f 38/142/13 39/144/13 20/143/13
f 39/144/13 23/145/13 20/143/13
f 39/144/13 49/146/13 23/145/13
f 39/144/13 51/147/13 49/146/13
f 39/144/13 52/148/13 51/147/13
f 33/139/13 19/140/13 24/149/13
f 24/149/13 50/150/13 33/139/13
f 24/149/13 23/145/13 50/150/13
f 23/145/13 49/146/13 50/150/13
f 19/140/14 34/141/14 33/139/14
f 34/141/14 19/140/14 38/142/14
f 38/142/14 19/140/14 20/143/14
f 38/142/14 20/143/14 39/144/14
f 39/144/14 20/143/14 23/145/14
f 39/144/14 23/145/14 49/146/14
f 39/144/14 49/146/14 51/147/14
f 39/144/14 51/147/14 52/148/14
f 33/139/14 24/149/14 19/140/14
f 24/149/14 33/139/14 50/150/14
f 24/149/14 50/150/14 23/145/14
f 23/145/14 50/150/14 49/146/14
f 45/152/49 51/151/49 52/153/49
f 52/153/49 46/154/49 45/152/49
f 45/152/50 52/153/50 51/151/50
f 52/153/50 45/152/50 46/154/50
f 52/156/51 39/155/51 41/157/51
f 41/157/51 46/158/51 52/156/51
f 21/160/52 48/159/52 23/161/52
f 33/163/53 50/162/53 43/164/53
f 43/164/53 35/165/53 33/163/53
f 26/167/54 15/166/54 13/168/54

usemtl natureKit-_defaultMat
# usermap natureKit-_defaultMat

f 43/87/13 35/88/13 36/86/13
f 36/86/13 40/89/13 43/87/13
f 40/89/13 44/90/13 43/87/13
f 40/89/13 41/91/13 44/90/13
f 41/91/13 45/92/13 44/90/13
f 41/91/13 46/93/13 45/92/13
