# Exported using Kenney Suite 1.2 

mtllib tree_detailed.mtl 

g tree_detailed

v 1.159496 7.619823 -3.808012 
v 1.157608 7.280508 -3.466809 
v 1.498811 7.621429 -3.467091 
v 1.157608 9.556633 -3.466809 
v 1.159496 9.217319 -3.808012 
v 1.498811 9.215711 -3.467091 
v -0.7773137 9.215711 -3.467091 
v -0.7773137 7.621429 -3.467091 
v -0.4379988 9.217319 -3.808012 
v -0.4379988 7.619823 -3.808012 
v -0.4361105 9.556633 -3.466809 
v -0.4361105 7.280508 -3.466809 
v 1.157608 7.280508 -1.873091 
v 1.159496 7.619823 -1.531887 
v 1.498811 7.621429 -1.872809 
v -0.7773137 7.621429 -1.872809 
v -0.4379988 7.619823 -1.531887 
v -0.4361105 7.280508 -1.873091 
v -0.4379988 8.777554 -1.531887 
v -0.7773137 9.116588 -1.872809 
v -3.828397 6.002293 -0.5316694 
v -4.235573 6.004221 -0.1225637 
v -3.826129 5.595116 -0.122225 
v -3.828397 7.919288 2.199681 
v -3.828397 6.002293 2.199681 
v -4.235573 7.91736 1.790575 
v -4.235573 6.004221 1.790575 
v -3.826129 5.595116 1.790236 
v -3.042152 5.595116 0.4224239 
v -1.913669 5.595116 -0.122225 
v -3.137147 5.595116 0.9741611 
v -2.215683 5.595116 0.224779 
v -1.913669 5.595116 1.790236 
v -2.304854 5.595116 0.7426807 
v -1.911402 6.002293 2.199681 
v -1.911402 7.919288 2.199681 
v -4.235573 7.91736 -0.1225637 
v -1.504223 6.004221 1.790575 
v -1.504223 7.91736 1.790575 
v -1.504223 6.004221 -0.1225637 
v -1.504223 7.91736 -0.1225637 
v -1.913669 8.326466 1.790236 
v -1.911402 6.002293 -0.5316694 
v -3.828397 7.919288 -0.5316694 
v -1.911402 7.919288 -0.5316694 
v -3.826129 8.326466 1.790236 
v -3.826129 8.326466 -0.122225 
v -1.913669 8.326466 -0.122225 
v 1.508245 9.45055 -2.20863 
v 1.504467 8.771919 -1.526222 
v 2.186873 9.453763 -1.526787 
v -2.365377 9.453763 1.661777 
v -1.686747 9.45055 2.34362 
v -1.682968 8.771919 1.661213 
v -1.682968 13.32417 1.661213 
v -1.682968 13.32417 -1.526222 
v 1.504467 13.32417 1.661213 
v 1.504467 13.32417 -1.526222 
v -0.5422807 9.45055 -2.20863 
v -0.4361105 9.556633 -2.20863 
v -1.686747 9.45055 -2.20863 
v -1.686747 12.64554 -2.20863 
v 1.157608 9.556633 -2.20863 
v 1.508245 12.64554 -2.20863 
v 1.263778 9.45055 -2.20863 
v 2.186873 12.64233 1.661777 
v 2.186873 12.64233 -1.526787 
v 1.508245 12.64554 2.34362 
v -2.365377 12.64233 -1.526787 
v -1.686747 12.64554 2.34362 
v -2.365377 9.453763 -1.526787 
v -1.682968 8.771919 -1.526222 
v -2.365377 12.64233 1.661777 
v 1.508245 9.45055 2.34362 
v 1.504467 8.771919 1.661213 
v -0.385282 8.771919 -0.1229948 
v 0.2067804 8.771919 -0.1229948 
v 0.2067804 8.771919 0.4690682 
v -0.385282 8.771919 0.4690682 
v -0.7773137 9.215711 -1.972484 
v 1.159496 8.777554 -1.531887 
v 1.498811 9.116588 -1.872809 
v 1.498811 9.215711 -1.972484 
v 0.7738566 4.722659 3.549458 
v 0.7738566 5.931763 3.549458 
v 0.7738566 4.722659 2.340354 
v 0.7738566 5.931763 2.340354 
v -0.6950212 5.932981 3.808012 
v -0.9523582 5.931763 3.549458 
v -0.6935883 6.190318 3.549243 
v -0.9523582 5.931763 2.340354 
v -0.6935883 6.190318 2.340568 
v 0.5150867 6.190318 3.549243 
v 0.5150867 6.190318 2.340568 
v -0.6950212 5.932981 2.081799 
v -0.6950212 4.721441 2.081799 
v 0.5165195 4.721441 2.081799 
v 0.5165195 5.932981 2.081799 
v 0.5165195 4.721441 3.808012 
v -0.6950212 4.721441 3.808012 
v 0.5165195 5.932981 3.808012 
v -0.6935883 4.464105 3.549243 
v -0.3452277 4.464105 2.550109 
v -0.6935883 4.464105 2.340568 
v 0.5150867 4.464105 2.340568 
v -0.3575301 4.464105 3.120053 
v 0.1667261 4.464105 2.550109 
v 0.1790285 4.464105 3.120053 
v 0.5150867 4.464105 3.549243 
v -0.9523582 4.722659 3.549458 
v -0.9523582 4.722659 2.340354 
v 2.378049 9.736229 1.839803 
v 2.378049 9.736229 0.3098345 
v 3.908019 9.736229 1.839803 
v 3.908019 9.736229 0.3098345 
v 2.378049 7.551149 1.839803 
v 2.765427 7.551149 0.6644886 
v 2.378049 7.551149 0.3098345 
v 3.908019 7.551149 0.3098345 
v 3.415096 7.551149 0.7797441 
v 3.415096 7.551149 1.279701 
v 2.765427 7.551149 1.132782 
v 3.908019 7.551149 1.839803 
v 3.909831 7.876892 2.167359 
v 2.376237 7.876892 2.167359 
v 3.909831 9.410487 2.167359 
v 2.376237 9.410487 2.167359 
v 2.376237 7.876892 -0.01772103 
v 3.909831 7.876892 -0.01772103 
v 2.376237 9.410487 -0.01772103 
v 3.909831 9.410487 -0.01772103 
v 4.235573 7.878433 1.840074 
v 4.235573 9.408944 1.840074 
v 4.235573 7.878433 0.3095635 
v 4.235573 9.408944 0.3095635 
v 2.050495 9.408944 1.840074 
v 2.050495 7.878433 1.840074 
v 2.186873 9.545212 0.3096763 
v 2.186873 9.453763 0.2172046 
v 2.142453 9.40938 0.2171678 
v 2.050495 9.317495 0.3095635 
v 2.050495 7.878433 0.3095635 
v -0.1849627 7.302905 -1.850569 
v -0.1808763 7.280508 -1.873091 
v 0.2977395 7.302905 -1.850569 
v 0.3043056 7.280508 -1.873091 
v -0.005886555 7.280508 -2.547872 
v 0.5151772 7.280508 -2.547872 
v 2.050495 9.317495 1.661664 
v 2.186873 9.545212 1.661777 
v 2.094913 9.453327 1.754173 
v 2.050495 9.408944 1.754136 
v -0.7214475 0.498095 0.7188504 
v -0.6329417 0 0.6303427 
v -0.7214475 0.498095 -0.5455447 
v -0.6329417 0 -0.4570371 
v -0.4494762 6.475235 0.2628367 
v 0.2709746 6.475235 0.2628367 
v 0.4544401 0 -0.4570371 
v 0.4544401 0 0.6303427 
v 0.5429459 0.498095 -0.5455447 
v -0.5760431 2.662892 -0.4001393 
v 0.3975415 2.662892 -0.4001393 
v -0.5128932 4.565045 -0.0693502 
v 0.2996039 5.612888 0.1128724 
v -0.4869127 5.347602 0.06673843 
v -0.4781055 5.612888 0.1128724 
v 0.5429459 0.498095 0.7188504 
v 0.2996039 5.612888 0.8905827 
v 0.337379 4.475097 0.768265 
v 0.3674603 3.568995 0.670855 
v 0.3975415 2.662892 0.5734449 
v -2.13448 4.994791 0.6252152 
v -0.5158806 4.475097 0.768265 
v -2.13263 5.050559 0.1058938 
v 0.1667261 4.154921 2.041335 
v 0.1847744 3.61126 1.982889 
v 1.818755 6.2644 0.2651953 
v 1.818755 6.2644 0.770707 
v -0.5459619 3.568995 0.670855 
v -0.363276 3.61126 1.982889 
v -0.3306031 6.894928 -1.41214 
v -0.3497839 6.317155 -1.512616 
v 3.417873 7.467489 0.7651953 
v 3.417873 7.467489 1.270707 
v -0.363276 4.29101 3.101444 
v -0.3452277 4.154921 2.041335 
v 3.399265 8.028013 0.8626721 
v 1.800146 6.824925 0.3626721 
v -2.118261 5.483396 0.6777425 
v -2.116523 5.535745 0.1902687 
v -0.4897165 5.263169 0.8529865 
v 0.2709746 6.475235 0.9832889 
v 1.800146 6.824925 0.830966 
v 3.399265 8.028013 1.330966 
v 0.1521015 6.894928 -1.41214 
v 0.1712823 6.317155 -1.512616 
v -0.4494762 6.475235 0.9832889 
v -0.5760431 2.662892 0.5734449 
v 0.1847744 4.29101 3.101444 

vn -0.5788455 -0.5797992 0.5733853
vn -0.5788455 0.5797992 0.5733853
vn 0.7087749 0 0.7054347
vn 0 0 1
vn 0.5788455 0.5797992 0.5733853
vn 0.5788455 -0.5797992 0.5733853
vn -0.7087749 0 0.7054347
vn -0.5788455 -0.5797992 -0.5733853
vn -0.7068142 -0.7073992 0
vn 0 -0.7090666 0.7051415
vn 0 0.7090666 0.7051415
vn 0.5788455 -0.5797992 -0.5733853
vn 0.7087749 0 -0.7054347
vn 0.7068142 -0.7073992 0
vn 0 -1 0
vn 0 0 -1
vn 1 0 0
vn -1 0 0
vn -0.5788455 0.5797992 -0.5733853
vn 0.5788455 0.5797992 -0.5733853
vn 0 1 0
vn 0 0.7090666 -0.7051415
vn 0.7068142 0.7073992 0
vn -0.7068142 0.7073992 0
vn -0.7087749 0 -0.7054347
vn 0 -0.7090666 -0.7051415
vn 0.9987541 -0.04990279 0
vn 0.984577 -0.1749518 0
vn 0 -0.1656734 0.9861807
vn 0 -0.1749518 0.984577
vn 0 -0.04990279 0.9987541
vn 0 0.1177005 0.9930491
vn 0.01598182 0.1718242 0.9849979
vn 0 0.1713311 0.9852135
vn 0.01891041 0.1719098 0.9849312
vn -0.9987541 -0.04990279 0
vn -0.984577 -0.1749518 0
vn -0.9994493 0.03318071 0
vn -0.9986602 0.02851187 -0.04318557
vn -0.9986674 0.02853149 -0.04300528
vn -0.9987541 0.04990138 0
vn -0.9986761 0.05143793 0
vn 0 -0.1749518 -0.984577
vn 0 -0.04990279 -0.9987541
vn 0.4232955 -0.9006512 0.09822657
vn 0.2958114 -0.9496732 0.1030364
vn 0.4063219 -0.9083518 0.09899299
vn -0.9984763 0.02803908 -0.0475267
vn -0.9963275 0.02424888 -0.08211928
vn -0.3941477 -0.9190471 0
vn -0.4894799 -0.8720146 0
vn -0.5064635 -0.8622614 0
vn 0 -0.9994816 -0.03219678
vn 0.982971 0.06267392 0.172742
vn 0.9901902 0.05519579 0.128362
vn 0.9652129 0.07557277 0.250305
vn -0.6011986 -0.7990996 0
vn 0.9991373 0.03548888 0.02156673
vn 0.9963275 0.02424888 -0.08211928
vn 0.9984763 0.02803908 -0.0475267
vn -0.1720044 0.1743176 0.9695503
vn -0.1158736 0.1739097 0.9779207
vn -0.07288232 0.1732236 0.9821821
vn -0.1219957 0.9868106 -0.1064047
vn -0.03389626 -0.1057147 -0.9938186
vn -0.04406038 -0.002658698 -0.9990253
vn -0.009244733 -0.1065806 -0.9942611
vn 0.08794872 -0.1093604 -0.9901037
vn 0.6011986 0.7990996 0
vn -0.9542838 -0.02017995 -0.29822
vn 0 -0.8466281 0.532185
vn 0 -0.8323715 0.5542182
vn 0 -0.7320726 0.6812266
vn 0.5349085 -0.8398755 0.09209801
vn 0.2191985 -0.1114803 -0.9692906
vn 0 -0.9175786 0.3975544
vn 0.1179428 0.1739346 0.9776688
vn 0.1576277 0.1742664 0.9720004
vn 0 0.7320726 -0.6812266
vn 0.9974954 0.02604633 -0.06576018
vn 0.9986674 0.02853149 -0.04300528
vn 0.05522728 -0.1049128 -0.9929468
vn 0.1200787 -0.1021734 -0.9874927
vn 0.04157335 -0.1054317 -0.9935572
vn 0.9995297 0.03066585 0
vn 0.9994493 0.03318071 0
vn 0.9992113 0.03473922 0.0192343
vn 0.9991826 0.0362739 0.0178378
vn 0.9987541 0.04990138 0
vn 0.9986761 0.05143793 0
vn 0 0.9700132 -0.2430524
vn -0.9972569 0.04351976 0.05987166
vn 0 0.9697995 -0.2439034
vn -0.02494127 0.1720815 0.9847669
vn 0.2229249 0.9748356 0
vn 0 -0.8545747 -0.5193285
vn 0 -0.01726523 -0.999851
vn 0 -0.1068886 -0.994271
vn -0.9996096 0.02794009 0
vn 0.9996096 0.02794009 0
vn 0 0.05339769 -0.9985733
vn 0 0.2184875 -0.9758397
vn 0.2290314 0.1741524 0.9577137
vn -0.9991373 0.03548888 0.02156673
vn -0.2662742 -0.1117644 -0.9573958
vn -0.5349085 0.8398755 -0.09209801
vn 0 0.8545747 0.5193285

vt 29.75445 129.7596
vt 25.95793 123.2011
vt 22.17965 129.7906
vt 25.95793 92.83379
vt 29.75445 86.27536
vt 22.17965 86.2443
vt -30.06367 145.1293
vt -30.06367 120.0225
vt -37.63849 145.1546
vt -37.63849 119.9972
vt 6.897614 119.9972
vt -18.25979 119.9972
vt 6.897614 145.1546
vt -18.25979 145.1546
vt -30.17576 90.92459
vt -37.75056 90.95564
vt -33.95404 97.51407
vt -37.75056 125.0793
vt -30.17576 125.1103
vt -33.95404 118.5209
vt 22.0484 120.0225
vt 22.0484 145.1293
vt 29.62321 119.9972
vt 29.62321 145.1546
vt 33.78584 88.8885
vt 29.98933 95.44692
vt 37.56413 95.47797
vt 54.59541 93.93476
vt 29.4975 93.93476
vt 54.59986 101.5306
vt 29.49305 101.5306
vt 6.897614 127.1368
vt 6.86787 119.5588
vt -18.25979 127.1368
vt -18.23005 119.5588
vt 6.897614 59.83273
vt -18.25979 59.83273
vt 6.86787 67.4107
vt -18.23005 67.4107
vt -29.56802 90.79769
vt -21.99322 90.76663
vt -25.78973 84.20821
vt -21.96445 138.2292
vt -21.96445 119.9972
vt -29.53927 143.5683
vt -29.53927 120.0225
vt -54.59986 93.493
vt -29.49305 93.493
vt -54.59541 85.89716
vt -29.4975 85.89716
vt 36.48035 105.2653
vt 45.5701 105.3026
vt 41.03617 97.39523
vt -17.97804 124.7132
vt -17.97804 94.52431
vt -27.06782 124.6828
vt -27.06782 94.55467
vt -1.930136 114.0175
vt 28.19803 114.0175
vt -1.924803 104.9025
vt 28.1927 104.9025
vt 60.25401 -28.1927
vt 47.90792 -6.652345
vt 60.25401 1.924803
vt 30.13651 1.924803
vt 49.40391 -15.34112
vt 34.89267 -3.539827
vt 30.13651 -28.1927
vt 36.29692 -11.69576
vt -30.10082 94.52431
vt -60.2897 94.52431
vt -30.10082 124.7132
vt -60.2897 124.7132
vt 28.19803 124.6828
vt 28.19803 94.55467
vt -1.930136 124.6828
vt -1.930136 94.55467
vt -28.19803 94.55467
vt -28.19803 124.6828
vt 1.930136 94.55467
vt 1.930136 124.6828
vt -45.79382 99.87581
vt -41.238 107.7459
vt -36.70406 99.83855
vt 60.2897 94.52431
vt 30.10082 94.52431
vt 60.2897 124.7132
vt 30.10082 124.7132
vt -17.81833 62.64231
vt -26.90809 62.60505
vt -22.37415 70.51243
vt -60.25401 -28.1927
vt -60.25401 1.924803
vt -30.13651 -28.1927
vt -30.13651 1.924803
vt 45.5701 73.3232
vt 36.48035 73.36047
vt 41.03617 81.23058
vt -60.2897 63.37792
vt -60.25401 72.47149
vt -30.10082 63.37792
vt -30.13651 72.47149
vt 28.19803 40.94269
vt -1.930136 40.94269
vt 28.1927 50.05769
vt -1.924803 50.05769
vt -28.1927 113.9999
vt 1.924803 113.9999
vt -28.19803 104.8849
vt 1.930136 104.8849
vt 60.2897 82.00361
vt 30.10082 82.00361
vt 60.25401 91.09718
vt 30.13651 91.09718
vt 22.57599 118.4641
vt 27.13181 110.594
vt 18.04205 110.5567
vt 45.68584 124.6828
vt 45.68584 94.55467
vt 36.59606 124.7132
vt 36.59606 94.52431
vt -41.238 70.87989
vt -45.79382 78.75
vt -36.70406 78.78727
vt 18.07877 94.55467
vt 18.07877 124.6828
vt 27.16855 94.52431
vt 27.16855 124.7132
vt -26.90809 116.0208
vt -17.81833 115.9835
vt -22.37415 108.1134
vt 60.2897 72.58984
vt 60.25401 63.49628
vt 30.10082 72.58984
vt 30.13651 63.49628
vt 1.924803 40.96031
vt -28.1927 40.96031
vt 1.930136 50.07531
vt -28.19803 50.07531
vt -45.78658 94.52431
vt -45.78658 124.7132
vt -36.69679 94.55467
vt -36.69679 124.6828
vt 27.13181 68.03185
vt 22.57599 60.16173
vt 18.04205 68.06911
vt -60.2897 91.21553
vt -30.10082 91.21553
vt -60.25401 82.12197
vt -30.13651 82.12197
vt 7.995214 145.2345
vt 0.4021819 132.1176
vt -7.154383 145.2966
vt -7.622355 147.3219
vt 7.527242 147.2598
vt -0.06579023 134.143
vt -26.50344 -26.16084
vt -26.50344 24.035
vt 23.69239 -26.16084
vt 23.69239 24.035
vt 8.53985 148.8276
vt 6.86787 150.4982
vt 26.56293 148.8276
vt 26.56293 199.1424
vt -18.23005 150.4982
vt -23.75188 199.1424
vt -19.90203 148.8276
vt -23.75188 148.8276
vt -26.16084 131.5504
vt 24.035 131.5504
vt -26.16972 116.3588
vt 24.04389 116.3588
vt -9.505513 137.4099
vt -1.912482 150.5267
vt 5.644083 137.3477
vt 9.132654 137.0572
vt -6.016942 137.1193
vt 1.57609 150.2362
vt -26.56293 114.2537
vt -26.50344 129.4097
vt 23.75188 114.2537
vt 23.69239 129.4097
vt 26.56293 115.7611
vt -23.75188 115.7611
vt 26.50344 130.917
vt -23.69239 130.917
vt 0.4021819 151.3941
vt 7.995214 138.2773
vt -7.154383 138.2152
vt 9.235751 199.0918
vt 9.235751 148.8782
vt -5.913888 199.1424
vt -5.913888 148.8276
vt -6.016942 146.3924
vt 9.132654 146.4545
vt 1.57609 133.2756
vt -24.04389 131.5798
vt 26.16972 131.5798
vt -24.035 116.3882
vt 26.16084 116.3882
vt 7.420628 199.1424
vt 7.420628 148.8276
vt -7.729012 199.0918
vt -7.729012 148.8782
vt -26.56293 131.1143
vt 23.75188 131.1143
vt -26.50344 115.9584
vt 23.69239 115.9584
vt -7.252738 148.8782
vt -7.252738 199.0918
vt 7.896901 148.8276
vt 7.896901 199.1424
vt 26.50344 -26.16084
vt 6.067439 1.936926
vt 26.50344 24.035
vt -23.69239 24.035
vt -3.256388 1.936926
vt -3.256388 -7.3869
vt 6.067439 -7.3869
vt -23.69239 -26.16084
vt 26.56293 129.6069
vt 26.50344 114.451
vt 8.53985 129.6069
vt 12.24116 124.3622
vt 12.24116 122.1485
vt 6.897614 114.5768
vt -23.69239 114.451
vt -18.25979 114.5768
vt -23.60333 122.1485
vt -23.75188 129.6069
vt -23.60333 124.3622
vt -19.90203 129.6069
vt 7.527242 136.2519
vt -7.622355 136.1898
vt -0.06579023 149.3688
vt 26.16972 114.3703
vt -24.04389 114.3703
vt 26.16084 129.5619
vt -24.035 129.5619
vt 26.16972 199.0918
vt 26.16972 148.8782
vt -24.04389 199.0918
vt -24.04389 148.8782
vt 23.75188 148.8276
vt -26.56293 148.8276
vt 23.75188 199.1424
vt -26.56293 199.1424
vt -55.89697 74.37259
vt -55.89697 93.41359
vt -36.85597 74.37259
vt -36.85597 93.41359
vt 34.90207 47.14751
vt 29.15734 47.12397
vt 32.02279 52.12143
vt 55.89697 55.41665
vt 36.85597 55.41665
vt 55.8936 61.17733
vt 36.85934 61.17733
vt -10.92266 -55.8936
vt -10.92266 -36.85934
vt 8.111605 -55.8936
vt 8.111605 -36.85934
vt 36.73895 84.97018
vt 30.99422 84.99374
vt 33.8735 89.96765
vt 10.94521 74.3534
vt -8.134163 74.3534
vt 10.94521 93.43278
vt -8.134163 93.43278
vt 8.134163 74.3534
vt -10.94521 74.3534
vt 8.134163 93.43278
vt -10.94521 93.43278
vt -10.94521 23.36152
vt -10.92266 29.10865
vt 8.134163 23.36152
vt 8.111605 29.10865
vt -55.8936 63.16586
vt -36.85934 63.16586
vt -55.89697 57.40519
vt -36.85597 57.40519
vt 10.92266 -55.8936
vt 5.436663 -40.15919
vt 10.92266 -36.85934
vt -8.111605 -36.85934
vt 5.630403 -49.13469
vt -2.625612 -40.15919
vt -2.819351 -49.13469
vt -8.111605 -55.8936
vt -36.88034 48.30544
vt -34.00106 53.27935
vt -31.13561 48.28189
vt 55.89697 93.41359
vt 55.89697 74.37259
vt 36.85597 93.41359
vt 36.85597 74.37259
vt 30.99422 51.71162
vt 36.73895 51.73518
vt 33.8735 46.73771
vt 10.94521 29.18346
vt 10.92266 23.43632
vt -8.134163 29.18346
vt -8.111605 23.43632
vt 29.15734 89.5814
vt 34.90207 89.55785
vt 32.02279 84.58393
vt 10.94521 89.12953
vt -8.134163 89.12953
vt 10.92266 94.87667
vt -8.111605 94.87667
vt -36.76619 74.3534
vt -36.76619 93.43278
vt -31.02144 74.37259
vt -31.02144 93.41359
vt -36.85934 55.42779
vt -55.8936 55.42779
vt -36.85597 61.18847
vt -55.89697 61.18847
vt -10.94521 94.95147
vt 8.134163 94.95147
vt -10.92266 89.20434
vt 8.111605 89.20434
vt 36.70252 93.41359
vt 36.70252 74.37259
vt 30.95778 93.43278
vt 30.95778 74.3534
vt -34.71951 74.37259
vt -34.71951 93.41359
vt -28.97477 74.3534
vt -28.97477 93.43278
vt 36.85597 63.177
vt 55.89697 63.177
vt 36.85934 57.41632
vt 55.8936 57.41632
vt 34.78317 93.43278
vt 34.78317 74.3534
vt 29.03843 93.41359
vt 29.03843 74.37259
vt -29.01595 50.5537
vt -31.89523 45.57979
vt -34.76068 50.57725
vt -34.00106 83.42601
vt -36.88034 88.39993
vt -31.13561 88.42348
vt -31.89523 91.12557
vt -29.01595 86.15166
vt -34.76068 86.12811
vt 37.4496 -28.97328
vt 37.4496 -4.879283
vt 61.5436 -28.97328
vt 61.5436 -4.879283
vt -37.4496 -28.97328
vt -43.55002 -10.46439
vt -37.4496 -4.879283
vt -61.5436 -4.879283
vt -53.78104 -12.27943
vt -53.78104 -20.15277
vt -43.55002 -17.83909
vt -61.5436 -28.97328
vt 61.57215 124.0455
vt 37.42104 124.0455
vt 61.57215 148.1966
vt 37.42104 148.1966
vt -37.42104 124.0455
vt -61.57215 124.0455
vt -37.42104 148.1966
vt -61.57215 148.1966
vt -28.97755 124.0698
vt -28.97755 148.1723
vt -4.875017 124.0698
vt -4.875017 148.1723
vt 50.58379 122.2322
vt 43.31199 122.2024
vt 46.93914 128.5283
vt 50.58975 148.1966
vt 50.58975 124.0455
vt 43.31792 148.1723
vt 43.31792 124.0698
vt -20.77164 138.6492
vt -21.80623 136.8816
vt -22.8886 142.3412
vt -26.53325 136.0451
vt -21.31435 136.0237
vt -50.50916 124.0698
vt -50.50916 148.1723
vt -43.23734 124.0455
vt -43.23734 148.1966
vt 37.42104 80.29799
vt 37.4496 87.57285
vt 61.57215 80.29799
vt 61.5436 87.57285
vt -19.32408 146.7322
vt -19.32408 124.0698
vt -21.37699 148.1792
vt -26.5959 124.0455
vt -26.5959 148.1966
vt 19.24349 124.0455
vt 19.24349 148.1966
vt 26.51532 124.0698
vt 26.51532 148.1723
vt -26.53325 85.76672
vt -19.26145 85.79653
vt -22.8886 79.47063
vt -4.879283 127.5872
vt -28.97328 127.5872
vt -4.875017 134.8792
vt -28.97755 134.8792
vt 43.31199 99.60948
vt 50.58379 99.57967
vt 46.93914 93.28358
vt -43.13302 126.5438
vt -46.77767 120.2477
vt -50.40482 126.5736
vt 4.875017 64.85151
vt 28.97755 64.85151
vt 4.879283 57.55951
vt 28.97328 57.55951
vt -37.42104 87.66753
vt -37.4496 80.39268
vt -61.57215 87.66753
vt -61.5436 80.39268
vt 19.08247 81.45509
vt 22.72713 87.75118
vt 26.35428 81.42529
vt -28.97328 64.83741
vt -4.879283 64.83741
vt -28.97755 57.54541
vt -4.875017 57.54541
vt -37.42104 104.3017
vt -61.57215 104.3017
vt -37.4496 111.5766
vt -61.5436 111.5766
vt 37.42104 111.6713
vt 61.57215 111.6713
vt 37.4496 104.3964
vt 61.5436 104.3964
vt -46.77767 101.5641
vt -43.13302 95.26804
vt -50.40482 95.23824
vt 22.72713 134.0607
vt 19.08247 140.3568
vt 26.35428 140.3866
vt -6.86787 59.93136
vt -2.912805 60.43157
vt -2.848444 59.93136
vt 18.25979 67.50933
vt -6.897614 67.50933
vt 4.688817 60.43157
vt 4.792198 59.93136
vt 18.23005 59.93136
vt 6.86787 29.4975
vt 0.09271965 40.12397
vt 6.86787 54.59541
vt -18.23005 54.59541
vt 2.848444 29.4975
vt -8.113044 40.12397
vt -18.23005 29.4975
vt -4.792198 29.4975
vt -29.49305 120.0225
vt -54.59986 120.0225
vt -29.49305 143.5683
vt -31.06274 145.1293
vt -54.59986 145.1293
vt -6.86787 34.78157
vt -6.86787 54.59541
vt 18.23005 34.78157
vt 18.23005 54.59541
vt -31.06274 93.92007
vt -54.59986 93.92007
vt -34.78157 99.15234
vt -54.59541 101.5159
vt -34.78157 101.5159
vt 34.78157 93.47831
vt 54.59541 93.47831
vt 34.78157 91.11475
vt 54.59986 85.88248
vt 31.06274 85.88248
vt 29.49305 120.0225
vt 29.49305 143.5683
vt 54.59986 120.0225
vt 31.06274 145.1293
vt 54.59986 145.1293
vt 29.97972 119.9972
vt 29.97972 138.2292
vt 37.55454 120.0225
vt 37.55454 143.5683
vt 18.25979 119.9972
vt -6.897614 119.9972
vt 18.25979 138.2292
vt -6.897614 138.2292
vt 24.035 114.3996
vt -26.16084 114.3996
vt 24.04389 129.5913
vt -4.875017 126.5552
vt -3.419966 128.6024
vt -3.420544 129.5913
vt -26.16795 126.5552
vt -26.16972 150.3183
vt -26.16972 199.0918
vt -4.876793 150.3183
vt 24.04389 199.0918
vt -3.420544 148.8782
vt 24.04389 148.8782
vt -9.403641 148.8276
vt -9.403641 199.1424
vt 3.693089 148.8713
vt 5.745998 199.0918
vt 5.745998 150.3183
vt 28.97755 148.1723
vt 28.97755 124.0698
vt 27.6242 148.1723
vt 4.875017 124.0698
vt 26.16795 146.7322
vt 4.875017 146.7322
vt 28.97755 127.5731
vt 27.6242 127.5731
vt 28.97328 134.8651
vt 27.62477 128.562
vt 26.16972 130.6092
vt 4.876793 130.6092
vt 4.879283 134.8651
vt -1.912482 132.985
vt -9.505513 146.1019
vt 4.133892 143.5302
vt 3.099301 145.2977
vt 3.591179 146.1556
vt 11.32048 9.710733
vt 9.926656 1.743844
vt -8.591255 9.710733
vt -7.197434 1.743844
vt 7.078378 99.87727
vt -4.267327 99.87727
vt 6.067439 136.5524
vt -3.256388 136.5524
vt 9.96757 7.197434
vt 9.96757 -9.926656
vt -7.156519 7.197434
vt -7.156519 -9.926656
vt 9.96757 1.259204
vt -7.156519 1.259204
vt 11.36139 9.226092
vt -8.550341 9.226092
vt 9.071543 40.23561
vt -6.260491 40.23561
vt 8.077062 70.64034
vt -4.718178 87.38947
vt 7.667926 83.14904
vt 7.529229 87.38947
vt -11.32048 9.218935
vt 8.591255 9.218935
vt -9.926656 1.252046
vt 7.197434 1.252046
vt -14.02493 88.18671
vt -1.777518 88.18671
vt -12.09866 70.25887
vt -10.56464 55.98168
vt -9.030628 41.7045
vt 6.301406 41.7045
vt 7.156519 1.736686
vt -9.96757 1.736686
vt 8.550341 9.703575
vt -11.36139 9.703575
vt 20.35478 51.70921
vt 14.0977 25.58195
vt 12.622 54.5129
vt 1.625472 30.10403
vt -31.48182 65.29398
vt -11.25436 70.33694
vt -30.5311 56.73098
vt -9.669821 56.06528
vt -1.777518 39.17571
vt -14.02493 39.17571
vt -4.176304 65.20661
vt -12.13712 65.20661
vt -8.597816 12.36878
vt -5.7209 33.04145
vt 5.786764 12.36878
vt 2.909848 33.04145
vt -20.21947 107.4683
vt -21.67528 98.34341
vt -27.47852 113.9116
vt -27.838 113.5578
vt -38.81598 113.5578
vt -4.176304 82.19707
vt -12.13712 82.19707
vt -12.05032 113.7113
vt -20.01114 113.7113
vt 49.24475 70.09444
vt 48.95372 67.36682
vt 40.26717 70.09444
vt 31.34279 56.65534
vt 32.25685 65.22234
vt -44.70837 117.5651
vt -55.09914 117.5651
vt -55.08178 125.1915
vt -55.10218 116.2271
vt -28.91056 105.9506
vt -28.93096 96.98623
vt -29.97027 31.86377
vt -24.16692 36.95631
vt -15.1925 10.43955
vt -5.83225 18.65332
vt 2.967015 89.41013
vt 2.34095 103.0617
vt 26.94189 99.72405
vt 26.53495 108.5976
vt 13.08608 87.26978
vt 5.711371 87.26978
vt 17.83909 106.2928
vt 10.46439 106.2928
vt 13.58539 118.784
vt 20.96009 118.784
vt 21.94056 108.4717
vt 29.21477 114.8979
vt 23.54093 99.37107
vt 29.58414 114.5451
vt 40.71742 114.5451
vt 5.508407 85.2088
vt -2.697356 85.2088
vt 0.09271965 107.4788
vt -8.113044 107.4788
vt 23.50145 86.5306
vt 15.40669 69.11296
vt 14.68483 86.5306
vt 7.342046 70.731
vt -20.15277 117.0658
vt -12.27943 117.0658
vt -20.01114 115.7475
vt -12.05032 115.7475
vt -13.58539 124.5796
vt -20.96009 124.5796
vt 30.61349 98.65246
vt 30.53697 107.535
vt 56.91302 117.7176
vt 46.41223 119.0433
vt 56.9016 119.0433
vt 56.8365 126.6001
vt 7.529229 33.50959
vt -4.718178 33.50959
vt 5.508407 61.4072
vt -2.697356 61.4072
vt 8.00411 70.54273
vt 7.714393 83.05476
vt 33.62552 78.30545
vt 33.4459 86.06291
vt -5.206337 90.24877
vt -2.912805 99.68006
vt 2.395286 90.24877
vt 4.688817 99.68006
vt 31.09577 65.24354
vt 30.14505 56.68053
vt 10.86831 70.2865
vt 9.283768 56.01483
vt -6.604248 71.43246
vt -32.17958 79.65969
vt -6.03419 83.90836
vt -31.82615 87.39474
vt 15.48487 101.6812
vt 13.43286 82.58303
vt 4.13916 101.6812
vt 1.777518 88.09344
vt 1.050999 83.91341
vt 12.09866 70.1656
vt 10.56464 55.88841
vt -1.092129 71.58288
vt 9.030628 41.61123
vt -6.301406 41.61123
vt -7.078378 20.76955
vt -5.206337 47.96257
vt 4.267327 20.76955
vt 2.395286 47.96257
vt -4.387455 101.701
vt 22.05491 108.3166
vt -2.057076 88.10786
vt 23.61626 99.2092
vt -8.124088 5.455562
vt 5.313037 5.455562
vt -5.436663 -15.21711
vt 2.625612 -15.21711
vt -4.761671 87.3586
vt -28.73836 97.77399
vt -4.370758 101.1445
vt -28.48427 106.7348
vt 15.48487 26.89209
vt 4.13916 26.89209
vt 13.08608 51.59515
vt 5.711371 51.59515
vt -5.7209 56.2198
vt -5.7209 76.83243
vt 2.909848 56.2198
vt 2.909848 76.83243
vt 6.260491 42.66034
vt -9.071543 42.66034
vt 5.786764 57.01188
vt -8.597816 57.01188
vt 4.555917 101.5789
vt 2.225538 87.98575
vt -21.88645 108.1945
vt -23.4478 99.08708
vt 11.36139 7.25062
vt -8.550341 7.25062
vt 9.071543 41.41874
vt -6.260491 41.41874
vt -11.32048 7.253362
vt -9.030628 41.42148
vt 8.591255 7.253362
vt 6.301406 41.42148
vt 8.550341 7.067715
vt -11.36139 7.067715
vt 6.260491 41.23583
vt -9.071543 41.23583
vt 11.32048 7.064973
vt -8.591255 7.064973
vt 9.030628 41.23309
vt -6.301406 41.23309
vt -15.48487 101.8132
vt -7.3869 137.9956
vt -4.13916 101.8132
vt 1.936926 137.9956
vt 15.48487 101.7346
vt 4.13916 101.7346
vt 7.3869 137.917
vt -1.936926 137.917
vt 4.267327 96.12528
vt -7.078378 96.12528
vt 3.256388 133.189
vt -6.067439 133.189
vt 5.313037 71.36343
vt -8.124088 71.36343
vt 4.718178 89.38464
vt -7.712069 83.84554
vt -7.078378 103.0432
vt 4.267327 103.0432
vt 33.05156 77.24304
vt 33.11389 85.00233
vt 48.14133 85.95182
vt 34.75909 85.95182
vt -49.18409 70.19418
vt -40.2065 70.19418
vt -48.89306 67.46655
vt -31.28213 56.75508
vt -32.19619 65.32207
vt 2.909848 72.40844
vt -5.7209 72.40844
vt 2.819351 75.15005
vt -5.630403 75.15005
vt -35.02293 78.21884
vt -51.70801 87.73238
vt -34.99847 85.96193
vt -38.10353 87.73238
vt -17.68497 76.20148
vt -9.409039 76.20148
vt -16.17856 72.96009
vt -8.608477 74.4789
vt 5.436663 61.45263
vt -2.625612 61.45263
vt 5.436663 70.82827
vt -2.625612 70.82827

usemtl natureKit-leavesGreen
# usermap natureKit-leavesGreen

f 2/2/1 1/1/1 3/3/1
f 5/5/2 4/4/2 6/6/2
f 8/8/3 7/7/3 9/9/3
f 9/9/3 10/10/3 8/8/3
f 1/12/4 10/11/4 9/13/4
f 9/13/4 5/14/4 1/12/4
f 9/16/5 7/15/5 11/17/5
f 8/19/6 10/18/6 12/20/6
f 6/22/7 3/21/7 1/23/7
f 1/23/7 5/24/7 6/22/7
f 14/26/8 13/25/8 15/27/8
f 13/29/9 2/28/9 3/30/9
f 3/30/9 15/31/9 13/29/9
f 12/33/10 10/32/10 1/34/10
f 1/34/10 2/35/10 12/33/10
f 5/37/11 9/36/11 11/38/11
f 11/38/11 4/39/11 5/37/11
f 17/41/12 16/40/12 18/42/12
f 17/44/13 19/43/13 20/45/13
f 20/45/13 16/46/13 17/44/13
f 16/48/14 8/47/14 12/49/14
f 12/49/14 18/50/14 16/48/14
f 22/52/6 21/51/6 23/53/6
f 25/55/13 24/54/13 26/56/13
f 26/56/13 27/57/13 25/55/13
f 27/59/14 22/58/14 23/60/14
f 23/60/14 28/61/14 27/59/14
f 29/63/15 28/62/15 23/64/15
f 23/64/15 30/65/15 29/63/15
f 29/63/15 31/66/15 28/62/15
f 30/65/15 32/67/15 29/63/15
f 33/68/15 28/62/15 31/66/15
f 32/67/15 30/65/15 33/68/15
f 31/66/15 34/69/15 33/68/15
f 34/69/15 32/67/15 33/68/15
f 25/71/16 35/70/16 36/72/16
f 36/72/16 24/73/16 25/71/16
f 27/75/17 26/74/17 37/76/17
f 37/76/17 22/77/17 27/75/17
f 39/79/18 38/78/18 40/80/18
f 40/80/18 41/81/18 39/79/18
f 42/83/19 36/82/19 39/84/19
f 43/86/4 21/85/4 44/87/4
f 44/87/4 45/88/4 43/86/4
f 26/90/20 24/89/20 46/91/20
f 47/93/21 46/92/21 42/94/21
f 42/94/21 48/95/21 47/93/21
f 44/97/5 37/96/5 47/98/5
f 46/100/22 24/99/22 36/101/22
f 36/101/22 42/102/22 46/100/22
f 37/104/23 26/103/23 46/105/23
f 46/105/23 47/106/23 37/104/23
f 48/108/24 42/107/24 39/109/24
f 39/109/24 41/110/24 48/108/24
f 45/112/11 44/111/11 47/113/11
f 47/113/11 48/114/11 45/112/11
f 45/116/2 48/115/2 41/117/2
f 22/119/3 37/118/3 44/120/3
f 44/120/3 21/121/3 22/119/3
f 35/123/8 33/122/8 38/124/8
f 41/126/7 40/125/7 43/127/7
f 43/127/7 45/128/7 41/126/7
f 25/130/12 27/129/12 28/131/12
f 23/133/10 21/132/10 43/134/10
f 43/134/10 30/135/10 23/133/10
f 33/137/9 30/136/9 40/138/9
f 40/138/9 38/139/9 33/137/9
f 36/141/25 35/140/25 38/142/25
f 38/142/25 39/143/25 36/141/25
f 30/145/1 43/144/1 40/146/1
f 35/148/26 25/147/26 28/149/26
f 28/149/26 33/150/26 35/148/26
f 50/152/1 49/151/1 51/153/1
f 53/155/12 52/154/12 54/156/12
f 56/158/21 55/157/21 57/159/21
f 57/159/21 58/160/21 56/158/21
f 60/162/4 59/161/4 61/163/4
f 61/163/4 62/164/4 60/162/4
f 62/164/4 63/165/4 60/162/4
f 63/165/4 62/164/4 64/166/4
f 65/167/4 63/165/4 64/166/4
f 64/166/4 49/168/4 65/167/4
f 58/170/24 57/169/24 66/171/24
f 66/171/24 67/172/24 58/170/24
f 57/174/19 68/173/19 66/175/19
f 62/177/5 69/176/5 56/178/5
f 55/180/22 70/179/22 68/181/22
f 68/181/22 57/182/22 55/180/22
f 64/184/11 62/183/11 56/185/11
f 56/185/11 58/186/11 64/184/11
f 64/188/2 58/187/2 67/189/2
f 71/191/3 69/190/3 62/192/3
f 62/192/3 61/193/3 71/191/3
f 71/195/6 61/194/6 72/196/6
f 52/198/14 71/197/14 72/199/14
f 72/199/14 54/200/14 52/198/14
f 53/202/13 70/201/13 73/203/13
f 73/203/13 52/204/13 53/202/13
f 74/206/26 53/205/26 54/207/26
f 54/207/26 75/208/26 74/206/26
f 67/210/7 51/209/7 49/211/7
f 49/211/7 64/212/7 67/210/7
f 76/214/15 54/213/15 72/215/15
f 72/215/15 50/216/15 76/214/15
f 50/216/15 77/217/15 76/214/15
f 50/216/15 78/218/15 77/217/15
f 54/213/15 76/214/15 79/219/15
f 79/219/15 75/220/15 54/213/15
f 79/219/15 78/218/15 75/220/15
f 78/218/15 50/216/15 75/220/15
f 72/222/10 61/221/10 59/223/10
f 59/223/10 80/224/10 72/222/10
f 72/222/10 80/224/10 20/225/10
f 72/222/10 20/225/10 19/226/10
f 19/226/10 50/227/10 72/222/10
f 19/226/10 81/228/10 50/227/10
f 81/228/10 82/229/10 50/227/10
f 49/230/10 50/227/10 82/229/10
f 49/230/10 82/229/10 83/231/10
f 83/231/10 65/232/10 49/230/10
f 73/234/20 70/233/20 55/235/20
f 69/237/23 73/236/23 55/238/23
f 55/238/23 56/239/23 69/237/23
f 52/241/17 73/240/17 69/242/17
f 69/242/17 71/243/17 52/241/17
f 53/245/16 74/244/16 68/246/16
f 68/246/16 70/247/16 53/245/16
f 85/249/18 84/248/18 86/250/18
f 86/250/18 87/251/18 85/249/18
f 89/253/20 88/252/20 90/254/20
f 91/256/23 89/255/23 90/257/23
f 90/257/23 92/258/23 91/256/23
f 92/260/21 90/259/21 93/261/21
f 93/261/21 94/262/21 92/260/21
f 95/264/5 91/263/5 92/265/5
f 97/267/4 96/266/4 95/268/4
f 95/268/4 98/269/4 97/267/4
f 100/271/16 99/270/16 101/272/16
f 101/272/16 88/273/16 100/271/16
f 90/275/22 88/274/22 101/276/22
f 101/276/22 93/277/22 90/275/22
f 94/279/24 93/278/24 85/280/24
f 85/280/24 87/281/24 94/279/24
f 103/283/15 102/282/15 104/284/15
f 104/284/15 105/285/15 103/283/15
f 103/283/15 106/286/15 102/282/15
f 105/285/15 107/287/15 103/283/15
f 105/285/15 108/288/15 107/287/15
f 109/289/15 102/282/15 106/286/15
f 106/286/15 108/288/15 109/289/15
f 108/288/15 105/285/15 109/289/15
f 93/291/19 101/290/19 85/292/19
f 110/294/17 89/293/17 91/295/17
f 91/295/17 111/296/17 110/294/17
f 111/298/6 96/297/6 104/299/6
f 104/301/10 96/300/10 97/302/10
f 97/302/10 105/303/10 104/301/10
f 100/305/12 110/304/12 102/306/12
f 98/308/11 95/307/11 92/309/11
f 92/309/11 94/310/11 98/308/11
f 101/312/25 99/311/25 84/313/25
f 84/313/25 85/314/25 101/312/25
f 109/316/9 105/315/9 86/317/9
f 86/317/9 84/318/9 109/316/9
f 99/320/26 100/319/26 102/321/26
f 102/321/26 109/322/26 99/320/26
f 111/324/3 91/323/3 95/325/3
f 95/325/3 96/326/3 111/324/3
f 87/328/7 86/327/7 97/329/7
f 97/329/7 98/330/7 87/328/7
f 110/332/14 111/331/14 104/333/14
f 104/333/14 102/334/14 110/332/14
f 100/336/13 88/335/13 89/337/13
f 89/337/13 110/338/13 100/336/13
f 105/340/1 97/339/1 86/341/1
f 99/343/8 109/342/8 84/344/8
f 98/346/2 94/345/2 87/347/2
f 113/349/21 112/348/21 114/350/21
f 114/350/21 115/351/21 113/349/21
f 117/353/15 116/352/15 118/354/15
f 118/354/15 119/355/15 117/353/15
f 119/355/15 120/356/15 117/353/15
f 119/355/15 121/357/15 120/356/15
f 116/352/15 117/353/15 122/358/15
f 122/358/15 117/353/15 120/356/15
f 120/356/15 121/357/15 122/358/15
f 122/358/15 123/359/15 116/352/15
f 122/358/15 121/357/15 123/359/15
f 121/357/15 119/355/15 123/359/15
f 125/361/16 124/360/16 126/362/16
f 126/362/16 127/363/16 125/361/16
f 129/365/4 128/364/4 130/366/4
f 130/366/4 131/367/4 129/365/4
f 133/369/18 132/368/18 134/370/18
f 134/370/18 135/371/18 133/369/18
f 136/373/20 127/372/20 112/374/20
f 125/376/13 127/375/13 136/377/13
f 136/377/13 137/378/13 125/376/13
f 139/380/5 138/379/5 113/381/5
f 113/381/5 130/382/5 139/380/5
f 140/383/5 139/380/5 130/382/5
f 135/385/7 134/384/7 129/386/7
f 129/386/7 131/387/7 135/385/7
f 112/389/22 127/388/22 126/390/22
f 126/390/22 114/391/22 112/389/22
f 142/393/3 141/392/3 140/394/3
f 140/394/3 128/395/3 142/393/3
f 140/394/3 130/396/3 128/395/3
f 126/398/25 124/397/25 132/399/25
f 132/399/25 133/400/25 126/398/25
f 142/402/6 128/401/6 118/403/6
f 123/405/9 119/404/9 134/406/9
f 134/406/9 132/407/9 123/405/9
f 125/409/12 137/408/12 116/410/12
f 119/412/1 129/411/1 134/413/1
f 137/415/14 142/414/14 118/416/14
f 118/416/14 116/417/14 137/415/14
f 118/419/10 128/418/10 129/420/10
f 129/420/10 119/421/10 118/419/10
f 114/423/19 126/422/19 133/424/19
f 115/426/24 114/425/24 133/427/24
f 133/427/24 135/428/24 115/426/24
f 131/430/11 130/429/11 113/431/11
f 113/431/11 115/432/11 131/430/11
f 124/434/26 125/433/26 116/435/26
f 116/435/26 123/436/26 124/434/26
f 131/438/2 115/437/2 135/439/2
f 124/441/8 123/440/8 132/442/8
f 143/444/26 18/443/26 144/445/26
f 18/443/26 143/444/26 14/446/26
f 14/446/26 17/447/26 18/443/26
f 143/444/26 145/448/26 14/446/26
f 145/448/26 146/449/26 14/446/26
f 146/449/26 13/450/26 14/446/26
f 147/452/15 18/451/15 12/453/15
f 12/453/15 2/454/15 147/452/15
f 147/452/15 144/455/15 18/451/15
f 2/454/15 148/456/15 147/452/15
f 148/456/15 2/454/15 13/457/15
f 13/457/15 146/458/15 148/456/15
f 8/460/17 16/459/17 20/461/17
f 20/461/17 80/462/17 8/460/17
f 80/462/17 7/463/17 8/460/17
f 11/465/21 60/464/21 63/466/21
f 63/466/21 4/467/21 11/465/21
f 7/469/23 80/468/23 59/470/23
f 59/470/23 11/471/23 7/469/23
f 59/470/23 60/472/23 11/471/23
f 4/474/24 63/473/24 65/475/24
f 65/475/24 6/476/24 4/474/24
f 65/475/24 83/477/24 6/476/24
f 82/479/18 15/478/18 3/480/18
f 3/480/18 83/481/18 82/479/18
f 3/480/18 6/482/18 83/481/18
f 81/484/25 14/483/25 15/485/25
f 15/485/25 82/486/25 81/484/25
f 17/488/16 14/487/16 81/489/16
f 81/489/16 19/490/16 17/488/16
f 75/492/9 50/491/9 51/493/9
f 51/493/9 141/494/9 75/492/9
f 51/493/9 140/495/9 141/494/9
f 51/493/9 139/496/9 140/495/9
f 75/492/9 141/494/9 149/497/9
f 66/499/18 150/498/18 138/500/18
f 138/500/18 67/501/18 66/499/18
f 138/500/18 139/502/18 67/501/18
f 139/502/18 51/503/18 67/501/18
f 68/505/25 74/504/25 151/506/25
f 151/506/25 66/507/25 68/505/25
f 151/506/25 150/508/25 66/507/25
f 137/510/17 136/509/17 152/511/17
f 152/511/17 142/512/17 137/510/17
f 152/511/17 149/513/17 142/512/17
f 149/513/17 141/514/17 142/512/17
f 152/516/23 136/515/23 112/517/23
f 112/517/23 151/518/23 152/516/23
f 112/517/23 150/519/23 151/518/23
f 112/517/23 138/520/23 150/519/23
f 112/517/23 113/521/23 138/520/23
f 74/523/8 75/522/8 149/524/8
f 149/524/8 152/525/8 74/523/8
f 152/525/8 151/526/8 74/523/8

usemtl natureKit-wood
# usermap natureKit-wood

f 154/528/28 153/527/27 155/529/27
f 155/529/27 156/530/28 154/528/28
f 158/532/29 157/531/29 76/533/29
f 76/533/29 77/534/29 158/532/29
f 154/536/15 156/535/15 159/537/15
f 159/537/15 160/538/15 154/536/15
f 159/540/30 156/539/30 155/541/31
f 155/541/31 161/542/31 159/540/30
f 163/544/32 162/543/32 164/545/33
f 164/545/33 165/546/34 163/544/32
f 164/545/33 166/547/35 165/546/34
f 166/547/35 167/548/34 165/546/34
f 161/550/36 168/549/36 160/551/37
f 160/551/37 159/552/37 161/550/36
f 165/554/38 169/553/38 170/555/39
f 170/555/39 171/556/40 165/554/38
f 171/556/40 172/557/41 165/554/38
f 172/557/41 163/558/42 165/554/38
f 154/560/43 160/559/43 168/561/44
f 168/561/44 153/562/44 154/560/43
f 174/564/46 173/563/45 175/565/47
f 175/565/47 164/566/46 174/564/46
f 170/568/39 176/567/48 177/569/49
f 177/569/49 171/570/40 170/568/39
f 169/572/50 165/571/50 178/573/51
f 178/573/51 179/574/52 169/572/50
f 181/576/53 180/575/53 171/577/53
f 171/577/53 177/578/53 181/576/53
f 183/580/55 182/579/54 143/581/56
f 143/581/56 144/582/56 183/580/55
f 144/582/56 147/583/56 183/580/55
f 179/585/52 178/584/51 184/586/57
f 184/586/57 185/587/57 179/585/52
f 186/589/58 106/588/58 103/590/58
f 103/590/58 181/591/59 186/589/58
f 103/590/58 187/592/60 181/591/59
f 120/594/61 117/593/61 188/595/61
f 117/593/61 120/594/61 184/596/61
f 189/597/62 117/593/61 184/596/61
f 184/596/61 178/598/63 189/597/62
f 191/600/64 190/599/64 192/601/64
f 192/601/64 166/602/64 191/600/64
f 193/604/66 169/603/65 179/605/67
f 179/605/67 194/606/68 193/604/66
f 189/608/69 194/607/69 122/609/69
f 122/609/69 117/610/69 189/608/69
f 188/611/69 117/610/69 122/609/69
f 122/609/69 195/612/69 188/611/69
f 145/614/70 196/613/70 197/615/70
f 197/615/70 146/616/70 145/614/70
f 197/615/70 148/617/70 146/616/70
f 197/619/72 183/618/71 147/620/73
f 147/620/73 148/621/73 197/619/72
f 173/623/45 31/622/74 29/624/74
f 29/624/74 175/625/47 173/623/45
f 120/627/38 121/626/38 185/628/38
f 185/628/38 184/629/38 120/627/38
f 121/626/38 120/627/38 188/630/38
f 188/630/38 195/631/38 121/626/38
f 194/633/68 179/632/67 185/634/75
f 185/634/75 122/635/75 194/633/68
f 185/634/75 121/636/75 122/635/75
f 122/635/75 121/636/75 195/637/75
f 165/639/76 167/638/76 183/640/71
f 183/640/71 197/641/72 165/639/76
f 166/643/35 164/642/33 175/644/77
f 175/644/77 191/645/78 166/643/35
f 143/647/79 182/646/79 196/648/79
f 196/648/79 145/649/79 143/647/79
f 181/651/59 187/650/60 174/652/80
f 174/652/80 180/653/81 181/651/59
f 173/655/83 174/654/82 192/656/84
f 192/656/84 190/657/83 173/655/83
f 192/659/86 198/658/85 157/660/87
f 157/660/87 167/661/88 192/659/86
f 167/661/88 166/662/86 192/659/86
f 180/664/81 174/663/80 164/665/86
f 164/665/86 199/666/89 180/664/81
f 164/665/86 162/667/90 199/666/89
f 182/669/91 157/668/91 158/670/91
f 158/670/91 196/671/91 182/669/91
f 196/673/92 158/672/92 165/674/92
f 165/674/92 197/675/92 196/673/92
f 170/677/93 174/676/93 187/678/93
f 187/678/93 176/679/93 170/677/93
f 178/681/63 165/680/94 158/682/94
f 158/682/94 189/683/62 178/681/63
f 158/685/95 193/684/95 194/686/95
f 194/686/95 189/687/95 158/685/95
f 186/689/96 181/688/96 177/690/96
f 177/690/96 200/691/96 186/689/96
f 199/693/97 172/692/97 171/694/98
f 171/694/98 180/695/98 199/693/97
f 167/697/88 157/696/87 182/698/54
f 182/698/54 183/699/55 167/697/88
f 161/701/31 155/700/31 162/702/32
f 162/702/32 163/703/32 161/701/31
f 172/705/41 168/704/36 161/706/36
f 161/706/36 163/707/42 172/705/41
f 153/709/44 168/708/44 172/710/97
f 172/710/97 199/711/97 153/709/44
f 155/713/27 153/712/27 199/714/89
f 199/714/89 162/715/90 155/713/27
f 78/717/99 193/716/99 158/718/99
f 158/718/99 77/719/99 78/717/99
f 157/721/87 198/720/85 79/722/100
f 79/722/100 76/723/100 157/721/87
f 198/725/101 193/724/66 78/726/102
f 78/726/102 79/727/102 198/725/101
f 174/729/82 170/728/98 169/730/65
f 169/730/65 192/731/84 174/729/82
f 169/730/65 198/732/101 192/731/84
f 169/730/65 193/733/66 198/732/101
f 191/735/78 175/734/77 29/736/103
f 29/736/103 32/737/103 191/735/78
f 107/739/104 108/738/104 200/740/104
f 200/740/104 177/741/49 107/739/104
f 177/741/49 176/742/48 107/739/104
f 186/744/98 200/743/98 108/745/98
f 108/745/98 106/746/98 186/744/98
f 31/748/105 173/747/105 190/749/105
f 190/749/105 34/750/105 31/748/105
f 32/752/106 34/751/106 190/753/106
f 190/753/106 191/754/106 32/752/106
f 176/756/107 187/755/107 103/757/107
f 103/757/107 107/758/107 176/756/107
