# Exported using Kenney Suite 1.2 

mtllib tree_pine_tall.mtl 

g tree_pine_tall

v 1.786335 12.32112 -1.155392 
v 1.161237 14.76167 -0.5837855 
v -0.08260012 12.54084 -2.22774 
v 0.04396439 14.55053 -1.359448 
v -0.08260012 12.25691 2.091746 
v -1.951535 12.47663 1.019397 
v 0.06822109 14.7715 1.305347 
v -1.142254 14.56451 0.7312157 
v 0.945251 17.26475 -0.6779402 
v 0.2350211 20.75002 -0.007365839 
v -0.09013653 17.36932 -1.272897 
v 0.09013653 20.76465 -0.09061939 
v -1.295609 14.42453 -0.7336038 
v 0.1454282 14.54585 -1.580914 
v -0.9233618 17.38317 -0.5343237 
v -0.1344705 17.35723 -1.011377 
v -1.125526 17.33574 0.5244228 
v -1.125526 17.40482 -0.6717159 
v -0.05474567 20.75995 0.1608832 
v -0.05474567 20.76962 -0.006494861 
v 1.786335 12.17915 1.004351 
v 1.116486 14.85735 0.6595595 
v 0 10.33531 2.7735 
v -2.401922 10.33531 1.38675 
v 0 12.26874 1.811358 
v -1.490457 12.45026 0.8605158 
v -2.401922 10.33531 -1.38675 
v 0 10.33531 -2.7735 
v -1.444058 12.55792 -0.833728 
v 0 12.49933 -1.696611 
v 1.586463 14.94024 0.9133337 
v 0.7941008 17.2099 0.4493393 
v 1.586463 14.80371 -0.7574459 
v 0.7440662 17.27222 -0.5710911 
v -1.951535 12.6186 -1.140346 
v -1.229115 14.43632 -0.6968886 
v 0.09013653 20.74532 0.2441368 
v 0.2350211 20.74036 0.1600122 
v -0.9396124 17.33063 0.3945368 
v -0.09013653 17.23117 1.11938 
v -0.1067877 17.2429 0.9357255 
v 0.945251 17.19567 0.5181985 
v 0.1454282 14.81891 1.760644 
v 2.401922 10.33531 1.38675 
v 1.598523 12.19951 0.9229073 
v -1.295609 14.56106 0.9371757 
v 1.545272 12.32306 -0.8921635 
v -0.245049 10.33531 -0.24505 
v 0.245049 10.33531 -0.24505 
v 2.401922 10.33531 -1.38675 
v 0.245049 10.33531 0.24505 
v -0.245049 10.33531 0.24505 
v -0.4637098 0 -0.46371 
v -0.4637098 0 0.46371 
v 0.4637098 0 -0.46371 
v 0.4637098 0 0.46371 

vn -0.4997833 0.3168149 0.8061296
vn 0.4501656 0.2910093 -0.8441947
vn -0.5006481 0.2608347 0.8254191
vn 0.5106877 0.1215807 0.8511265
vn 0.9537545 0.3000866 -0.01732997
vn -0.9695024 0.2445539 -0.01607502
vn 0.4591739 0.395774 -0.7953126
vn 0.4591739 0.395774 0.7953126
vn -0.9454625 0.3246486 0.02652906
vn 0.4539441 0.377335 0.8071883
vn -0.06754791 0.9960564 -0.05752217
vn -0.4539923 0.2201079 0.8633907
vn -0.4963835 0.2318518 -0.8365692
vn 0.06754791 -0.9960564 0.05752217
vn 0.931022 0.3641771 -0.02393808
vn -0.4579715 0.3287354 -0.8259511
vn -0.4591739 0.395774 -0.7953126
vn -0.4981681 0.1854064 -0.8470261
vn 0.4660704 0.2362641 -0.8526182
vn -0.9802253 0.1975556 -0.01140882
vn 0.9920399 0.1255058 0.01025586
vn 0.4689363 0.3125458 0.8260834
vn 0.07942531 -0.9946943 0.06538323
vn 0 -1 0
vn -0.4591739 0.395774 0.7953126
vn 0.918348 0.395774 0
vn -0.918348 0.395774 0
vn 0.5135161 0.2280811 -0.8272123
vn -0.1306715 -0.9881321 -0.08074643
vn 0 0.02115187 -0.9997763
vn -0.9997763 0.02115187 0
vn 0 0.02115187 0.9997763
vn 0.9997763 0.02115187 0

vt -14.32155 174.4427
vt -10.69819 214.9639
vt 19.59148 178.0908
vt 10.69235 211.4584
vt 14.35187 176.0315
vt -19.56452 179.6482
vt 10.62051 217.4227
vt -10.4543 214.0156
vt -7.190966 258.0795
vt -3.104366 314.9338
vt 11.60935 259.7853
vt -0.4736003 315.1725
vt 11.55159 222.9921
vt -14.77308 224.917
vt 8.139522 269.9331
vt -6.378772 269.5214
vt 7.935252 255.0585
vt -10.89847 256.1989
vt 2.517513 311.5885
vt -0.1179274 311.748
vt -15.34801 179.0311
vt -10.09385 222.5282
vt 18.65901 181.3368
vt 9.495381 220.9742
vt 21.83858 134.5007
vt -21.83858 134.5007
vt 14.26266 167.6556
vt -13.55143 170.7683
vt 13.12957 172.6145
vt -13.35914 171.6098
vt -15.0783 214.5586
vt -7.424184 252.3481
vt 11.22284 212.2854
vt 8.661363 253.3858
vt -16.06294 171.1152
vt -11.09753 205.2902
vt 17.98466 172.4374
vt 11.49168 203.3481
vt -2.487918 28.02326
vt -0.481102 29.73898
vt -2.006816 25.42586
vt 2.006816 28.85731
vt 0.481102 24.54419
vt 2.487918 26.25991
vt 9.559835 218.366
vt -16.5615 222.5287
vt 9.286922 263.7526
vt -6.185553 262.3803
vt 16.12197 180.0895
vt -17.92803 181.3483
vt 9.820711 223.4473
vt -9.56587 222.0574
vt 17.77948 32.32953
vt 3.021277 40.74881
vt 3.438113 44.59064
vt -14.34136 38.28993
vt 14.32396 31.42305
vt -10.75317 36.14283
vt -14.44426 21.05454
vt -17.77948 19.72811
vt -2.720431 9.992286
vt 14.34136 13.76771
vt 12.30941 15.85071
vt -3.438113 7.466996
vt 15.25826 171.6511
vt -18.7422 174.0516
vt 11.04905 206.9554
vt -11.46851 204.7879
vt -11.44238 212.0621
vt -8.616488 252.4816
vt 14.87492 214.0852
vt 7.505372 251.9312
vt 14.53397 166.4683
vt -14.26266 167.6556
vt 8.694094 263.3995
vt -10.16022 263.9684
vt 1.912789 320.2062
vt -0.7255329 320.2858
vt 7.209742 259.8592
vt -11.59158 261.554
vt 3.089637 316.8126
vt 0.4587314 317.0498
vt -7.986809 262.5016
vt -2.476633 319.4457
vt 10.84874 263.6113
vt 0.159064 319.601
vt 14.96881 224.9534
vt -11.34128 222.7862
vt 6.365812 268.9164
vt -8.263777 269.7504
vt -8.661426 254.1618
vt -1.938957 310.4516
vt 10.19229 254.7503
vt 0.6992806 310.534
vt 31.92665 33.66592
vt 4.316536 46.1094
vt 5.667799 55.39762
vt -26.25885 43.49484
vt 25.38009 29.62877
vt -20.62794 37.14089
vt -31.92665 9.860368
vt -26.31351 10.15826
vt -4.778253 -8.756165
vt 26.25885 0.03145329
vt 22.02308 1.843116
vt -5.667799 -11.87133
vt 37.82553 21.83858
vt 37.82553 -21.83858
vt 0 43.67717
vt 3.859055 3.859055
vt -3.859055 3.859055
vt -37.82553 21.83858
vt -3.859055 -3.859055
vt 3.859055 -3.859055
vt 0 -43.67717
vt -37.82553 -21.83858
vt 13.35914 171.6098
vt -14.04982 168.5871
vt 13.55143 170.7683
vt -13.12957 172.6145
vt -14.53397 166.4683
vt 14.04982 168.5871
vt -9.550768 217.9496
vt -9.294711 262.7457
vt 16.56931 222.1203
vt 6.343149 261.3267
vt -23.28043 25.73852
vt -0.8389452 12.95033
vt -0.8975402 11.74125
vt 22.38288 24.17969
vt 18.57602 24.65946
vt 17.4338 46.30523
vt 23.28043 50.61541
vt -19.25174 26.09216
vt -22.38288 52.17424
vt -16.92255 47.31316
vt 0.4066544 56.11486
vt 0.8975402 64.61269
vt 7.30252 7.30252
vt 7.30252 -7.30252
vt -7.30252 7.30252
vt -7.30252 -7.30252
vt 7.30252 -0.1544619
vt -7.30252 -0.1544619
vt 3.859055 162.6427
vt -3.859055 162.6427

usemtl natureKit-leaves
# usermap natureKit-leaves

f 2/2/1 1/1/1 3/3/1
f 3/3/1 4/4/1 2/2/1
f 6/6/2 5/5/2 7/7/2
f 7/7/2 8/8/2 6/6/2
f 10/10/3 9/9/3 11/11/3
f 11/11/3 12/12/3 10/10/3
f 14/14/4 13/13/4 15/15/4
f 15/15/4 16/16/4 14/14/4
f 18/18/5 17/17/5 19/19/5
f 19/19/5 20/20/5 18/18/5
f 22/22/6 21/21/6 1/23/6
f 1/23/6 2/24/6 22/22/6
f 24/26/7 23/25/7 25/27/7
f 25/27/7 26/28/7 24/26/7
f 28/26/8 27/25/8 29/29/8
f 29/29/8 30/30/8 28/26/8
f 32/32/9 31/31/9 33/33/9
f 33/33/9 34/34/9 32/32/9
f 4/36/10 3/35/10 35/37/10
f 35/37/10 36/38/10 4/36/10
f 20/40/11 19/39/11 37/41/11
f 37/41/11 12/42/11 20/40/11
f 37/41/11 38/43/11 12/42/11
f 38/43/11 10/44/11 12/42/11
f 33/46/12 14/45/12 16/47/12
f 16/47/12 34/48/12 33/46/12
f 5/50/13 21/49/13 22/51/13
f 22/51/13 7/52/13 5/50/13
f 15/54/14 17/53/14 18/55/14
f 18/55/14 11/56/14 15/54/14
f 15/54/14 39/57/14 17/53/14
f 11/56/14 16/58/14 15/54/14
f 11/56/14 34/59/14 16/58/14
f 11/56/14 9/60/14 34/59/14
f 9/60/14 32/61/14 34/59/14
f 40/62/14 17/53/14 39/57/14
f 39/57/14 41/63/14 40/62/14
f 41/63/14 32/61/14 40/62/14
f 32/61/14 42/64/14 40/62/14
f 32/61/14 9/60/14 42/64/14
f 35/66/15 6/65/15 8/67/15
f 8/67/15 36/68/15 35/66/15
f 41/70/16 43/69/16 31/71/16
f 31/71/16 32/72/16 41/70/16
f 23/26/17 44/25/17 45/73/17
f 45/73/17 25/74/17 23/26/17
f 40/76/18 42/75/18 38/77/18
f 38/77/18 37/78/18 40/76/18
f 17/80/19 40/79/19 37/81/19
f 37/81/19 19/82/19 17/80/19
f 38/84/20 42/83/20 9/85/20
f 9/85/20 10/86/20 38/84/20
f 13/88/21 46/87/21 39/89/21
f 39/89/21 15/90/21 13/88/21
f 12/92/22 11/91/22 18/93/22
f 18/93/22 20/94/22 12/92/22
f 29/96/23 6/95/23 35/97/23
f 35/97/23 3/98/23 29/96/23
f 29/96/23 26/99/23 6/95/23
f 3/98/23 30/100/23 29/96/23
f 3/98/23 1/101/23 30/100/23
f 1/101/23 47/102/23 30/100/23
f 1/101/23 45/103/23 47/102/23
f 5/104/23 6/95/23 26/99/23
f 26/99/23 25/105/23 5/104/23
f 25/105/23 21/106/23 5/104/23
f 25/105/23 45/103/23 21/106/23
f 45/103/23 1/101/23 21/106/23
f 24/108/24 27/107/24 28/109/24
f 28/109/24 48/110/24 24/108/24
f 28/109/24 49/111/24 48/110/24
f 28/109/24 50/112/24 49/111/24
f 50/112/24 51/113/24 49/111/24
f 24/108/24 48/110/24 52/114/24
f 52/114/24 23/115/24 24/108/24
f 52/114/24 51/113/24 23/115/24
f 51/113/24 44/116/24 23/115/24
f 51/113/24 50/112/24 44/116/24
f 50/26/25 28/25/25 30/117/25
f 30/117/25 47/118/25 50/26/25
f 27/26/26 24/25/26 26/119/26
f 26/119/26 29/120/26 27/26/26
f 45/121/27 44/26/27 50/25/27
f 50/25/27 47/122/27 45/121/27
f 39/124/28 46/123/28 43/125/28
f 43/125/28 41/126/28 39/124/28
f 36/128/29 46/127/29 13/129/29
f 13/129/29 14/130/29 36/128/29
f 14/130/29 4/131/29 36/128/29
f 14/130/29 2/132/29 4/131/29
f 14/130/29 33/133/29 2/132/29
f 46/127/29 36/128/29 8/134/29
f 8/134/29 43/135/29 46/127/29
f 8/134/29 7/136/29 43/135/29
f 7/136/29 22/137/29 43/135/29
f 22/137/29 31/138/29 43/135/29
f 22/137/29 2/132/29 31/138/29
f 2/132/29 33/133/29 31/138/29

usemtl natureKit-wood
# usermap natureKit-wood

f 54/140/24 53/139/24 55/141/24
f 55/141/24 56/142/24 54/140/24
f 54/144/30 56/143/30 51/145/30
f 51/145/30 52/146/30 54/144/30
f 51/146/31 56/144/31 55/143/31
f 55/143/31 49/145/31 51/146/31
f 55/144/32 53/143/32 48/145/32
f 48/145/32 49/146/32 55/144/32
f 53/144/33 54/143/33 52/145/33
f 52/145/33 48/146/33 53/144/33
