# Exported using Kenney Suite 1.2 

mtllib tree_pine_tall_detailed.mtl 

g tree_pine_tall_detailed

v 1.786335 12.67112 -1.155392 
v 1.161237 15.11167 -0.5837855 
v -0.08260012 12.89084 -2.22774 
v 0.04396439 14.90053 -1.359448 
v -0.08260012 12.60691 2.091746 
v -1.951535 12.82663 1.019397 
v 0.06822109 15.1215 1.305347 
v -1.142254 14.91451 0.7312157 
v 0.945251 17.61475 -0.6779402 
v 0.2350211 21.10002 -0.007365839 
v -0.09013653 17.71932 -1.272897 
v 0.09013653 21.11465 -0.09061939 
v -1.295609 14.77453 -0.7336038 
v 0.1454282 14.89585 -1.580914 
v -0.9233618 17.73317 -0.5343237 
v -0.1344705 17.70723 -1.011377 
v -1.125526 17.68574 0.5244228 
v -1.125526 17.75482 -0.6717159 
v -0.05474567 21.10995 0.1608832 
v -0.05474567 21.11962 -0.006494861 
v 1.786335 12.52915 1.004351 
v 1.116486 15.20735 0.6595595 
v 0 10.68531 2.7735 
v -2.401922 10.68531 1.38675 
v 0 12.61875 1.811358 
v -1.490457 12.80026 0.8605158 
v -2.401922 10.68531 -1.38675 
v 0 10.68531 -2.7735 
v -1.444058 12.90792 -0.833728 
v 0 12.84933 -1.696611 
v -1.951535 12.9686 -1.140346 
v -1.229115 14.78632 -0.6968886 
v 0.09013653 21.09532 0.2441368 
v 0.2350211 21.09035 0.1600122 
v 1.586463 15.15371 -0.7574459 
v 0.7440662 17.62222 -0.5710911 
v -0.9396124 17.68063 0.3945368 
v 0.7941008 17.5599 0.4493393 
v -0.09013653 17.58117 1.11938 
v -0.1067877 17.5929 0.9357255 
v 0.945251 17.54567 0.5181985 
v -1.295609 14.91106 0.9371757 
v 0.1454282 15.16891 1.760644 
v 1.586463 15.29024 0.9133337 
v 2.401922 10.68531 1.38675 
v 1.598523 12.54951 0.9229073 
v 1.545272 12.67306 -0.8921635 
v -0.245049 10.68531 -0.24505 
v 0.245049 10.68531 -0.24505 
v 2.401922 10.68531 -1.38675 
v 0.245049 10.68531 0.24505 
v -0.245049 10.68531 0.24505 
v -0.107882 4.755552 -0.8706154 
v 0.1511192 4.755552 -0.8706154 
v -0.107882 5.088478 -0.8635718 
v 0.1511192 5.088478 -0.8635718 
v -0.6463981 8.261947 0.11622 
v -0.6541848 7.893927 0.11622 
v -0.6463981 8.261947 -0.11128 
v -0.6541848 7.893927 -0.11128 
v -0.3059316 7.807662 0.16497 
v -0.2948093 8.333405 0.16497 
v -0.2948093 8.333405 -0.16003 
v -0.3059316 7.807662 -0.16003 
v 0.196619 5.136389 -0.3624463 
v 0.196619 4.686489 -0.3719646 
v -0.1533818 4.686489 -0.3719646 
v -0.1533818 5.136389 -0.3624463 
v 0.6825805 6.551746 0.1372201 
v 0.6754947 6.886671 0.1372201 
v 0.6825805 6.551746 -0.1140299 
v 0.6754947 6.886671 -0.1140299 
v 0.1178145 3.992285 0.6867188 
v -0.1061845 3.992285 0.6867188 
v 0.1178145 4.258225 0.6810924 
v -0.1061845 4.258225 0.6810924 
v -0.1941848 4.356356 0.3789491 
v 0.2058148 4.356356 0.3789491 
v 0.2058148 3.881463 0.3889963 
v -0.1941848 3.881463 0.3889963 
v 0.3344035 6.461861 -0.1759049 
v 0.3238273 6.961749 -0.1759049 
v 0.3344035 6.461861 0.1990951 
v 0.3238273 6.961749 0.1990951 
v -0.4637098 0.35 0.46371 
v 0.4637098 0.35 0.46371 
v 0.4637098 0.35 -0.46371 
v -0.4637098 0.35 -0.46371 
v -0.6028223 0 -0.602823 
v -0.6028223 0 0.602823 
v 0.6028223 0 -0.602823 
v 0.6028223 0 0.602823 

vn -0.4997833 0.3168149 0.8061296
vn 0.4501656 0.2910093 -0.8441947
vn -0.5006481 0.2608347 0.8254191
vn 0.5106877 0.1215807 0.8511265
vn 0.9537545 0.3000866 -0.01732997
vn -0.9695024 0.2445539 -0.01607502
vn 0.4591739 0.395774 -0.7953126
vn 0.4591739 0.395774 0.7953126
vn 0.4539441 0.377335 0.8071883
vn -0.06754791 0.9960564 -0.05752217
vn -0.4539923 0.2201079 0.8633907
vn -0.4963835 0.2318518 -0.8365692
vn 0.06754791 -0.9960564 0.05752217
vn 0.5135161 0.2280811 -0.8272123
vn 0.931022 0.3641771 -0.02393808
vn -0.4579715 0.3287354 -0.8259511
vn -0.4591739 0.395774 -0.7953126
vn -0.4981681 0.1854064 -0.8470261
vn 0.4660704 0.2362641 -0.8526182
vn -0.9802253 0.1975556 -0.01140882
vn 0.9920399 0.1255058 0.01025586
vn 0.4689363 0.3125458 0.8260834
vn 0.07942531 -0.9946943 0.06538323
vn 0 -1 0
vn -0.4591739 0.395774 0.7953126
vn 0.918348 0.395774 0
vn -0.918348 0.395774 0
vn -0.1306715 -0.9881321 -0.08074643
vn -0.9454625 0.3246486 0.02652906
vn 0 0.02115187 0.9997763
vn 0.9997763 0.02115187 0
vn 0.1379231 0.002917983 -0.9904386
vn 0.1991713 0.9799647 0
vn 0.1379231 0.002917983 0.9904386
vn 0.24044 -0.9706641 0
vn -0.9958851 0.001916899 0.09060527
vn 0 -0.9905448 0.1371899
vn 0 0.9954608 0.09517277
vn 0.9958851 0.001916899 0.09060527
vn -0.9997763 0.02115187 0
vn 0 0.02115187 -0.9997763
vn 0 0.9510946 -0.3088996
vn -0.959569 0.005953691 -0.2814106
vn 0 -0.9371789 -0.348849
vn 0.959569 0.005953691 -0.2814106
vn -0.1740473 0.003682249 0.9847304
vn -0.1740473 0.003682249 -0.9847304
vn -0.2499631 -0.9682553 0
vn -0.2087878 0.977961 0
vn 0 0.3693595 -0.9292865
vn -0.9292865 0.3693595 0
vn 0.9292865 0.3693595 0
vn 0 0.3693595 0.9292865

vt -14.32155 179.6706
vt -10.69819 220.1918
vt 19.59148 183.3187
vt 10.69235 216.6863
vt 14.35187 181.3048
vt -19.56452 184.9215
vt 10.62051 222.696
vt -10.4543 219.2888
vt -7.190966 263.4005
vt -3.104366 320.2548
vt 11.60935 265.1064
vt -0.4736003 320.4935
vt 11.55159 228.463
vt -14.77308 230.3879
vt 8.139522 275.404
vt -6.378772 274.9923
vt 7.935252 260.3163
vt -10.89847 261.4566
vt 2.517513 316.8463
vt -0.1179274 317.0058
vt -15.34801 184.3756
vt -10.09385 227.8727
vt 18.65901 186.6812
vt 9.495381 226.3186
vt 21.83858 139.5624
vt -21.83858 139.5624
vt 14.26266 172.7174
vt -13.55143 175.83
vt 13.12957 177.6762
vt -13.35914 176.6715
vt -16.06294 176.2195
vt -11.09753 210.3946
vt 17.98466 177.5418
vt 11.49168 208.4524
vt -2.487918 28.51227
vt -0.481102 30.22799
vt -2.006816 25.91488
vt 2.006816 29.34632
vt 0.481102 25.03321
vt 2.487918 26.74893
vt 9.559835 223.7426
vt -16.5615 227.9054
vt 9.286922 269.1292
vt -6.185553 267.7569
vt 16.12197 185.4511
vt -17.92803 186.7099
vt 9.820711 228.8089
vt -9.56587 227.419
vt 17.77948 32.81855
vt 3.021277 41.23782
vt 3.438113 45.07966
vt -14.34136 38.77895
vt 14.32396 31.91207
vt -10.75317 36.63185
vt -14.44426 21.54355
vt -17.77948 20.21712
vt -2.720431 10.4813
vt 14.34136 14.25673
vt 12.30941 16.33973
vt -3.438113 7.956012
vt -9.550768 223.3162
vt -9.294711 268.1122
vt 16.56931 227.4868
vt 6.343149 266.6932
vt 15.25826 176.7844
vt -18.7422 179.1849
vt 11.04905 212.0887
vt -11.46851 209.9212
vt -11.44238 217.2676
vt -8.616488 257.6871
vt 14.87492 219.2907
vt 7.505372 257.1367
vt 14.53397 171.5301
vt -14.26266 172.7174
vt 8.694094 268.8157
vt -10.16022 269.3846
vt 1.912789 325.6225
vt -0.7255329 325.7021
vt 7.209742 265.2149
vt -11.59158 266.9098
vt 3.089637 322.1684
vt 0.4587314 322.4055
vt -7.986809 267.9048
vt -2.476633 324.8489
vt 10.84874 269.0145
vt 0.159064 325.0042
vt 14.96881 230.4216
vt -11.34128 228.2544
vt 6.365812 274.3846
vt -8.263777 275.2186
vt -8.661426 259.3975
vt -1.938957 315.6873
vt 10.19229 259.986
vt 0.6992806 315.7697
vt 31.92665 34.23296
vt 4.316536 46.67643
vt 5.667799 55.96465
vt -26.25885 44.06187
vt 25.38009 30.1958
vt -20.62794 37.70792
vt -31.92665 10.4274
vt -26.31351 10.72529
vt -4.778253 -8.189135
vt 26.25885 0.598483
vt 22.02308 2.410146
vt -5.667799 -11.3043
vt 37.82553 21.83858
vt 37.82553 -21.83858
vt 0 43.67717
vt 3.859055 3.859055
vt -3.859055 3.859055
vt -37.82553 21.83858
vt -3.859055 -3.859055
vt 3.859055 -3.859055
vt 0 -43.67717
vt -37.82553 -21.83858
vt 13.35914 176.6715
vt -14.04982 173.6489
vt 13.55143 175.83
vt -13.12957 177.6762
vt -14.53397 171.5301
vt 14.04982 173.6489
vt -23.28043 26.58517
vt -0.8389452 13.79699
vt -0.8975402 12.5879
vt 22.38288 25.02634
vt 18.57602 25.50611
vt 17.4338 47.15187
vt 23.28043 51.46206
vt -19.25174 26.93881
vt -22.38288 53.02089
vt -16.92255 48.15981
vt 0.4066544 56.96152
vt 0.8975402 65.45934
vt -15.0783 219.7719
vt -7.424184 257.5614
vt 11.22284 217.4987
vt 8.661363 258.5991
vt 1.698914 74.58382
vt -2.379826 74.58382
vt 1.698914 79.82792
vt -2.379826 79.82792
vt 1.830236 129.865
vt 1.830236 124.0681
vt -1.752442 129.865
vt -1.752442 124.0681
vt -4.413451 122.9453
vt -9.951226 124.3038
vt -4.239961 131.2248
vt -9.829783 130.0995
vt 1.830236 15.93851
vt -1.752442 15.93851
vt 2.597952 21.58856
vt -2.520158 21.58856
vt 4.424181 122.9456
vt 4.25069 131.225
vt 9.961956 124.3041
vt 9.840512 130.0997
vt -1.752442 39.8899
vt 1.830236 39.8899
vt -2.520158 34.23985
vt 2.597952 34.23985
vt 5.403791 80.88096
vt 13.32799 80.12645
vt 5.55307 73.79591
vt 13.43846 74.88352
vt 2.415449 15.92735
vt -3.096362 15.92735
vt 1.698914 23.85507
vt -2.379826 23.85507
vt 2.415449 2.016428
vt 1.698914 -5.911298
vt -3.096362 2.016428
vt -2.379826 -5.911298
vt -5.465486 80.88226
vt -5.614765 73.79722
vt -13.38969 80.12775
vt -13.50015 74.88482
vt -2.160947 102.9267
vt -2.160947 108.2022
vt 1.795746 102.9267
vt 1.795746 108.2022
vt 1.855356 62.62782
vt -1.672203 62.62782
vt 1.855356 66.81679
vt -1.672203 66.81679
vt -3.05803 15.51591
vt 3.241183 15.51591
vt -1.672203 10.51308
vt 1.855356 10.51308
vt -9.855287 62.84079
vt -9.770263 67.02891
vt -4.966233 61.09553
vt -4.814404 68.5743
vt -3.05803 27.06462
vt -1.672203 32.06745
vt 3.241183 27.06462
vt 1.855356 32.06745
vt 9.906829 62.84184
vt 5.017775 61.09658
vt 9.821805 67.02995
vt 4.865947 68.57535
vt -4.703683 101.7475
vt -10.27269 103.163
vt -4.539675 109.6198
vt -10.1628 108.4374
vt 4.64012 101.7462
vt 4.476112 109.6185
vt 10.20912 103.1617
vt 10.09924 108.4361
vt 2.770155 30.53568
vt -3.135356 30.53568
vt 1.795746 36.19854
vt -2.160947 36.19854
vt -3.135356 17.90295
vt 2.770155 17.90295
vt -2.160947 12.24009
vt 1.795746 12.24009
vt -7.30252 5.356116
vt 3.241183 60.98214
vt 7.30252 5.356116
vt 3.859055 168.1533
vt 3.241183 68.46246
vt -3.05803 68.46246
vt -3.05803 60.98214
vt -3.859055 168.1533
vt 2.415449 73.66257
vt 2.415449 80.74918
vt -3.096362 80.74918
vt -3.096362 73.66257
vt 2.597952 131.1072
vt -2.520158 131.1072
vt -2.520158 122.8259
vt 2.597952 122.8259
vt 9.493276 9.493276
vt 9.493276 -9.493276
vt -9.493276 9.493276
vt -9.493276 -9.493276
vt 9.493276 -3.506432
vt -9.493276 -3.506432
vt 7.30252 2.424797
vt -7.30252 2.424797
vt -3.135356 101.6274
vt 2.770155 101.6274
vt 2.770155 109.5014
vt -3.135356 109.5014

usemtl natureKit-leaves
# usermap natureKit-leaves

f 2/2/1 1/1/1 3/3/1
f 3/3/1 4/4/1 2/2/1
f 6/6/2 5/5/2 7/7/2
f 7/7/2 8/8/2 6/6/2
f 10/10/3 9/9/3 11/11/3
f 11/11/3 12/12/3 10/10/3
f 14/14/4 13/13/4 15/15/4
f 15/15/4 16/16/4 14/14/4
f 18/18/5 17/17/5 19/19/5
f 19/19/5 20/20/5 18/18/5
f 22/22/6 21/21/6 1/23/6
f 1/23/6 2/24/6 22/22/6
f 24/26/7 23/25/7 25/27/7
f 25/27/7 26/28/7 24/26/7
f 28/26/8 27/25/8 29/29/8
f 29/29/8 30/30/8 28/26/8
f 4/32/9 3/31/9 31/33/9
f 31/33/9 32/34/9 4/32/9
f 20/36/10 19/35/10 33/37/10
f 33/37/10 12/38/10 20/36/10
f 33/37/10 34/39/10 12/38/10
f 34/39/10 10/40/10 12/38/10
f 35/42/11 14/41/11 16/43/11
f 16/43/11 36/44/11 35/42/11
f 5/46/12 21/45/12 22/47/12
f 22/47/12 7/48/12 5/46/12
f 15/50/13 17/49/13 18/51/13
f 18/51/13 11/52/13 15/50/13
f 15/50/13 37/53/13 17/49/13
f 11/52/13 16/54/13 15/50/13
f 11/52/13 36/55/13 16/54/13
f 11/52/13 9/56/13 36/55/13
f 9/56/13 38/57/13 36/55/13
f 39/58/13 17/49/13 37/53/13
f 37/53/13 40/59/13 39/58/13
f 40/59/13 38/57/13 39/58/13
f 38/57/13 41/60/13 39/58/13
f 38/57/13 9/56/13 41/60/13
f 37/62/14 42/61/14 43/63/14
f 43/63/14 40/64/14 37/62/14
f 31/66/15 6/65/15 8/67/15
f 8/67/15 32/68/15 31/66/15
f 40/70/16 43/69/16 44/71/16
f 44/71/16 38/72/16 40/70/16
f 23/26/17 45/25/17 46/73/17
f 46/73/17 25/74/17 23/26/17
f 39/76/18 41/75/18 34/77/18
f 34/77/18 33/78/18 39/76/18
f 17/80/19 39/79/19 33/81/19
f 33/81/19 19/82/19 17/80/19
f 34/84/20 41/83/20 9/85/20
f 9/85/20 10/86/20 34/84/20
f 13/88/21 42/87/21 37/89/21
f 37/89/21 15/90/21 13/88/21
f 12/92/22 11/91/22 18/93/22
f 18/93/22 20/94/22 12/92/22
f 29/96/23 6/95/23 31/97/23
f 31/97/23 3/98/23 29/96/23
f 29/96/23 26/99/23 6/95/23
f 3/98/23 30/100/23 29/96/23
f 3/98/23 1/101/23 30/100/23
f 1/101/23 47/102/23 30/100/23
f 1/101/23 46/103/23 47/102/23
f 5/104/23 6/95/23 26/99/23
f 26/99/23 25/105/23 5/104/23
f 25/105/23 21/106/23 5/104/23
f 25/105/23 46/103/23 21/106/23
f 46/103/23 1/101/23 21/106/23
f 24/108/24 27/107/24 28/109/24
f 28/109/24 48/110/24 24/108/24
f 28/109/24 49/111/24 48/110/24
f 28/109/24 50/112/24 49/111/24
f 50/112/24 51/113/24 49/111/24
f 24/108/24 48/110/24 52/114/24
f 52/114/24 23/115/24 24/108/24
f 52/114/24 51/113/24 23/115/24
f 51/113/24 45/116/24 23/115/24
f 51/113/24 50/112/24 45/116/24
f 50/26/25 28/25/25 30/117/25
f 30/117/25 47/118/25 50/26/25
f 27/26/26 24/25/26 26/119/26
f 26/119/26 29/120/26 27/26/26
f 46/121/27 45/26/27 50/25/27
f 50/25/27 47/122/27 46/121/27
f 32/124/28 42/123/28 13/125/28
f 13/125/28 14/126/28 32/124/28
f 14/126/28 4/127/28 32/124/28
f 14/126/28 2/128/28 4/127/28
f 14/126/28 35/129/28 2/128/28
f 42/123/28 32/124/28 8/130/28
f 8/130/28 43/131/28 42/123/28
f 8/130/28 7/132/28 43/131/28
f 7/132/28 22/133/28 43/131/28
f 22/133/28 44/134/28 43/131/28
f 22/133/28 2/128/28 44/134/28
f 2/128/28 35/129/28 44/134/28
f 38/136/29 44/135/29 35/137/29
f 35/137/29 36/138/29 38/136/29

usemtl natureKit-wood
# usermap natureKit-wood

f 54/140/30 53/139/30 55/141/30
f 55/141/30 56/142/30 54/140/30
f 58/144/31 57/143/31 59/145/31
f 59/145/31 60/146/31 58/144/31
f 58/148/32 61/147/32 62/149/32
f 62/149/32 57/150/32 58/148/32
f 59/152/33 57/151/33 62/153/33
f 62/153/33 63/154/33 59/152/33
f 63/156/34 64/155/34 60/157/34
f 60/157/34 59/158/34 63/156/34
f 58/160/35 60/159/35 64/161/35
f 64/161/35 61/162/35 58/160/35
f 56/164/36 65/163/36 66/165/36
f 66/165/36 54/166/36 56/164/36
f 66/168/37 67/167/37 53/169/37
f 53/169/37 54/170/37 66/168/37
f 55/172/38 68/171/38 65/173/38
f 65/173/38 56/174/38 55/172/38
f 67/176/39 68/175/39 55/177/39
f 55/177/39 53/178/39 67/176/39
f 70/180/40 69/179/40 71/181/40
f 71/181/40 72/182/40 70/180/40
f 74/184/41 73/183/41 75/185/41
f 75/185/41 76/186/41 74/184/41
f 78/188/42 77/187/42 76/189/42
f 76/189/42 75/190/42 78/188/42
f 75/192/43 73/191/43 79/193/43
f 79/193/43 78/194/43 75/192/43
f 74/196/44 80/195/44 79/197/44
f 79/197/44 73/198/44 74/196/44
f 80/200/45 74/199/45 76/201/45
f 76/201/45 77/202/45 80/200/45
f 71/204/46 81/203/46 82/205/46
f 82/205/46 72/206/46 71/204/46
f 84/208/47 83/207/47 69/209/47
f 69/209/47 70/210/47 84/208/47
f 83/212/48 81/211/48 71/213/48
f 71/213/48 69/214/48 83/212/48
f 82/216/49 84/215/49 70/217/49
f 70/217/49 72/218/49 82/216/49
f 79/220/41 85/219/41 86/221/41
f 86/221/41 51/222/41 79/220/41
f 51/222/41 78/223/41 79/220/41
f 51/222/41 77/224/41 78/223/41
f 85/219/41 79/220/41 80/225/41
f 80/225/41 52/226/41 85/219/41
f 80/225/41 77/224/41 52/226/41
f 77/224/41 51/222/41 52/226/41
f 67/227/30 87/219/30 88/221/30
f 88/221/30 48/222/30 67/227/30
f 48/222/30 68/228/30 67/227/30
f 48/222/30 65/229/30 68/228/30
f 87/219/30 67/227/30 66/230/30
f 66/230/30 49/226/30 87/219/30
f 66/230/30 65/229/30 49/226/30
f 65/229/30 48/222/30 49/226/30
f 62/231/31 52/222/31 48/226/31
f 48/226/31 63/232/31 62/231/31
f 48/226/31 64/233/31 63/232/31
f 52/222/31 62/231/31 61/234/31
f 85/221/31 52/222/31 61/234/31
f 61/234/31 88/219/31 85/221/31
f 61/234/31 64/233/31 88/219/31
f 64/233/31 48/226/31 88/219/31
f 90/236/24 89/235/24 91/237/24
f 91/237/24 92/238/24 90/236/24
f 90/240/50 92/239/50 86/241/50
f 86/241/50 85/242/50 90/240/50
f 86/242/51 92/240/51 91/239/51
f 91/239/51 87/241/51 86/242/51
f 89/240/52 90/239/52 85/241/52
f 85/241/52 88/242/52 89/240/52
f 91/240/53 89/239/53 88/241/53
f 88/241/53 87/242/53 91/240/53
f 83/243/40 51/226/40 86/219/40
f 86/219/40 87/221/40 83/243/40
f 87/221/40 81/244/40 83/243/40
f 87/221/40 82/245/40 81/244/40
f 87/221/40 49/222/40 82/245/40
f 84/246/40 49/222/40 51/226/40
f 51/226/40 83/243/40 84/246/40
f 84/246/40 82/245/40 49/222/40
