# Exported using Kenney Suite 1.2 

mtllib tree_tall.mtl 

g tree_tall

v 0.4668665 0 0.4668656 
v -0.4668665 0 0.4668656 
v 0.2964592 2.899837 0.2964597 
v -0.2964592 2.899837 0.2964597 
v 0.4668665 0 -0.4668656 
v 0.2964592 2.899837 -0.2964597 
v -0.4668665 0 -0.4668656 
v -0.2964592 2.899837 -0.2964597 
v 1.997917 6.639114 1.153498 
v 0 6.639114 2.306995 
v 1.089389 16.0998 0.6289597 
v 0 16.0998 1.257919 
v -1.997917 6.639114 1.153498 
v -1.211326 3.374207 0.69936 
v -1.997917 6.639114 -1.153498 
v -1.211326 3.374207 -0.69936 
v 0 3.374207 -1.39872 
v 0 6.639114 -2.306995 
v 0 2.899837 0.839232 
v 0 3.374207 1.39872 
v 0.7267952 2.899837 0.419616 
v 1.211326 3.374207 0.69936 
v 1.211326 3.374207 -0.69936 
v 1.997917 6.639114 -1.153498 
v 0 16.0998 -1.257919 
v 1.089389 16.0998 -0.6289597 
v -1.089389 16.0998 -0.6289597 
v -0.7267952 2.899837 0.419616 
v -0.7267952 2.899837 -0.419616 
v 0 2.899837 -0.839232 
v 0.7267952 2.899837 -0.419616 
v -1.089389 16.0998 0.6289597 
v 0.5836964 16.87719 0.3369966 
v 0 16.87719 0.6739932 
v -0.5836964 16.87719 0.3369966 
v 0.5836964 16.87719 -0.3369966 
v 0 16.87719 -0.6739932 
v -0.5836964 16.87719 -0.3369966 

vn 0 0.0516433 -0.9986656
vn -0.9986656 0.0516433 0
vn 0.9986656 0.0516433 0
vn 0 0.0516433 0.9986656
vn 0 -1 0
vn -0.4991359 -0.05876575 -0.8645287
vn -0.4982241 0.08420781 -0.8629494
vn 0.9982718 -0.05876576 0
vn 0.9782559 -0.2074017 0
vn 0.4891279 -0.2074017 0.8471944
vn 0.4991359 -0.05876575 0.8645287
vn -0.37186 -0.6684912 -0.6440804
vn -0.4891279 -0.2074017 0.8471944
vn -0.4991359 -0.05876575 0.8645287
vn -0.4982241 0.08420781 0.8629494
vn 0.4982241 0.08420781 0.8629494
vn 0.74372 -0.6684912 0
vn 0.4891279 -0.2074017 -0.8471944
vn 0.4991359 -0.05876575 -0.8645287
vn 0.37186 -0.6684912 0.6440804
vn 0.37186 -0.6684912 -0.6440804
vn -0.37186 -0.6684912 0.6440804
vn 0.9964482 0.0842078 0
vn -0.74372 -0.6684912 0
vn -0.9982718 -0.05876576 0
vn -0.9782559 -0.2074017 0
vn 0.4982241 0.08420781 -0.8629494
vn -0.9964482 0.0842078 0
vn -0.4891279 -0.2074017 -0.8471944
vn -0.4339319 0.4968024 -0.751592
vn 0.4339319 0.4968024 -0.751592
vn -0.8678637 0.4968024 0
vn -0.4339319 0.4968024 0.751592
vn 0.8678637 0.4968024 0
vn 0.4339319 0.4968024 0.751592
vn 0 1 0

vt 7.905607 -0.4082716
vt -7.905607 -0.4082716
vt 5.020061 55.46629
vt -5.020061 55.46629
vt 7.905607 7.905607
vt 7.905607 -7.905607
vt -7.905607 7.905607
vt -7.905607 -7.905607
vt 19.5326 124.4503
vt -19.5326 124.4503
vt 10.65041 307.146
vt -10.65041 307.146
vt 19.5326 131.9917
vt 11.84252 67.77045
vt -19.5326 131.9917
vt -11.84252 67.77045
vt -7.105512 49.72677
vt -11.84252 62.00029
vt 7.105512 49.72677
vt 11.84252 62.00029
vt 12.30711 7.105512
vt 12.30711 -7.105512
vt 0 14.21102
vt 5.020061 5.020061
vt -5.020061 5.020061
vt -12.30711 7.105512
vt -5.020061 -5.020061
vt 5.020061 -5.020061
vt 0 -14.21102
vt -12.30711 -7.105512
vt 10.65041 259.6994
vt -10.65041 259.6994
vt 5.706488 276.9359
vt -5.706488 276.9359
vt -9.883926 -5.706488
vt -9.883926 5.706488
vt -2.273737E-13 -11.41298
vt -2.273737E-13 11.41298
vt 9.883926 -5.706488
vt 9.883926 5.706488

usemtl natureKit-wood
# usermap natureKit-wood

f 2/2/1 1/1/1 3/3/1
f 3/3/1 4/4/1 2/2/1
f 3/4/2 1/2/2 5/1/2
f 5/1/2 6/3/2 3/4/2
f 7/2/3 2/1/3 4/3/3
f 4/3/3 8/4/3 7/2/3
f 5/2/4 7/1/4 8/3/4
f 8/3/4 6/4/4 5/2/4
f 2/6/5 7/5/5 5/7/5
f 5/7/5 1/8/5 2/6/5

usemtl natureKit-leavesGreen
# usermap natureKit-leavesGreen

f 10/10/6 9/9/6 11/11/7
f 11/11/7 12/12/7 10/10/6
f 14/14/9 13/13/8 15/15/8
f 15/15/8 16/16/9 14/14/9
f 17/16/10 16/14/10 15/13/11
f 15/13/11 18/15/11 17/16/10
f 20/18/12 19/17/12 21/19/12
f 21/19/12 22/20/12 20/18/12
f 23/16/13 17/14/13 18/13/14
f 18/13/14 24/15/14 23/16/13
f 24/10/14 18/9/14 25/11/15
f 25/11/15 26/12/15 24/10/14
f 18/10/11 15/9/11 27/11/16
f 27/11/16 25/12/16 18/10/11
f 28/19/17 14/20/17 16/18/17
f 16/18/17 29/17/17 28/19/17
f 14/16/18 20/14/18 10/13/19
f 10/13/19 13/15/19 14/16/18
f 29/19/20 16/20/20 17/18/20
f 17/18/20 30/17/20 29/19/20
f 20/20/21 14/18/21 28/17/21
f 28/17/21 19/19/21 20/20/21
f 28/22/5 29/21/5 30/23/5
f 30/23/5 8/24/5 28/22/5
f 30/23/5 6/25/5 8/24/5
f 30/23/5 31/26/5 6/25/5
f 31/26/5 3/27/5 6/25/5
f 28/22/5 8/24/5 4/28/5
f 4/28/5 19/29/5 28/22/5
f 4/28/5 3/27/5 19/29/5
f 3/27/5 21/30/5 19/29/5
f 3/27/5 31/26/5 21/30/5
f 31/17/22 30/19/22 17/20/22
f 17/20/22 23/18/22 31/17/22
f 15/10/8 13/9/8 32/11/23
f 32/11/23 27/12/23 15/10/8
f 23/20/24 22/18/24 21/17/24
f 21/17/24 31/19/24 23/20/24
f 24/13/25 9/15/25 22/16/26
f 22/16/26 23/14/26 24/13/25
f 13/10/19 10/9/19 12/11/27
f 12/11/27 32/12/27 13/10/19
f 11/12/28 9/10/25 24/9/25
f 24/9/25 26/11/28 11/12/28
f 20/16/29 22/14/29 9/13/6
f 9/13/6 10/15/6 20/16/29
f 12/32/30 11/31/30 33/33/30
f 33/33/30 34/34/30 12/32/30
f 32/32/31 12/31/31 34/33/31
f 34/33/31 35/34/31 32/32/31
f 33/34/32 11/32/32 26/31/32
f 26/31/32 36/33/32 33/34/32
f 26/32/33 25/31/33 37/33/33
f 37/33/33 36/34/33 26/32/33
f 27/32/34 32/31/34 35/33/34
f 35/33/34 38/34/34 27/32/34
f 25/32/35 27/31/35 38/33/35
f 38/33/35 37/34/35 25/32/35
f 38/36/36 35/35/36 34/37/36
f 34/37/36 37/38/36 38/36/36
f 34/37/36 33/39/36 37/38/36
f 33/39/36 36/40/36 37/38/36
