# Exported using Kenney Suite 1.2 

mtllib tree_small.mtl 

g tree_small

v 0 3.450375 -2.0475 
v 1.773186 3.450375 -1.02375 
v 0 6.338249 -2.0475 
v 1.773186 6.338249 -1.02375 
v -1.773186 6.338249 1.02375 
v -1.773186 3.450375 1.02375 
v -1.773186 6.338249 -1.02375 
v -1.773186 3.450375 -1.02375 
v -1.028447 10.14412 -0.593775 
v 0 10.14412 -1.18755 
v 1.028447 10.14412 -0.593775 
v 0 11.10037 0 
v 0 6.338249 2.0475 
v 0 10.14412 1.18755 
v -1.028447 10.14412 0.593775 
v 1.773186 6.338249 1.02375 
v 1.028447 10.14412 0.593775 
v 1.773186 3.450375 1.02375 
v 0 3.450375 2.0475 
v -0.9929848 2.8575 -0.5733 
v -0.9929848 2.8575 0.5733 
v 0 2.8575 -1.1466 
v -0.2570748 2.8575 -0.2570757 
v 0.2570748 2.8575 -0.2570757 
v 0.9929848 2.8575 -0.5733 
v 0.2570748 2.8575 0.2570757 
v -0.2570748 2.8575 0.2570757 
v 0 2.8575 1.1466 
v 0.9929848 2.8575 0.5733 
v 0.4048443 0 0.4048436 
v -0.4048443 0 0.4048436 
v -0.4048443 0 -0.4048436 
v 0.4048443 0 -0.4048436 

vn -0.5 0 0.8660254
vn -0.4978352 0.09295463 0.8622758
vn 0.9956703 0.09295462 0
vn 1 0 0
vn 0.4978352 0.09295463 0.8622758
vn 0.4906936 0.1920391 0.8499063
vn 0.5 0 0.8660254
vn -0.4906936 0.1920391 0.8499063
vn 0.3404668 0.7323452 0.5897058
vn 0.4978352 0.09295463 -0.8622758
vn 0.4906936 0.1920391 -0.8499063
vn -0.9956703 0.09295462 0
vn -0.9813873 0.1920391 0
vn 0.9813873 0.1920391 0
vn 0.3404668 0.7323452 -0.5897058
vn -0.3404668 0.7323452 -0.5897058
vn -0.6809335 0.7323452 0
vn -0.5 0 -0.8660254
vn -0.4978352 0.09295463 -0.8622758
vn -1 0 0
vn -0.4906936 0.1920391 -0.8499063
vn 0.6809335 0.7323452 0
vn -0.3404668 0.7323452 0.5897058
vn 0.5 0 -0.8660254
vn 0 -1 0
vn -0.3025162 -0.7962009 0.5239733
vn 0.6050324 -0.7962009 0
vn -0.3025162 -0.7962009 -0.5239733
vn 0.3025162 -0.7962009 -0.5239733
vn -0.6050324 -0.7962009 0
vn 0.3025162 -0.7962009 0.5239733
vn 0 0.0516433 -0.9986656
vn 0 0.0516433 0.9986656
vn -0.9986656 0.0516433 0
vn 0.9986656 0.0516433 0

vt 17.91339 60.37402
vt -17.91339 60.37402
vt 17.91339 110.9055
vt -17.91339 110.9055
vt 17.91339 102.8829
vt -17.91339 102.8829
vt 10.38976 170.7404
vt -10.38976 170.7404
vt -7.105427E-15 132.2593
vt 10.38976 107.6867
vt -10.38976 107.6867
vt 0 132.2593
vt -1.577722E-30 132.2593
vt 17.37506 10.0315
vt 17.37506 -10.0315
vt 0 20.06299
vt 4.498262 4.498262
vt -4.498262 4.498262
vt -17.37506 10.0315
vt -4.498262 -4.498262
vt 4.498262 -4.498262
vt 0 -20.06299
vt -17.37506 -10.0315
vt 17.91339 61.23187
vt 10.0315 44.08566
vt -17.91339 61.23187
vt -10.0315 44.08566
vt 7.083878 -0.3658348
vt -7.083878 -0.3658348
vt 4.498262 49.70097
vt -4.498262 49.70097
vt 7.083878 7.083878
vt 7.083878 -7.083878
vt -7.083878 7.083878
vt -7.083878 -7.083878

usemtl natureKit-leavesGreen
# usermap natureKit-leavesGreen

f 2/2/1 1/1/1 3/3/2
f 3/3/2 4/4/2 2/2/1
f 6/1/4 5/3/3 7/4/3
f 7/4/3 8/2/4 6/1/4
f 3/6/5 7/5/5 9/7/6
f 9/7/6 10/8/6 3/6/5
f 1/2/7 8/1/7 7/3/5
f 7/3/5 3/4/5 1/2/7
f 4/6/2 3/5/2 10/7/8
f 10/7/8 11/8/8 4/6/2
f 9/10/9 12/9/9 10/11/9
f 5/6/10 13/5/10 14/7/11
f 14/7/11 15/8/11 5/6/10
f 17/8/13 16/6/12 4/5/12
f 4/5/12 11/7/13 17/8/13
f 7/6/3 5/5/3 15/7/14
f 15/7/14 9/8/14 7/6/3
f 15/11/15 14/10/15 12/12/15
f 12/12/16 14/11/16 17/10/16
f 12/12/17 17/11/17 11/10/17
f 19/2/18 18/1/18 16/3/19
f 16/3/19 13/4/19 19/2/18
f 16/4/12 18/2/20 2/1/20
f 2/1/20 4/3/12 16/4/12
f 13/6/19 16/5/19 17/7/21
f 17/7/21 14/8/21 13/6/19
f 9/11/22 15/10/22 12/13/22
f 10/10/23 12/12/23 11/11/23
f 6/2/24 19/1/24 13/3/10
f 13/3/10 5/4/10 6/2/24
f 21/15/25 20/14/25 22/16/25
f 22/16/25 23/17/25 21/15/25
f 22/16/25 24/18/25 23/17/25
f 22/16/25 25/19/25 24/18/25
f 25/19/25 26/20/25 24/18/25
f 21/15/25 23/17/25 27/21/25
f 27/21/25 28/22/25 21/15/25
f 27/21/25 26/20/25 28/22/25
f 26/20/25 29/23/25 28/22/25
f 26/20/25 25/19/25 29/23/25
f 22/25/26 1/24/26 2/26/26
f 2/26/26 25/27/26 22/25/26
f 21/25/27 6/24/27 8/26/27
f 8/26/27 20/27/27 21/25/27
f 19/26/28 28/27/28 29/25/28
f 29/25/28 18/24/28 19/26/28
f 19/24/29 6/26/29 21/27/29
f 21/27/29 28/25/29 19/24/29
f 29/27/30 25/25/30 2/24/30
f 2/24/30 18/26/30 29/27/30
f 20/25/31 8/24/31 1/26/31
f 1/26/31 22/27/31 20/25/31

usemtl natureKit-wood
# usermap natureKit-wood

f 31/29/32 30/28/32 26/30/32
f 26/30/32 27/31/32 31/29/32
f 33/29/33 32/28/33 23/30/33
f 23/30/33 24/31/33 33/29/33
f 26/31/34 30/29/34 33/28/34
f 33/28/34 24/30/34 26/31/34
f 32/29/35 31/28/35 27/30/35
f 27/30/35 23/31/35 32/29/35
f 31/33/25 32/32/25 33/34/25
f 33/34/25 30/35/25 31/33/25
