# Exported using Kenney Suite 1.2 

mtllib treeStump_round.mtl 

g treeStump_round

v 1.606476 0 0.9275001 
v 0 0 1.855 
v 1.188793 0.735 0.6863499 
v 0 0.735 1.3727 
v 1.606476 0 -0.9275001 
v 1.188793 0.735 -0.6863499 
v 0 0 -1.855 
v 0 0.735 -1.3727 
v -1.606476 0 -0.9275001 
v -1.606476 0 0.9275001 
v -1.188793 2.065 -0.6863499 
v -0.8466792 2.065 0.4888304 
v -1.188793 2.065 0.6863499 
v 0 2.065 1.3727 
v 0 2.065 0.9776608 
v 1.188793 2.065 0.6863499 
v 0.8466792 2.065 0.4888304 
v 0.8466792 2.065 -0.4888304 
v -0.8466792 2.065 -0.4888304 
v 0 2.065 -1.3727 
v 0 2.065 -0.9776608 
v 1.188793 2.065 -0.6863499 
v -1.188793 0.735 0.6863499 
v -1.188793 0.735 -0.6863499 
v -0.6773424 1.785 0.3910643 
v -0.6773424 1.785 -0.3910643 
v 0 1.785 0.7821286 
v 0 1.785 -0.7821286 
v 0.6773424 1.785 0.3910643 
v 0.6773424 1.785 -0.3910643 

vn -0.4347104 0.4940723 -0.7529405
vn -0.8694208 0.4940723 0
vn -0.4347104 0.4940723 0.7529405
vn 0 -1 0
vn 0 1 0
vn -1 0 0
vn 0.5 0 -0.8660254
vn 1 0 0
vn 0.8694208 0.4940723 0
vn 0.4347104 0.4940723 -0.7529405
vn 0.4347104 0.4940723 0.7529405
vn -0.5 0 -0.8660254
vn -0.5 0 0.8660254
vn 0.5 0 0.8660254
vn -0.4278433 0.5174943 0.7410464
vn 0.4278433 0.5174943 -0.7410464
vn -0.4278433 0.5174943 -0.7410464
vn -0.8556866 0.5174943 0
vn 0.8556866 0.5174943 0
vn 0.4278433 0.5174943 0.7410464

vt 10.43307 -8.928188
vt -10.43307 -8.928188
vt 7.720472 0.581265
vt -7.720472 0.581265
vt 18.07061 10.43307
vt 18.07061 -10.43307
vt 0 20.86614
vt 0 -20.86614
vt -18.07061 10.43307
vt -18.07061 -10.43307
vt -13.37225 7.720472
vt -9.52395 -5.498655
vt -13.37225 -7.720472
vt 1.136868E-13 -15.44094
vt 1.136868E-13 -10.99731
vt 13.37225 -7.720472
vt 9.52395 -5.498655
vt 9.52395 5.498655
vt -9.52395 5.498655
vt 1.136868E-13 15.44094
vt 1.136868E-13 10.99731
vt 13.37225 7.720472
vt -7.720472 8.267716
vt -7.720472 23.22835
vt 7.720472 8.267716
vt 7.720472 23.22835
vt -7.61916 -4.398924
vt -7.61916 4.398924
vt 0 -8.797848
vt 0 8.797848
vt 7.61916 -4.398924
vt 7.61916 4.398924
vt 4.398924 21.12398
vt -4.398924 21.12398
vt 5.498655 24.80478
vt -5.498655 24.80478

usemtl natureKit-wood
# usermap natureKit-wood

f 2/2/1 1/1/1 3/3/1
f 3/3/1 4/4/1 2/2/1
f 3/4/2 1/2/2 5/1/2
f 5/1/2 6/3/2 3/4/2
f 5/2/3 7/1/3 8/3/3
f 8/3/3 6/4/3 5/2/3
f 10/6/4 9/5/4 7/7/4
f 7/7/4 2/8/4 10/6/4
f 7/7/4 5/9/4 2/8/4
f 5/9/4 1/10/4 2/8/4
f 12/12/5 11/11/5 13/13/5
f 13/13/5 14/14/5 12/12/5
f 14/14/5 15/15/5 12/12/5
f 14/14/5 16/16/5 15/15/5
f 16/16/5 17/17/5 15/15/5
f 16/16/5 18/18/5 17/17/5
f 11/11/5 12/12/5 19/19/5
f 19/19/5 20/20/5 11/11/5
f 19/19/5 21/21/5 20/20/5
f 21/21/5 18/18/5 20/20/5
f 18/18/5 22/22/5 20/20/5
f 18/18/5 16/16/5 22/22/5
f 16/24/6 3/23/6 6/25/6
f 6/25/6 22/26/6 16/24/6
f 23/23/7 4/25/7 14/26/7
f 14/26/7 13/24/7 23/23/7
f 23/25/8 13/26/8 11/24/8
f 11/24/8 24/23/8 23/25/8
f 9/2/9 10/1/9 23/3/9
f 23/3/9 24/4/9 9/2/9
f 10/2/10 2/1/10 4/3/10
f 4/3/10 23/4/10 10/2/10
f 7/2/11 9/1/11 24/3/11
f 24/3/11 8/4/11 7/2/11
f 4/23/12 3/25/12 16/26/12
f 16/26/12 14/24/12 4/23/12
f 6/23/13 8/25/13 20/26/13
f 20/26/13 22/24/13 6/23/13
f 8/23/14 24/25/14 11/26/14
f 11/26/14 20/24/14 8/23/14

usemtl natureKit-woodLight
# usermap natureKit-woodLight

f 26/28/5 25/27/5 27/29/5
f 27/29/5 28/30/5 26/28/5
f 27/29/5 29/31/5 28/30/5
f 29/31/5 30/32/5 28/30/5
f 27/34/15 25/33/15 12/35/15
f 12/35/15 15/36/15 27/34/15
f 28/34/16 30/33/16 18/35/16
f 18/35/16 21/36/16 28/34/16
f 26/34/17 28/33/17 21/35/17
f 21/35/17 19/36/17 26/34/17
f 19/35/18 12/36/18 25/34/18
f 25/34/18 26/33/18 19/35/18
f 29/33/19 17/35/19 18/36/19
f 18/36/19 30/34/19 29/33/19
f 29/34/20 27/33/20 15/35/20
f 15/35/20 17/36/20 29/34/20
